<!-- This file has been generated by http://www.paraglidingearth.com -->
<kml xmlns="http://earth.google.com/kml/2.0">

   <Document>
   
  <Style id="noIcon">
     <IconStyle>
      <scale>0</scale>
    </IconStyle>
  </Style>
  
    <name> - 90- 1-2041</name>
    
    <Placemark>
            <name>Flight</name>
            <visibility>1</visibility>
            <open>1</open>
            <Style>
              <LineStyle>
                <color>ff00ffff</color>
              </LineStyle>
              <PolyStyle>
                  <color>7f0000ff</color>
              </PolyStyle>
            </Style>
        <LineString>
              <altitudeMode>absolute
              </altitudeMode>
              
          <coordinates>
          
         35.669,33.9946,1834  

         35.668283,33.994617,0689  

         35.667683,33.994633,0689  

         35.667517,33.994883,0683  

         35.668367,33.995733,0675  

         35.668017,33.996483,0664  

         35.667283,33.997067,0654  

         35.6665,33.997583,0646  

         35.665667,33.997367,0637  

         35.66485,33.996767,0629  

         35.664233,33.996017,0622  

         35.663617,33.995283,0618  

         35.662917,33.994583,0613  

         35.662167,33.993967,0601  

         35.6618,33.99315,0584  

         35.661067,33.992533,0567  

         35.660283,33.991933,0550  

         35.659583,33.991317,0536  

         35.659117,33.990917,0534  

         35.658733,33.990517,0530  

         35.658317,33.990033,0526  

         35.657867,33.989533,0520  

         35.6575,33.988933,0513  

         35.657133,33.98835,0514  

         35.65675,33.98775,0516  

         35.656317,33.9873,0520  

         35.655983,33.98725,0523  

         35.655567,33.986817,0527  

         35.65515,33.9863,0525  

         35.654667,33.985867,0520  

         35.654033,33.985517,0512  

         35.653583,33.985117,0511  

         35.65325,33.984583,0513  

         35.652933,33.984017,0518  

         35.652567,33.983467,0520  

         35.652033,33.983067,0521  

         35.6514,33.982767,0517  

         35.650717,33.982383,0515  

         35.650267,33.981867,0517  

         35.64995,33.9813,0521  

         35.649667,33.980733,0524  

         35.649267,33.980283,0527  

         35.648883,33.9798,0527  

         35.648467,33.97935,0527  

         35.648033,33.9789,0527  

         35.647533,33.97855,0525  

         35.646683,33.978367,0518  

         35.645817,33.978183,0512  

         35.64495,33.977833,0506  

         35.643967,33.977633,0499  

         35.643033,33.977383,0492  

         35.642317,33.976783,0487  

         35.641533,33.976233,0480  

         35.64095,33.975517,0474  

         35.641517,33.975567,0468  

         35.641233,33.97465,0461  

         35.6412,33.973617,0452  

         35.641117,33.972583,0443  

         35.6408,33.971617,0434  

         35.640433,33.970667,0424  

         35.640067,33.96985,0414  

         35.639517,33.969417,0406  

         35.638767,33.96945,0401  

         35.638267,33.969517,0400  

         35.63825,33.970033,0399  

         35.637483,33.970333,0394  

         35.636933,33.971,0387  

         35.637083,33.972,0380  

         35.636783,33.972867,0372  

         35.636467,33.973717,0365  

         35.636433,33.974617,0356  

         35.63675,33.975567,0346  

         35.637033,33.97655,0334  

         35.637367,33.977517,0320  

         35.637683,33.978483,0306  

         35.638067,33.979483,0291  

         35.63825,33.9803,0279  

         35.638467,33.980917,0271  

         35.638733,33.981717,0259  

         35.6386,33.981433,0245  

         35.638567,33.980683,0237  

         35.63865,33.979983,0237  

         35.638917,33.98045,0235  

         35.639217,33.980883,0231  

         35.6394,33.981383,0226  

         35.6395,33.982067,0220  

         35.639733,33.982883,0211  

         35.639717,33.983783,0200  

         35.639567,33.984717,0188  

         35.6397,33.985683,0173  

         35.640283,33.986567,0160  

         35.64105,33.9874,0147  

         35.641783,33.988267,0135  

         35.6424,33.989167,0124  

         35.642767,33.990067,0114  

         35.643217,33.99085,0105  

         35.643617,33.991567,0095  

         35.644433,33.99225,0085  

         35.644967,33.993017,0077  

         35.645083,33.993867,0067  

         35.645183,33.994717,0057  

         35.645067,33.995467,0048  

         35.644717,33.996133,0039  

         35.644517,33.996883,0030  

         35.644283,33.997617,0021  

         35.644033,33.998167,0012  

         35.669,33.9946,1834  

         35.665517,33.990967,0663  

         35.662217,33.986533,0647  

         35.658117,33.9877,0570  

         35.669,33.9946,1834  

         35.667933,33.993967,0685  

         35.66695,33.993333,0677  

         35.666017,33.992767,0669  

         35.665067,33.992167,0654  

         35.664083,33.99165,0637  

         35.663117,33.991117,0621  

         35.662117,33.990583,0606  

         35.661117,33.990033,0595  

         35.660117,33.989517,0586  

         35.659133,33.988967,0572  

         35.658217,33.988367,0555  

         35.657333,33.987733,0546  

         35.65675,33.987217,0546  

         35.6561,33.986633,0547  

         35.655417,33.986117,0543  

         35.65465,33.985583,0534  

         35.653883,33.985083,0524  

         35.653383,33.9846,0525  

         35.653133,33.984167,0528  

         35.65285,33.983867,0533  

         35.652433,33.983483,0536  

         35.651917,33.983117,0536  

         35.651517,33.982817,0535  

         35.651117,33.9825,0536  

         35.650767,33.982117,0536  

         35.650433,33.9817,0540  

         35.649967,33.981183,0542  

         35.649483,33.980633,0542  

         35.649033,33.980083,0542  

         35.648617,33.979617,0542  

         35.648183,33.979167,0542  

         35.647683,33.978817,0541  

         35.647233,33.978383,0538  

         35.646917,33.978,0537  

         35.646567,33.977583,0535  

         35.646183,33.977167,0533  

         35.6458,33.97675,0532  

         35.645417,33.976333,0531  

         35.644983,33.975883,0529  

         35.644567,33.975433,0527  

         35.644133,33.974983,0525  

         35.643733,33.974733,0527  

         35.64425,33.974433,0538  

         35.6442,33.974667,0570  

         35.644417,33.97445,0603  

         35.644217,33.974633,0633  

         35.644417,33.9746,0662  

         35.6442,33.974567,0688  

         35.644417,33.974517,0712  

         35.64425,33.974717,0734  

         35.644233,33.974467,0762  

         35.644267,33.97465,0785  

         35.644183,33.974483,0812  

         35.644333,33.974633,0834  

         35.6441,33.974667,0859  

         35.643667,33.9743,0869  

         35.642917,33.973533,0852  

         35.642167,33.972733,0834  

         35.641817,33.973217,0817  

         35.642017,33.974317,0800  

         35.642317,33.975383,0784  

         35.642733,33.976467,0767  

         35.642967,33.977517,0750  

         35.6432,33.978617,0733  

         35.643433,33.979717,0717  

         35.643667,33.980783,0700  

         35.6439,33.981883,0683  

         35.644133,33.982967,0666  

         35.644367,33.984067,0650  

         35.644617,33.985167,0633  

         35.644833,33.986217,0616  

         35.645067,33.9873,0600  

         35.645317,33.988367,0583  

         35.645533,33.989433,0567  

         35.645783,33.990533,0550  

         35.646017,33.99165,0532  

         35.64625,33.992733,0516  

         35.646483,33.993833,0499  

         35.646867,33.994883,0483  

         35.6475,33.995917,0466  

         35.6481,33.996867,0450  

         35.648633,33.997683,0438  

         35.649167,33.998467,0427  

         35.649683,33.99925,0424  

         35.649533,33.999167,0444  

         35.649683,33.99925,0443  

         35.64945,33.999183,0462  

         35.649233,33.999117,0486  

         35.649583,33.999133,0501  

         35.6495,33.999317,0519  

         35.649267,33.999317,0542  

         35.649433,33.999183,0564  

         35.649367,33.999383,0585  

         35.649217,33.999233,0606  

         35.649483,33.999317,0628  

         35.64925,33.999317,0651  

         35.649267,33.9992,0671  

         35.649417,33.999217,0696  

         35.649517,33.999367,0716  

         35.649283,33.99935,0737  

         35.649167,33.999233,0755  

         35.649383,33.999317,0779  

         35.649617,33.999367,0798  

         35.649417,33.9993,0817  

         35.649283,33.999117,0841  

         35.649483,33.999283,0862  

         35.64945,33.999867,0868  

         35.649467,34.00095,0851  

         35.6495,34.002017,0835  

         35.649533,34.003083,0818  

         35.64955,34.004167,0801  

         35.649583,34.005233,0784  

         35.649617,34.006317,0768  

         35.649633,34.007383,0751  

         35.649667,34.008483,0734  

         35.6497,34.009567,0717  

         35.649733,34.01065,0700  

         35.649767,34.011633,0685  

         35.64985,34.012433,0674  

         35.649933,34.013217,0663  

         35.650017,34.014017,0653  

         35.650083,34.0148,0642  

         35.650167,34.015583,0631  

         35.65025,34.016367,0621  

         35.650333,34.01715,0610  

         35.650417,34.017933,0599  

         35.650483,34.018717,0589  

         35.650567,34.019517,0578  

         35.65065,34.0203,0567  

         35.650733,34.0211,0556  

         35.650817,34.021883,0546  

         35.650883,34.022667,0535  

         35.650967,34.023467,0524  

         35.65105,34.024267,0513  

         35.651133,34.02505,0503  

         35.651217,34.025867,0492  

         35.651517,34.026567,0481  

         35.651683,34.025817,0469  

         35.652083,34.02505,0457  

         35.651867,34.024317,0445  

         35.651517,34.023533,0432  

         35.651083,34.022633,0416  

         35.650683,34.02175,0401  

         35.650333,34.020983,0388  

         35.65005,34.020283,0377  

         35.649767,34.019583,0366  

         35.649483,34.018883,0355  

         35.6492,34.018167,0343  

         35.648917,34.017483,0333  

         35.64865,34.016783,0333  

         35.648883,34.016733,0341  

         35.648767,34.016933,0347  

         35.648567,34.016883,0367  

         35.648733,34.016717,0391  

         35.648667,34.016917,0409  

         35.648467,34.016833,0432  

         35.648767,34.01685,0453  

         35.648583,34.016917,0472  

         35.648417,34.016783,0496  

         35.648617,34.01685,0518  

         35.6483,34.016233,0528  

         35.647833,34.015267,0510  

         35.647367,34.014317,0493  

         35.6469,34.013367,0476  

         35.646483,34.012383,0459  

         35.646133,34.011433,0443  

         35.645767,34.01045,0426  

         35.645383,34.00945,0409  

         35.645,34.00845,0399  

         35.644633,34.007467,0382  

         35.64425,34.00645,0365  

         35.643867,34.00545,0348  

         35.6435,34.004467,0330  

         35.643133,34.003483,0314  

         35.64275,34.002483,0296  

         35.642367,34.001467,0279  

         35.642,34.000483,0262  

         35.641617,33.999483,0245  

         35.641233,33.998483,0228  

         35.640783,33.997533,0210  

         35.640483,33.996983,0200  

  
</coordinates>
</LineString>
</Placemark>

<Placemark>
  <name>Take off : 23h31
  </name>
  
      <Style>
        <IconStyle>
          <Icon>
            <href>root://icons/palette-5.png</href>
            <x>160</x>
            <y>192</y>
            <w>32</w>
            <h>32</h>
          </Icon>
        </IconStyle>
      </Style>
  <Point>
    <altitudeMode>absolute
    </altitudeMode>
    <coordinates>       35.669,33.9946,1834  

    </coordinates>
  </Point>
</Placemark>

<Placemark>
  <name>Landing : 9h09
  </name>
      <Style>
        <IconStyle>
          <Icon>
            <href>root://icons/palette-5.png</href>
            <x>160</x>
            <y>192</y>
            <w>32</w>
            <h>32</h>
          </Icon>
        </IconStyle>
      </Style>
  <Point>
    <altitudeMode>absolute
    </altitudeMode>
    <coordinates>       35.640483,33.996983,0200  

    </coordinates>
  </Point>
</Placemark>


  <Placemark>
  <name>Altitude max : 1834m.
  </name>
      <Style>
        <IconStyle>
          <Icon>
            <href>root://icons/palette-4.png</href>
            <x>64</x>
            <y>64</y>
            <w>32</w>
            <h>32</h>
          </Icon>
        </IconStyle>
        <LabelStyle>
          <color>ff0000ff</color>
        </LabelStyle>
      </Style>
     <Point>
        <altitudeMode>absolute
        </altitudeMode>
        <coordinates>  35.669,33.9946,1834
        </coordinates>
     </Point>
  </Placemark>


  <Placemark>
  <name>Vz max : 101.22 m/s
  </name>
      <Style>
        <IconStyle>
          <Icon>
            <href>http://www.paraglidingearth.com/en-html/images/palette-6.png</href>
            <x>32</x>
            <y>0</y>
            <w>32</w>
            <h>32</h>
          </Icon>
        </IconStyle>
        <LabelStyle>
          <color>ff0000ff</color>
        </LabelStyle>
      </Style>
     <Point>
        <altitudeMode>absolute
        </altitudeMode>
        <coordinates>  35.669,33.9946,1834
        </coordinates>
     </Point>
  </Placemark>

</Document>
</kml>