<!-- This file has been generated by http://www.paraglidingearth.com -->
<kml xmlns="http://earth.google.com/kml/2.0">

   <Document>
   
  <Style id="noIcon">
     <IconStyle>
      <scale>0</scale>
    </IconStyle>
  </Style>
  
    <name> - 50- 1-2051</name>
    
    <Placemark>
            <name>Flight</name>
            <visibility>1</visibility>
            <open>1</open>
            <Style>
              <LineStyle>
                <color>ff00ffff</color>
              </LineStyle>
              <PolyStyle>
                  <color>7f0000ff</color>
              </PolyStyle>
            </Style>
        <LineString>
              <altitudeMode>absolute
              </altitudeMode>
              
          <coordinates>
          
         6.247,45.8142,0000  

         6.245567,45.814667,1265  

         6.247067,45.816783,1280  

         6.247217,45.816033,1324  

         6.248133,45.816433,1395  

         6.249567,45.818217,1384  

         6.250633,45.820333,1377  

         6.251567,45.822517,1368  

         6.251917,45.824683,1386  

         6.251867,45.825,1459  

         6.251917,45.825017,1521  

         6.251567,45.824267,1568  

         6.253183,45.826367,1554  

         6.254017,45.827283,1558  

         6.254617,45.8292,1555  

         6.258933,45.830833,1511  

         6.263217,45.832733,1464  

         6.266867,45.834917,1437  

         6.266883,45.836083,1433  

         6.267383,45.836217,1492  

         6.2671,45.835717,1576  

         6.2691,45.836183,1624  

         6.273117,45.838167,1606  

         6.277317,45.840017,1594  

         6.282067,45.841267,1534  

         6.286733,45.8427,1482  

         6.290383,45.844783,1454  

         6.29085,45.847667,1434  

         6.291083,45.848433,1492  

         6.291583,45.849067,1614  

         6.291933,45.849083,1681  

         6.291867,45.848933,1745  

         6.291983,45.849267,1774  

         6.290467,45.849117,1799  

         6.294283,45.850983,1748  

         6.298,45.852967,1736  

         6.300017,45.8557,1738  

         6.3043,45.857333,1684  

         6.308683,45.858917,1638  

         6.3136,45.859767,1587  

         6.318233,45.861017,1536  

         6.32275,45.86235,1486  

         6.327183,45.864033,1433  

         6.331583,45.8657,1380  

         6.335517,45.867533,1330  

         6.338017,45.869933,1280  

         6.339667,45.872633,1247  

         6.340883,45.875517,1212  

         6.345533,45.876317,1180  

         6.349767,45.877933,1162  

         6.354917,45.878583,1138  

         6.3576,45.881017,1113  

         6.355433,45.883233,1067  

         6.353817,45.885433,1037  

         6.3534,45.888167,1002  

         6.355433,45.890833,0975  

         6.358067,45.89335,0942  

         6.360133,45.896017,0910  

         6.363317,45.898333,0882  

         6.366017,45.900783,0850  

         6.368417,45.903383,0819  

         6.371117,45.905883,0790  

         6.3724,45.908017,0765  

  
</coordinates>
</LineString>
</Placemark>

<Placemark>
  <name>Take off : 7h40
  </name>
  
      <Style>
        <IconStyle>
          <Icon>
            <href>root://icons/palette-5.png</href>
            <x>160</x>
            <y>192</y>
            <w>32</w>
            <h>32</h>
          </Icon>
        </IconStyle>
      </Style>
  <Point>
    <altitudeMode>absolute
    </altitudeMode>
    <coordinates>       6.247,45.8142,0000  

    </coordinates>
  </Point>
</Placemark>

<Placemark>
  <name>Landing : 8h01
  </name>
      <Style>
        <IconStyle>
          <Icon>
            <href>root://icons/palette-5.png</href>
            <x>160</x>
            <y>192</y>
            <w>32</w>
            <h>32</h>
          </Icon>
        </IconStyle>
      </Style>
  <Point>
    <altitudeMode>absolute
    </altitudeMode>
    <coordinates>       6.3724,45.908017,0765  

    </coordinates>
  </Point>
</Placemark>


  <Placemark>
  <name>Altitude max : 1799m.
  </name>
      <Style>
        <IconStyle>
          <Icon>
            <href>root://icons/palette-4.png</href>
            <x>64</x>
            <y>64</y>
            <w>32</w>
            <h>32</h>
          </Icon>
        </IconStyle>
        <LabelStyle>
          <color>ff0000ff</color>
        </LabelStyle>
      </Style>
     <Point>
        <altitudeMode>absolute
        </altitudeMode>
        <coordinates>  6.290467,45.849117,1799
        </coordinates>
     </Point>
  </Placemark>


  <Placemark>
  <name>Vz max : 5.55 m/s
  </name>
      <Style>
        <IconStyle>
          <Icon>
            <href>http://www.paraglidingearth.com/en-html/images/palette-6.png</href>
            <x>32</x>
            <y>0</y>
            <w>32</w>
            <h>32</h>
          </Icon>
        </IconStyle>
        <LabelStyle>
          <color>ff0000ff</color>
        </LabelStyle>
      </Style>
     <Point>
        <altitudeMode>absolute
        </altitudeMode>
        <coordinates>  6.291583,45.849067,1614
        </coordinates>
     </Point>
  </Placemark>

</Document>
</kml>