<!-- This file has been generated by http://www.paraglidingearth.com -->
<kml xmlns="http://earth.google.com/kml/2.0">

   <Document>
   
  <Style id="noIcon">
     <IconStyle>
      <scale>0</scale>
    </IconStyle>
  </Style>
  
    <name> - 50- 1-2051</name>
    
    <Placemark>
            <name>Flight</name>
            <visibility>1</visibility>
            <open>1</open>
            <Style>
              <LineStyle>
                <color>ff00ffff</color>
              </LineStyle>
              <PolyStyle>
                  <color>7f0000ff</color>
              </PolyStyle>
            </Style>
        <LineString>
              <altitudeMode>absolute
              </altitudeMode>
              
          <coordinates>
          
         6.247,45.8142,0000  

         6.246933,45.814783,1367  

         6.246917,45.814667,1543  

         6.246917,45.814817,1703  

         6.247033,45.815133,1869  

         6.253067,45.81755,1800  

         6.258317,45.81985,1735  

         6.2625,45.82195,1682  

         6.265633,45.824383,1674  

         6.26835,45.828217,1602  

         6.267367,45.831983,1528  

         6.269633,45.834167,1527  

         6.2692,45.835233,1641  

         6.268983,45.835333,1824  

         6.273783,45.837317,1825  

         6.279833,45.839667,1783  

         6.2859,45.841917,1712  

         6.292067,45.8442,1645  

         6.294283,45.8471,1642  

         6.29525,45.850133,1648  

         6.2972,45.853,1658  

         6.299383,45.85595,1667  

         6.299233,45.85675,1815  

         6.302967,45.85735,1843  

         6.309333,45.859317,1772  

         6.313783,45.860583,1726  

         6.315667,45.861117,1707  

         6.317033,45.861483,1693  

         6.318617,45.861933,1677  

         6.319983,45.862317,1663  

         6.323,45.86305,1637  

         6.324017,45.863283,1629  

         6.3256,45.86365,1617  

         6.328833,45.864317,1590  

         6.332467,45.865317,1561  

         6.33575,45.866617,1531  

         6.33865,45.868117,1501  

         6.340133,45.86925,1511  

         6.339833,45.868967,1682  

         6.340133,45.869083,1858  

         6.344967,45.870583,1826  

         6.348917,45.871533,1796  

         6.353267,45.872683,1758  

         6.359667,45.874617,1686  

         6.364017,45.875617,1659  

         6.3671,45.878017,1621  

         6.369633,45.881917,1556  

         6.372167,45.884317,1560  

         6.373983,45.886417,1567  

         6.375467,45.88725,1690  

         6.376133,45.88745,1868  

         6.382883,45.8887,1801  

         6.389833,45.890117,1729  

         6.396167,45.892117,1649  

         6.401217,45.894267,1609  

         6.405733,45.895417,1607  

         6.40595,45.895733,1787  

         6.410217,45.89625,1829  

         6.417533,45.89655,1758  

         6.42485,45.89685,1686  

         6.43205,45.89715,1616  

         6.436633,45.897117,1583  

         6.44125,45.896633,1567  

         6.445617,45.896717,1557  

         6.4493,45.897833,1547  

         6.452367,45.899317,1536  

         6.4549,45.901017,1535  

         6.454717,45.901717,1672  

         6.454617,45.901833,1844  

         6.452167,45.904767,1812  

         6.45045,45.906817,1772  

         6.449033,45.908567,1739  

         6.446983,45.910983,1690  

         6.4452,45.913117,1647  

         6.443883,45.914767,1617  

         6.442533,45.916433,1586  

         6.441183,45.918133,1552  

         6.439833,45.919817,1520  

         6.4385,45.921483,1498  

         6.437,45.923117,1481  

         6.432933,45.924667,1425  

         6.427917,45.926283,1360  

         6.425967,45.930033,1316  

         6.424633,45.933883,1291  

         6.423483,45.937683,1221  

         6.423067,45.939233,1192  

  
</coordinates>
</LineString>
</Placemark>

<Placemark>
  <name>Take off : 11h13
  </name>
  
      <Style>
        <IconStyle>
          <Icon>
            <href>root://icons/palette-5.png</href>
            <x>160</x>
            <y>192</y>
            <w>32</w>
            <h>32</h>
          </Icon>
        </IconStyle>
      </Style>
  <Point>
    <altitudeMode>absolute
    </altitudeMode>
    <coordinates>       6.247,45.8142,0000  

    </coordinates>
  </Point>
</Placemark>

<Placemark>
  <name>Landing : 11h53
  </name>
      <Style>
        <IconStyle>
          <Icon>
            <href>root://icons/palette-5.png</href>
            <x>160</x>
            <y>192</y>
            <w>32</w>
            <h>32</h>
          </Icon>
        </IconStyle>
      </Style>
  <Point>
    <altitudeMode>absolute
    </altitudeMode>
    <coordinates>       6.423067,45.939233,1192  

    </coordinates>
  </Point>
</Placemark>


  <Placemark>
  <name>Altitude max : 1869m.
  </name>
      <Style>
        <IconStyle>
          <Icon>
            <href>root://icons/palette-4.png</href>
            <x>64</x>
            <y>64</y>
            <w>32</w>
            <h>32</h>
          </Icon>
        </IconStyle>
        <LabelStyle>
          <color>ff0000ff</color>
        </LabelStyle>
      </Style>
     <Point>
        <altitudeMode>absolute
        </altitudeMode>
        <coordinates>  6.247033,45.815133,1869
        </coordinates>
     </Point>
  </Placemark>


  <Placemark>
  <name>Vz max : 6.43 m/s
  </name>
      <Style>
        <IconStyle>
          <Icon>
            <href>http://www.paraglidingearth.com/en-html/images/palette-6.png</href>
            <x>32</x>
            <y>0</y>
            <w>32</w>
            <h>32</h>
          </Icon>
        </IconStyle>
        <LabelStyle>
          <color>ff0000ff</color>
        </LabelStyle>
      </Style>
     <Point>
        <altitudeMode>absolute
        </altitudeMode>
        <coordinates>  6.40595,45.895733,1787
        </coordinates>
     </Point>
  </Placemark>

</Document>
</kml>