<!-- This file has been generated by http://www.paraglidingearth.com -->
<kml xmlns="http://earth.google.com/kml/2.0">

   <Document>
   
  <Style id="noIcon">
     <IconStyle>
      <scale>0</scale>
    </IconStyle>
  </Style>
  
    <name> - 50- 1-2051</name>
    
    <Placemark>
            <name>Flight</name>
            <visibility>1</visibility>
            <open>1</open>
            <Style>
              <LineStyle>
                <color>ff00ffff</color>
              </LineStyle>
              <PolyStyle>
                  <color>7f0000ff</color>
              </PolyStyle>
            </Style>
        <LineString>
              <altitudeMode>absolute
              </altitudeMode>
              
          <coordinates>
          
         6.247,45.8142,0018  

         6.247117,45.8161,1273  

         6.24775,45.818117,1270  

         6.247333,45.819233,1358  

         6.247517,45.818483,1488  

         6.247683,45.819017,1588  

         6.24745,45.818317,1683  

         6.247667,45.818817,1774  

         6.248417,45.820433,1784  

         6.25085,45.822533,1744  

         6.253267,45.824617,1705  

         6.255967,45.826433,1697  

         6.257817,45.828217,1668  

         6.2604,45.830067,1631  

         6.262717,45.831983,1596  

         6.264817,45.83395,1568  

         6.266933,45.835933,1540  

         6.269317,45.8379,1529  

         6.272583,45.839383,1521  

         6.275967,45.840933,1516  

         6.278983,45.84255,1488  

         6.2819,45.845033,1428  

         6.284483,45.847883,1373  

         6.286183,45.85065,1321  

         6.28805,45.853383,1293  

         6.290283,45.855917,1283  

         6.292267,45.858433,1274  

         6.29425,45.861017,1268  

         6.29415,45.861383,1362  

         6.294867,45.860767,1495  

         6.294617,45.861283,1554  

         6.293583,45.860783,1653  

         6.294333,45.860867,1758  

         6.294217,45.86075,1871  

         6.297467,45.861317,1843  

         6.300917,45.8623,1811  

         6.304317,45.863283,1780  

         6.307917,45.863917,1773  

         6.311333,45.864933,1741  

         6.314717,45.865917,1710  

         6.318117,45.866917,1679  

         6.3216,45.867933,1661  

         6.325017,45.86895,1630  

         6.328433,45.869967,1598  

         6.331283,45.870567,1628  

         6.332467,45.870617,1652  

         6.3359,45.871683,1620  

         6.339283,45.87275,1588  

         6.3427,45.873817,1556  

         6.344867,45.8742,1580  

         6.348083,45.875333,1549  

         6.351317,45.876567,1519  

         6.354383,45.877833,1488  

         6.357283,45.879217,1456  

         6.360217,45.880633,1431  

         6.362633,45.881983,1406  

         6.364883,45.8834,1410  

         6.364717,45.882533,1486  

         6.367117,45.883383,1488  

         6.369317,45.884817,1490  

         6.371317,45.886383,1492  

         6.373467,45.887933,1501  

         6.375783,45.889417,1503  

         6.377583,45.89095,1500  

         6.3795,45.892517,1499  

         6.382483,45.895217,1470  

         6.38545,45.897283,1462  

         6.388533,45.898683,1466  

         6.391733,45.899983,1468  

         6.394767,45.901433,1478  

         6.3981,45.902517,1485  

         6.3994,45.903033,1503  

         6.400483,45.903083,1496  

         6.402167,45.903817,1465  

         6.4052,45.9054,1429  

         6.408833,45.906717,1403  

         6.413017,45.907067,1370  

         6.416667,45.906533,1316  

         6.419933,45.905817,1291  

         6.423067,45.904933,1269  

         6.4262,45.90405,1248  

         6.429467,45.90315,1245  

         6.431483,45.902333,1244  

         6.434467,45.901433,1242  

         6.43745,45.901533,1243  

         6.440133,45.901733,1242  

         6.4419,45.9019,1245  

         6.440433,45.901733,1245  

         6.439133,45.901633,1240  

         6.437883,45.90165,1234  

         6.4367,45.901783,1227  

         6.4351,45.901867,1225  

         6.43315,45.901433,1222  

         6.4315,45.900233,1218  

         6.431283,45.900683,1211  

         6.432517,45.901883,1209  

         6.4349,45.90265,1207  

         6.433617,45.9035,1192  

         6.429633,45.90465,1161  

         6.430133,45.903917,1291  

         6.430567,45.903933,1376  

         6.434733,45.901983,1347  

         6.439433,45.90015,1333  

         6.438583,45.900817,1318  

         6.435567,45.902333,1305  

         6.435383,45.902333,1426  

         6.437733,45.901317,1476  

         6.439533,45.900167,1454  

         6.437117,45.901783,1422  

         6.435083,45.902583,1481  

         6.435317,45.902167,1626  

         6.435383,45.902667,1761  

         6.435083,45.902567,1871  

         6.434183,45.904967,1835  

         6.43335,45.907667,1839  

         6.432517,45.910317,1791  

         6.43175,45.912833,1742  

         6.430967,45.9154,1708  

         6.43055,45.917183,1695  

         6.430067,45.919133,1663  

         6.429483,45.921233,1627  

         6.428683,45.923817,1581  

         6.428517,45.9252,1631  

         6.428333,45.925467,1740  

         6.426033,45.92805,1694  

         6.424167,45.9308,1638  

         6.422983,45.9338,1587  

         6.422467,45.936917,1533  

         6.422217,45.939217,1539  

  
</coordinates>
</LineString>
</Placemark>

<Placemark>
  <name>Take off : 13h40
  </name>
  
      <Style>
        <IconStyle>
          <Icon>
            <href>root://icons/palette-5.png</href>
            <x>160</x>
            <y>192</y>
            <w>32</w>
            <h>32</h>
          </Icon>
        </IconStyle>
      </Style>
  <Point>
    <altitudeMode>absolute
    </altitudeMode>
    <coordinates>       6.247,45.8142,0018  

    </coordinates>
  </Point>
</Placemark>

<Placemark>
  <name>Landing : 14h29
  </name>
      <Style>
        <IconStyle>
          <Icon>
            <href>root://icons/palette-5.png</href>
            <x>160</x>
            <y>192</y>
            <w>32</w>
            <h>32</h>
          </Icon>
        </IconStyle>
      </Style>
  <Point>
    <altitudeMode>absolute
    </altitudeMode>
    <coordinates>       6.422217,45.939217,1539  

    </coordinates>
  </Point>
</Placemark>


  <Placemark>
  <name>Altitude max : 1871m.
  </name>
      <Style>
        <IconStyle>
          <Icon>
            <href>root://icons/palette-4.png</href>
            <x>64</x>
            <y>64</y>
            <w>32</w>
            <h>32</h>
          </Icon>
        </IconStyle>
        <LabelStyle>
          <color>ff0000ff</color>
        </LabelStyle>
      </Style>
     <Point>
        <altitudeMode>absolute
        </altitudeMode>
        <coordinates>  6.435083,45.902567,1871
        </coordinates>
     </Point>
  </Placemark>


  <Placemark>
  <name>Vz max : 5.63 m/s
  </name>
      <Style>
        <IconStyle>
          <Icon>
            <href>http://www.paraglidingearth.com/en-html/images/palette-6.png</href>
            <x>32</x>
            <y>0</y>
            <w>32</w>
            <h>32</h>
          </Icon>
        </IconStyle>
        <LabelStyle>
          <color>ff0000ff</color>
        </LabelStyle>
      </Style>
     <Point>
        <altitudeMode>absolute
        </altitudeMode>
        <coordinates>  6.435383,45.902667,1761
        </coordinates>
     </Point>
  </Placemark>

</Document>
</kml>