<!-- This file has been generated by http://www.paraglidingearth.com -->
<kml xmlns="http://earth.google.com/kml/2.0">

   <Document>
   
  <Style id="noIcon">
     <IconStyle>
      <scale>0</scale>
    </IconStyle>
  </Style>
  
    <name> - 50- 1-2051</name>
    
    <Placemark>
            <name>Flight</name>
            <visibility>1</visibility>
            <open>1</open>
            <Style>
              <LineStyle>
                <color>ff00ffff</color>
              </LineStyle>
              <PolyStyle>
                  <color>7f0000ff</color>
              </PolyStyle>
            </Style>
        <LineString>
              <altitudeMode>absolute
              </altitudeMode>
              
          <coordinates>
          
         6.247,45.8142,0018  

         6.246583,45.81495,1267  

         6.247333,45.816183,1327  

         6.247317,45.816283,1437  

         6.24755,45.815783,1518  

         6.2469,45.815967,1578  

         6.246967,45.816417,1634  

         6.248033,45.816317,1692  

         6.247517,45.815767,1745  

         6.247433,45.816233,1817  

         6.248467,45.816517,1868  

         6.250983,45.817717,1836  

         6.253317,45.818767,1806  

         6.2554,45.819717,1780  

         6.257783,45.820683,1751  

         6.261,45.821267,1717  

         6.263783,45.822233,1685  

         6.265583,45.823867,1651  

         6.267183,45.825517,1619  

         6.268783,45.827183,1586  

         6.269933,45.829083,1545  

         6.269667,45.829983,1592  

         6.269567,45.8302,1683  

         6.270017,45.829617,1757  

         6.269517,45.829817,1823  

         6.27025,45.830767,1866  

         6.271567,45.83275,1833  

         6.273067,45.834817,1820  

         6.275,45.836817,1811  

         6.278133,45.8379,1794  

         6.28115,45.83885,1758  

         6.283533,45.839617,1731  

         6.286517,45.840583,1698  

         6.289317,45.841483,1666  

         6.292033,45.842367,1642  

         6.292983,45.844167,1679  

         6.292933,45.843733,1788  

         6.292483,45.84405,1871  

         6.295233,45.845433,1854  

         6.2977,45.847217,1842  

         6.300617,45.848433,1788  

         6.303067,45.849417,1747  

         6.305533,45.850367,1718  

         6.307833,45.851267,1690  

         6.310367,45.852233,1660  

         6.313133,45.8531,1629  

         6.315617,45.8538,1602  

         6.318433,45.854583,1571  

         6.321217,45.855383,1540  

         6.323983,45.856167,1510  

         6.326817,45.85695,1479  

         6.329617,45.857733,1448  

         6.332417,45.858533,1417  

         6.335283,45.859333,1385  

         6.338017,45.860217,1354  

         6.340733,45.861133,1323  

         6.34335,45.862033,1293  

         6.346067,45.862967,1262  

         6.348733,45.863883,1231  

         6.351433,45.864617,1201  

         6.355167,45.864467,1160  

         6.355833,45.86535,1154  

         6.355333,45.865617,1228  

         6.355417,45.865683,1300  

         6.356133,45.865017,1340  

         6.355383,45.864933,1403  

         6.355333,45.865433,1481  

         6.355983,45.865183,1556  

         6.355267,45.865083,1635  

         6.355583,45.8656,1713  

         6.3556,45.864967,1785  

         6.355217,45.865267,1859  

         6.356817,45.866033,1862  

         6.359617,45.866917,1830  

         6.362417,45.867783,1799  

         6.364667,45.8685,1773  

         6.367433,45.869367,1742  

         6.370283,45.87025,1710  

         6.372917,45.871067,1680  

         6.375567,45.8719,1650  

         6.378417,45.872783,1620  

         6.378533,45.872433,1681  

         6.378367,45.872833,1763  

         6.377767,45.872483,1843  

         6.379267,45.872833,1869  

         6.381667,45.8736,1842  

         6.384167,45.874383,1814  

         6.386433,45.875117,1788  

         6.389183,45.876,1757  

         6.392083,45.876933,1723  

         6.395017,45.877883,1681  

         6.3983,45.878983,1633  

         6.401283,45.88005,1591  

         6.401833,45.879783,1563  

         6.405383,45.880533,1515  

         6.408867,45.881367,1459  

         6.412733,45.881583,1414  

         6.416783,45.881217,1365  

         6.42095,45.881,1316  

         6.424433,45.881833,1275  

  
</coordinates>
</LineString>
</Placemark>

<Placemark>
  <name>Take off : 8h44
  </name>
  
      <Style>
        <IconStyle>
          <Icon>
            <href>root://icons/palette-5.png</href>
            <x>160</x>
            <y>192</y>
            <w>32</w>
            <h>32</h>
          </Icon>
        </IconStyle>
      </Style>
  <Point>
    <altitudeMode>absolute
    </altitudeMode>
    <coordinates>       6.247,45.8142,0018  

    </coordinates>
  </Point>
</Placemark>

<Placemark>
  <name>Landing : 9h07
  </name>
      <Style>
        <IconStyle>
          <Icon>
            <href>root://icons/palette-5.png</href>
            <x>160</x>
            <y>192</y>
            <w>32</w>
            <h>32</h>
          </Icon>
        </IconStyle>
      </Style>
  <Point>
    <altitudeMode>absolute
    </altitudeMode>
    <coordinates>       6.424433,45.881833,1275  

    </coordinates>
  </Point>
</Placemark>


  <Placemark>
  <name>Altitude max : 1871m.
  </name>
      <Style>
        <IconStyle>
          <Icon>
            <href>root://icons/palette-4.png</href>
            <x>64</x>
            <y>64</y>
            <w>32</w>
            <h>32</h>
          </Icon>
        </IconStyle>
        <LabelStyle>
          <color>ff0000ff</color>
        </LabelStyle>
      </Style>
     <Point>
        <altitudeMode>absolute
        </altitudeMode>
        <coordinates>  6.292483,45.84405,1871
        </coordinates>
     </Point>
  </Placemark>


  <Placemark>
  <name>Vz max : 6.88 m/s
  </name>
      <Style>
        <IconStyle>
          <Icon>
            <href>http://www.paraglidingearth.com/en-html/images/palette-6.png</href>
            <x>32</x>
            <y>0</y>
            <w>32</w>
            <h>32</h>
          </Icon>
        </IconStyle>
        <LabelStyle>
          <color>ff0000ff</color>
        </LabelStyle>
      </Style>
     <Point>
        <altitudeMode>absolute
        </altitudeMode>
        <coordinates>  6.247317,45.816283,1437
        </coordinates>
     </Point>
  </Placemark>

</Document>
</kml>