<!-- This file has been generated by http://www.paraglidingearth.com -->
<kml xmlns="http://earth.google.com/kml/2.0">

   <Document>
   
  <Style id="noIcon">
     <IconStyle>
      <scale>0</scale>
    </IconStyle>
  </Style>
  
    <name> - 60- 1-2051</name>
    
    <Placemark>
            <name>Flight</name>
            <visibility>1</visibility>
            <open>1</open>
            <Style>
              <LineStyle>
                <color>ff00ffff</color>
              </LineStyle>
              <PolyStyle>
                  <color>7f0000ff</color>
              </PolyStyle>
            </Style>
        <LineString>
              <altitudeMode>absolute
              </altitudeMode>
              
          <coordinates>
          
         6.247,45.8142,0018  

         6.246317,45.814667,1297  

         6.246617,45.814467,1414  

         6.246833,45.814567,1505  

         6.248217,45.813983,1546  

         6.247917,45.813833,1598  

         6.247683,45.813633,1682  

         6.247283,45.81385,1775  

         6.247367,45.813783,1862  

         6.24835,45.813983,1871  

         6.250117,45.814917,1852  

         6.251867,45.815867,1834  

         6.253283,45.816933,1816  

         6.254717,45.818017,1798  

         6.256167,45.819117,1780  

         6.257067,45.819933,1801  

         6.257583,45.819917,1830  

         6.258133,45.820583,1868  

         6.259783,45.821583,1850  

         6.2616,45.822467,1832  

         6.263433,45.823367,1814  

         6.265233,45.824333,1795  

         6.266867,45.825317,1777  

         6.268317,45.826367,1758  

         6.269333,45.827533,1740  

         6.270383,45.828717,1722  

         6.271083,45.829933,1703  

         6.2714,45.831083,1686  

         6.271367,45.832317,1679  

         6.271767,45.833683,1688  

         6.272383,45.835017,1698  

         6.272983,45.836317,1707  

         6.274717,45.83745,1724  

         6.2768,45.838233,1744  

         6.279067,45.838917,1729  

         6.281283,45.839567,1710  

         6.28345,45.840217,1693  

         6.285617,45.84085,1675  

         6.287817,45.8415,1657  

         6.290067,45.842167,1638  

         6.292233,45.842883,1639  

         6.293633,45.844017,1652  

         6.294167,45.845417,1668  

         6.2946,45.846767,1683  

         6.295183,45.848117,1701  

         6.295717,45.849483,1716  

         6.296383,45.850833,1730  

         6.297433,45.852067,1743  

         6.298617,45.853317,1758  

         6.299933,45.854617,1781  

         6.301867,45.85545,1777  

         6.304017,45.856117,1728  

         6.306283,45.856717,1708  

         6.308517,45.857317,1690  

         6.310733,45.8579,1672  

         6.313,45.8585,1654  

         6.3153,45.859117,1636  

         6.317567,45.8597,1618  

         6.319767,45.860283,1600  

         6.322067,45.860883,1582  

         6.3243,45.861483,1564  

         6.32655,45.862067,1546  

         6.328783,45.862667,1528  

         6.331083,45.863267,1509  

         6.333333,45.863867,1491  

         6.335567,45.86445,1473  

         6.337867,45.865067,1455  

         6.340083,45.86565,1437  

         6.342217,45.866333,1419  

         6.344367,45.867033,1401  

         6.346417,45.867683,1384  

         6.348567,45.868383,1366  

         6.3507,45.869067,1346  

         6.352933,45.869583,1318  

         6.355533,45.868317,1274  

         6.357783,45.866983,1246  

         6.360033,45.865667,1225  

         6.362567,45.86415,1204  

         6.364083,45.86245,1186  

         6.365867,45.860833,1168  

         6.367683,45.85925,1149  

         6.369983,45.8575,1127  

         6.371767,45.85585,1109  

         6.373383,45.854083,1091  

         6.375183,45.852567,1087  

         6.374433,45.850983,1088  

         6.372917,45.850067,1092  

         6.374933,45.850817,1125  

         6.375,45.851,1228  

         6.374883,45.851233,1319  

         6.374717,45.851117,1413  

         6.37455,45.850917,1502  

         6.374533,45.851117,1587  

         6.374983,45.851133,1667  

         6.374817,45.850883,1763  

         6.375067,45.851117,1857  

         6.375667,45.851367,1871  

         6.37715,45.852417,1852  

         6.378667,45.853467,1834  

         6.38015,45.854517,1816  

         6.381633,45.855567,1798  

         6.3831,45.8566,1780  

         6.384617,45.857667,1762  

         6.3861,45.858717,1744  

         6.387567,45.859733,1726  

         6.389083,45.8608,1708  

         6.390567,45.86185,1690  

         6.392017,45.862867,1672  

         6.393483,45.863917,1654  

         6.394983,45.864967,1635  

         6.397183,45.86545,1618  

         6.399667,45.865717,1600  

         6.402233,45.866,1585  

         6.404817,45.866317,1588  

         6.406333,45.867333,1591  

         6.4066,45.868567,1589  

         6.406517,45.8697,1582  

         6.406217,45.870783,1576  

         6.406167,45.8719,1570  

         6.406033,45.873033,1567  

         6.405917,45.873383,1662  

         6.406067,45.87355,1752  

         6.406517,45.873833,1831  

         6.406733,45.873533,1871  

         6.40845,45.874567,1857  

         6.410083,45.875533,1839  

         6.411733,45.876517,1821  

         6.413417,45.877517,1803  

         6.415067,45.8785,1785  

         6.416683,45.879467,1767  

         6.418367,45.880467,1749  

         6.420017,45.88145,1731  

         6.421617,45.882417,1713  

         6.423267,45.883383,1696  

         6.424933,45.884383,1679  

         6.426567,45.88535,1661  

         6.428217,45.886333,1643  

         6.42985,45.887317,1660  

         6.431517,45.8883,1642  

         6.433017,45.88935,1624  

         6.434083,45.889617,1678  

         6.43425,45.89,1762  

         6.43405,45.889917,1849  

         6.4349,45.890333,1868  

         6.436267,45.891433,1849  

         6.437617,45.892533,1832  

         6.438933,45.8936,1814  

         6.438933,45.894717,1796  

         6.438567,45.895817,1778  

         6.438217,45.896917,1760  

         6.437867,45.898017,1742  

         6.4375,45.899167,1723  

         6.43715,45.900267,1705  

         6.4368,45.901367,1688  

         6.43645,45.902467,1673  

         6.436083,45.903583,1655  

         6.435767,45.9046,1638  

         6.4355,45.905417,1625  

         6.43525,45.9062,1612  

         6.435017,45.906933,1600  

         6.434767,45.907683,1588  

         6.434483,45.9086,1573  

         6.434117,45.909733,1555  

         6.433767,45.910867,1565  

         6.433383,45.912017,1596  

         6.433033,45.913133,1582  

         6.432733,45.914067,1566  

         6.4324,45.915117,1565  

         6.432033,45.91625,1578  

         6.431683,45.917333,1560  

         6.431317,45.918467,1542  

         6.430967,45.919583,1524  

         6.430617,45.9207,1506  

         6.430267,45.921783,1488  

         6.4299,45.922917,1470  

         6.42955,45.923983,1451  

         6.4292,45.925083,1431  

         6.42885,45.926183,1412  

         6.428467,45.927333,1397  

         6.428083,45.928483,1444  

         6.4277,45.929583,1498  

         6.42735,45.930667,1485  

         6.426983,45.931767,1468  

         6.426633,45.932867,1465  

         6.426317,45.933917,1526  

         6.425933,45.93505,1508  

         6.425583,45.93615,1490  

         6.42505,45.937233,1472  

         6.4245,45.938317,1453  

         6.423983,45.93935,1436  

  
</coordinates>
</LineString>
</Placemark>

<Placemark>
  <name>Take off : 0h44
  </name>
  
      <Style>
        <IconStyle>
          <Icon>
            <href>root://icons/palette-5.png</href>
            <x>160</x>
            <y>192</y>
            <w>32</w>
            <h>32</h>
          </Icon>
        </IconStyle>
      </Style>
  <Point>
    <altitudeMode>absolute
    </altitudeMode>
    <coordinates>       6.247,45.8142,0018  

    </coordinates>
  </Point>
</Placemark>

<Placemark>
  <name>Landing : 1h37
  </name>
      <Style>
        <IconStyle>
          <Icon>
            <href>root://icons/palette-5.png</href>
            <x>160</x>
            <y>192</y>
            <w>32</w>
            <h>32</h>
          </Icon>
        </IconStyle>
      </Style>
  <Point>
    <altitudeMode>absolute
    </altitudeMode>
    <coordinates>       6.423983,45.93935,1436  

    </coordinates>
  </Point>
</Placemark>


  <Placemark>
  <name>Altitude max : 1871m.
  </name>
      <Style>
        <IconStyle>
          <Icon>
            <href>root://icons/palette-4.png</href>
            <x>64</x>
            <y>64</y>
            <w>32</w>
            <h>32</h>
          </Icon>
        </IconStyle>
        <LabelStyle>
          <color>ff0000ff</color>
        </LabelStyle>
      </Style>
     <Point>
        <altitudeMode>absolute
        </altitudeMode>
        <coordinates>  6.406733,45.873533,1871
        </coordinates>
     </Point>
  </Placemark>


  <Placemark>
  <name>Vz max : 139 m/s
  </name>
      <Style>
        <IconStyle>
          <Icon>
            <href>http://www.paraglidingearth.com/en-html/images/palette-6.png</href>
            <x>32</x>
            <y>0</y>
            <w>32</w>
            <h>32</h>
          </Icon>
        </IconStyle>
        <LabelStyle>
          <color>ff0000ff</color>
        </LabelStyle>
      </Style>
     <Point>
        <altitudeMode>absolute
        </altitudeMode>
        <coordinates>  6.246783,45.814233,1421
        </coordinates>
     </Point>
  </Placemark>

</Document>
</kml>