<!-- This file has been generated by http://www.paraglidingearth.com -->
<kml xmlns="http://earth.google.com/kml/2.0">

   <Document>
   
  <Style id="noIcon">
     <IconStyle>
      <scale>0</scale>
    </IconStyle>
  </Style>
  
    <name> - 50- 2-2041</name>
    
    <Placemark>
            <name>Flight</name>
            <visibility>1</visibility>
            <open>1</open>
            <Style>
              <LineStyle>
                <color>ff00ffff</color>
              </LineStyle>
              <PolyStyle>
                  <color>7f0000ff</color>
              </PolyStyle>
            </Style>
        <LineString>
              <altitudeMode>absolute
              </altitudeMode>
              
          <coordinates>
          
         35.7425,33.8073,1164  

         35.741383,33.806967,1481  

         35.739767,33.805567,1501  

         35.740117,33.806217,1524  

         35.740017,33.80615,1551  

         35.740433,33.805683,1574  

         35.739317,33.803417,1563  

         35.739333,33.800533,1514  

         35.739417,33.797733,1453  

         35.73895,33.794983,1451  

         35.737067,33.793683,1453  

         35.735067,33.793117,1454  

         35.73305,33.792517,1444  

         35.731083,33.791933,1435  

         35.729167,33.7912,1430  

         35.727583,33.789533,1428  

         35.726617,33.788683,1491  

         35.726467,33.788667,1552  

         35.727167,33.788917,1616  

         35.72705,33.789133,1699  

         35.726783,33.788183,1746  

         35.725233,33.786817,1717  

         35.72425,33.785667,1748  

         35.722883,33.784267,1721  

         35.721983,33.783433,1720  

         35.7211,33.782617,1746  

         35.720167,33.7818,1729  

         35.719417,33.781233,1746  

         35.7178,33.78005,1731  

         35.716117,33.778933,1701  

         35.7144,33.7778,1671  

         35.713283,33.77585,1642  

         35.7117,33.774567,1613  

         35.7101,33.773383,1585  

         35.708917,33.7725,1564  

         35.708183,33.77195,1550  

         35.706683,33.770817,1523  

         35.705033,33.769417,1493  

         35.703483,33.768067,1464  

         35.701867,33.767133,1436  

         35.700183,33.7664,1407  

         35.69855,33.765667,1379  

         35.696917,33.7647,1350  

         35.695317,33.763467,1321  

         35.693833,33.762017,1294  

         35.692317,33.760483,1274  

         35.690733,33.759083,1244  

         35.689167,33.757733,1212  

         35.687667,33.756317,1183  

         35.686167,33.754867,1154  

         35.684633,33.753417,1126  

         35.683067,33.75195,1124  

         35.6834,33.75185,1154  

         35.683033,33.75095,1152  

         35.681367,33.749717,1122  

         35.679617,33.748567,1108  

         35.677833,33.747433,1111  

         35.676117,33.746333,1106  

         35.674333,33.7452,1102  

         35.672467,33.744083,1116  

         35.6706,33.742817,1130  

         35.668767,33.741567,1148  

         35.666967,33.740283,1154  

         35.665183,33.738967,1148  

         35.663417,33.737567,1154  

         35.66415,33.738067,1251  

         35.6638,33.7379,1343  

         35.66365,33.7381,1425  

         35.663933,33.737417,1509  

         35.664233,33.734617,1479  

         35.664517,33.731667,1446  

         35.664833,33.728583,1413  

         35.665133,33.725483,1378  

         35.665433,33.72255,1346  

         35.665733,33.71975,1317  

         35.666067,33.716933,1287  

         35.666367,33.71415,1259  

         35.66665,33.711817,1332  

         35.666517,33.712,1400  

         35.667233,33.710417,1437  

         35.667733,33.706917,1414  

         35.668033,33.704467,1415  

         35.7425,33.8073,1820  

         35.741983,33.807733,1482  

         35.74195,33.806933,1493  

         35.742267,33.807333,1501  

         35.742117,33.807767,1508  

         35.741467,33.807517,1518  

         35.740767,33.806933,1531  

         35.740067,33.806233,1544  

         35.739033,33.805117,1552  

         35.738233,33.803783,1553  

         35.737417,33.80215,1531  

         35.736667,33.8001,1494  

         35.736967,33.797933,1454  

         35.737383,33.79625,1425  

         35.737533,33.79525,1447  

         35.7375,33.794333,1458  

         35.737667,33.794317,1493  

         35.73805,33.794783,1498  

         35.737417,33.794583,1530  

         35.737567,33.794467,1565  

         35.7375,33.794683,1590  

         35.737517,33.794567,1608  

         35.737367,33.795,1645  

         35.736933,33.794517,1686  

         35.737733,33.7948,1717  

         35.737417,33.794483,1707  

         35.736867,33.794567,1740  

         35.737317,33.794967,1778  

         35.736867,33.795183,1821  

         35.737733,33.79475,1830  

         35.737917,33.7937,1821  

         35.737817,33.792717,1811  

         35.737817,33.791733,1802  

         35.737633,33.790767,1793  

         35.737467,33.789633,1781  

         35.736783,33.788867,1768  

         35.735867,33.787867,1751  

         35.734567,33.786817,1745  

         35.7333,33.785783,1725  

         35.732067,33.784567,1700  

         35.730883,33.783417,1676  

         35.72965,33.782217,1652  

         35.728433,33.781133,1628  

         35.72725,33.779967,1604  

         35.725933,33.778967,1580  

         35.724583,33.777983,1556  

         35.723283,33.7766,1529  

         35.722917,33.774817,1505  

         35.722533,33.773317,1487  

         35.721967,33.772467,1517  

         35.722717,33.7731,1555  

         35.722183,33.772367,1590  

         35.722283,33.772917,1627  

         35.722033,33.772567,1660  

         35.722233,33.772717,1700  

         35.7222,33.772367,1717  

         35.722667,33.772867,1756  

         35.722333,33.77255,1794  

         35.722167,33.7727,1830  

         35.721783,33.772133,1828  

         35.721383,33.770333,1803  

         35.721333,33.768617,1780  

         35.72105,33.766933,1757  

         35.720767,33.76525,1734  

         35.720317,33.76365,1712  

         35.719833,33.762067,1689  

         35.719333,33.760517,1667  

         35.718833,33.758917,1644  

         35.718333,33.757333,1621  

         35.71765,33.75585,1598  

         35.716783,33.75425,1573  

         35.715817,33.752483,1545  

         35.714583,33.751217,1538  

         35.71465,33.751,1572  

         35.715033,33.7507,1610  

         35.715233,33.750767,1642  

         35.715083,33.750683,1668  

         35.715333,33.750833,1694  

         35.715083,33.750567,1716  

         35.7153,33.750783,1732  

         35.715283,33.750967,1758  

         35.715267,33.751133,1786  

         35.715267,33.751317,1814  

         35.715717,33.750833,1812  

         35.715667,33.749483,1796  

         35.714767,33.747833,1769  

         35.713733,33.746333,1744  

         35.712967,33.744933,1721  

         35.712217,33.743517,1704  

         35.711367,33.74315,1714  

         35.712183,33.743667,1739  

         35.7123,33.743683,1739  

         35.711617,33.743517,1765  

         35.712667,33.743367,1781  

         35.712233,33.742783,1796  

         35.711883,33.743133,1829  

         35.711067,33.742733,1814  

         35.710183,33.741417,1791  

         35.710033,33.739733,1769  

         35.709283,33.738367,1747  

         35.7082,33.7372,1724  

         35.707117,33.736033,1701  

         35.70605,33.7349,1679  

         35.704883,33.733833,1656  

         35.703617,33.732783,1632  

         35.70235,33.731733,1608  

         35.701117,33.730717,1585  

         35.69985,33.729683,1561  

         35.698333,33.728433,1532  

         35.696783,33.727267,1504  

         35.69515,33.726083,1468  

         35.693667,33.724767,1431  

         35.692083,33.7248,1395  

         35.69045,33.724417,1380  

         35.68905,33.723933,1370  

         35.687767,33.723583,1381  

         35.687933,33.724367,1401  

         35.687967,33.723183,1413  

         35.687483,33.723267,1463  

         35.687633,33.723167,1487  

         35.68785,33.723267,1518  

         35.686867,33.72265,1517  

         35.685583,33.721533,1492  

         35.684417,33.720317,1468  

         35.683283,33.71905,1443  

         35.681983,33.718033,1416  

         35.68055,33.717233,1387  

         35.679017,33.71705,1357  

         35.677383,33.71695,1325  

         35.675833,33.716833,1292  

         35.674133,33.716483,1264  

         35.672267,33.716033,1237  

         35.670433,33.715417,1222  

         35.668817,33.714167,1201  

         35.667633,33.712517,1194  

         35.666267,33.710983,1186  

         35.665167,33.7095,1176  

         35.664133,33.708317,1170  

         35.663417,33.707583,1168  

         35.662433,33.70695,1162  

         35.66135,33.706817,1162  

         35.660783,33.705867,1158  

         35.661033,33.703817,1133  

         35.661733,33.702033,1113  

         35.663567,33.700883,1075  

         35.664183,33.70095,1066  

         35.7425,33.8073,1820  

         35.742017,33.807717,1482  

         35.742033,33.808183,1489  

         35.741667,33.807383,1497  

         35.741133,33.806817,1506  

         35.740583,33.806433,1515  

         35.740017,33.8061,1525  

         35.73945,33.805783,1534  

         35.739033,33.805683,1547  

         35.739417,33.806167,1559  

         35.739433,33.806233,1571  

         35.7389,33.805767,1584  

         35.738383,33.805317,1594  

         35.738533,33.805583,1610  

         35.739383,33.8049,1620  

         35.740183,33.804217,1621  

         35.741,33.803533,1608  

         35.740917,33.802983,1589  

         35.740383,33.802917,1572  

         35.740067,33.803117,1556  

         35.739733,33.803367,1541  

         35.7392,33.803317,1528  

         35.739333,33.802483,1514  

         35.739567,33.801533,1499  

         35.739717,33.800617,1485  

         35.739767,33.799733,1470  

         35.7398,33.79885,1450  

         35.739833,33.797967,1430  

         35.739883,33.797067,1423  

         35.739883,33.796167,1429  

         35.7394,33.79555,1437  

         35.73885,33.795117,1444  

         35.7383,33.794733,1451  

         35.738233,33.794667,1458  

         35.739217,33.7948,1462  

         35.740033,33.795067,1467  

         35.740867,33.795333,1470  

         35.741583,33.795683,1475  

         35.742283,33.79605,1478  

         35.74305,33.796383,1481  

         35.743117,33.795833,1482  

         35.742567,33.7955,1484  

         35.742,33.795233,1485  

         35.741433,33.794983,1487  

         35.7409,33.794833,1489  

         35.740367,33.794667,1493  

         35.7398,33.794517,1495  

         35.73925,33.79435,1499  

         35.738717,33.794183,1500  

         35.738183,33.794033,1505  

         35.737633,33.793883,1510  

         35.737083,33.793667,1511  

         35.736633,33.793183,1508  

         35.737483,33.793483,1508  

         35.738067,33.793517,1539  

         35.738317,33.793467,1600  

         35.738117,33.7935,1639  

         35.738233,33.793233,1688  

         35.738367,33.793333,1722  

         35.738083,33.793467,1747  

         35.738517,33.793083,1806  

         35.738283,33.793283,1829  

         35.737967,33.79335,1830  

         35.737533,33.792783,1825  

         35.7371,33.792217,1817  

         35.736667,33.791633,1809  

         35.736233,33.791083,1801  

         35.7358,33.790517,1793  

         35.735383,33.789933,1785  

         35.73495,33.789383,1777  

         35.734517,33.788817,1769  

         35.734083,33.788267,1761  

         35.733667,33.787683,1753  

         35.733233,33.787133,1745  

         35.7328,33.786567,1737  

         35.732383,33.786,1729  

         35.731933,33.785433,1721  

         35.731517,33.784867,1713  

         35.731083,33.784317,1705  

         35.730667,33.783733,1697  

         35.730233,33.783183,1689  

         35.7298,33.782617,1681  

         35.729367,33.782033,1673  

         35.728933,33.781483,1665  

         35.728517,33.780917,1657  

         35.728083,33.78035,1649  

         35.72765,33.779783,1641  

         35.727217,33.779217,1633  

         35.726783,33.778667,1625  

         35.726367,33.7781,1617  

         35.725933,33.777533,1609  

         35.7255,33.776967,1601  

         35.725067,33.776383,1593  

         35.724633,33.775817,1585  

         35.7242,33.77525,1577  

         35.723767,33.774683,1569  

         35.723333,33.774117,1561  

         35.7229,33.773533,1553  

         35.722467,33.772967,1545  

         35.722033,33.772383,1556  

         35.7224,33.772133,1598  

         35.722533,33.772483,1621  

         35.72215,33.772083,1649  

         35.722333,33.772133,1682  

         35.722617,33.772517,1707  

         35.722167,33.772117,1733  

         35.721867,33.771967,1761  

         35.722367,33.772267,1788  

         35.722333,33.772283,1815  

         35.721917,33.771933,1830  

         35.721467,33.771367,1825  

         35.721033,33.770817,1817  

         35.7206,33.770267,1809  

         35.720167,33.769717,1801  

         35.719717,33.769133,1823  

         35.719283,33.768583,1827  

         35.71885,33.768033,1819  

         35.718417,33.767483,1811  

         35.717967,33.766933,1803  

         35.717533,33.766367,1795  

         35.717083,33.765817,1787  

         35.716667,33.765267,1779  

         35.716217,33.764717,1791  

         35.715783,33.76415,1783  

         35.715367,33.763617,1776  

         35.714917,33.763067,1768  

         35.714483,33.762517,1760  

         35.714067,33.761967,1752  

         35.713617,33.761417,1744  

         35.713183,33.76085,1736  

         35.71275,33.7603,1728  

         35.712333,33.759767,1720  

         35.7119,33.759217,1719  

         35.711467,33.758667,1749  

         35.711033,33.758117,1755  

         35.7106,33.757567,1747  

         35.710167,33.757033,1739  

         35.709733,33.756467,1731  

         35.7093,33.755917,1724  

         35.708867,33.755367,1716  

         35.708433,33.754817,1708  

         35.707983,33.754267,1700  

         35.707567,33.753717,1692  

         35.707117,33.75315,1684  

         35.706683,33.752617,1676  

         35.70625,33.75205,1668  

         35.705817,33.7515,1660  

         35.705383,33.75095,1652  

         35.70495,33.7504,1644  

         35.704517,33.74985,1636  

         35.704083,33.7493,1628  

         35.70365,33.74875,1620  

         35.703217,33.748217,1612  

         35.702783,33.747667,1604  

         35.702367,33.747117,1596  

         35.701933,33.746567,1589  

         35.701483,33.746017,1581  

         35.701067,33.745467,1573  

         35.700617,33.744917,1565  

         35.700183,33.744367,1557  

         35.699767,33.743817,1549  

         35.699317,33.74325,1541  

         35.698883,33.7427,1538  

         35.698467,33.74215,1529  

         35.698017,33.7416,1521  

         35.697583,33.74105,1513  

         35.697167,33.7405,1505  

         35.696717,33.73995,1497  

         35.696283,33.739383,1489  

         35.69585,33.738833,1481  

         35.695417,33.738283,1473  

         35.694967,33.737733,1465  

         35.694533,33.737183,1457  

         35.6941,33.736633,1449  

         35.693667,33.736067,1441  

         35.693233,33.735517,1433  

         35.692783,33.734967,1426  

         35.692367,33.734417,1418  

         35.691917,33.733867,1410  

         35.691483,33.733317,1402  

         35.691067,33.732767,1394  

         35.690617,33.7322,1386  

         35.690183,33.731633,1378  

         35.689733,33.731083,1373  

         35.6893,33.730517,1368  

         35.688867,33.729967,1364  

         35.688417,33.729417,1361  

         35.687967,33.728867,1360  

         35.687533,33.728317,1361  

         35.687083,33.727767,1361  

         35.686633,33.727217,1361  

         35.686183,33.726667,1361  

         35.68575,33.726117,1362  

         35.6853,33.725567,1363  

         35.684867,33.725017,1364  

         35.684417,33.724467,1366  

         35.683967,33.723917,1365  

         35.683517,33.723367,1366  

         35.683067,33.7228,1366  

         35.682617,33.72225,1366  

         35.682167,33.7217,1367  

         35.681717,33.72115,1370  

         35.681267,33.720617,1374  

         35.680817,33.720067,1377  

         35.680367,33.719517,1380  

         35.679917,33.718967,1378  

         35.679433,33.71845,1371  

         35.679133,33.717817,1359  

         35.679167,33.716917,1346  

         35.679183,33.716033,1333  

         35.679217,33.71515,1320  

         35.67925,33.714267,1311  

         35.679117,33.713417,1300  

         35.678783,33.712717,1290  

         35.678433,33.712033,1281  

         35.678133,33.711283,1272  

         35.677917,33.7105,1263  

         35.677633,33.709733,1259  

         35.677333,33.709967,1281  

         35.6775,33.709833,1313  

         35.677233,33.709983,1340  

         35.677317,33.709867,1382  

         35.677017,33.710017,1412  

         35.677233,33.709983,1458  

         35.677233,33.709817,1500  

         35.677017,33.710033,1530  

         35.677467,33.710333,1558  

         35.677017,33.709917,1586  

         35.676533,33.709467,1605  

         35.676033,33.709017,1597  

         35.675567,33.708567,1589  

         35.675083,33.708083,1581  

         35.674633,33.707567,1573  

         35.674183,33.707033,1565  

         35.673733,33.7065,1557  

         35.673267,33.705967,1549  

         35.672817,33.705433,1541  

         35.672367,33.7049,1533  

         35.671917,33.704367,1525  

         35.67145,33.703833,1517  

         35.671283,33.703633,1514  

         35.7425,33.8073,1820  

         35.741367,33.807167,1491  

         35.741233,33.806717,1504  

         35.741467,33.806783,1519  

         35.741383,33.807133,1532  

         35.741367,33.807067,1549  

         35.741417,33.807067,1564  

         35.74165,33.80705,1579  

         35.741617,33.80765,1592  

         35.7423,33.807533,1602  

         35.7421,33.807733,1610  

         35.7423,33.807317,1618  

         35.742433,33.807467,1626  

         35.742617,33.80725,1634  

         35.7427,33.807117,1640  

         35.742733,33.806983,1646  

         35.742683,33.806667,1650  

         35.742083,33.806483,1652  

         35.742067,33.806133,1655  

         35.742183,33.806583,1656  

         35.7427,33.806117,1655  

         35.742333,33.805583,1644  

         35.741867,33.804817,1637  

         35.741567,33.804367,1627  

         35.741133,33.803767,1611  

         35.740933,33.803117,1617  

         35.740583,33.802767,1622  

         35.740767,33.802833,1640  

         35.741067,33.803233,1667  

         35.740883,33.802967,1701  

         35.740717,33.80315,1732  

         35.740783,33.803183,1768  

         35.740783,33.803083,1798  

         35.740867,33.803083,1828  

         35.740967,33.802617,1815  

         35.739883,33.801783,1799  

         35.738533,33.800183,1769  

         35.737533,33.798833,1751  

         35.737417,33.797383,1733  

         35.736433,33.796133,1713  

         35.73605,33.795717,1705  

         35.735683,33.7953,1698  

         35.734783,33.79435,1681  

         35.733717,33.793483,1663  

         35.7327,33.79255,1646  

         35.7318,33.791383,1628  

         35.730883,33.790217,1612  

         35.729967,33.789033,1603  

         35.729033,33.787833,1592  

         35.728083,33.786617,1572  

         35.727117,33.785367,1548  

         35.726133,33.784133,1516  

         35.725233,33.783317,1482  

         35.724917,33.783717,1449  

         35.723667,33.782217,1398  

         35.724233,33.780917,1410  

         35.723967,33.780933,1442  

         35.724483,33.78115,1478  

         35.724617,33.781267,1512  

         35.7242,33.780833,1532  

         35.724767,33.780883,1548  

         35.724667,33.781533,1559  

         35.724917,33.781433,1553  

         35.724883,33.781933,1585  

         35.724717,33.781667,1601  

         35.724767,33.781633,1632  

         35.724783,33.781433,1636  

         35.724767,33.781483,1672  

         35.724083,33.780417,1690  

         35.723317,33.779367,1675  

         35.722567,33.778317,1661  

         35.721817,33.777267,1646  

         35.721033,33.776183,1631  

         35.720267,33.7751,1615  

         35.719483,33.774017,1600  

         35.7187,33.772933,1585  

         35.717933,33.771867,1571  

         35.717167,33.770783,1602  

         35.716383,33.769717,1587  

         35.715617,33.768617,1571  

         35.714817,33.767533,1556  

         35.714033,33.766433,1541  

         35.713333,33.765367,1526  

         35.712767,33.764983,1514  

         35.713083,33.763817,1502  

         35.71305,33.763317,1497  

         35.713,33.762633,1491  

         35.712767,33.761133,1475  

         35.712367,33.759683,1459  

         35.711917,33.758633,1480  

         35.71235,33.758667,1526  

         35.7125,33.7586,1556  

         35.712117,33.75845,1592  

         35.712333,33.7585,1616  

         35.7126,33.758467,1643  

         35.71275,33.758533,1673  

         35.712517,33.758667,1685  

         35.712067,33.758833,1732  

         35.712083,33.758617,1781  

         35.712183,33.758233,1827  

         35.712433,33.757633,1819  

         35.71185,33.756617,1806  

         35.711017,33.755533,1790  

         35.70995,33.754333,1769  

         35.708717,33.753033,1744  

         35.707517,33.751683,1720  

         35.706383,33.750383,1697  

         35.7053,33.749117,1675  

         35.70425,33.747867,1653  

         35.7032,33.746617,1632  

         35.702133,33.745367,1610  

         35.701117,33.744033,1588  

         35.700683,33.7423,1567  

         35.700183,33.740583,1545  

         35.699633,33.738917,1523  

         35.69905,33.737367,1523  

         35.699333,33.7374,1525  

         35.698883,33.737617,1561  

         35.698883,33.737467,1610  

         35.69895,33.7374,1656  

         35.698867,33.737267,1704  

         35.6988,33.737733,1751  

         35.699017,33.7378,1797  

         35.699233,33.737383,1830  

         35.699133,33.736983,1825  

         35.698433,33.7363,1812  

         35.697433,33.735483,1796  

         35.69655,33.734633,1779  

         35.69615,33.734217,1772  

         35.695433,33.733517,1758  

         35.693967,33.732033,1728  

         35.692833,33.730383,1700  

         35.69205,33.729167,1719  

         35.692183,33.729133,1734  

         35.69215,33.729583,1782  

         35.692867,33.729383,1818  

         35.692233,33.728,1798  

         35.690833,33.726517,1769  

         35.6895,33.725117,1741  

         35.688183,33.723733,1715  

         35.686867,33.72235,1688  

         35.686083,33.721267,1672  

         35.686117,33.720367,1671  

         35.68685,33.720367,1672  

         35.687083,33.720717,1700  

         35.686867,33.720483,1741  

         35.687233,33.719867,1734  

         35.686967,33.720067,1723  

         35.687317,33.719383,1711  

         35.686433,33.718417,1695  

         35.68535,33.717467,1676  

         35.684167,33.716767,1657  

         35.682783,33.716033,1634  

         35.681983,33.714717,1610  

         35.680517,33.713783,1585  

         35.678933,33.712533,1555  

         35.677617,33.710867,1525  

         35.676317,33.709333,1528  

         35.67485,33.707883,1498  

         35.673367,33.706433,1468  

         35.671917,33.704983,1439  

         35.67085,33.703917,1417  

         35.7425,33.8073,1820  

         35.741733,33.807583,1486  

         35.741067,33.80695,1502  

         35.740433,33.806383,1517  

         35.739817,33.805817,1535  

         35.7392,33.80525,1550  

         35.738583,33.804667,1565  

         35.737267,33.803883,1567  

         35.735783,33.803267,1558  

         35.733933,33.8017,1538  

         35.732,33.799683,1500  

         35.731417,33.79855,1538  

         35.731167,33.798733,1606  

         35.730917,33.7989,1668  

         35.730633,33.798333,1698  

         35.729383,33.796167,1661  

         35.728133,33.794,1626  

         35.72685,33.791817,1591  

         35.725817,33.789817,1561  

         35.724333,33.7879,1529  

         35.723667,33.786817,1524  

         35.722517,33.78495,1506  

         35.721783,33.7826,1508  

         35.72155,33.782717,1562  

         35.721683,33.783017,1608  

         35.721817,33.782967,1655  

         35.721567,33.78265,1703  

         35.721967,33.78305,1758  

         35.721867,33.783017,1804  

         35.721117,33.782067,1823  

         35.719817,33.779967,1789  

         35.718533,33.777817,1753  

         35.71725,33.77565,1718  

         35.715967,33.7735,1682  

         35.714833,33.771333,1648  

         35.713817,33.76905,1614  

         35.71275,33.766733,1578  

         35.711767,33.764483,1545  

         35.710617,33.762483,1514  

         35.709383,33.760617,1483  

         35.708133,33.758733,1452  

         35.706883,33.756833,1421  

         35.70565,33.754967,1391  

         35.704767,33.7531,1364  

         35.705783,33.753433,1381  

         35.705567,33.753467,1427  

         35.705183,33.7534,1479  

         35.705367,33.753583,1526  

         35.705833,33.753983,1583  

         35.705383,33.753583,1638  

         35.70515,33.753467,1686  

         35.705333,33.7538,1745  

         35.705533,33.75415,1799  

         35.70505,33.753483,1830  

         35.70375,33.751467,1809  

         35.702433,33.749383,1774  

         35.701117,33.747333,1739  

         35.6998,33.745283,1705  

         35.698483,33.743217,1670  

         35.697167,33.741133,1635  

         35.695817,33.739033,1600  

         35.694517,33.736983,1565  

         35.693183,33.735133,1534  

         35.691767,33.733333,1502  

         35.69035,33.731567,1470  

         35.690267,33.731533,1437  

         35.689583,33.731667,1492  

         35.689217,33.731633,1552  

         35.689417,33.731917,1602  

         35.689567,33.732083,1654  

         35.689067,33.731667,1706  

         35.687917,33.730167,1688  

         35.68665,33.727983,1652  

         35.68545,33.7259,1618  

         35.68415,33.723933,1586  

         35.682867,33.722017,1554  

         35.681567,33.720067,1521  

         35.680533,33.718333,1532  

         35.679617,33.716667,1520  

         35.678183,33.714633,1485  

         35.676783,33.712583,1450  

         35.67535,33.71055,1414  

         35.673917,33.708483,1378  

         35.672483,33.706433,1342  

         35.671033,33.704367,1307  

         35.670767,33.703967,1300  

         35.7425,33.8073,1820  

         35.7421,33.8073,1489  

         35.74215,33.807133,1534  

         35.742817,33.807133,1609  

         35.74235,33.806933,1679  

         35.742717,33.807,1736  

         35.742217,33.806733,1803  

         35.741117,33.805817,1816  

         35.739783,33.803417,1777  

         35.7385,33.800933,1760  

         35.7374,33.798783,1727  

         35.736233,33.796567,1697  

         35.736617,33.79595,1749  

         35.736117,33.794667,1755  

         35.734883,33.792467,1720  

         35.733617,33.790417,1698  

         35.733833,33.79075,1736  

         35.733133,33.7895,1718  

         35.731367,33.787367,1677  

         35.730367,33.785133,1643  

         35.729183,33.783183,1645  

         35.7301,33.783167,1702  

         35.72965,33.783133,1710  

         35.72925,33.783583,1779  

         35.730017,33.783067,1825  

         35.729167,33.780817,1795  

         35.728083,33.778733,1763  

         35.727033,33.776733,1731  

         35.725867,33.7747,1698  

         35.724633,33.772617,1664  

         35.723417,33.7706,1631  

         35.722233,33.768617,1599  

         35.721083,33.767083,1580  

         35.722333,33.76745,1601  

         35.722233,33.7667,1637  

         35.721917,33.766717,1684  

         35.721633,33.766817,1736  

         35.721617,33.767083,1787  

         35.722333,33.767217,1830  

         35.721267,33.765183,1808  

         35.720083,33.763267,1776  

         35.71875,33.761133,1741  

         35.717517,33.759167,1708  

         35.71635,33.757283,1677  

         35.714917,33.755317,1643  

         35.713533,33.753517,1611  

         35.71215,33.751683,1578  

         35.710833,33.749967,1547  

         35.709583,33.748333,1518  

         35.708233,33.746567,1486  

         35.706833,33.744567,1452  

         35.705517,33.742633,1419  

         35.704283,33.740633,1386  

         35.703033,33.738417,1351  

         35.701683,33.736033,1328  

         35.69975,33.733883,1309  

         35.697217,33.732667,1285  

         35.694567,33.731817,1265  

         35.6921,33.730483,1249  

         35.689617,33.729217,1231  

         35.687167,33.727783,1214  

         35.684633,33.7268,1189  

         35.682033,33.72625,1165  

         35.679417,33.725333,1142  

         35.676933,33.723883,1125  

         35.674667,33.72235,1105  

         35.672067,33.721317,1081  

         35.669633,33.720083,1061  

         35.667333,33.718517,1046  

         35.667383,33.7182,1090  

         35.667233,33.71805,1181  

         35.667617,33.717567,1253  

         35.667317,33.71785,1301  

         35.667133,33.718067,1364  

         35.668233,33.717483,1408  

         35.6696,33.714933,1374  

         35.670783,33.711983,1332  

         35.671833,33.709133,1277  

         35.6713,33.706533,1223  

         35.6706,33.704033,1176  

         35.7425,33.8073,1820  

         35.742533,33.807683,1493  

         35.742517,33.808083,1488  

         35.741733,33.807367,1488  

         35.741283,33.806817,1495  

         35.740683,33.806533,1502  

         35.739883,33.806383,1508  

         35.7391,33.806133,1516  

         35.738267,33.805833,1529  

         35.737433,33.805483,1541  

         35.736583,33.805133,1555  

         35.735533,33.804767,1565  

         35.734517,33.804367,1567  

         35.7336,33.803967,1567  

         35.732867,33.8038,1569  

         35.732117,33.80365,1569  

         35.731517,33.803267,1565  

         35.730867,33.8023,1560  

         35.730167,33.801283,1549  

         35.729517,33.800283,1539  

         35.728833,33.799283,1532  

         35.72815,33.798267,1521  

         35.727483,33.797267,1508  

         35.726817,33.79625,1489  

         35.726067,33.795183,1470  

         35.725267,33.794083,1453  

         35.724433,33.793017,1443  

         35.7236,33.79195,1432  

         35.72305,33.791133,1428  

         35.722633,33.79055,1429  

         35.722217,33.790017,1434  

         35.721967,33.790267,1460  

         35.721783,33.7904,1491  

         35.721817,33.790517,1528  

         35.721783,33.79035,1561  

         35.721567,33.790533,1596  

         35.721817,33.79035,1629  

         35.7216,33.790533,1665  

         35.721833,33.79035,1698  

         35.721633,33.790533,1733  

         35.721883,33.790517,1765  

         35.721667,33.790517,1801  

         35.721867,33.790583,1830  

         35.721467,33.789917,1830  

         35.720783,33.789083,1816  

         35.720117,33.78825,1802  

         35.71945,33.787417,1788  

         35.718583,33.786433,1769  

         35.717617,33.785567,1750  

         35.716617,33.784717,1731  

         35.71565,33.78385,1712  

         35.714667,33.782967,1693  

         35.713683,33.782117,1674  

         35.7127,33.781217,1655  

         35.711767,33.780283,1636  

         35.71085,33.779367,1618  

         35.7099,33.778417,1598  

         35.708967,33.777483,1579  

         35.708033,33.776533,1560  

         35.70825,33.776317,1554  

         35.708117,33.776367,1579  

         35.708233,33.776083,1603  

         35.70795,33.775917,1636  

         35.708183,33.775717,1670  

         35.707983,33.775883,1703  

         35.708217,33.775683,1736  

         35.70805,33.775867,1768  

         35.707967,33.77605,1803  

         35.708167,33.775867,1830  

         35.707317,33.775217,1824  

         35.706583,33.7741,1806  

         35.705883,33.772917,1792  

         35.705217,33.771783,1798  

         35.704767,33.771017,1786  

         35.704317,33.77025,1774  

         35.703867,33.769483,1761  

         35.7033,33.768533,1746  

         35.702633,33.767417,1727  

         35.70195,33.76625,1708  

         35.70125,33.765067,1689  

         35.700567,33.7639,1670  

         35.699867,33.762733,1653  

         35.699167,33.761533,1658  

         35.698483,33.760383,1639  

         35.697783,33.759183,1620  

         35.697117,33.75805,1601  

         35.696433,33.7569,1594  

         35.69565,33.7558,1581  

         35.6949,33.754717,1562  

         35.694217,33.753533,1543  

         35.693567,33.752383,1525  

         35.692883,33.751217,1506  

         35.692217,33.750067,1487  

         35.691483,33.748983,1474  

         35.692067,33.748867,1486  

         35.691883,33.748817,1518  

         35.6921,33.74855,1551  

         35.691933,33.7486,1584  

         35.691833,33.748733,1618  

         35.691983,33.748517,1651  

         35.69185,33.748717,1685  

         35.69225,33.748567,1715  

         35.6916,33.74735,1708  

         35.690967,33.746183,1689  

         35.690317,33.745,1670  

         35.689717,33.743917,1653  

         35.6893,33.74315,1641  

         35.6888,33.742233,1627  

         35.688383,33.741467,1637  

         35.687967,33.7407,1632  

         35.687433,33.739733,1616  

         35.686883,33.738733,1601  

         35.686317,33.737717,1584  

         35.685667,33.736517,1565  

         35.685033,33.73535,1547  

         35.684383,33.734167,1528  

         35.683733,33.733,1509  

         35.6831,33.731833,1491  

         35.68245,33.730633,1472  

         35.681817,33.729483,1452  

         35.68105,33.7284,1433  

         35.680233,33.727367,1417  

         35.679333,33.726367,1400  

         35.67845,33.725433,1381  

         35.67745,33.724583,1362  

         35.6764,33.723867,1343  

         35.675383,33.723083,1325  

         35.67435,33.722283,1320  

         35.673317,33.721467,1314  

         35.6723,33.720683,1295  

         35.671417,33.7197,1277  

         35.670717,33.718567,1263  

         35.67005,33.71735,1254  

         35.669783,33.7169,1283  

         35.669617,33.716233,1308  

         35.668933,33.715117,1305  

         35.668317,33.713883,1297  

         35.667617,33.71275,1293  

         35.667467,33.7114,1310  

         35.667667,33.709933,1294  

         35.667833,33.708483,1268  

         35.668033,33.707033,1243  

         35.668217,33.705567,1218  

         35.668367,33.704483,1199  

         35.7425,33.8073,0000  

         35.74205,33.807683,1482  

         35.73915,33.805567,1502  

         35.736433,33.803983,1509  

         35.733483,33.800233,1461  

         35.732733,33.795217,1374  

         35.730117,33.793433,1362  

         35.728067,33.792067,1371  

         35.725967,33.789317,1382  

         35.723533,33.7857,1396  

         35.7237,33.785317,1579  

         35.723433,33.785467,1706  

         35.723333,33.785017,1830  

         35.72075,33.781283,1783  

         35.718467,33.777817,1727  

         35.716167,33.774333,1672  

         35.714517,33.772167,1700  

         35.714283,33.77255,1829  

         35.711417,33.768767,1772  

         35.708533,33.764883,1703  

         35.70575,33.7609,1664  

         35.70325,33.756717,1596  

         35.702833,33.756533,1727  

         35.702317,33.754933,1770  

         35.699983,33.750683,1702  

         35.697667,33.746283,1663  

         35.695,33.742217,1595  

         35.692367,33.738183,1530  

         35.689683,33.734067,1460  

         35.687033,33.730017,1392  

         35.684317,33.7259,1335  

         35.68345,33.724417,1433  

         35.68315,33.724733,1558  

         35.681683,33.721733,1567  

         35.679267,33.717417,1498  

         35.676833,33.7136,1475  

         35.6739,33.709667,1428  

         35.671367,33.705467,1373  

         35.670533,33.704067,1350  

         35.7425,33.8073,1820  

         35.742133,33.807733,1481  

         35.742983,33.807483,1528  

         35.743233,33.8074,1571  

         35.743667,33.807267,1595  

         35.7433,33.807333,1605  

         35.743283,33.807367,1643  

         35.743033,33.80755,1688  

         35.742833,33.807383,1687  

         35.742783,33.807867,1712  

         35.743167,33.808283,1740  

         35.743267,33.808283,1748  

         35.742583,33.807617,1783  

         35.741967,33.807033,1788  

         35.741333,33.806433,1807  

         35.740317,33.805083,1783  

         35.73915,33.803533,1755  

         35.738083,33.8021,1729  

         35.737017,33.800667,1704  

         35.736017,33.799367,1681  

         35.735067,33.798083,1658  

         35.734117,33.796817,1635  

         35.733167,33.79555,1612  

         35.732233,33.7943,1590  

         35.73125,33.793,1567  

         35.730217,33.791633,1549  

         35.729133,33.7902,1534  

         35.727967,33.788667,1518  

         35.7267,33.787667,1503  

         35.727267,33.7883,1498  

         35.7278,33.788833,1492  

         35.726717,33.788083,1486  

         35.725833,33.788783,1486  

         35.7252,33.789283,1486  

         35.724617,33.78975,1479  

         35.723967,33.790267,1468  

         35.72335,33.790767,1458  

         35.724183,33.790683,1449  

         35.725383,33.789967,1443  

         35.726333,33.788933,1462  

         35.726667,33.7893,1489  

         35.726867,33.788917,1547  

         35.726883,33.788683,1589  

         35.727683,33.78905,1584  

         35.728467,33.78925,1580  

         35.7283,33.787833,1571  

         35.727217,33.786167,1547  

         35.726217,33.784617,1514  

         35.725117,33.782933,1470  

         35.724117,33.781433,1434  

         35.723183,33.779983,1404  

         35.722217,33.778467,1377  

         35.722167,33.778017,1392  

         35.721733,33.777667,1373  

         35.721667,33.778167,1384  

         35.722,33.777833,1390  

         35.721233,33.778067,1414  

         35.721767,33.778017,1431  

         35.721183,33.777683,1461  

         35.72115,33.776333,1447  

         35.720117,33.775017,1456  

         35.719133,33.773733,1433  

         35.718167,33.772517,1411  

         35.71715,33.7712,1387  

         35.716017,33.769767,1362  

         35.715117,33.7685,1357  

         35.7156,33.767933,1367  

         35.714717,33.767733,1375  

         35.713433,33.767883,1363  

         35.7126,33.767067,1345  

         35.710783,33.765183,1307  

         35.709717,33.763667,1280  

         35.708917,33.762317,1258  

         35.7081,33.760933,1235  

         35.707317,33.759617,1213  

         35.706517,33.758233,1191  

         35.705733,33.756933,1172  

         35.704917,33.755567,1162  

         35.704083,33.7542,1159  

         35.703283,33.752883,1149  

         35.702517,33.751567,1133  

         35.701733,33.75025,1113  

         35.700883,33.748833,1096  

         35.700117,33.747533,1084  

         35.699317,33.746183,1070  

         35.6985,33.744833,1062  

         35.697633,33.743383,1067  

         35.696833,33.74205,1053  

         35.69675,33.7419,1052  

         35.7425,33.8073,1820  

         35.742017,33.807633,1481  

         35.741333,33.807033,1493  

         35.740617,33.806483,1505  

         35.739833,33.80605,1518  

         35.739067,33.805633,1532  

         35.738283,33.80525,1546  

         35.7376,33.804817,1562  

         35.736983,33.804767,1572  

         35.736233,33.804617,1585  

         35.7363,33.804717,1600  

         35.736167,33.804033,1609  

         35.735683,33.804233,1615  

         35.736367,33.804683,1619  

         35.736067,33.804817,1618  

         35.735567,33.804,1619  

         35.73505,33.803717,1622  

         35.735983,33.804167,1624  

         35.736983,33.804583,1629  

         35.737967,33.805017,1636  

         35.7376,33.805083,1639  

         35.736917,33.804633,1639  

         35.73585,33.804567,1631  

         35.734433,33.804567,1607  

         35.733033,33.804583,1584  

         35.731867,33.804967,1560  

         35.730967,33.805667,1536  

         35.730733,33.8039,1514  

         35.730467,33.80215,1507  

         35.730233,33.8004,1491  

         35.729983,33.798783,1470  

         35.729733,33.799717,1464  

         35.729867,33.799267,1498  

         35.730467,33.798783,1481  

         35.730083,33.7996,1463  

         35.7299,33.799667,1496  

         35.7296,33.79955,1543  

         35.729317,33.799483,1592  

         35.729867,33.799333,1633  

         35.729667,33.799083,1651  

         35.729467,33.7991,1677  

         35.729817,33.7993,1713  

         35.730083,33.799083,1701  

         35.730017,33.799217,1692  

         35.729917,33.79935,1707  

         35.729817,33.799467,1738  

         35.729517,33.799317,1774  

         35.729233,33.799183,1807  

         35.729633,33.798933,1828  

         35.729517,33.798883,1815  

         35.729783,33.799167,1825  

         35.729517,33.798867,1829  

         35.72855,33.797567,1805  

         35.7276,33.796217,1782  

         35.726667,33.794867,1758  

         35.725683,33.7935,1735  

         35.72475,33.792167,1711  

         35.723783,33.790817,1688  

         35.722817,33.789417,1664  

         35.72185,33.788067,1640  

         35.720883,33.7867,1616  

         35.719917,33.785317,1592  

         35.718967,33.783967,1568  

         35.718317,33.783233,1589  

         35.718333,33.7834,1623  

         35.718183,33.783467,1661  

         35.718033,33.783533,1700  

         35.7182,33.783617,1738  

         35.7183,33.783267,1774  

         35.718233,33.783267,1804  

         35.71855,33.783467,1830  

         35.718317,33.782633,1821  

         35.717267,33.781233,1796  

         35.716317,33.779883,1772  

         35.715367,33.778533,1749  

         35.714417,33.777167,1725  

         35.713467,33.775817,1702  

         35.712483,33.774433,1678  

         35.711533,33.773083,1654  

         35.710583,33.771717,1630  

         35.709667,33.770767,1634  

         35.709617,33.770867,1673  

         35.709583,33.771033,1712  

         35.7094,33.7709,1747  

         35.709383,33.770583,1784  

         35.709467,33.770033,1792  

         35.7086,33.768817,1771  

         35.707717,33.767383,1747  

         35.706817,33.765967,1733  

         35.706617,33.765483,1770  

         35.706667,33.765683,1806  

         35.706433,33.765517,1830  

         35.705617,33.764217,1811  

         35.704767,33.762767,1788  

         35.703933,33.761333,1764  

         35.7031,33.7599,1741  

         35.702267,33.758467,1718  

         35.701433,33.757017,1694  

         35.7006,33.755583,1671  

         35.699733,33.754117,1646  

         35.69885,33.752567,1626  

         35.697817,33.752983,1629  

         35.698533,33.7534,1633  

         35.698967,33.752867,1641  

         35.698683,33.752783,1670  

         35.698417,33.752733,1708  

         35.698183,33.752717,1746  

         35.698467,33.752967,1786  

         35.69855,33.753167,1824  

         35.6979,33.752417,1829  

         35.696967,33.7509,1803  

         35.69605,33.749383,1778  

         35.695117,33.747833,1753  

         35.6942,33.746333,1728  

         35.693267,33.744783,1703  

         35.69235,33.743267,1677  

         35.691433,33.74175,1652  

         35.6905,33.740217,1627  

         35.689583,33.738683,1602  

         35.68865,33.73715,1576  

         35.687767,33.735767,1567  

         35.687733,33.735817,1599  

         35.687783,33.736,1632  

         35.687433,33.735733,1668  

         35.687467,33.735633,1703  

         35.687433,33.735483,1698  

         35.687567,33.735767,1723  

         35.687567,33.735867,1759  

         35.687283,33.735767,1794  

         35.687283,33.735633,1830  

         35.686467,33.734467,1812  

         35.685533,33.732933,1787  

         35.684617,33.731417,1762  

         35.683683,33.729883,1737  

         35.682733,33.728333,1711  

         35.681817,33.726817,1686  

         35.680867,33.725267,1660  

         35.679917,33.7237,1634  

         35.678983,33.722167,1609  

         35.678067,33.720633,1584  

         35.677117,33.719083,1558  

         35.676317,33.717717,1546  

         35.67645,33.717917,1552  

         35.676217,33.717933,1577  

         35.675917,33.717867,1614  

         35.675617,33.717767,1646  

         35.675083,33.71665,1631  

         35.674283,33.715033,1606  

         35.673467,33.713433,1581  

         35.672667,33.711817,1555  

         35.67185,33.7102,1530  

         35.671017,33.708533,1527  

         35.670317,33.70685,1507  

         35.669617,33.705117,1489  

         35.669383,33.704417,1496  

         35.7425,33.8073,0000  

         35.741917,33.807783,1492  

         35.740133,33.8064,1505  

         35.738467,33.8051,1511  

         35.736917,33.803717,1503  

         35.735317,33.802267,1525  

         35.733967,33.800467,1492  

         35.732667,33.798633,1452  

         35.73145,33.796817,1436  

         35.730167,33.7951,1395  

         35.728617,33.7937,1384  

         35.727117,33.792267,1367  

         35.726133,33.790217,1354  

         35.724917,33.788417,1347  

         35.723517,33.786717,1357  

         35.721983,33.785117,1346  

         35.720183,33.783983,1332  

         35.718433,33.78295,1318  

         35.71665,33.782117,1305  

         35.714867,33.781283,1287  

         35.713033,33.780583,1271  

         35.711467,33.780483,1252  

         35.710467,33.781233,1233  

         35.708817,33.780317,1219  

         35.707417,33.778533,1216  

         35.706833,33.7778,1235  

         35.7054,33.776183,1230  

         35.703917,33.7746,1209  

         35.702467,33.773067,1194  

         35.700983,33.7715,1180  

         35.6995,33.77,1161  

         35.697933,33.768483,1138  

         35.696333,33.767067,1127  

         35.694633,33.765817,1130  

         35.692933,33.764433,1120  

         35.691267,33.763033,1106  

         35.690267,33.7631,1159  

         35.690217,33.762917,1232  

         35.690667,33.762767,1275  

         35.689217,33.76235,1299  

         35.687583,33.761117,1267  

         35.685933,33.759883,1234  

         35.684283,33.758633,1202  

         35.68275,33.75715,1169  

         35.6815,33.7554,1136  

         35.680267,33.753683,1105  

         35.679017,33.751933,1073  

         35.677683,33.750183,1043  

         35.676367,33.7485,1030  

         35.675167,33.746667,1057  

         35.673917,33.744867,1043  

         35.672367,33.743417,1038  

         35.6706,33.742483,1030  

         35.668717,33.741683,1031  

         35.666883,33.741017,1027  

         35.665017,33.740633,1020  

         35.663117,33.740017,1018  

         35.661283,33.739167,1018  

         35.659433,33.73895,1005  

         35.657633,33.738667,0995  

         35.655833,33.738233,0980  

         35.654067,33.738283,0968  

         35.65255,33.738767,0952  

         35.651117,33.739383,0934  

         35.650367,33.74055,0917  

         35.649233,33.741483,0892  

         35.647883,33.7422,0869  

         35.646267,33.7425,0858  

         35.644517,33.742533,0853  

         35.642667,33.742117,0856  

         35.640783,33.741483,0857  

         35.639183,33.7401,0854  

         35.637767,33.738483,0854  

         35.636967,33.736333,0842  

         35.636917,33.733817,0816  

         35.635433,33.73265,0800  

         35.633967,33.733017,0787  

         35.632683,33.733817,0772  

         35.631183,33.734167,0757  

         35.630733,33.733117,0744  

         35.7425,33.8073,1820  

         35.7421,33.807633,1481  

         35.741117,33.807533,1509  

         35.740267,33.805833,1538  

         35.740733,33.805183,1575  

         35.741417,33.804967,1668  

         35.741317,33.804633,1734  

         35.741367,33.804667,1753  

         35.740983,33.805017,1826  

         35.740817,33.803967,1825  

         35.739783,33.802767,1807  

         35.738633,33.801383,1785  

         35.737583,33.800083,1763  

         35.736967,33.79905,1749  

         35.736217,33.798233,1735  

         35.735483,33.79745,1721  

         35.73445,33.796583,1704  

         35.7333,33.7955,1684  

         35.732267,33.794217,1665  

         35.731217,33.792917,1646  

         35.730167,33.791633,1627  

         35.72925,33.790367,1636  

         35.730317,33.790067,1658  

         35.7307,33.790533,1645  

         35.731717,33.791117,1628  

         35.733083,33.789483,1618  

         35.732483,33.788083,1600  

         35.731433,33.78775,1577  

         35.730167,33.787683,1550  

         35.729167,33.787333,1523  

         35.72855,33.786583,1505  

         35.727917,33.785583,1480  

         35.727267,33.784667,1455  

         35.727067,33.783417,1421  

         35.728067,33.781867,1387  

         35.7288,33.780283,1355  

         35.728917,33.778733,1331  

         35.729217,33.778633,1335  

         35.730833,33.778367,1341  

         35.730383,33.7775,1337  

         35.729633,33.777083,1331  

         35.728567,33.77685,1330  

         35.728617,33.77735,1343  

         35.731,33.77715,1344  

         35.730883,33.775883,1335  

         35.729967,33.7753,1331  

         35.728683,33.774517,1332  

         35.727367,33.773717,1335  

         35.726333,33.7731,1389  

         35.726683,33.772783,1465  

         35.726667,33.773133,1539  

         35.726933,33.772517,1575  

         35.726733,33.772667,1611  

         35.727117,33.772967,1634  

         35.726533,33.773117,1701  

         35.72645,33.772317,1762  

         35.72665,33.771533,1745  

         35.725767,33.770333,1728  

         35.7248,33.769083,1710  

         35.723783,33.767967,1693  

         35.722617,33.767033,1675  

         35.721533,33.765967,1657  

         35.720533,33.764767,1639  

         35.719667,33.763717,1623  

         35.7188,33.762683,1608  

         35.717867,33.76155,1591  

         35.71685,33.760333,1573  

         35.715883,33.759183,1556  

         35.714883,33.757967,1538  

         35.713883,33.756767,1521  

         35.713217,33.755467,1538  

         35.713267,33.755983,1561  

         35.713967,33.75615,1569  

         35.714917,33.756233,1555  

         35.71445,33.755017,1566  

         35.713783,33.75415,1552  

         35.71305,33.753283,1538  

         35.71185,33.752267,1519  

         35.710667,33.75125,1500  

         35.709533,33.7502,1481  

         35.708467,33.748967,1462  

         35.707367,33.747783,1443  

         35.70625,33.746667,1424  

         35.706,33.746533,1483  

         35.706133,33.746633,1530  

         35.705617,33.74685,1568  

         35.704883,33.74605,1579  

         35.706,33.746833,1626  

         35.705583,33.746383,1677  

         35.705467,33.746317,1743  

         35.705917,33.746633,1788  

         35.705983,33.746733,1796  

         35.7048,33.746017,1826  

         35.70375,33.744783,1808  

         35.702683,33.743533,1788  

         35.701533,33.742317,1767  

         35.69955,33.740683,1730  

         35.697783,33.738483,1704  

         35.696017,33.736133,1684  

         35.694367,33.733967,1645  

         35.692683,33.73175,1606  

         35.691033,33.729567,1567  

         35.689383,33.7274,1528  

         35.687717,33.725217,1489  

         35.686067,33.723017,1452  

         35.6844,33.720833,1413  

         35.682683,33.718617,1358  

         35.680367,33.717583,1308  

         35.678517,33.715967,1259  

         35.677067,33.713583,1208  

         35.675583,33.711183,1151  

         35.6745,33.708667,1094  

         35.674483,33.706367,1056  

         35.673983,33.706233,1049  

         35.7425,33.8073,1820  

         35.740667,33.806533,1477  

         35.73785,33.80495,1481  

         35.735017,33.803667,1479  

         35.732567,33.801533,1456  

         35.729967,33.799,1441  

         35.728117,33.796217,1387  

         35.726533,33.793183,1350  

         35.7243,33.790733,1320  

         35.72185,33.788517,1312  

         35.719633,33.786117,1310  

         35.717633,33.783767,1287  

         35.714983,33.782217,1267  

         35.712167,33.781367,1248  

         35.709383,33.781233,1224  

         35.707517,33.778483,1221  

         35.705817,33.776117,1213  

         35.7042,33.773483,1229  

         35.702817,33.770733,1236  

         35.700017,33.767233,1232  

         35.69615,33.763633,1220  

         35.692917,33.760783,1177  

         35.689233,33.758067,1112  

         35.685417,33.755267,1052  

         35.681733,33.752533,0988  

         35.678033,33.749867,0954  

         35.674133,33.747583,0945  

         35.671117,33.745167,0946  

         35.669167,33.743467,0971  

         35.666933,33.742517,0981  

         35.664683,33.741867,0979  

         35.662517,33.740667,0986  

         35.660383,33.739583,0998  

         35.658333,33.738767,1001  

         35.656283,33.738067,0994  

         35.654217,33.737817,0990  

         35.652417,33.737633,0991  

         35.651433,33.737383,0991  

         35.7425,33.8073,1164  

         35.7435,33.808933,1498  

         35.743267,33.808333,1520  

         35.74175,33.806433,1535  

         35.739883,33.805267,1562  

         35.739183,33.805717,1676  

         35.738983,33.805683,1706  

         35.737417,33.804217,1696  

         35.735867,33.802233,1670  

         35.734383,33.800283,1641  

         35.732883,33.798283,1613  

         35.73145,33.796717,1612  

         35.732467,33.796283,1640  

         35.730983,33.794233,1612  

         35.729567,33.792183,1600  

         35.729817,33.791833,1582  

         35.730417,33.789817,1572  

         35.728833,33.787917,1562  

         35.727333,33.78595,1541  

         35.7258,33.784433,1490  

         35.724217,33.7831,1433  

         35.72305,33.780767,1366  

         35.721633,33.778767,1321  

         35.7199,33.777217,1283  

         35.718083,33.776317,1238  

         35.716267,33.775483,1176  

         35.71555,33.773717,1120  

         35.717067,33.772617,1147  

         35.715817,33.770417,1161  

         35.714317,33.768567,1233  

         35.71475,33.7677,1292  

         35.7149,33.766833,1305  

         35.713033,33.7665,1315  

         35.7113,33.765317,1324  

         35.711483,33.76435,1350  

         35.709683,33.76355,1323  

         35.707933,33.762383,1295  

         35.706217,33.761217,1267  

         35.704267,33.760483,1233  

         35.702967,33.758917,1171  

         35.70195,33.756683,1104  

         35.704467,33.756767,1053  

         35.704267,33.754383,1108  

         35.704867,33.754483,1158  

         35.7036,33.752533,1163  

         35.70225,33.750783,1150  

         35.700633,33.75005,1123  

         35.699417,33.748633,1105  

         35.699117,33.746017,1105  

         35.698833,33.743367,1101  

         35.69775,33.741433,1098  

         35.696333,33.7399,1103  

         35.694967,33.73875,1110  

         35.6936,33.737683,1123  

         35.692217,33.736433,1131  

         35.692433,33.735733,1146  

         35.69495,33.73635,1160  

         35.6936,33.7356,1171  

         35.692183,33.734683,1185  

         35.690817,33.733467,1192  

         35.689533,33.732017,1199  

         35.68825,33.730533,1209  

         35.68705,33.7289,1216  

         35.685867,33.727283,1222  

         35.684517,33.72595,1224  

         35.683117,33.724883,1226  

         35.681683,33.724383,1230  

         35.680217,33.723867,1234  

         35.678867,33.72365,1226  

         35.677833,33.72195,1221  

         35.67695,33.719933,1227  

         35.677067,33.719633,1243  

         35.675867,33.718233,1253  

         35.674417,33.717183,1254  

         35.673117,33.716,1240  

         35.673,33.713683,1202  

         35.674083,33.710967,1153  

         35.67605,33.708717,1107  

         35.676083,33.706383,1103  

         35.674983,33.704733,1114  

         35.673633,33.703733,1116  

         35.672067,33.702917,1160  

         35.7425,33.8073,1820  

         35.742117,33.807617,1480  

         35.740983,33.807383,1496  

         35.7408,33.80575,1515  

         35.739567,33.805017,1532  

         35.738417,33.804483,1549  

         35.736783,33.803633,1541  

         35.735167,33.803383,1536  

         35.733867,33.803033,1538  

         35.733783,33.803033,1560  

         35.7332,33.803017,1608  

         35.732983,33.802917,1654  

         35.732883,33.803133,1709  

         35.732517,33.80315,1768  

         35.732933,33.802633,1822  

         35.732633,33.801817,1816  

         35.731283,33.800117,1784  

         35.7298,33.798317,1749  

         35.7288,33.796217,1714  

         35.728367,33.793783,1680  

         35.727767,33.7914,1646  

         35.7273,33.788917,1611  

         35.726467,33.787333,1597  

         35.724667,33.7861,1580  

         35.724783,33.78635,1573  

         35.725517,33.786333,1572  

         35.724383,33.7856,1586  

         35.722617,33.784217,1551  

         35.7231,33.7818,1520  

         35.723417,33.779667,1497  

         35.723217,33.777683,1480  

         35.723983,33.777467,1512  

         35.723633,33.7772,1560  

         35.723433,33.777467,1621  

         35.723317,33.777433,1685  

         35.723283,33.777417,1741  

         35.723383,33.777433,1803  

         35.7226,33.776783,1824  

         35.721183,33.774883,1790  

         35.719783,33.772967,1754  

         35.718383,33.771067,1719  

         35.717233,33.770033,1702  

         35.716083,33.768833,1667  

         35.714433,33.767283,1631  

         35.712483,33.766317,1596  

         35.710467,33.765333,1559  

         35.708483,33.764433,1523  

         35.706517,33.7637,1487  

         35.704517,33.763183,1451  

         35.702583,33.762767,1417  

         35.701417,33.762317,1396  

         35.700083,33.761983,1369  

         35.698267,33.761767,1363  

         35.697317,33.75955,1343  

         35.696417,33.757333,1309  

         35.69525,33.755317,1275  

         35.694,33.753383,1240  

         35.692217,33.75235,1214  

         35.690533,33.751133,1201  

         35.688783,33.749833,1204  

         35.6885,33.749683,1249  

         35.688833,33.750117,1308  

         35.688417,33.749633,1358  

         35.688567,33.749983,1420  

         35.688617,33.750