<!-- This file has been generated by http://www.paraglidingearth.com -->
<kml xmlns="http://earth.google.com/kml/2.0">

   <Document>
   
  <Style id="noIcon">
     <IconStyle>
      <scale>0</scale>
    </IconStyle>
  </Style>
  
    <name> - 80- 1-2041</name>
    
    <Placemark>
            <name>Flight</name>
            <visibility>1</visibility>
            <open>1</open>
            <Style>
              <LineStyle>
                <color>ff00ffff</color>
              </LineStyle>
              <PolyStyle>
                  <color>7f0000ff</color>
              </PolyStyle>
            </Style>
        <LineString>
              <altitudeMode>absolute
              </altitudeMode>
              
          <coordinates>
          
         36.0793,34.2342,0000  

         36.078017,34.233333,2663  

         36.076067,34.231783,2655  

         36.074117,34.230283,2651  

         36.072017,34.229183,2645  

         36.0697,34.228217,2634  

         36.067483,34.226983,2619  

         36.06595,34.225983,2632  

         36.065017,34.2256,2700  

         36.063367,34.224017,2680  

         36.061367,34.222733,2644  

         36.059367,34.221517,2632  

         36.059417,34.221383,2701  

         36.058033,34.2206,2679  

         36.055817,34.219983,2642  

         36.053617,34.219367,2605  

         36.051283,34.218717,2566  

         36.049033,34.2181,2528  

         36.04705,34.217667,2495  

         36.044617,34.217333,2456  

         36.042517,34.217117,2426  

         36.040467,34.217133,2401  

         36.038517,34.217183,2382  

         36.039333,34.216983,2363  

         36.037367,34.217317,2341  

         36.035333,34.217667,2319  

         36.033817,34.218217,2301  

         36.033533,34.218067,2286  

         36.031483,34.218467,2266  

         36.029467,34.218783,2244  

         36.027333,34.219133,2224  

         36.025317,34.219417,2208  

         36.023217,34.219467,2192  

         36.0211,34.219083,2183  

         36.019167,34.21775,2181  

         36.017,34.216517,2181  

         36.014767,34.215433,2182  

         36.012583,34.21465,2181  

         36.01045,34.213883,2168  

         36.008267,34.213167,2166  

         36.006033,34.212283,2163  

         36.00445,34.210933,2163  

         36.002733,34.211533,2150  

         36.001083,34.212183,2130  

         35.9994,34.21285,2121  

         35.99775,34.21345,2103  

         35.996017,34.21405,2084  

         35.994217,34.21475,2068  

         35.992417,34.2154,2059  

         35.990683,34.215933,2039  

         35.988917,34.2165,2018  

         35.987083,34.217067,2001  

         35.98535,34.217617,1983  

         35.983683,34.218317,1962  

         35.981767,34.218517,1951  

         35.979717,34.217783,1948  

         35.977617,34.216817,1944  

         35.975567,34.216083,1937  

         35.9734,34.215717,1929  

         35.971583,34.215933,1915  

         35.970317,34.21695,1890  

         35.9689,34.217833,1870  

         35.9674,34.218783,1846  

         35.968117,34.220233,1810  

         35.968217,34.221833,1775  

         35.968117,34.223317,1745  

         35.969417,34.224783,1712  

         35.970317,34.226367,1680  

         35.97105,34.227883,1651  

         35.971183,34.229533,1614  

         35.974033,34.22925,1584  

         35.974517,34.227983,1595  

         35.974883,34.227883,1663  

         35.974967,34.227417,1765  

         35.974317,34.227667,1850  

         35.974367,34.227633,1940  

         35.97435,34.227667,2030  

         35.9744,34.227633,2118  

         35.974383,34.227667,2207  

         35.974517,34.227567,2298  

         35.974367,34.227683,2387  

         35.97435,34.227617,2477  

         35.974267,34.2276,2562  

         35.974417,34.22775,2646  

         35.973933,34.2267,2694  

         35.972667,34.2247,2659  

         35.971483,34.222817,2626  

         35.970317,34.220933,2593  

         35.969117,34.21905,2560  

         35.968217,34.21695,2527  

         35.967433,34.216067,2584  

         35.967333,34.215967,2675  

         35.966883,34.214383,2684  

         35.965767,34.212467,2651  

         35.964683,34.2106,2619  

         35.963517,34.208683,2586  

         35.963533,34.208567,2665  

         35.96335,34.207433,2693  

         35.9621,34.205683,2661  

         35.960667,34.203833,2660  

         35.959783,34.202567,2686  

         35.958333,34.200833,2652  

         35.956883,34.199233,2620  

         35.95535,34.197717,2587  

         35.953833,34.196183,2555  

         35.952283,34.194633,2522  

         35.950717,34.193083,2489  

         35.949133,34.191633,2456  

         35.94755,34.190183,2423  

         35.945983,34.188733,2394  

         35.94535,34.188617,2484  

         35.945383,34.18865,2575  

         35.945267,34.188617,2668  

         35.944033,34.187283,2684  

         35.942483,34.1858,2651  

         35.940867,34.184067,2615  

         35.939333,34.182467,2582  

         35.938433,34.182083,2653  

         35.937533,34.181583,2697  

         35.93585,34.18025,2664  

         35.934167,34.178667,2629  

         35.932617,34.177117,2596  

         35.931083,34.175567,2563  

         35.929417,34.1739,2527  

         35.928917,34.174217,2554  

         35.929333,34.174417,2659  

         35.928083,34.173067,2683  

         35.926683,34.171267,2649  

         35.925133,34.169417,2613  

         35.9237,34.167683,2579  

         35.922267,34.1661,2547  

         35.920733,34.164433,2513  

         35.919233,34.162783,2480  

         35.91755,34.160917,2445  

         35.917483,34.160667,2531  

         35.91725,34.160683,2622  

         35.91695,34.160167,2703  

         35.915367,34.158733,2672  

         35.914067,34.156883,2639  

         35.9128,34.155033,2605  

         35.911483,34.153083,2570  

         35.910233,34.151267,2538  

         35.908933,34.149367,2503  

         35.907517,34.147283,2466  

         35.906167,34.145283,2456  

         35.9049,34.143433,2423  

         35.90365,34.141583,2390  

         35.902317,34.139617,2354  

         35.901017,34.137717,2320  

         35.899717,34.1358,2286  

         35.898467,34.133967,2253  

         35.898117,34.133233,2325  

         35.898117,34.133133,2416  

         35.898283,34.133083,2503  

         35.898183,34.133033,2594  

         35.898167,34.13305,2686  

         35.898383,34.131467,2679  

         35.897383,34.129517,2647  

         35.897733,34.1288,2669  

         35.8963,34.127367,2671  

         35.89505,34.125567,2638  

         35.893717,34.12365,2604  

         35.892483,34.121867,2571  

         35.89125,34.1201,2539  

         35.89,34.118317,2507  

         35.888817,34.116333,2473  

         35.88885,34.115183,2528  

         35.888883,34.11535,2617  

         35.888867,34.115233,2701  

         35.888083,34.11315,2668  

         35.88715,34.111133,2636  

         35.88615,34.109,2601  

         35.8852,34.106967,2568  

         35.885417,34.106283,2625  

         35.884783,34.105667,2692  

         35.883917,34.10365,2660  

         35.88305,34.101633,2628  

         35.882167,34.099633,2596  

         35.8819,34.0989,2615  

         35.881417,34.098433,2701  

         35.880433,34.096467,2673  

         35.879483,34.094433,2640  

         35.87845,34.092317,2605  

         35.877517,34.090333,2574  

         35.876517,34.088267,2544  

         35.8769,34.088033,2592  

         35.876983,34.087933,2676  

         35.875617,34.086167,2662  

         35.874333,34.084433,2658  

         35.873633,34.083733,2686  

         35.872733,34.081683,2653  

         35.871783,34.079467,2665  

         35.8709,34.077433,2632  

         35.869833,34.075467,2599  

         35.868783,34.07355,2567  

         35.867733,34.071633,2535  

         35.866667,34.069733,2503  

         35.86545,34.067917,2470  

         35.864167,34.066367,2443  

         35.865183,34.065967,2511  

         35.865283,34.066017,2600  

         35.865217,34.066083,2690  

         35.863933,34.064117,2699  

         35.8628,34.06225,2667  

         35.861633,34.060333,2634  

         35.8605,34.058483,2601  

         35.860617,34.057067,2607  

         35.859967,34.057133,2697  

         35.858483,34.055417,2667  

         35.857267,34.053533,2633  

         35.856167,34.051667,2601  

         35.85505,34.049767,2569  

         35.853733,34.048367,2562  

         35.853817,34.048883,2613  

         35.852883,34.048133,2677  

         35.851817,34.046217,2645  

         35.851133,34.043833,2609  

         35.850533,34.041717,2577  

         35.850767,34.040733,2643  

         35.85025,34.03985,2703  

         35.849483,34.03755,2680  

         35.848783,34.035417,2648  

         35.848083,34.033283,2616  

         35.847417,34.031183,2584  

         35.8467,34.029033,2551  

         35.845967,34.026783,2517  

         35.845267,34.024667,2484  

         35.844533,34.022467,2467  

         35.843767,34.020133,2450  

         35.842983,34.017733,2414  

         35.84225,34.015517,2380  

         35.841533,34.013117,2344  

         35.840983,34.010783,2310  

         35.84105,34.008917,2327  

         35.840833,34.008783,2415  

         35.840667,34.009217,2503  

         35.840983,34.009367,2589  

         35.840867,34.008967,2662  

         35.840317,34.0078,2689  

         35.8398,34.0056,2657  

         35.83925,34.003283,2623  

         35.838733,34.0011,2591  

         35.838183,33.998783,2557  

         35.837633,33.996483,2523  

         35.837117,33.994333,2491  

         35.836583,33.9921,2458  

         35.836033,33.989833,2428  

         35.83655,33.989867,2468  

         35.836567,33.989733,2557  

         35.835833,33.987483,2543  

         35.835117,33.9851,2550  

         35.834433,33.98285,2516  

         35.83375,33.980567,2481  

         35.8331,33.978433,2449  

         35.832433,33.976233,2416  

         35.831783,33.973983,2382  

         35.831217,33.971767,2349  

         35.830633,33.96955,2320  

         35.830033,33.967283,2306  

         35.829533,33.96505,2272  

         35.829167,33.962967,2242  

         36.0793,34.2342,-743  

         36.078583,34.23415,2670  

         36.075583,34.231183,2701  

         36.072317,34.228533,2731  

         36.069183,34.225817,2754  

         36.066367,34.222733,2766  

         36.0636,34.219633,2750  

         36.060917,34.216567,2705  

         36.058033,34.213283,2658  

         36.055117,34.210167,2679  

         36.051717,34.208133,2707  

         36.048333,34.207233,2731  

         36.048267,34.208267,2732  

         36.049017,34.204067,2720  

         36.047983,34.199567,2660  

         36.047183,34.196933,2703  

         36.046833,34.192633,2646  

         36.045517,34.18825,2575  

         36.043967,34.18405,2495  

         36.04295,34.183817,2675  

         36.042367,34.18035,2692  

         36.040733,34.17635,2648  

         36.0391,34.1723,2603  

         36.03745,34.16825,2557  

         36.035817,34.164217,2512  

         36.03525,34.161517,2607  

         36.034183,34.159467,2703  

         36.032,34.15585,2659  

         36.029917,34.154417,2655  

         36.029417,34.151533,2676  

         36.027767,34.14725,2629  

         36.025317,34.14085,2558  

         36.022817,34.137633,2513  

         36.020083,34.1347,2468  

         36.018817,34.134467,2660  

         36.017133,34.13215,2675  

         36.01265,34.128433,2597  

         36.006883,34.124133,2493  

         36.0011,34.119817,2388  

         36.0007,34.120033,2470  

         36.00035,34.119867,2704  

         35.997567,34.1174,2655  

         35.992217,34.112467,2550  

         35.986883,34.10755,2446  

         35.981533,34.102617,2341  

         35.976167,34.097667,2236  

         35.970767,34.092683,2130  

         35.965867,34.089083,2031  

         35.963633,34.08715,1985  

         35.9636,34.087017,2099  

         35.963417,34.087217,2306  

         35.96355,34.087267,2536  

         35.961783,34.086783,2692  

         35.955217,34.084317,2588  

         35.953417,34.083617,2685  

         35.946433,34.079833,2594  

         35.9401,34.076567,2489  

         35.93355,34.073183,2381  

         35.927133,34.069867,2276  

         35.920717,34.066533,2170  

         35.914283,34.063217,2064  

         35.907767,34.062283,1958  

         35.906383,34.062617,1886  

         35.906117,34.063517,1910  

         35.905867,34.0632,2111  

         35.905567,34.063333,2369  

         35.905733,34.063433,2593  

         35.904667,34.062067,2687  

         35.898267,34.059083,2583  

         35.891783,34.056067,2478  

         35.8885,34.055167,2370  

         35.88675,34.053733,2479  

         35.886333,34.05385,2666  

         35.882167,34.050517,2669  

         35.88055,34.048433,2657  

         35.876433,34.043967,2572  

         35.877033,34.043467,2692  

         35.872967,34.037517,2589  

         35.869033,34.031133,2483  

         35.8667,34.02685,2406  

         35.866017,34.027417,2516  

         35.865133,34.026633,2697  

         35.8618,34.020067,2592  

         35.858633,34.01325,2486  

         35.857533,34.01205,2526  

         35.855767,34.009483,2674  

         35.851883,34.003033,2567  

         35.848017,33.996583,2457  

         35.847517,33.995233,2662  

         35.844517,33.990167,2628  

         35.840683,33.983733,2522  

         35.836817,33.977283,2416  

         35.836117,33.975083,2496  

         35.8344,33.973783,2656  

         35.831233,33.967017,2564  

         35.829683,33.962883,2523  

         36.0793,34.2342,-743  

         36.078867,34.234467,2667  

         36.078,34.233583,2662  

         36.077383,34.2325,2655  

         36.076517,34.231583,2648  

         36.07555,34.2308,2643  

         36.074533,34.230067,2637  

         36.073417,34.229583,2632  

         36.072233,34.229217,2626  

         36.071033,34.2289,2621  

         36.069867,34.228683,2613  

         36.0688,34.228267,2623  

         36.068233,34.228317,2639  

         36.068467,34.22845,2679  

         36.068617,34.228267,2704  

         36.068933,34.227583,2701  

         36.068167,34.226533,2693  

         36.067367,34.225583,2687  

         36.067017,34.224367,2681  

         36.066667,34.223133,2672  

         36.066117,34.221983,2662  

         36.0654,34.220567,2650  

         36.064767,34.219467,2638  

         36.064017,34.218433,2626  

         36.0632,34.217483,2617  

         36.062417,34.216517,2609  

         36.061583,34.215533,2601  

         36.060783,34.214583,2597  

         36.060267,34.214183,2642  

         36.0608,34.213817,2685  

         36.060067,34.212833,2681  

         36.059217,34.2119,2673  

         36.058367,34.210967,2662  

         36.0574,34.210117,2647  

         36.056283,34.20965,2635  

         36.055117,34.209267,2626  

         36.053933,34.208867,2619  

         36.052767,34.208517,2614  

         36.051683,34.20825,2610  

         36.050917,34.207983,2611  

         36.050183,34.2077,2614  

         36.049833,34.207517,2617  

         36.049517,34.207367,2619  

         36.049217,34.207283,2621  

         36.048917,34.2072,2623  

         36.048617,34.20715,2624  

         36.048333,34.207117,2626  

         36.048033,34.207083,2627  

         36.04775,34.207017,2628  

         36.04745,34.206983,2629  

         36.047133,34.206917,2630  

         36.046833,34.20685,2632  

         36.04655,34.206817,2634  

         36.046267,34.206817,2635  

         36.045917,34.206733,2638  

         36.045583,34.206667,2641  

         36.045267,34.206617,2643  

         36.044933,34.206583,2643  

         36.044217,34.2067,2641  

         36.043083,34.206783,2629  

         36.041933,34.2068,2617  

         36.040883,34.206783,2606  

         36.039983,34.206683,2599  

         36.039083,34.206017,2588  

         36.03835,34.2056,2597  

         36.038333,34.205217,2625  

         36.038883,34.205083,2661  

         36.038867,34.204933,2699  

         36.038817,34.204783,2703  

         36.037867,34.204233,2689  

         36.036817,34.2043,2674  

         36.035683,34.204183,2660  

         36.034533,34.204167,2666  

         36.033383,34.204133,2672  

         36.032267,34.204117,2654  

         36.031133,34.204083,2637  

         36.029967,34.204067,2618  

         36.028817,34.20405,2600  

         36.027683,34.203933,2582  

         36.026517,34.203683,2565  

         36.025383,34.20325,2547  

         36.024233,34.202817,2529  

         36.023283,34.202283,2514  

         36.022333,34.201417,2497  

         36.021483,34.200533,2483  

         36.020967,34.200267,2480  

         36.02025,34.20015,2476  

         36.019483,34.20005,2471  

         36.018717,34.199983,2467  

         36.01795,34.199883,2462  

         36.017183,34.199867,2458  

         36.01645,34.199817,2454  

         36.015717,34.199783,2450  

         36.014983,34.19965,2448  

         36.014317,34.199483,2447  

         36.013783,34.199333,2448  

         36.0132,34.199133,2449  

         36.012617,34.198833,2450  

         36.012033,34.198533,2451  

         36.011467,34.198133,2452  

         36.010967,34.197817,2453  

         36.011333,34.198267,2475  

         36.011633,34.198483,2523  

         36.011667,34.19865,2567  

         36.01185,34.198567,2610  

         36.011233,34.199167,2624  

         36.010517,34.199167,2608  

         36.009683,34.198267,2592  

         36.008833,34.197333,2580  

         36.008,34.196417,2568  

         36.007183,34.1955,2551  

         36.006333,34.194567,2532  

         36.0055,34.193617,2512  

         36.004667,34.192717,2497  

         36.003817,34.191783,2482  

         36.002983,34.190883,2469  

         36.002183,34.189933,2451  

         36.001467,34.189,2434  

         36.00085,34.188767,2419  

         36.00065,34.187683,2431  

         36.0009,34.187367,2455  

         36.001167,34.186917,2452  

         36.0007,34.186117,2434  

         35.999883,34.18515,2414  

         35.999083,34.184167,2396  

         35.9983,34.183233,2380  

         35.997483,34.182233,2362  

         35.9967,34.1813,2342  

         35.9959,34.180317,2324  

         35.9951,34.179333,2306  

         35.994317,34.178717,2307  

         35.994133,34.178817,2331  

         35.994167,34.179,2359  

         35.994317,34.179217,2396  

         35.994483,34.178983,2429  

         35.994317,34.179,2461  

         35.994267,34.179167,2498  

         35.994217,34.179317,2538  

         35.994467,34.179167,2574  

         35.993917,34.178533,2597  

         35.9931,34.177617,2580  

         35.9923,34.17665,2562  

         35.9915,34.175717,2545  

         35.990683,34.17475,2525  

         35.989867,34.173767,2507  

         35.989033,34.17285,2490  

         35.988133,34.171983,2472  

         35.987267,34.171167,2455  

         35.986333,34.170333,2437  

         35.985383,34.169633,2420  

         35.984383,34.168917,2403  

         35.983383,34.168183,2386  

         35.982767,34.167633,2419  

         35.983033,34.167367,2450  

         35.983117,34.167583,2484  

         35.98305,34.167733,2524  

         35.98295,34.1677,2563  

         35.982317,34.167,2578  

         35.9814,34.166183,2561  

         35.980483,34.165383,2544  

         35.979583,34.164567,2526  

         35.978667,34.163767,2530  

         35.977717,34.162933,2529  

         35.976817,34.162117,2511  

         35.9759,34.1613,2494  

         35.974967,34.160483,2476  

         35.97405,34.159667,2459  

         35.973133,34.158917,2472  

         35.972133,34.158167,2458  

         35.971183,34.157433,2440  

         35.9702,34.156667,2422  

         35.969217,34.1559,2405  

         35.96835,34.155233,2389  

         35.967367,34.15445,2371  

         35.9664,34.153717,2354  

         35.965417,34.152967,2336  

         35.96445,34.1522,2319  

         35.963467,34.151433,2301  

         35.9625,34.1507,2283  

         35.961483,34.150033,2267  

         35.960467,34.149367,2251  

         35.959467,34.1487,2236  

         35.958433,34.148033,2221  

         35.957083,34.147133,2197  

         35.956083,34.146483,2179  

         35.955167,34.145667,2163  

         35.954383,34.144733,2150  

         35.953517,34.144067,2138  

         35.952467,34.1438,2132  

         35.951483,34.143067,2130  

         35.950533,34.142267,2126  

         35.9496,34.141467,2119  

         35.948617,34.140767,2107  

         35.947617,34.140033,2091  

         35.946583,34.139383,2074  

         35.945483,34.138967,2057  

         35.944333,34.138683,2039  

         35.9432,34.138433,2021  

         35.942233,34.1377,2004  

         35.940933,34.136667,1982  

         35.939833,34.13565,1970  

         35.9389,34.134783,1963  

         35.938017,34.133967,1955  

         35.9375,34.133217,1950  

         35.937167,34.132483,1943  

         35.93685,34.13165,1933  

         35.936483,34.130917,1933  

         35.936667,34.130767,1936  

         35.936683,34.130167,1941  

         35.9365,34.129633,1945  

         35.936267,34.129267,1946  

         35.936033,34.128867,1945  

         35.935817,34.128483,1941  

         35.935583,34.128133,1932  

         35.935517,34.127783,1922  

         35.9353,34.12775,1913  

         35.935067,34.127417,1903  

         35.934817,34.127067,1893  

         35.934283,34.126233,1879  

         35.933633,34.125183,1869  

         35.932883,34.124183,1865  

         35.932183,34.123133,1863  

         35.931717,34.122417,1891  

         35.931933,34.122533,1919  

         35.93185,34.122167,1919  

         35.931583,34.121883,1917  

         35.931617,34.121767,1913  

         35.931983,34.121283,1912  

         35.931717,34.12105,1909  

         35.93145,34.120917,1904  

         35.932233,34.12085,1901  

         35.932033,34.119967,1893  

         35.932167,34.120333,1899  

         35.932417,34.120617,1935  

         35.93275,34.120517,1971  

         35.932867,34.120533,2003  

         35.932783,34.120333,2026  

         35.932667,34.120433,2055  

         35.932667,34.1206,2089  

         35.932933,34.120583,2122  

         35.932683,34.120383,2152  

         35.9325,34.120417,2184  

         35.93235,34.120483,2220  

         35.932333,34.120617,2257  

         35.9327,34.12075,2295  

         35.932633,34.120417,2328  

         35.932467,34.120483,2362  

         35.932383,34.120633,2402  

         35.932317,34.120783,2443  

         35.932733,34.1206,2476  

         35.932667,34.120383,2506  

         35.932983,34.120383,2535  

         35.932667,34.1202,2543  

         35.932167,34.120433,2573  

         35.932433,34.120967,2607  

         35.932917,34.121,2618  

         35.932433,34.12005,2639  

         35.931667,34.119083,2622  

         35.93085,34.118217,2605  

         35.930017,34.117333,2587  

         35.929167,34.116433,2570  

         35.928317,34.115533,2552  

         35.927483,34.114683,2536  

         35.926533,34.113933,2518  

         35.925633,34.113133,2501  

         35.924767,34.1123,2484  

         35.9239,34.111467,2467  

         35.923017,34.110617,2449  

         35.922167,34.109783,2433  

         35.921283,34.10895,2413  

         35.920417,34.1081,2395  

         35.91955,34.107267,2378  

         35.918683,34.106417,2361  

         35.917817,34.105583,2344  

         35.91695,34.10475,2327  

         35.916083,34.103917,2310  

         35.915267,34.103067,2293  

         35.9146,34.102067,2276  

         35.913917,34.101017,2295  

         35.913267,34.099983,2282  

         35.912583,34.098967,2265  

         35.911917,34.097917,2247  

         35.911233,34.096883,2230  

         35.910567,34.095867,2213  

         35.9099,34.094833,2196  

         35.90925,34.093833,2179  

         35.908583,34.0928,2161  

         35.907883,34.091733,2143  

         35.907233,34.090733,2127  

         35.906567,34.0897,2109  

         35.9059,34.088683,2092  

         35.905217,34.087633,2075  

         35.904567,34.086617,2058  

         35.903883,34.085567,2040  

         35.9032,34.084517,2022  

         35.902533,34.083517,2005  

         35.901867,34.082483,1988  

         35.901233,34.081483,1971  

         35.900567,34.080467,1954  

         35.899883,34.079417,1936  

         35.899217,34.078383,1919  

         35.898533,34.077333,1901  

         35.89785,34.0763,1884  

         35.897217,34.0753,1867  

         35.896533,34.074267,1850  

         35.895867,34.073233,1833  

         35.895217,34.072233,1816  

         35.894533,34.071183,1798  

         35.893867,34.070167,1781  

         35.8932,34.069133,1763  

         35.892517,34.068083,1746  

         35.891867,34.067067,1729  

         35.891183,34.066033,1712  

         35.890583,34.065067,1714  

         35.890567,34.064917,1737  

         35.890967,34.065083,1769  

         35.891317,34.064867,1805  

         35.891517,34.064817,1837  

         35.891317,34.0646,1862  

         35.891117,34.064617,1890  

         35.89105,34.064767,1923  

         35.890983,34.064917,1961  

         35.890917,34.06505,1999  

         35.890833,34.0652,2035  

         35.891217,34.0651,2066  

         35.891133,34.064817,2101  

         35.890933,34.064833,2140  

         35.890883,34.064933,2175  

         35.891167,34.065133,2212  

         35.891283,34.064833,2245  

         35.8912,34.064933,2281  

         35.891217,34.065133,2319  

         35.891417,34.064917,2349  

         35.891217,34.064867,2382  

         35.891083,34.064967,2422  

         35.89125,34.065183,2459  

         35.8914,34.0649,2488  

         35.891267,34.064983,2523  

         35.891183,34.065117,2560  

         35.891083,34.06525,2594  

         35.891333,34.065433,2617  

         35.891167,34.064867,2646  

         35.890517,34.0639,2649  

         35.889833,34.062883,2632  

         35.889183,34.061883,2616  

         35.888517,34.060867,2598  

         35.887833,34.059867,2581  

         35.887183,34.058867,2565  

         35.8865,34.057833,2547  

         35.885833,34.056833,2532  

         35.885167,34.055833,2553  

         35.884483,34.054833,2535  

         35.8838,34.053783,2518  

         35.883117,34.052767,2500  

         35.882433,34.051733,2483  

         35.881767,34.050733,2466  

         35.881083,34.049733,2449  

         35.880417,34.048717,2432  

         35.87975,34.047733,2415  

         35.879083,34.046717,2398  

         35.878383,34.045683,2380  

         35.877683,34.04465,2362  

         35.877017,34.043633,2345  

         35.876333,34.042617,2328  

         35.875667,34.0416,2311  

         35.874967,34.040583,2293  

         35.8743,34.039567,2276  

         35.873633,34.03855,2259  

         35.872983,34.037517,2242  

         35.872333,34.03645,2224  

         35.8717,34.0354,2207  

         35.871067,34.03525,2192  

         35.872167,34.035617,2200  

         35.872417,34.035417,2223  

         35.872617,34.035533,2248  

         35.872383,34.03545,2249  

         35.872017,34.035733,2283  

         35.871733,34.035933,2321  

         35.87195,34.035717,2357  

         35.871817,34.035833,2396  

         35.872017,34.035817,2431  

         35.871967,34.035717,2469  

         35.871883,34.03585,2508  

         35.872267,34.035617,2545  

         35.871667,34.034683,2546  

         35.8709,34.033467,2526  

         35.869383,34.031067,2486  

         35.867867,34.028667,2449  

         35.867167,34.02755,2453  

         35.866517,34.026517,2436  

         35.86585,34.025467,2418  

         35.8652,34.024433,2401  

         35.864533,34.023383,2383  

         35.863833,34.022567,2402  

         35.863933,34.022717,2432  

         35.86375,34.022167,2440  

         35.863017,34.021217,2422  

         35.8623,34.020217,2403  

         35.861617,34.019233,2386  

         35.860883,34.0182,2367  

         35.860183,34.017183,2348  

         35.859383,34.016267,2342  

         35.858583,34.015333,2326  

         35.857767,34.0144,2309  

         35.856983,34.013483,2292  

         35.856183,34.012567,2274  

         35.855383,34.011633,2294  

         35.854583,34.010717,2297  

         35.8538,34.0098,2280  

         35.852983,34.008867,2263  

         35.8522,34.007933,2245  

         35.851383,34.007017,2228  

         35.850617,34.0061,2211  

         35.84985,34.00515,2194  

         35.849033,34.004267,2181  

         35.848167,34.0034,2173  

         35.847317,34.002583,2170  

         35.846417,34.001733,2166  

         35.845567,34.000917,2162  

         35.8447,34.000083,2158  

         35.8438,33.99925,2156  

         35.842933,33.998417,2153  

         35.842067,33.997583,2147  

         35.841383,33.996583,2138  

         35.840933,33.995483,2124  

         35.840467,33.994383,2108  

         35.840017,33.993267,2091  

         35.839533,33.99215,2076  

         35.839067,33.99105,2067  

         35.838467,33.989967,2057  

         35.837833,33.988933,2046  

         35.837183,33.9879,2032  

         35.836483,33.986867,2020  

         35.835667,33.986133,2008  

         35.835183,33.9857,2005  

         35.834833,33.985233,2003  

         35.834433,33.984883,2002  

         35.834067,33.984833,2024  

         35.833817,33.9848,2061  

         35.833583,33.984767,2100  

         35.833333,33.984733,2136  

         35.833483,33.984883,2170  

         35.833967,33.98475,2203  

         35.833783,33.984683,2230  

         35.833667,33.984767,2261  

         35.833517,33.984867,2296  

         35.833933,33.985017,2335  

         35.833967,33.984317,2353  

         35.833517,33.983183,2336  

         35.832983,33.982067,2318  

         35.832467,33.981017,2302  

         35.83195,33.979917,2285  

         35.831417,33.978817,2268  

         35.830883,33.977717,2250  

         35.830367,33.976617,2233  

         35.829817,33.975483,2211  

         35.829367,33.974367,2193  

         35.829067,33.973167,2180  

         35.829067,33.971883,2171  

         35.82915,33.97065,2162  

         35.829183,33.969383,2149  

         35.829167,33.968133,2138  

         35.829133,33.966917,2126  

         35.829083,33.965667,2116  

         35.829033,33.964417,2109  

         35.829017,33.963183,2107  

         35.829,33.962983,2111  

         36.0793,34.2342,1752  

         36.079267,34.234217,2669  

         36.078583,34.233283,2671  

         36.0779,34.23235,2675  

         36.077217,34.231633,2680  

         36.076233,34.2309,2683  

         36.075217,34.230167,2686  

         36.074567,34.229817,2702  

         36.074317,34.229583,2707  

         36.074383,34.229367,2712  

         36.073383,34.228883,2710  

         36.071767,34.227733,2699  

         36.070983,34.22705,2704  

         36.070217,34.226483,2711  

         36.069517,34.225833,2718  

         36.068917,34.22505,2721  

         36.068233,34.22415,2723  

         36.067817,34.223283,2722  

         36.067,34.222117,2712  

         36.065717,34.220533,2694  

         36.064367,34.21895,2673  

         36.062867,34.21755,2657  

         36.061483,34.216033,2644  

         36.06015,34.214583,2633  

         36.058733,34.213083,2623  

         36.05725,34.211733,2613  

         36.055717,34.210383,2605  

         36.0547,34.209467,2608  

         36.053717,34.20885,2613  

         36.052667,34.20835,2620  

         36.051633,34.20795,2625  

         36.050567,34.207667,2631  

         36.049533,34.207383,2637  

         36.048467,34.207083,2642  

         36.04745,34.206933,2645  

         36.046417,34.206883,2649  

         36.045467,34.207033,2654  

         36.044517,34.20725,2652  

         36.0429,34.2078,2633  

         36.041083,34.208117,2612  

         36.039617,34.208867,2592  

         36.0381,34.2097,2568  

         36.036633,34.210517,2550  

         36.035183,34.211317,2531  

         36.03385,34.212217,2508  

         36.032417,34.21315,2486  

         36.030867,34.213817,2471  

         36.030167,34.213933,2472  

         36.029617,34.214033,2472  

         36.028633,34.214333,2469  

         36.026867,34.21485,2456  

         36.025133,34.215317,2441  

         36.023233,34.21545,2430  

         36.02145,34.2148,2428  

         36.020983,34.214167,2440  

         36.021683,34.214433,2449  

         36.022483,34.214717,2458  

         36.022267,34.214433,2466  

         36.021717,34.214083,2476  

         36.021133,34.213767,2490  

         36.021733,34.2139,2501  

         36.022167,34.2139,2513  

         36.021667,34.213333,2527  

         36.021167,34.212833,2540  

         36.021817,34.213,2551  

         36.021533,34.213167,2563  

         36.021083,34.213267,2577  

         36.021033,34.213167,2592  

         36.020667,34.213317,2605  

         36.021233,34.212967,2618  

         36.021133,34.213233,2630  

         36.020967,34.2126,2643  

         36.020483,34.2121,2652  

         36.019183,34.211467,2651  

         36.017433,34.210783,2644  

         36.016067,34.209283,2634  

         36.014717,34.2077,2612  

         36.013333,34.206083,2589  

         36.01195,34.204483,2571  

         36.010583,34.202883,2537  

         36.009267,34.201683,2507  

         36.009917,34.201483,2532  

         36.00945,34.2014,2579  

         36.009033,34.201333,2631  

         36.009667,34.201683,2673  

         36.010133,34.20095,2703  

         36.009167,34.200017,2691  

         36.007833,34.198433,2662  

         36.0065,34.19685,2636  

         36.006517,34.196667,2659  

         36.006133,34.1961,2703  

         36.005567,34.195783,2697  

         36.00425,34.194367,2669  

         36.0031,34.192983,2644  

         36.001867,34.191517,2617  

         36.0006,34.189967,2590  

         35.9993,34.1884,2562  

         35.997983,34.186833,2533  

         35.99665,34.185217,2503  

         35.995333,34.183633,2472  

         35.994,34.182033,2442  

         35.992633,34.180383,2409  

         35.991317,34.178783,2379  

         35.990267,34.178667,2435  

         35.990267,34.179067,2485  

         35.9905,34.178867,2555  

         35.990717,34.178333,2619  

         35.991,34.178033,2664  

         35.990567,34.17815,2682  

         35.99065,34.178117,2678  

         35.989833,34.178117,2700  

         35.988633,34.17655,2681  

         35.987367,34.174883,2651  

         35.986167,34.173367,2623  

         35.984733,34.171817,2593  

         35.98335,34.170317,2564  

         35.981967,34.1688,2535  

         35.980617,34.167233,2506  

         35.979317,34.165617,2477  

         35.977983,34.163983,2446  

         35.976583,34.162433,2417  

         35.975217,34.160917,2388  

         35.973733,34.159483,2358  

         35.972133,34.15825,2330  

         35.970483,34.156983,2300  

         35.96885,34.155717,2270  

         35.967217,34.154467,2243  

         35.965583,34.153183,2218  

         35.963917,34.15195,2194  

         35.965367,34.1518,2183  

         35.964367,34.152083,2187  

         35.964383,34.151283,2230  

         35.964933,34.151517,2272  

         35.9651,34.152017,2328  

         35.96455,34.151717,2401  

         35.965,34.15185,2462  

         35.9644,34.151517,2535  

         35.964767,34.15165,2599  

         35.964383,34.151633,2671  

         35.963633,34.1508,2686  

         35.962217,34.149333,2657  

         35.960867,34.147717,2637  

         35.959533,34.146117,2621  

         35.9583,34.1445,2592  

         35.957083,34.142783,2563  

         35.955883,34.141083,2533  

         35.954733,34.139483,2506  

         35.953533,34.137783,2476  

         35.95235,34.136117,2447  

         35.951667,34.135883,2472  

         35.951917,34.135183,2517  

         35.95165,34.13525,2581  

         35.951633,34.135633,2653  

         35.951683,34.134933,2703  

         35.950383,34.133617,2680  

         35.949167,34.131983,2661  

         35.948483,34.130783,2690  

         35.947233,34.129117,2660  

         35.946,34.127483,2631  

         35.94475,34.125833,2602  

         35.9435,34.124167,2573  

         35.942533,34.12385,2577  

         35.941367,34.12215,2548  

         35.940333,34.121633,2525  

         35.940117,34.1223,2580  

         35.9407,34.122483,2623  

         35.940467,34.12215,2673  

         35.939867,34.12125,2698  

         35.938683,34.11965,2670  

         35.937517,34.118017,2641  

         35.936333,34.116333,2614  

         35.93515,34.114667,2608  

         35.933983,34.113033,2580  

         35.9328,34.111367,2551  

         35.931617,34.109683,2522  

         35.930433,34.108033,2493  

         35.929233,34.106333,2464  

         35.92805,34.104683,2435  

         35.92685,34.102983,2406  

         35.925633,34.101283,2376  

         35.924433,34.099583,2347  

         35.92325,34.097917,2323  

         35.922033,34.096217,2293  

         35.92235,34.095333,2294  

         35.922033,34.095183,2336  

         35.921933,34.095483,2398  

         35.92185,34.095767,2461  

         35.922017,34.095967,2502  

         35.922033,34.09545,2555  

         35.921667,34.095517,2627  

         35.92225,34.095683,2689  

         35.922067,34.095083,2695  

         35.920967,34.093617,2670  

         35.919767,34.091917,2640  

         35.918583,34.090217,2611  

         35.917383,34.088533,2597  

         35.9162,34.086833,2567  

         35.915017,34.085167,2538  

         35.913833,34.083483,2509  

         35.91265,34.081767,2480  

         35.911467,34.080083,2451  

         35.910283,34.0784,2422  

         35.909117,34.076733,2393  

         35.907917,34.07505,2364  

         35.906683,34.073383,2339  

         35.9058,34.073067,2389  

         35.906317,34.073417,2447  

         35.906817,34.073267,2482  

         35.9065,34.072867,2529  

         35.906283,34.072917,2584  

         35.906567,34.073283,2647  

         35.906617,34.072967,2696  

         35.905933,34.07215,2696  

         35.904767,34.070533,2668  

         35.903667,34.069033,2642  

         35.902567,34.067483,2615  

         35.90145,34.065967,2588  

         35.900283,34.064333,2560  

         35.8991,34.062717,2531  

         35.897917,34.061067,2503  

         35.8971,34.060383,2475  

         35.898467,34.060783,2519  

         35.898083,34.060233,2568  

         35.897983,34.060317,2608  

         35.898433,34.060617,2668  

         35.898133,34.059917,2683  

         35.896933,34.058533,2674  

         35.895633,34.056983,2646  

         35.894433,34.055317,2616  

         35.893233,34.05365,2587  

         35.892017,34.051983,2558  

         35.890817,34.050317,2529  

         35.8896,34.048617,2500  

         35.888417,34.046967,2471  

         35.887217,34.045317,2442  

         35.886,34.043633,2413  

         35.884817,34.041983,2384  

         35.883583,34.0403,2355  

         35.8824,34.038633,2326  

         35.881167,34.036933,2296  

         35.879867,34.036183,2275  

         35.87965,34.03665,2340  

         35.880117,34.036583,2397  

         35.880467,34.03615,2425  

         35.880233,34.036317,2419  

         35.88025,34.0368,2480  

         35.879983,34.036667,2521  

         35.879817,34.03605,2582  

         35.8804,34.036383,2633  

         35.8804,34.035983,2658  

         35.8803,34.035617,2644  

         35.879183,34.033983,2616  

         35.878117,34.032817,2610  

         35.879033,34.0321,2636  

         35.87775,34.03085,2619  

         35.876433,34.0292,2589  

         35.87515,34.0276,2560  

         35.873867,34.025983,2531  

         35.872633,34.024433,2503  

         35.871383,34.022833,2474  

         35.8702,34.021167,2445  

         35.869017,34.0195,2416  

         35.868017,34.018083,2392  

         35.867017,34.01665,2367  

         35.866017,34.015233,2343  

         35.865,34.013783,2318  

         35.863833,34.012133,2289  

         35.862633,34.010483,2260  

         35.861117,34.009167,2231  

         35.859567,34.007833,2202  

         35.858,34.006483,2173  

         35.856317,34.00555,2146  

         35.854467,34.004833,2124  

         35.852517,34.00445,2101  

         35.850583,34.004067,2088  

         35.848783,34.0038,2065  

         35.8475,34.002867,2063  

         35.847,34.002083,2073  

         35.846533,34.001317,2083  

         35.846067,34.00055,2089  

         35.845567,33.999733,2094  

         35.845017,33.99895,2098  

         35.844417,33.998233,2101  

         35.843683,33.99695,2088  

         35.8427,33.99505,2044  

         35.841733,33.993167,2002  

         35.840433,33.991967,2015  

         35.840517,33.992233,2087  

         35.84085,33.99175,2146  

         35.840417,33.99165,2206  

         35.840617,33.991733,2262  

         35.841233,33.991567,2284  

         35.84075,33.991683,2306  

         35.840933,33.9921,2367  

         35.840917,33.991633,2403  

         35.840617,33.991667,2455  

         35.840567,33.991967,2524  

         35.840483,33.992267,2588  

         35.840817,33.992217,2631  

         35.840567,33.9914,2692  

         35.839867,33.989767,2670  

         35.839033,33.987833,2641  

         35.83825,33.986033,2613  

         35.837433,33.984167,2585  

         35.836617,33.98225,2555  

         35.835767,33.980283,2565  

         35.834983,33.978317,2536  

         35.834217,33.976383,2507  

         35.833467,33.974467,2478  

         35.832733,33.972617,2450  

         35.831967,33.970667,2461  

         35.831367,33.968833,2434  

         35.830817,33.967083,2408  

         35.83025,33.9653,2382  

         35.829767,33.963767,2360  

         35.8295,33.962917,2347  

         36.0793,34.2342,-743  

         36.07955,34.2354,2663  

         36.074817,34.230033,2648  

         36.068767,34.228333,2613  

         36.065383,34.223833,2613  

         36.061917,34.218233,2575  

         36.058333,34.212667,2538  

         36.052717,34.210633,2510  

         36.047383,34.210183,2460  

         36.044283,34.213883,2399  

         36.042617,34.215867,2312  

         36.039483,34.21915,2235  

         36.03775,34.220217,2161  

         36.036217,34.221667,2093  

         36.0793,34.2342,1752  

         36.079433,34.234083,2668  

         36.07835,34.235983,2646  

         36.07435,34.234,2626  

         36.07455,34.231983,2594  

         36.072767,34.229883,2624  

         36.072667,34.230017,2704  

         36.069133,34.2273,2674  

         36.065883,34.223333,2645  

         36.066167,34.218117,2592  

         36.0674,34.212817,2482  

         36.067967,34.207817,2376  

         36.068817,34.207767,2423  

         36.0684,34.207733,2491  

         36.068233,34.203717,2463  

         36.06675,34.199033,2394  

         36.06445,34.194817,2325  

         36.062433,34.1927,2283  

         36.06095,34.191183,2241  

         36.059267,34.18815,2150  

         36.0593,34.183917,2038  

         36.059983,34.184917,2073  

         36.058133,34.1822,2018  

         36.057883,34.1774,1908  

         36.056983,34.172317,1778  

         36.056167,34.167567,1676  

         36.055967,34.166533,1576  

         36.056917,34.1632,1501  

         36.0793,34.2342,1752  

         36.079133,34.234267,2669  

         36.077517,34.232967,2666  

         36.075117,34.231567,2658  

         36.072633,34.23015,2647  

         36.07015,34.228717,2633  

         36.067517,34.227467,2613  

         36.065583,34.2254,2634  

         36.065317,34.224983,2708  

         36.063333,34.222783,2686  

         36.0614,34.220583,2647  

         36.059633,34.218483,2609  

         36.059367,34.217767,2703  

         36.05835,34.21585,2675  

         36.056433,34.213517,2632  

         36.054533,34.211267,2613  

         36.05265,34.209067,2602  

         36.050967,34.208133,2606  

         36.049267,34.2075,2611  

         36.047817,34.207217,2617  

         36.046517,34.207,2625  

         36.045233,34.206783,2634  

         36.043917,34.206667,2637  

         36.04295,34.206667,2666  

         36.042267,34.205467,2689  

         36.040733,34.204583,2660  

         36.0405,34.206733,2623  

         36.039,34.20845,2591  

         36.037267,34.209933,2556  

         36.035267,34.211183,2528  

         36.03345,34.212617,2496  

         36.031233,34.21375,2469  

         36.028867,34.214533,2448  

         36.026317,34.215183,2430  

         36.023767,34.215783,2411  

         36.021067,34.2148,2405  

         36.020967,34.2144,2533  

         36.021217,34.21475,2601  

         36.019367,34.212983,2610  

         36.016733,34.211867,2597  

         36.014033,34.211033,2566  

         36.011317,34.210217,2538  

         36.010233,34.210117,2553  

         36.007833,34.210517,2564  

         36.005183,34.210333,2524  

         36.002483,34.21015,2483  

         35.999817,34.209983,2446  

         35.997183,34.210067,2423  

         35.994733,34.210767,2390  

         35.993617,34.211617,2391  

         35.994017,34.211583,2468  

         35.993317,34.211383,2544  

         35.990817,34.209833,2507  

         35.988183,34.208483,2502  

         35.985717,34.207067,2461  

         35.983167,34.205567,2419  

         35.980917,34.2036,2392  

         35.9784,34.202067,2372  

         35.975733,34.200983,2361  

         35.973067,34.1999,2345  

         35.970383,34.198467,2329  

         35.96755,34.1968,2299  

         35.965083,34.195017,2286  

         35.963133,34.193017,2313  

         35.963267,34.1932,2422  

         35.9631,34.193083,2529  

         35.962933,34.1929,2637  

         35.960633,34.191333,2612  

         35.958133,34.189917,2571  

         35.955633,34.188517,2530  

         35.953117,34.187083,2488  

         35.9505,34.185983,2446  

         35.947683,34.185267,2403  

         35.944983,34.184317,2362  

         35.942267,34.183333,2320  

         35.9394,34.182317,2288  

         35.937883,34.182167,2355  

         35.935367,34.1807,2313  

         35.932817,34.17925,2282  

         35.930283,34.177683,2245  

         35.927883,34.176017,2192  

         35.926517,34.173417,2184  

         35.925867,34.171467,2220  

         35.924467,34.168683,2199  

         35.923067,34.16595,2181  

         35.921617,34.163233,2173  

         35.919233,34.161417,2164  

         35.916683,34.159817,2160  

         35.913983,34.158817,2133  

         35.912017,34.156667,2088  

         35.91145,34.154683,2060  

         35.911633,34.154167,2060  

         35.912267,34.154133,2056  

         35.911417,34.154333,2058  

         35.910317,34.1542,2062  

         35.909067,34.154317,2060  

         35.907567,34.153783,2061  

         35.906733,34.153167,2071  

         35.905867,34.152217,2089  

         35.904983,34.151133,2109  

         35.903317,34.150217,2105  

         35.902333,34.1488,2131  

         35.901883,34.148983,2236  

         35.901983,34.148783,2332  

         35.902383,34.147067,2384  

         35.902667,34.143983,2342  

         35.903533,34.140917,2301  

         35.904367,34.137867,2260  

         35.905217,34.134817,2219  

         35.906033,34.131817,2179  

         35.906867,34.128867,2139  

         35.907933,34.125933,2099  

         35.909883,34.123183,2058  

         35.910683,34.120133,2017  

         35.911017,34.117133,1976  

         35.911533,34.114133,1936  

         35.912417,34.111083,1899  

         35.913133,34.107983,1896  

         35.912333,34.105133,1854  

         35.911533,34.102267,1821  

         35.911167,34.102467,1900  

         35.911167,34.101983,1993  

         35.911183,34.102,2081  

         35.911283,34.102283,2169  

         35.91095,34.102167,2261  

         35.910917,34.102467,2362  

         35.910867,34.101783,2456  

         35.9096,34.098983,2413  

         35.909083,34.096167,2369  

         35.907567,34.093367,2324  

         35.906067,34.090617,2280  

         35.904567,34.087883,2236  

         35.903067,34.085133,2229  

         35.9016,34.082433,2186  

         35.900117,34.07975,2143  

         35.89865,34.077067,2100  

         35.89715,34.07435,2096  

         35.895683,34.071667,2053  

         35.89425,34.069017,2010  

         35.8928,34.06635,1968  

         35.891333,34.063667,1925  

         35.889717,34.061117,1882  

         35.887483,34.059133,1858  

         35.884983,34.05795,1887  

         35.882233,34.056917,1881  

         35.87975,34.056233,1883  

         35.877267,34.055983,1884  

         35.874933,34.055733,1888  

         35.87275,34.055467,1888  

         35.870783,34.055317,1890  

         35.868533,34.056067,1876  

         35.866083,34.05675,1861  

         35.863783,34.057833,1838  

         35.861567,34.057183,1839  

         35.859483,34.054967,1833  

         35.858117,34.052667,1833  

         35.855833,34.051333,1834  

         35.853233,34.049883,1824  

         35.850967,34.04835,1821  

         35.8487,34.047867,1819  

         35.846633,34.048367,1810  

         35.84465,34.048783,1799  

         35.843183,34.049117,1794  

         35.8417,34.049133,1799  

         35.8433,34.048933,1803  

         35.842767,34.048967,1806  

         35.841417,34.048983,1812  

         35.842567,34.04885,1812  

         35.844517,34.048467,1813  

         35.845667,34.048517,1811  

         35.843917,34.04925,1799  

         35.841833,34.049867,1791  

         35.841717,34.049867,1807  

         35.84145,34.048933,1815  

         35.842083,34.048883,1811  

         35.84375,34.048683,1813  

         35.84475,34.048467,1812  

         35.843233,34.04965,1796  

         35.840767,34.05025,1774  

         35.838983,34.051667,1740  

         35.837333,34.053167,1706  

         35.835717,34.053967,1692  

         35.834317,34.0548,1677  

         35.833067,34.054883,1676  

         35.832033,34.0541,1693  

         35.831133,34.05345,1699  

         35.829233,34.0531,1697  

         35.826883,34.052767,1687  

         35.824317,34.0516,1680  

         35.824333,34.0517,1769  

         35.824333,34.05175,1876  

         35.82415,34.0517,1989  

         35.824317,34.051617,2094  

         35.823617,34.051967,2197  

         35.824333,34.051783,2305  

         35.8238,34.05185,2409  

         35.823983,34.051933,2518  

         35.823833,34.051783,2631  

         35.824267,34.051017,2700  

         35.826117,34.048283,2660  

         35.8271,34.045317,2619  

         35.828617,34.042683,2583  

         35.829683,34.040017,2549  

         35.829867,34.037167,2511  

         35.829833,34.034133,2471  

         35.830867,34.031217,2430  

         35.832267,34.028283,2390  

         35.833667,34.025333,2349  

         35.83505,34.022433,2309  

         35.836283,34.021067,2265  

         35.83755,34.018083,2223  

         35.839083,34.015233,2183  

         35.840617,34.01235,2143  

         35.84215,34.009467,2102  

         35.843483,34.006533,2062  

         35.84445,34.00355,2025  

         35.844167,34.00145,2036  

         35.843333,33.9994,2043  

         35.842267,33.997467,2052  

         35.841367,33.997583,2049  

         35.840667,33.995467,2069  

         35.840633,33.995683,2178  

         35.840517,33.995783,2287  

         35.840167,33.995967,2384  

         35.84055,33.9956,2472  

         35.84045,33.994033,2501  

         35.839583,33.991033,2457  

         35.838733,33.988017,2414  

         35.83755,33.985167,2370  

         35.835367,33.98295,2326  

         35.833183,33.98075,2282  

         35.831,33.978533,2238  

         35.828967,33.976183,2205  

         35.828433,33.973267,2175  

         35.82955,33.970183,2149  

         35.83025,33.967017,2129  

         35.829583,33.963983,2109  

         35.829367,33.962933,2097  

         36.0793,34.2342,1752  

         36.078917,34.234433,2670  

         36.078,34.233767,2677  

         36.077533,34.233567,2646  

         36.076433,34.233183,2639  

         36.0753,34.231867,2649  

         36.074917,34.23,2661  

         36.073617,34.22905,2668  

         36.071517,34.2284,2664  

         36.069533,34.227567,2660  

         36.067583,34.2259,2653  

         36.06655,34.22365,2660  

         36.066017,34.221467,2642  

         36.064733,34.2197,2622  

         36.0637,34.21715,2601  

         36.062083,34.21475,2578  

         36.06105,34.213567,2558  

         36.058617,34.212183,2545  

         36.056083,34.2114,2537  

         36.0543,34.21065,2532  

         36.0793,34.2342,1752  

         36.079533,34.234017,2667  

         36.079617,34.23395,2666  

         36.0793,34.2342,1752  

         36.078683,34.234867,2674  

         36.078317,34.235783,2683  

         36.077033,34.235467,2695  

         36.075933,34.234567,2695  

         36.074917,34.23385,2687  

         36.074,34.232717,2678  

         36.073133,34.231633,2678  

         36.072133,34.23045,2689  

         36.071067,34.229183,2700  

         36.070017,34.227883,2711  

         36.0691,34.226417,2717  

         36.068433,34.224783,2724  

         36.067733,34.22315,2723  

         36.067,34.2216,2714  

         36.0662,34.220183,2701  

         36.065367,34.218883,2686  

         36.064433,34.217683,2673  

         36.06355,34.216667,2668  

         36.062567,34.215533,2668  

         36.06155,34.214383,2675  

         36.060467,34.213183,2683  

         36.059333,34.212267,2690  

         36.058167,34.211417,2696  

         36.056967,34.210533,2700  

         36.055717,34.209633,2706  

         36.054417,34.208833,2713  

         36.0531,34.20835,2721  

         36.051733,34.2081,2730  

         36.0511,34.207083,2740  

         36.049933,34.206867,2747  

         36.048683,34.206817,2754  

         36.049383,34.207083,2761  

         36.050217,34.20545,2759  

         36.049233,34.205283,2744  

         36.048383,34.205733,2736  

         36.047467,34.206217,2731  

         36.0466,34.206667,2730  

         36.04565,34.207183,2737  

         36.044767,34.207633,2739  

         36.044,34.208,2735  

         36.043133,34.208383,2731  

         36.042267,34.208767,2726  

         36.041267,34.209017,2720  

         36.040217,34.2092,2711  

         36.039183,34.209383,2701  

         36.0382,34.209567,2696  

         36.037133,34.209767,2694  

         36.036167,34.210067,2689  

         36.035383,34.210383,2686  

         36.03455,34.210717,2680  

         36.033783,34.211017,2672  

         36.032933,34.211367,2662  

         36.032117,34.211683,2654  

         36.031067,34.21195,2646  

         36.029967,34.212233,2647  

         36.028933,34.212517,2646  

         36.028017,34.212733,2643  

         36.0268,34.212867,2646  

         36.025667,34.212917,2649  

         36.024533,34.212833,2650  

         36.02345,34.212517,2642  

         36.022483,34.2122,2634  

         36.02155,34.2119,2628  

         36.020483,34.211567,2626  

         36.019283,34.211183,2631  

         36.018017,34.210817,2639  

         36.016767,34.21045,2650  

         36.016017,34.210483,2655  

         36.0179,34.210817,2662  

         36.019667,34.211367,2671  

         36.020633,34.211883,2675  

         36.019383,34.211467,2685  

         36.018167,34.211033,2689  

         36.0194,34.211483,2691  

         36.021267,34.211917,2697  

         36.020467,34.211617,2698  

         36.0195,34.210717,2695  

         36.018533,34.20985,2684  

         36.01765,34.208933,2670  

         36.01685,34.208083,2649  

         36.0161,34.207283,2631  

         36.015517,34.206633,2622  

         36.0146,34.205683,2621  

         36.013983,34.205033,2619  

         36.013417,34.204417,2613  

         36.012967,34.203933,2606  

         36.012533,34.203467,2597  

         36.012017,34.202917,2580  

         36.011517,34.202383,2564  

         36.011067,34.201917,2548  

         36.010533,34.201367,2531  

         36.010017,34.200817,2517  

         36.009433,34.200183,2506  

         36.008433,34.199117,2509  

         36.008667,34.199167,2520  

         36.00935,34.198383,2566  

         36.008317,34.198683,2613  

         36.009633,34.19915,2668  

         36.009383,34.199117,2660  

         36.009367,34.19785,2697  

         36.009667,34.197933,2682  

         36.008817,34.196867,2667  

         36.007983,34.195683,2651  

         36.006967,34.194833,2636  

         36.005917,34.194217,2621  

         36.005033,34.1937,2609  

         36.00435,34.193283,2599  

         36.003583,34.192833,2589  

         36.0028,34.192367,2578  

         36.002133,34.191983,2569  

         36.001533,34.191617,2563  

         36.001,34.191317,2559  

         36.0004,34.190967,2555  

         35.99965,34.190517,2549  

         35.99905,34.190167,2543  

         35.998233,34.189683,2533  

         35.997117,34.18895,2519  

         35.9971,34.188133,2513  

         35.996217,34.187667,2499  

         35.995417,34.186633,2488  

         35.994583,34.18555,2475  

         35.993667,34.18435,2462  

         35.992567,34.182917,2448  

         35.992333,34.182317,2448  

         35.99415,34.182033,2468  

         35.993067,34.180817,2449  

         35.991967,34.179467,2429  

         35.990833,34.178167,2410  

         35.990233,34.1775,2400  

         35.989733,34.176933,2391  

         35.9886,34.17565,2371  

         35.987433,34.17435,2348  

         35.9863,34.173083,2324  

         35.985133,34.171767,2303  

         35.984033,34.170533,2283  

         35.982883,34.169267,2268  

         35.98175,34.167983,2259  

         35.980583,34.166683,2242  

         35.979433,34.165383,2226  

         35.978283,34.164117,2206  

         35.977383,34.1631,2185  

         35.976217,34.1618,2154  

         35.975067,34.160517,2128  

         35.973933,34.159233,2107  

         35.972767,34.157917,2090  

         35.971367,34.15735,2076  

         35.970117,34.157533,2064  

         35.968783,34.156533,2062  

         35.96845,34.157317,2045  

         35.968667,34.158283,2026  

         35.968467,34.158967,2009  

  
</coordinates>
</LineString>
</Placemark>

<Placemark>
  <name>Take off : 14h03
  </name>
  
      <Style>
        <IconStyle>
          <Icon>
            <href>root://icons/palette-5.png</href>
            <x>160</x>
            <y>192</y>
            <w>32</w>
            <h>32</h>
          </Icon>
        </IconStyle>
      </