{
"site" : "Monte Escuro, Ribeira Grande - Sao Miguel",
"id" : 10023,
"orientations" : "22100001",
"forecasts" : { 
	"2019-04-05T03:00:00Z" : {
		"windSpeed" : 7.9,
		"windDir" : 341,
		"rain" : 1,
		"cloudbase" : 1194.18875,
		"flyability" : 0,
		"reason" : "windSpeed, rain",
		"timestamp" :1554433200
		},
	"2019-04-05T06:00:00Z" : {
		"windSpeed" : 7.4,
		"windDir" : 340,
		"rain" : 1,
		"cloudbase" : 1188.1575,
		"flyability" : 0,
		"reason" : "windSpeed, rain",
		"timestamp" :1554444000
		},
	"2019-04-05T09:00:00Z" : {
		"windSpeed" : 7.4,
		"windDir" : 340,
		"rain" : 1,
		"cloudbase" : 1181.85,
		"flyability" : 0,
		"reason" : "windSpeed, rain",
		"timestamp" :1554454800
		},
	"2019-04-05T12:00:00Z" : {
		"windSpeed" : 6.2,
		"windDir" : 326,
		"rain" : 1,
		"cloudbase" : 1094.40375,
		"flyability" : 0,
		"reason" : "windSpeed, rain",
		"timestamp" :1554465600
		},
	"2019-04-05T15:00:00Z" : {
		"windSpeed" : 6.2,
		"windDir" : 317,
		"rain" : 1,
		"cloudbase" : null,
		"flyability" : 0,
		"reason" : "windSpeed, rain",
		"timestamp" :1554476400
		},
	"2019-04-05T18:00:00Z" : {
		"windSpeed" : 5.7,
		"windDir" : 306,
		"rain" : 0,
		"cloudbase" : 944.96925000001,
		"flyability" : 0,
		"reason" : "windSpeed",
		"timestamp" :1554487200
		},
	"2019-04-05T21:00:00Z" : {
		"windSpeed" : 4.3,
		"windDir" : 292,
		"rain" : 0,
		"cloudbase" : null,
		"flyability" : 0,
		"reason" : "windDir",
		"timestamp" :1554498000
		},
	"2019-04-06T00:00:00Z" : {
		"windSpeed" : 3.1,
		"windDir" : 273,
		"rain" : 0,
		"cloudbase" : null,
		"flyability" : 0,
		"reason" : "windDir",
		"timestamp" :1554508800
		},
	"2019-04-06T03:00:00Z" : {
		"windSpeed" : 3.2,
		"windDir" : 274,
		"rain" : 0,
		"cloudbase" : null,
		"flyability" : 0,
		"reason" : "windDir",
		"timestamp" :1554519600
		},
	"2019-04-06T06:00:00Z" : {
		"windSpeed" : 3.3,
		"windDir" : 265,
		"rain" : 0,
		"cloudbase" : null,
		"flyability" : 0,
		"reason" : "windDir",
		"timestamp" :1554530400
		},
	"2019-04-06T09:00:00Z" : {
		"windSpeed" : 5.3,
		"windDir" : 266,
		"rain" : 0,
		"cloudbase" : 980,
		"flyability" : 0,
		"reason" : "windSpeed, windDir",
		"timestamp" :1554541200
		},
	"2019-04-06T12:00:00Z" : {
		"windSpeed" : 6.4,
		"windDir" : 257,
		"rain" : 1,
		"cloudbase" : 720,
		"flyability" : 0,
		"reason" : "windSpeed, windDir, rain, cloudbase",
		"timestamp" :1554552000
		},
	"2019-04-06T15:00:00Z" : {
		"windSpeed" : 7.3,
		"windDir" : 250,
		"rain" : 1,
		"cloudbase" : 800,
		"flyability" : 0,
		"reason" : "windSpeed, windDir, rain, cloudbase",
		"timestamp" :1554562800
		},
	"2019-04-06T18:00:00Z" : {
		"windSpeed" : 8.3,
		"windDir" : 249,
		"rain" : 1,
		"cloudbase" : null,
		"flyability" : 0,
		"reason" : "windSpeed, windDir, rain",
		"timestamp" :1554573600
		},
	"2019-04-06T21:00:00Z" : {
		"windSpeed" : 6.7,
		"windDir" : 243,
		"rain" : 1,
		"cloudbase" : 6315.8775,
		"flyability" : 0,
		"reason" : "windSpeed, windDir, rain",
		"timestamp" :1554584400
		},
	"2019-04-07T00:00:00Z" : {
		"windSpeed" : 7.3,
		"windDir" : 266,
		"rain" : 1,
		"cloudbase" : 251.19300000001,
		"flyability" : 0,
		"reason" : "windSpeed, windDir, rain, cloudbase",
		"timestamp" :1554595200
		},
	"2019-04-07T03:00:00Z" : {
		"windSpeed" : 7.8,
		"windDir" : 315,
		"rain" : 1,
		"cloudbase" : 1787.825,
		"flyability" : 0,
		"reason" : "windSpeed, rain",
		"timestamp" :1554606000
		},
	"2019-04-07T06:00:00Z" : {
		"windSpeed" : 7,
		"windDir" : 315,
		"rain" : 1,
		"cloudbase" : 7907.7075,
		"flyability" : 0,
		"reason" : "windSpeed, rain",
		"timestamp" :1554616800
		},
	"2019-04-07T09:00:00Z" : {
		"windSpeed" : 7.1,
		"windDir" : 309,
		"rain" : 0,
		"cloudbase" : null,
		"flyability" : 0,
		"reason" : "windSpeed",
		"timestamp" :1554627600
		},
	"2019-04-07T12:00:00Z" : {
		"windSpeed" : 7.1,
		"windDir" : 309,
		"rain" : 0,
		"cloudbase" : 1402.6075,
		"flyability" : 0,
		"reason" : "windSpeed",
		"timestamp" :1554638400
		},
	"2019-04-07T15:00:00Z" : {
		"windSpeed" : 6.8,
		"windDir" : 305,
		"rain" : 0,
		"cloudbase" : 1481.415,
		"flyability" : 0,
		"reason" : "windSpeed",
		"timestamp" :1554649200
		},
	"2019-04-07T18:00:00Z" : {
		"windSpeed" : 6.6,
		"windDir" : 293,
		"rain" : 1,
		"cloudbase" : 1700,
		"flyability" : 0,
		"reason" : "windSpeed, rain",
		"timestamp" :1554660000
		},
	"2019-04-07T21:00:00Z" : {
		"windSpeed" : 5.5,
		"windDir" : 293,
		"rain" : 1,
		"cloudbase" : 2050,
		"flyability" : 0,
		"reason" : "windSpeed, rain",
		"timestamp" :1554670800
		},
	"2019-04-08T00:00:00Z" : {
		"windSpeed" : 5.3,
		"windDir" : 293,
		"rain" : 0,
		"cloudbase" : null,
		"flyability" : 0,
		"reason" : "windSpeed",
		"timestamp" :1554681600
		},
	"2019-04-08T03:00:00Z" : {
		"windSpeed" : 4.8,
		"windDir" : 302,
		"rain" : 1,
		"cloudbase" : 7072.6099999999,
		"flyability" : 0,
		"reason" : "rain",
		"timestamp" :1554692400
		},
	"2019-04-08T06:00:00Z" : {
		"windSpeed" : 4.6,
		"windDir" : 304,
		"rain" : 0,
		"cloudbase" : 7033.8075,
		"flyability" : 100,
		"reason" : "",
		"timestamp" :1554703200
		},
	"2019-04-08T09:00:00Z" : {
		"windSpeed" : 4.9,
		"windDir" : 314,
		"rain" : 0,
		"cloudbase" : null,
		"flyability" : 100,
		"reason" : "",
		"timestamp" :1554714000
		},
	"2019-04-08T12:00:00Z" : {
		"windSpeed" : 4.3,
		"windDir" : 323,
		"rain" : 1,
		"cloudbase" : 1558.7,
		"flyability" : 0,
		"reason" : "rain",
		"timestamp" :1554724800
		},
	"2019-04-08T15:00:00Z" : {
		"windSpeed" : 3.8,
		"windDir" : 316,
		"rain" : 1,
		"cloudbase" : 1445.6,
		"flyability" : 0,
		"reason" : "rain",
		"timestamp" :1554735600
		},
	"2019-04-08T18:00:00Z" : {
		"windSpeed" : 3,
		"windDir" : 307,
		"rain" : 0,
		"cloudbase" : 1249.95,
		"flyability" : 100,
		"reason" : "",
		"timestamp" :1554746400
		},
	"2019-04-08T21:00:00Z" : {
		"windSpeed" : 1.2,
		"windDir" : 250,
		"rain" : 0,
		"cloudbase" : null,
		"flyability" : 0,
		"reason" : "windDir",
		"timestamp" :1554757200
		},
	"2019-04-09T00:00:00Z" : {
		"windSpeed" : 1.6,
		"windDir" : 226,
		"rain" : 0,
		"cloudbase" : 1300,
		"flyability" : 0,
		"reason" : "windDir",
		"timestamp" :1554768000
		},
	"2019-04-09T03:00:00Z" : {
		"windSpeed" : 2.6,
		"windDir" : 207,
		"rain" : 0,
		"cloudbase" : 1238.1575,
		"flyability" : 0,
		"reason" : "windDir",
		"timestamp" :1554778800
		},
	"2019-04-09T06:00:00Z" : {
		"windSpeed" : 3.2,
		"windDir" : 212,
		"rain" : 0,
		"cloudbase" : 1416.90375,
		"flyability" : 0,
		"reason" : "windDir",
		"timestamp" :1554789600
		},
	"2019-04-09T09:00:00Z" : {
		"windSpeed" : 4.5,
		"windDir" : 225,
		"rain" : 0,
		"cloudbase" : 1478.69625,
		"flyability" : 0,
		"reason" : "windDir",
		"timestamp" :1554800400
		},
	"2019-04-09T12:00:00Z" : {
		"windSpeed" : 5.9,
		"windDir" : 217,
		"rain" : 0,
		"cloudbase" : 1450,
		"flyability" : 0,
		"reason" : "windSpeed, windDir",
		"timestamp" :1554811200
		},
	"2019-04-09T15:00:00Z" : {
		"windSpeed" : 6.7,
		"windDir" : 218,
		"rain" : 1,
		"cloudbase" : 1976.1462499999,
		"flyability" : 0,
		"reason" : "windSpeed, windDir, rain",
		"timestamp" :1554822000
		},
	"2019-04-09T18:00:00Z" : {
		"windSpeed" : 7,
		"windDir" : 216,
		"rain" : 0,
		"cloudbase" : 1100,
		"flyability" : 0,
		"reason" : "windSpeed, windDir",
		"timestamp" :1554832800
		},
	"2019-04-09T21:00:00Z" : {
		"windSpeed" : 5.2,
		"windDir" : 205,
		"rain" : 0,
		"cloudbase" : null,
		"flyability" : 0,
		"reason" : "windSpeed, windDir",
		"timestamp" :1554843600
		},
	"2019-04-10T00:00:00Z" : {
		"windSpeed" : 6.1,
		"windDir" : 200,
		"rain" : 0,
		"cloudbase" : 10531.5375,
		"flyability" : 0,
		"reason" : "windSpeed, windDir",
		"timestamp" :1554854400
		},
	"2019-04-10T03:00:00Z" : {
		"windSpeed" : 7.2,
		"windDir" : 202,
		"rain" : 1,
		"cloudbase" : 2050,
		"flyability" : 0,
		"reason" : "windSpeed, windDir, rain",
		"timestamp" :1554865200
		},
	"2019-04-10T06:00:00Z" : {
		"windSpeed" : 6.4,
		"windDir" : 204,
		"rain" : 1,
		"cloudbase" : 493.80625,
		"flyability" : 0,
		"reason" : "windSpeed, windDir, rain, cloudbase",
		"timestamp" :1554876000
		},
	"2019-04-10T09:00:00Z" : {
		"windSpeed" : 4.4,
		"windDir" : 252,
		"rain" : 1,
		"cloudbase" : 329.12350000005,
		"flyability" : 0,
		"reason" : "windDir, rain, cloudbase",
		"timestamp" :1554886800
		},
	"2019-04-10T12:00:00Z" : {
		"windSpeed" : 4.5,
		"windDir" : 250,
		"rain" : 1,
		"cloudbase" : 1972.4112499999,
		"flyability" : 0,
		"reason" : "windDir, rain",
		"timestamp" :1554897600
		},
	"2019-04-10T15:00:00Z" : {
		"windSpeed" : 4.7,
		"windDir" : 229,
		"rain" : 1,
		"cloudbase" : 1237.66125,
		"flyability" : 0,
		"reason" : "windDir, rain",
		"timestamp" :1554908400
		},
	"2019-04-10T18:00:00Z" : {
		"windSpeed" : 3.3,
		"windDir" : 218,
		"rain" : 0,
		"cloudbase" : 1941.1062499998,
		"flyability" : 0,
		"reason" : "windDir",
		"timestamp" :1554919200
		},
	"2019-04-10T21:00:00Z" : {
		"windSpeed" : 2.6,
		"windDir" : 220,
		"rain" : 1,
		"cloudbase" : 2378.09625,
		"flyability" : 0,
		"reason" : "windDir, rain",
		"timestamp" :1554930000
		},
	"2019-04-11T00:00:00Z" : {
		"windSpeed" : 5,
		"windDir" : 228,
		"rain" : 0,
		"cloudbase" : 1762.82125,
		"flyability" : 0,
		"reason" : "windDir",
		"timestamp" :1554940800
		}
	}
}