{
"site" : " Mount Puncak (Gunung Mas Puncak)",
"id" : 10067,
"orientations" : "00000222",
"forecasts" : { 
	"2019-04-04T10:00:00+07:00" : {
		"windSpeed" : 0.7,
		"windDir" : 78,
		"rain" : 1,
		"cloudbase" : null,
		"flyability" : 0,
		"reason" : "windDir, rain",
		"timestamp" :1554343200
		},
	"2019-04-04T13:00:00+07:00" : {
		"windSpeed" : 1.2,
		"windDir" : 328,
		"rain" : 1,
		"cloudbase" : 700,
		"flyability" : 0,
		"reason" : "rain, cloudbase",
		"timestamp" :1554354000
		},
	"2019-04-04T16:00:00+07:00" : {
		"windSpeed" : 1.2,
		"windDir" : 245,
		"rain" : 0,
		"cloudbase" : 581.20620000002,
		"flyability" : 0,
		"reason" : "cloudbase",
		"timestamp" :1554364800
		},
	"2019-04-04T19:00:00+07:00" : {
		"windSpeed" : 0.4,
		"windDir" : 168,
		"rain" : 0,
		"cloudbase" : 3257.3799999996,
		"flyability" : 0,
		"reason" : "windDir",
		"timestamp" :1554375600
		},
	"2019-04-04T22:00:00+07:00" : {
		"windSpeed" : 0.6,
		"windDir" : 97,
		"rain" : 1,
		"cloudbase" : 977.0959200004,
		"flyability" : 0,
		"reason" : "windDir, rain, cloudbase",
		"timestamp" :1554386400
		},
	"2019-04-05T01:00:00+07:00" : {
		"windSpeed" : 0.7,
		"windDir" : 45,
		"rain" : 1,
		"cloudbase" : 838.49108000018,
		"flyability" : 0,
		"reason" : "windDir, rain, cloudbase",
		"timestamp" :1554397200
		},
	"2019-04-05T04:00:00+07:00" : {
		"windSpeed" : 0.7,
		"windDir" : 125,
		"rain" : 1,
		"cloudbase" : 8702.7416000008,
		"flyability" : 0,
		"reason" : "windDir, rain",
		"timestamp" :1554408000
		},
	"2019-04-05T07:00:00+07:00" : {
		"windSpeed" : 1.4,
		"windDir" : 43,
		"rain" : 0,
		"cloudbase" : 11008.19,
		"flyability" : 0,
		"reason" : "windDir",
		"timestamp" :1554418800
		},
	"2019-04-05T10:00:00+07:00" : {
		"windSpeed" : 2.2,
		"windDir" : 22,
		"rain" : 0,
		"cloudbase" : 560,
		"flyability" : 0,
		"reason" : "windDir, cloudbase",
		"timestamp" :1554429600
		},
	"2019-04-05T13:00:00+07:00" : {
		"windSpeed" : 2.1,
		"windDir" : 358,
		"rain" : 1,
		"cloudbase" : 10830.5952,
		"flyability" : 0,
		"reason" : "windDir, rain",
		"timestamp" :1554440400
		},
	"2019-04-05T16:00:00+07:00" : {
		"windSpeed" : 1,
		"windDir" : 355,
		"rain" : 1,
		"cloudbase" : 3650.3836000026,
		"flyability" : 0,
		"reason" : "windDir, rain",
		"timestamp" :1554451200
		},
	"2019-04-05T19:00:00+07:00" : {
		"windSpeed" : 0.4,
		"windDir" : 270,
		"rain" : 1,
		"cloudbase" : 1092.9659600019,
		"flyability" : 0,
		"reason" : "rain, cloudbase",
		"timestamp" :1554462000
		},
	"2019-04-05T22:00:00+07:00" : {
		"windSpeed" : 0.1,
		"windDir" : 90,
		"rain" : 0,
		"cloudbase" : 13000,
		"flyability" : 0,
		"reason" : "windDir",
		"timestamp" :1554472800
		},
	"2019-04-06T01:00:00+07:00" : {
		"windSpeed" : 0.5,
		"windDir" : 322,
		"rain" : 0,
		"cloudbase" : 8539.6500000001,
		"flyability" : 100,
		"reason" : "",
		"timestamp" :1554483600
		},
	"2019-04-06T04:00:00+07:00" : {
		"windSpeed" : 0.5,
		"windDir" : 180,
		"rain" : 0,
		"cloudbase" : null,
		"flyability" : 0,
		"reason" : "windDir",
		"timestamp" :1554494400
		},
	"2019-04-06T07:00:00+07:00" : {
		"windSpeed" : 0.1,
		"windDir" : 135,
		"rain" : 0,
		"cloudbase" : null,
		"flyability" : 0,
		"reason" : "windDir",
		"timestamp" :1554505200
		},
	"2019-04-06T10:00:00+07:00" : {
		"windSpeed" : 0.8,
		"windDir" : 293,
		"rain" : 0,
		"cloudbase" : null,
		"flyability" : 100,
		"reason" : "",
		"timestamp" :1554516000
		},
	"2019-04-06T13:00:00+07:00" : {
		"windSpeed" : 1.3,
		"windDir" : 287,
		"rain" : 1,
		"cloudbase" : 980,
		"flyability" : 0,
		"reason" : "rain, cloudbase",
		"timestamp" :1554526800
		},
	"2019-04-06T16:00:00+07:00" : {
		"windSpeed" : 0.4,
		"windDir" : 196,
		"rain" : 0,
		"cloudbase" : 3189.8158400022,
		"flyability" : 0,
		"reason" : "windDir",
		"timestamp" :1554537600
		},
	"2019-04-06T19:00:00+07:00" : {
		"windSpeed" : 1.2,
		"windDir" : 181,
		"rain" : 1,
		"cloudbase" : 8959.00376,
		"flyability" : 0,
		"reason" : "windDir, rain",
		"timestamp" :1554548400
		},
	"2019-04-06T22:00:00+07:00" : {
		"windSpeed" : 1.2,
		"windDir" : 193,
		"rain" : 0,
		"cloudbase" : 16000,
		"flyability" : 0,
		"reason" : "windDir",
		"timestamp" :1554559200
		},
	"2019-04-07T01:00:00+07:00" : {
		"windSpeed" : 0.7,
		"windDir" : 168,
		"rain" : 0,
		"cloudbase" : 12500,
		"flyability" : 0,
		"reason" : "windDir",
		"timestamp" :1554570000
		},
	"2019-04-07T04:00:00+07:00" : {
		"windSpeed" : 0.7,
		"windDir" : 167,
		"rain" : 1,
		"cloudbase" : 12000,
		"flyability" : 0,
		"reason" : "windDir, rain",
		"timestamp" :1554580800
		},
	"2019-04-07T07:00:00+07:00" : {
		"windSpeed" : 0.8,
		"windDir" : 140,
		"rain" : 0,
		"cloudbase" : 11578.664,
		"flyability" : 0,
		"reason" : "windDir",
		"timestamp" :1554591600
		},
	"2019-04-07T10:00:00+07:00" : {
		"windSpeed" : 0.4,
		"windDir" : 108,
		"rain" : 0,
		"cloudbase" : null,
		"flyability" : 0,
		"reason" : "windDir",
		"timestamp" :1554602400
		},
	"2019-04-07T13:00:00+07:00" : {
		"windSpeed" : 0.9,
		"windDir" : 295,
		"rain" : 0,
		"cloudbase" : 1600,
		"flyability" : 100,
		"reason" : "",
		"timestamp" :1554613200
		},
	"2019-04-07T16:00:00+07:00" : {
		"windSpeed" : 1.2,
		"windDir" : 185,
		"rain" : 0,
		"cloudbase" : 6282.6376800006,
		"flyability" : 0,
		"reason" : "windDir",
		"timestamp" :1554624000
		},
	"2019-04-07T19:00:00+07:00" : {
		"windSpeed" : 1.2,
		"windDir" : 177,
		"rain" : 1,
		"cloudbase" : 6423.7372400007,
		"flyability" : 0,
		"reason" : "windDir, rain",
		"timestamp" :1554634800
		},
	"2019-04-07T22:00:00+07:00" : {
		"windSpeed" : 0.3,
		"windDir" : 239,
		"rain" : 1,
		"cloudbase" : 8999.6740000002,
		"flyability" : 0,
		"reason" : "rain",
		"timestamp" :1554645600
		},
	"2019-04-08T01:00:00+07:00" : {
		"windSpeed" : 0.7,
		"windDir" : 174,
		"rain" : 1,
		"cloudbase" : 9200,
		"flyability" : 0,
		"reason" : "windDir, rain",
		"timestamp" :1554656400
		},
	"2019-04-08T04:00:00+07:00" : {
		"windSpeed" : 1.2,
		"windDir" : 173,
		"rain" : 0,
		"cloudbase" : 9194.6612000001,
		"flyability" : 0,
		"reason" : "windDir",
		"timestamp" :1554667200
		},
	"2019-04-08T07:00:00+07:00" : {
		"windSpeed" : 0.3,
		"windDir" : 168,
		"rain" : 0,
		"cloudbase" : 11001.336,
		"flyability" : 0,
		"reason" : "windDir",
		"timestamp" :1554678000
		},
	"2019-04-08T10:00:00+07:00" : {
		"windSpeed" : 0.8,
		"windDir" : 301,
		"rain" : 0,
		"cloudbase" : 10578.664,
		"flyability" : 100,
		"reason" : "",
		"timestamp" :1554688800
		},
	"2019-04-08T13:00:00+07:00" : {
		"windSpeed" : 1.6,
		"windDir" : 287,
		"rain" : 1,
		"cloudbase" : 7165.1300000008,
		"flyability" : 0,
		"reason" : "rain",
		"timestamp" :1554699600
		},
	"2019-04-08T16:00:00+07:00" : {
		"windSpeed" : 0.8,
		"windDir" : 217,
		"rain" : 1,
		"cloudbase" : 10501.336,
		"flyability" : 0,
		"reason" : "rain",
		"timestamp" :1554710400
		},
	"2019-04-08T19:00:00+07:00" : {
		"windSpeed" : 1.2,
		"windDir" : 173,
		"rain" : 0,
		"cloudbase" : 10464.93,
		"flyability" : 0,
		"reason" : "windDir",
		"timestamp" :1554721200
		},
	"2019-04-08T22:00:00+07:00" : {
		"windSpeed" : 0.7,
		"windDir" : 202,
		"rain" : 1,
		"cloudbase" : 9910.9222,
		"flyability" : 0,
		"reason" : "windDir, rain",
		"timestamp" :1554732000
		},
	"2019-04-09T01:00:00+07:00" : {
		"windSpeed" : 0.5,
		"windDir" : 315,
		"rain" : 1,
		"cloudbase" : 9969.8703999999,
		"flyability" : 0,
		"reason" : "rain",
		"timestamp" :1554742800
		},
	"2019-04-09T04:00:00+07:00" : {
		"windSpeed" : 0.7,
		"windDir" : 168,
		"rain" : 1,
		"cloudbase" : 16000,
		"flyability" : 0,
		"reason" : "windDir, rain",
		"timestamp" :1554753600
		},
	"2019-04-09T07:00:00+07:00" : {
		"windSpeed" : 1.2,
		"windDir" : 177,
		"rain" : 0,
		"cloudbase" : 15949.566,
		"flyability" : 0,
		"reason" : "windDir",
		"timestamp" :1554764400
		},
	"2019-04-09T10:00:00+07:00" : {
		"windSpeed" : 1.4,
		"windDir" : 212,
		"rain" : 1,
		"cloudbase" : 4499.8712000025,
		"flyability" : 0,
		"reason" : "rain",
		"timestamp" :1554775200
		},
	"2019-04-09T13:00:00+07:00" : {
		"windSpeed" : 0.7,
		"windDir" : 248,
		"rain" : 1,
		"cloudbase" : 11587.014,
		"flyability" : 0,
		"reason" : "rain",
		"timestamp" :1554786000
		},
	"2019-04-09T16:00:00+07:00" : {
		"windSpeed" : 0.7,
		"windDir" : 254,
		"rain" : 1,
		"cloudbase" : 9586.7844800008,
		"flyability" : 0,
		"reason" : "rain",
		"timestamp" :1554796800
		},
	"2019-04-09T19:00:00+07:00" : {
		"windSpeed" : 1.2,
		"windDir" : 202,
		"rain" : 1,
		"cloudbase" : 11800.38156,
		"flyability" : 0,
		"reason" : "windDir, rain",
		"timestamp" :1554807600
		},
	"2019-04-09T22:00:00+07:00" : {
		"windSpeed" : 1.2,
		"windDir" : 200,
		"rain" : 1,
		"cloudbase" : 6309.3537999984,
		"flyability" : 0,
		"reason" : "windDir, rain",
		"timestamp" :1554818400
		},
	"2019-04-10T01:00:00+07:00" : {
		"windSpeed" : 0.7,
		"windDir" : 167,
		"rain" : 1,
		"cloudbase" : 11464.93,
		"flyability" : 0,
		"reason" : "windDir, rain",
		"timestamp" :1554829200
		},
	"2019-04-10T04:00:00+07:00" : {
		"windSpeed" : 1.2,
		"windDir" : 192,
		"rain" : 1,
		"cloudbase" : 11500,
		"flyability" : 0,
		"reason" : "windDir, rain",
		"timestamp" :1554840000
		},
	"2019-04-10T07:00:00+07:00" : {
		"windSpeed" : 1.4,
		"windDir" : 214,
		"rain" : 0,
		"cloudbase" : 11580,
		"flyability" : 100,
		"reason" : "",
		"timestamp" :1554850800
		}
	}
}