{
"site" : "Shelley Beach",
"id" : 10096,
"orientations" : "00000000",
"forecasts" : { 
	"2019-04-18T23:00:00+08:00" : {
		"windSpeed" : 6.4,
		"windDir" : 330,
		"rain" : 0,
		"cloudbase" : null,
		"flyability" : -0,
		"reason" : "windSpeed, orientationsUnknown",
		"timestamp" :1555603200
		},
	"2019-04-19T02:00:00+08:00" : {
		"windSpeed" : 14.1,
		"windDir" : 203,
		"rain" : 1,
		"cloudbase" : 466.64020000005,
		"flyability" : -0,
		"reason" : "windSpeed, orientationsUnknown, rain",
		"timestamp" :1555614000
		},
	"2019-04-19T05:00:00+08:00" : {
		"windSpeed" : 13.2,
		"windDir" : 215,
		"rain" : 1,
		"cloudbase" : 3013.5484999999,
		"flyability" : -0,
		"reason" : "windSpeed, orientationsUnknown, rain",
		"timestamp" :1555624800
		},
	"2019-04-19T08:00:00+08:00" : {
		"windSpeed" : 10.2,
		"windDir" : 226,
		"rain" : 1,
		"cloudbase" : 3500,
		"flyability" : -0,
		"reason" : "windSpeed, orientationsUnknown, rain",
		"timestamp" :1555635600
		},
	"2019-04-19T11:00:00+08:00" : {
		"windSpeed" : 9.5,
		"windDir" : 244,
		"rain" : 1,
		"cloudbase" : 3705.2005,
		"flyability" : -0,
		"reason" : "windSpeed, orientationsUnknown, rain",
		"timestamp" :1555646400
		},
	"2019-04-19T14:00:00+08:00" : {
		"windSpeed" : 10.5,
		"windDir" : 248,
		"rain" : 1,
		"cloudbase" : 4523.8165000001,
		"flyability" : -0,
		"reason" : "windSpeed, orientationsUnknown, rain",
		"timestamp" :1555657200
		},
	"2019-04-19T17:00:00+08:00" : {
		"windSpeed" : 10.9,
		"windDir" : 244,
		"rain" : 1,
		"cloudbase" : 4150,
		"flyability" : -0,
		"reason" : "windSpeed, orientationsUnknown, rain",
		"timestamp" :1555668000
		},
	"2019-04-19T20:00:00+08:00" : {
		"windSpeed" : 8.1,
		"windDir" : 250,
		"rain" : 1,
		"cloudbase" : 1050,
		"flyability" : -0,
		"reason" : "windSpeed, orientationsUnknown, rain",
		"timestamp" :1555678800
		},
	"2019-04-19T23:00:00+08:00" : {
		"windSpeed" : 7.4,
		"windDir" : 245,
		"rain" : 1,
		"cloudbase" : 4200,
		"flyability" : -0,
		"reason" : "windSpeed, orientationsUnknown, rain",
		"timestamp" :1555689600
		},
	"2019-04-20T02:00:00+08:00" : {
		"windSpeed" : 10.5,
		"windDir" : 217,
		"rain" : 1,
		"cloudbase" : 3500,
		"flyability" : -0,
		"reason" : "windSpeed, orientationsUnknown, rain",
		"timestamp" :1555700400
		},
	"2019-04-20T05:00:00+08:00" : {
		"windSpeed" : 10.1,
		"windDir" : 213,
		"rain" : 1,
		"cloudbase" : null,
		"flyability" : -0,
		"reason" : "windSpeed, orientationsUnknown, rain",
		"timestamp" :1555711200
		},
	"2019-04-20T08:00:00+08:00" : {
		"windSpeed" : 9.8,
		"windDir" : 214,
		"rain" : 1,
		"cloudbase" : 2800,
		"flyability" : -0,
		"reason" : "windSpeed, orientationsUnknown, rain",
		"timestamp" :1555722000
		},
	"2019-04-20T11:00:00+08:00" : {
		"windSpeed" : 9,
		"windDir" : 218,
		"rain" : 1,
		"cloudbase" : 1578.5,
		"flyability" : -0,
		"reason" : "windSpeed, orientationsUnknown, rain",
		"timestamp" :1555732800
		},
	"2019-04-20T14:00:00+08:00" : {
		"windSpeed" : 7.6,
		"windDir" : 221,
		"rain" : 0,
		"cloudbase" : 1765.3005,
		"flyability" : -0,
		"reason" : "windSpeed, orientationsUnknown",
		"timestamp" :1555743600
		},
	"2019-04-20T17:00:00+08:00" : {
		"windSpeed" : 5.8,
		"windDir" : 217,
		"rain" : 1,
		"cloudbase" : 1563.5335,
		"flyability" : -0,
		"reason" : "windSpeed, orientationsUnknown, rain",
		"timestamp" :1555754400
		},
	"2019-04-20T20:00:00+08:00" : {
		"windSpeed" : 4.3,
		"windDir" : 224,
		"rain" : 1,
		"cloudbase" : 1599.1165,
		"flyability" : -0,
		"reason" : "orientationsUnknown, rain",
		"timestamp" :1555765200
		},
	"2019-04-20T23:00:00+08:00" : {
		"windSpeed" : 3.7,
		"windDir" : 225,
		"rain" : 1,
		"cloudbase" : null,
		"flyability" : -0,
		"reason" : "orientationsUnknown, rain",
		"timestamp" :1555776000
		},
	"2019-04-21T02:00:00+08:00" : {
		"windSpeed" : 3.5,
		"windDir" : 321,
		"rain" : 1,
		"cloudbase" : 1450.8835,
		"flyability" : -0,
		"reason" : "orientationsUnknown, rain",
		"timestamp" :1555786800
		},
	"2019-04-21T05:00:00+08:00" : {
		"windSpeed" : 4.8,
		"windDir" : 327,
		"rain" : 1,
		"cloudbase" : null,
		"flyability" : -0,
		"reason" : "orientationsUnknown, rain",
		"timestamp" :1555797600
		},
	"2019-04-21T08:00:00+08:00" : {
		"windSpeed" : 4.7,
		"windDir" : 331,
		"rain" : 1,
		"cloudbase" : null,
		"flyability" : -0,
		"reason" : "orientationsUnknown, rain",
		"timestamp" :1555808400
		},
	"2019-04-21T11:00:00+08:00" : {
		"windSpeed" : 3.6,
		"windDir" : 315,
		"rain" : 0,
		"cloudbase" : 12008.835,
		"flyability" : -50,
		"reason" : "orientationsUnknown",
		"timestamp" :1555819200
		},
	"2019-04-21T14:00:00+08:00" : {
		"windSpeed" : 2.3,
		"windDir" : 245,
		"rain" : 0,
		"cloudbase" : 8005.7,
		"flyability" : -50,
		"reason" : "orientationsUnknown",
		"timestamp" :1555830000
		},
	"2019-04-21T17:00:00+08:00" : {
		"windSpeed" : 1.7,
		"windDir" : 212,
		"rain" : 1,
		"cloudbase" : null,
		"flyability" : -0,
		"reason" : "orientationsUnknown, rain",
		"timestamp" :1555840800
		},
	"2019-04-21T20:00:00+08:00" : {
		"windSpeed" : 1.9,
		"windDir" : 51,
		"rain" : 1,
		"cloudbase" : null,
		"flyability" : -0,
		"reason" : "orientationsUnknown, rain",
		"timestamp" :1555851600
		},
	"2019-04-21T23:00:00+08:00" : {
		"windSpeed" : 3.2,
		"windDir" : 39,
		"rain" : 1,
		"cloudbase" : null,
		"flyability" : -0,
		"reason" : "orientationsUnknown, rain",
		"timestamp" :1555862400
		},
	"2019-04-22T02:00:00+08:00" : {
		"windSpeed" : 3.6,
		"windDir" : 352,
		"rain" : 0,
		"cloudbase" : 11500,
		"flyability" : -50,
		"reason" : "orientationsUnknown",
		"timestamp" :1555873200
		},
	"2019-04-22T05:00:00+08:00" : {
		"windSpeed" : 4.7,
		"windDir" : 345,
		"rain" : 1,
		"cloudbase" : 11500,
		"flyability" : -0,
		"reason" : "orientationsUnknown, rain",
		"timestamp" :1555884000
		},
	"2019-04-22T08:00:00+08:00" : {
		"windSpeed" : 5.7,
		"windDir" : 348,
		"rain" : 0,
		"cloudbase" : 12000,
		"flyability" : -0,
		"reason" : "windSpeed, orientationsUnknown",
		"timestamp" :1555894800
		},
	"2019-04-22T11:00:00+08:00" : {
		"windSpeed" : 5.4,
		"windDir" : 313,
		"rain" : 0,
		"cloudbase" : null,
		"flyability" : -0,
		"reason" : "windSpeed, orientationsUnknown",
		"timestamp" :1555905600
		},
	"2019-04-22T14:00:00+08:00" : {
		"windSpeed" : 5.8,
		"windDir" : 239,
		"rain" : 0,
		"cloudbase" : null,
		"flyability" : -0,
		"reason" : "windSpeed, orientationsUnknown",
		"timestamp" :1555916400
		},
	"2019-04-22T17:00:00+08:00" : {
		"windSpeed" : 7.7,
		"windDir" : 262,
		"rain" : 0,
		"cloudbase" : null,
		"flyability" : -0,
		"reason" : "windSpeed, orientationsUnknown",
		"timestamp" :1555927200
		},
	"2019-04-22T20:00:00+08:00" : {
		"windSpeed" : 5.4,
		"windDir" : 290,
		"rain" : 0,
		"cloudbase" : null,
		"flyability" : -0,
		"reason" : "windSpeed, orientationsUnknown",
		"timestamp" :1555938000
		},
	"2019-04-22T23:00:00+08:00" : {
		"windSpeed" : 4.9,
		"windDir" : 301,
		"rain" : 0,
		"cloudbase" : 10000,
		"flyability" : -50,
		"reason" : "orientationsUnknown",
		"timestamp" :1555948800
		},
	"2019-04-23T02:00:00+08:00" : {
		"windSpeed" : 4.2,
		"windDir" : 290,
		"rain" : 0,
		"cloudbase" : null,
		"flyability" : -50,
		"reason" : "orientationsUnknown",
		"timestamp" :1555959600
		},
	"2019-04-23T05:00:00+08:00" : {
		"windSpeed" : 3.9,
		"windDir" : 308,
		"rain" : 0,
		"cloudbase" : null,
		"flyability" : -50,
		"reason" : "orientationsUnknown",
		"timestamp" :1555970400
		},
	"2019-04-23T08:00:00+08:00" : {
		"windSpeed" : 3.6,
		"windDir" : 302,
		"rain" : 1,
		"cloudbase" : null,
		"flyability" : -0,
		"reason" : "orientationsUnknown, rain",
		"timestamp" :1555981200
		},
	"2019-04-23T11:00:00+08:00" : {
		"windSpeed" : 4.6,
		"windDir" : 264,
		"rain" : 0,
		"cloudbase" : null,
		"flyability" : -50,
		"reason" : "orientationsUnknown",
		"timestamp" :1555992000
		},
	"2019-04-23T14:00:00+08:00" : {
		"windSpeed" : 5.7,
		"windDir" : 218,
		"rain" : 0,
		"cloudbase" : null,
		"flyability" : -0,
		"reason" : "windSpeed, orientationsUnknown",
		"timestamp" :1556002800
		},
	"2019-04-23T17:00:00+08:00" : {
		"windSpeed" : 5.1,
		"windDir" : 233,
		"rain" : 0,
		"cloudbase" : null,
		"flyability" : -0,
		"reason" : "windSpeed, orientationsUnknown",
		"timestamp" :1556013600
		},
	"2019-04-23T20:00:00+08:00" : {
		"windSpeed" : 4.5,
		"windDir" : 241,
		"rain" : 0,
		"cloudbase" : null,
		"flyability" : -50,
		"reason" : "orientationsUnknown",
		"timestamp" :1556024400
		},
	"2019-04-23T23:00:00+08:00" : {
		"windSpeed" : 3.3,
		"windDir" : 247,
		"rain" : 0,
		"cloudbase" : 1349.1165,
		"flyability" : -50,
		"reason" : "orientationsUnknown",
		"timestamp" :1556035200
		},
	"2019-04-24T02:00:00+08:00" : {
		"windSpeed" : 2.5,
		"windDir" : 317,
		"rain" : 0,
		"cloudbase" : 1350,
		"flyability" : -50,
		"reason" : "orientationsUnknown",
		"timestamp" :1556046000
		},
	"2019-04-24T05:00:00+08:00" : {
		"windSpeed" : 3.1,
		"windDir" : 337,
		"rain" : 0,
		"cloudbase" : null,
		"flyability" : -50,
		"reason" : "orientationsUnknown",
		"timestamp" :1556056800
		},
	"2019-04-24T08:00:00+08:00" : {
		"windSpeed" : 3.6,
		"windDir" : 343,
		"rain" : 0,
		"cloudbase" : 1350,
		"flyability" : -50,
		"reason" : "orientationsUnknown",
		"timestamp" :1556067600
		},
	"2019-04-24T11:00:00+08:00" : {
		"windSpeed" : 2.6,
		"windDir" : 259,
		"rain" : 0,
		"cloudbase" : 1300,
		"flyability" : -50,
		"reason" : "orientationsUnknown",
		"timestamp" :1556078400
		},
	"2019-04-24T14:00:00+08:00" : {
		"windSpeed" : 2.8,
		"windDir" : 201,
		"rain" : 0,
		"cloudbase" : null,
		"flyability" : -50,
		"reason" : "orientationsUnknown",
		"timestamp" :1556089200
		},
	"2019-04-24T17:00:00+08:00" : {
		"windSpeed" : 3.4,
		"windDir" : 180,
		"rain" : 0,
		"cloudbase" : null,
		"flyability" : -50,
		"reason" : "orientationsUnknown",
		"timestamp" :1556100000
		},
	"2019-04-24T20:00:00+08:00" : {
		"windSpeed" : 3.1,
		"windDir" : 181,
		"rain" : 0,
		"cloudbase" : null,
		"flyability" : -50,
		"reason" : "orientationsUnknown",
		"timestamp" :1556110800
		}
	}
}