{
"site" : "Telluride Gold Hill",
"id" : 10111,
"orientations" : "00200020",
"forecasts" : { 
	"2019-04-21T21:00:00-06:00" : {
		"windSpeed" : 1.3,
		"windDir" : 130,
		"rain" : 0,
		"cloudbase" : null,
		"flyability" : 0,
		"reason" : "windDir",
		"timestamp" :1555902000
		},
	"2019-04-22T00:00:00-06:00" : {
		"windSpeed" : 1.4,
		"windDir" : 133,
		"rain" : 0,
		"cloudbase" : 3188.567,
		"flyability" : 0,
		"reason" : "windDir, cloudbase",
		"timestamp" :1555912800
		},
	"2019-04-22T03:00:00-06:00" : {
		"windSpeed" : 1.5,
		"windDir" : 136,
		"rain" : 0,
		"cloudbase" : null,
		"flyability" : 0,
		"reason" : "windDir",
		"timestamp" :1555923600
		},
	"2019-04-22T06:00:00-06:00" : {
		"windSpeed" : 1.5,
		"windDir" : 112,
		"rain" : 0,
		"cloudbase" : null,
		"flyability" : 100,
		"reason" : "",
		"timestamp" :1555934400
		},
	"2019-04-22T09:00:00-06:00" : {
		"windSpeed" : 1.1,
		"windDir" : 155,
		"rain" : 0,
		"cloudbase" : null,
		"flyability" : 0,
		"reason" : "windDir",
		"timestamp" :1555945200
		},
	"2019-04-22T12:00:00-06:00" : {
		"windSpeed" : 2,
		"windDir" : 180,
		"rain" : 0,
		"cloudbase" : 6069.977,
		"flyability" : 0,
		"reason" : "windDir",
		"timestamp" :1555956000
		},
	"2019-04-22T15:00:00-06:00" : {
		"windSpeed" : 1.1,
		"windDir" : 206,
		"rain" : 0,
		"cloudbase" : 3186.504,
		"flyability" : 0,
		"reason" : "windDir, cloudbase",
		"timestamp" :1555966800
		},
	"2019-04-22T18:00:00-06:00" : {
		"windSpeed" : 1.3,
		"windDir" : 312,
		"rain" : 0,
		"cloudbase" : 2996.802,
		"flyability" : 0,
		"reason" : "windDir, cloudbase",
		"timestamp" :1555977600
		},
	"2019-04-22T21:00:00-06:00" : {
		"windSpeed" : 1.4,
		"windDir" : 44,
		"rain" : 0,
		"cloudbase" : 2012.232,
		"flyability" : 0,
		"reason" : "windDir, cloudbase",
		"timestamp" :1555988400
		},
	"2019-04-23T00:00:00-06:00" : {
		"windSpeed" : 1,
		"windDir" : 38,
		"rain" : 0,
		"cloudbase" : 2896.598,
		"flyability" : 0,
		"reason" : "windDir, cloudbase",
		"timestamp" :1555999200
		},
	"2019-04-23T03:00:00-06:00" : {
		"windSpeed" : 1,
		"windDir" : 63,
		"rain" : 0,
		"cloudbase" : 2617.1,
		"flyability" : 0,
		"reason" : "windDir, cloudbase",
		"timestamp" :1556010000
		},
	"2019-04-23T06:00:00-06:00" : {
		"windSpeed" : 1,
		"windDir" : 116,
		"rain" : 0,
		"cloudbase" : 1786.565,
		"flyability" : 0,
		"reason" : "windDir, cloudbase",
		"timestamp" :1556020800
		},
	"2019-04-23T09:00:00-06:00" : {
		"windSpeed" : 1,
		"windDir" : 113,
		"rain" : 0,
		"cloudbase" : 5474.322,
		"flyability" : 0,
		"reason" : "windDir",
		"timestamp" :1556031600
		},
	"2019-04-23T12:00:00-06:00" : {
		"windSpeed" : 0.6,
		"windDir" : 359,
		"rain" : 0,
		"cloudbase" : 899.5588,
		"flyability" : 0,
		"reason" : "windDir, cloudbase",
		"timestamp" :1556042400
		},
	"2019-04-23T15:00:00-06:00" : {
		"windSpeed" : 1.1,
		"windDir" : 358,
		"rain" : 0,
		"cloudbase" : 1528.9664,
		"flyability" : 0,
		"reason" : "windDir, cloudbase",
		"timestamp" :1556053200
		},
	"2019-04-23T18:00:00-06:00" : {
		"windSpeed" : 2,
		"windDir" : 354,
		"rain" : 0,
		"cloudbase" : 2700,
		"flyability" : 0,
		"reason" : "windDir, cloudbase",
		"timestamp" :1556064000
		},
	"2019-04-23T21:00:00-06:00" : {
		"windSpeed" : 1.3,
		"windDir" : 354,
		"rain" : 0,
		"cloudbase" : null,
		"flyability" : 0,
		"reason" : "windDir",
		"timestamp" :1556074800
		},
	"2019-04-24T00:00:00-06:00" : {
		"windSpeed" : 0.7,
		"windDir" : 11,
		"rain" : 0,
		"cloudbase" : null,
		"flyability" : 0,
		"reason" : "windDir",
		"timestamp" :1556085600
		},
	"2019-04-24T03:00:00-06:00" : {
		"windSpeed" : 0.9,
		"windDir" : 42,
		"rain" : 0,
		"cloudbase" : null,
		"flyability" : 0,
		"reason" : "windDir",
		"timestamp" :1556096400
		},
	"2019-04-24T06:00:00-06:00" : {
		"windSpeed" : 1.7,
		"windDir" : 8,
		"rain" : 0,
		"cloudbase" : null,
		"flyability" : 0,
		"reason" : "windDir",
		"timestamp" :1556107200
		},
	"2019-04-24T09:00:00-06:00" : {
		"windSpeed" : 1.5,
		"windDir" : 346,
		"rain" : 0,
		"cloudbase" : null,
		"flyability" : 0,
		"reason" : "windDir",
		"timestamp" :1556118000
		},
	"2019-04-24T12:00:00-06:00" : {
		"windSpeed" : 2.4,
		"windDir" : 349,
		"rain" : 0,
		"cloudbase" : null,
		"flyability" : 0,
		"reason" : "windDir",
		"timestamp" :1556128800
		},
	"2019-04-24T15:00:00-06:00" : {
		"windSpeed" : 2.6,
		"windDir" : 349,
		"rain" : 0,
		"cloudbase" : null,
		"flyability" : 0,
		"reason" : "windDir",
		"timestamp" :1556139600
		},
	"2019-04-24T18:00:00-06:00" : {
		"windSpeed" : 2.1,
		"windDir" : 356,
		"rain" : 0,
		"cloudbase" : null,
		"flyability" : 0,
		"reason" : "windDir",
		"timestamp" :1556150400
		},
	"2019-04-24T21:00:00-06:00" : {
		"windSpeed" : 2,
		"windDir" : 360,
		"rain" : 0,
		"cloudbase" : null,
		"flyability" : 0,
		"reason" : "windDir",
		"timestamp" :1556161200
		},
	"2019-04-25T00:00:00-06:00" : {
		"windSpeed" : 2,
		"windDir" : 18,
		"rain" : 0,
		"cloudbase" : null,
		"flyability" : 0,
		"reason" : "windDir",
		"timestamp" :1556172000
		},
	"2019-04-25T03:00:00-06:00" : {
		"windSpeed" : 2,
		"windDir" : 353,
		"rain" : 1,
		"cloudbase" : null,
		"flyability" : 0,
		"reason" : "windDir, rain",
		"timestamp" :1556182800
		},
	"2019-04-25T06:00:00-06:00" : {
		"windSpeed" : 1.4,
		"windDir" : 32,
		"rain" : 0,
		"cloudbase" : null,
		"flyability" : 0,
		"reason" : "windDir",
		"timestamp" :1556193600
		},
	"2019-04-25T09:00:00-06:00" : {
		"windSpeed" : 1,
		"windDir" : 360,
		"rain" : 0,
		"cloudbase" : null,
		"flyability" : 0,
		"reason" : "windDir",
		"timestamp" :1556204400
		},
	"2019-04-25T12:00:00-06:00" : {
		"windSpeed" : 1.8,
		"windDir" : 326,
		"rain" : 0,
		"cloudbase" : null,
		"flyability" : 0,
		"reason" : "windDir",
		"timestamp" :1556215200
		},
	"2019-04-25T15:00:00-06:00" : {
		"windSpeed" : 2.5,
		"windDir" : 306,
		"rain" : 1,
		"cloudbase" : null,
		"flyability" : 0,
		"reason" : "windDir, rain",
		"timestamp" :1556226000
		},
	"2019-04-25T18:00:00-06:00" : {
		"windSpeed" : 1.4,
		"windDir" : 315,
		"rain" : 0,
		"cloudbase" : null,
		"flyability" : 0,
		"reason" : "windDir",
		"timestamp" :1556236800
		},
	"2019-04-25T21:00:00-06:00" : {
		"windSpeed" : 0.1,
		"windDir" : 125,
		"rain" : 0,
		"cloudbase" : null,
		"flyability" : 0,
		"reason" : "windDir",
		"timestamp" :1556247600
		},
	"2019-04-26T00:00:00-06:00" : {
		"windSpeed" : 1.3,
		"windDir" : 141,
		"rain" : 0,
		"cloudbase" : null,
		"flyability" : 0,
		"reason" : "windDir",
		"timestamp" :1556258400
		},
	"2019-04-26T03:00:00-06:00" : {
		"windSpeed" : 1.7,
		"windDir" : 147,
		"rain" : 0,
		"cloudbase" : null,
		"flyability" : 0,
		"reason" : "windDir",
		"timestamp" :1556269200
		},
	"2019-04-26T06:00:00-06:00" : {
		"windSpeed" : 1.6,
		"windDir" : 160,
		"rain" : 0,
		"cloudbase" : null,
		"flyability" : 0,
		"reason" : "windDir",
		"timestamp" :1556280000
		},
	"2019-04-26T09:00:00-06:00" : {
		"windSpeed" : 2.2,
		"windDir" : 242,
		"rain" : 0,
		"cloudbase" : null,
		"flyability" : 0,
		"reason" : "windDir",
		"timestamp" :1556290800
		},
	"2019-04-26T12:00:00-06:00" : {
		"windSpeed" : 3.6,
		"windDir" : 268,
		"rain" : 1,
		"cloudbase" : null,
		"flyability" : 0,
		"reason" : "rain",
		"timestamp" :1556301600
		},
	"2019-04-26T15:00:00-06:00" : {
		"windSpeed" : 3.6,
		"windDir" : 263,
		"rain" : 1,
		"cloudbase" : null,
		"flyability" : 0,
		"reason" : "rain",
		"timestamp" :1556312400
		},
	"2019-04-26T18:00:00-06:00" : {
		"windSpeed" : 2.6,
		"windDir" : 261,
		"rain" : 0,
		"cloudbase" : 3061.633,
		"flyability" : 0,
		"reason" : "cloudbase",
		"timestamp" :1556323200
		},
	"2019-04-26T21:00:00-06:00" : {
		"windSpeed" : 1.4,
		"windDir" : 4,
		"rain" : 0,
		"cloudbase" : 4650,
		"flyability" : 0,
		"reason" : "windDir",
		"timestamp" :1556334000
		},
	"2019-04-27T00:00:00-06:00" : {
		"windSpeed" : 1,
		"windDir" : 289,
		"rain" : 0,
		"cloudbase" : null,
		"flyability" : 100,
		"reason" : "",
		"timestamp" :1556344800
		},
	"2019-04-27T03:00:00-06:00" : {
		"windSpeed" : 0.6,
		"windDir" : 304,
		"rain" : 0,
		"cloudbase" : null,
		"flyability" : 0,
		"reason" : "windDir",
		"timestamp" :1556355600
		},
	"2019-04-27T06:00:00-06:00" : {
		"windSpeed" : 1.5,
		"windDir" : 343,
		"rain" : 0,
		"cloudbase" : null,
		"flyability" : 0,
		"reason" : "windDir",
		"timestamp" :1556366400
		},
	"2019-04-27T09:00:00-06:00" : {
		"windSpeed" : 1.7,
		"windDir" : 307,
		"rain" : 0,
		"cloudbase" : null,
		"flyability" : 0,
		"reason" : "windDir",
		"timestamp" :1556377200
		},
	"2019-04-27T12:00:00-06:00" : {
		"windSpeed" : 4.2,
		"windDir" : 284,
		"rain" : 0,
		"cloudbase" : 4200,
		"flyability" : 100,
		"reason" : "",
		"timestamp" :1556388000
		},
	"2019-04-27T15:00:00-06:00" : {
		"windSpeed" : 3,
		"windDir" : 287,
		"rain" : 1,
		"cloudbase" : 5488.4,
		"flyability" : 0,
		"reason" : "rain",
		"timestamp" :1556398800
		},
	"2019-04-27T18:00:00-06:00" : {
		"windSpeed" : 1.6,
		"windDir" : 288,
		"rain" : 1,
		"cloudbase" : 5585.066,
		"flyability" : 0,
		"reason" : "rain",
		"timestamp" :1556409600
		}
	}
}