{
"site" : "Pando Quintanilla de Babia",
"id" : 10224,
"orientations" : "21002101",
"forecasts" : { 
	"2019-04-05T05:00:00+02:00" : {
		"windSpeed" : 1.7,
		"windDir" : 193,
		"rain" : 0,
		"cloudbase" : 132.23800000001,
		"flyability" : 0,
		"reason" : "cloudbase",
		"timestamp" :1554436800
		},
	"2019-04-05T08:00:00+02:00" : {
		"windSpeed" : 1.8,
		"windDir" : 204,
		"rain" : 0,
		"cloudbase" : 68.765999999996,
		"flyability" : 0,
		"reason" : "cloudbase",
		"timestamp" :1554447600
		},
	"2019-04-05T11:00:00+02:00" : {
		"windSpeed" : 3.1,
		"windDir" : 220,
		"rain" : 0,
		"cloudbase" : 120,
		"flyability" : 0,
		"reason" : "cloudbase",
		"timestamp" :1554458400
		},
	"2019-04-05T14:00:00+02:00" : {
		"windSpeed" : 4,
		"windDir" : 229,
		"rain" : 0,
		"cloudbase" : null,
		"flyability" : 100,
		"reason" : "",
		"timestamp" :1554469200
		},
	"2019-04-05T17:00:00+02:00" : {
		"windSpeed" : 3.6,
		"windDir" : 246,
		"rain" : 0,
		"cloudbase" : null,
		"flyability" : 100,
		"reason" : "",
		"timestamp" :1554480000
		},
	"2019-04-05T20:00:00+02:00" : {
		"windSpeed" : 2.7,
		"windDir" : 253,
		"rain" : 0,
		"cloudbase" : 4944.8300000001,
		"flyability" : 0,
		"reason" : "windDir",
		"timestamp" :1554490800
		},
	"2019-04-05T23:00:00+02:00" : {
		"windSpeed" : 1.8,
		"windDir" : 235,
		"rain" : 0,
		"cloudbase" : 78.699999999999,
		"flyability" : 0,
		"reason" : "cloudbase",
		"timestamp" :1554501600
		},
	"2019-04-06T02:00:00+02:00" : {
		"windSpeed" : 2.7,
		"windDir" : 218,
		"rain" : 0,
		"cloudbase" : 30,
		"flyability" : 0,
		"reason" : "cloudbase",
		"timestamp" :1554512400
		},
	"2019-04-06T05:00:00+02:00" : {
		"windSpeed" : 2.8,
		"windDir" : 198,
		"rain" : 0,
		"cloudbase" : 35.043999999999,
		"flyability" : 0,
		"reason" : "cloudbase",
		"timestamp" :1554523200
		},
	"2019-04-06T08:00:00+02:00" : {
		"windSpeed" : 2.3,
		"windDir" : 159,
		"rain" : 0,
		"cloudbase" : 30,
		"flyability" : 0,
		"reason" : "cloudbase",
		"timestamp" :1554534000
		},
	"2019-04-06T11:00:00+02:00" : {
		"windSpeed" : 3.1,
		"windDir" : 171,
		"rain" : 0,
		"cloudbase" : 96.266,
		"flyability" : 0,
		"reason" : "cloudbase",
		"timestamp" :1554544800
		},
	"2019-04-06T14:00:00+02:00" : {
		"windSpeed" : 1.3,
		"windDir" : 193,
		"rain" : 0,
		"cloudbase" : 366.45400000003,
		"flyability" : 0,
		"reason" : "cloudbase",
		"timestamp" :1554555600
		},
	"2019-04-06T17:00:00+02:00" : {
		"windSpeed" : 3.6,
		"windDir" : 297,
		"rain" : 0,
		"cloudbase" : 120,
		"flyability" : 0,
		"reason" : "cloudbase",
		"timestamp" :1554566400
		},
	"2019-04-06T20:00:00+02:00" : {
		"windSpeed" : 3.8,
		"windDir" : 299,
		"rain" : 0,
		"cloudbase" : 726.32999999989,
		"flyability" : 0,
		"reason" : "cloudbase",
		"timestamp" :1554577200
		},
	"2019-04-06T23:00:00+02:00" : {
		"windSpeed" : 2.6,
		"windDir" : 278,
		"rain" : 0,
		"cloudbase" : 33.200999999999,
		"flyability" : 0,
		"reason" : "windDir, cloudbase",
		"timestamp" :1554588000
		},
	"2019-04-07T02:00:00+02:00" : {
		"windSpeed" : 1.6,
		"windDir" : 242,
		"rain" : 0,
		"cloudbase" : 30,
		"flyability" : 0,
		"reason" : "cloudbase",
		"timestamp" :1554598800
		},
	"2019-04-07T05:00:00+02:00" : {
		"windSpeed" : 2.4,
		"windDir" : 252,
		"rain" : 0,
		"cloudbase" : 30,
		"flyability" : 0,
		"reason" : "windDir, cloudbase",
		"timestamp" :1554609600
		},
	"2019-04-07T08:00:00+02:00" : {
		"windSpeed" : 2.8,
		"windDir" : 264,
		"rain" : 0,
		"cloudbase" : 31.261,
		"flyability" : 0,
		"reason" : "windDir, cloudbase",
		"timestamp" :1554620400
		},
	"2019-04-07T11:00:00+02:00" : {
		"windSpeed" : 3.2,
		"windDir" : 250,
		"rain" : 0,
		"cloudbase" : 2231.8939999999,
		"flyability" : 0,
		"reason" : "windDir",
		"timestamp" :1554631200
		},
	"2019-04-07T14:00:00+02:00" : {
		"windSpeed" : 3.1,
		"windDir" : 197,
		"rain" : 0,
		"cloudbase" : 124.01899999999,
		"flyability" : 0,
		"reason" : "cloudbase",
		"timestamp" :1554642000
		},
	"2019-04-07T17:00:00+02:00" : {
		"windSpeed" : 3,
		"windDir" : 188,
		"rain" : 0,
		"cloudbase" : 553.49800000001,
		"flyability" : 0,
		"reason" : "cloudbase",
		"timestamp" :1554652800
		},
	"2019-04-07T20:00:00+02:00" : {
		"windSpeed" : 2.9,
		"windDir" : 173,
		"rain" : 0,
		"cloudbase" : 177.128,
		"flyability" : 0,
		"reason" : "cloudbase",
		"timestamp" :1554663600
		},
	"2019-04-07T23:00:00+02:00" : {
		"windSpeed" : 2.9,
		"windDir" : 184,
		"rain" : 0,
		"cloudbase" : 109.87,
		"flyability" : 0,
		"reason" : "cloudbase",
		"timestamp" :1554674400
		},
	"2019-04-08T02:00:00+02:00" : {
		"windSpeed" : 2,
		"windDir" : 194,
		"rain" : 1,
		"cloudbase" : 34.179,
		"flyability" : 0,
		"reason" : "rain, cloudbase",
		"timestamp" :1554685200
		},
	"2019-04-08T05:00:00+02:00" : {
		"windSpeed" : 4.4,
		"windDir" : 235,
		"rain" : 0,
		"cloudbase" : 50,
		"flyability" : 0,
		"reason" : "cloudbase",
		"timestamp" :1554696000
		},
	"2019-04-08T08:00:00+02:00" : {
		"windSpeed" : 4.9,
		"windDir" : 235,
		"rain" : 0,
		"cloudbase" : 35.431999999999,
		"flyability" : 0,
		"reason" : "cloudbase",
		"timestamp" :1554706800
		},
	"2019-04-08T11:00:00+02:00" : {
		"windSpeed" : 5.3,
		"windDir" : 232,
		"rain" : 0,
		"cloudbase" : 80.148000000002,
		"flyability" : 0,
		"reason" : "windSpeed, cloudbase",
		"timestamp" :1554717600
		},
	"2019-04-08T14:00:00+02:00" : {
		"windSpeed" : 6.5,
		"windDir" : 228,
		"rain" : 0,
		"cloudbase" : 540,
		"flyability" : 0,
		"reason" : "windSpeed, cloudbase",
		"timestamp" :1554728400
		},
	"2019-04-08T17:00:00+02:00" : {
		"windSpeed" : 5.7,
		"windDir" : 224,
		"rain" : 0,
		"cloudbase" : null,
		"flyability" : 0,
		"reason" : "windSpeed",
		"timestamp" :1554739200
		},
	"2019-04-08T20:00:00+02:00" : {
		"windSpeed" : 4.8,
		"windDir" : 213,
		"rain" : 0,
		"cloudbase" : 328.81599999999,
		"flyability" : 0,
		"reason" : "cloudbase",
		"timestamp" :1554750000
		},
	"2019-04-08T23:00:00+02:00" : {
		"windSpeed" : 4.6,
		"windDir" : 203,
		"rain" : 0,
		"cloudbase" : 181.87799999999,
		"flyability" : 0,
		"reason" : "cloudbase",
		"timestamp" :1554760800
		},
	"2019-04-09T02:00:00+02:00" : {
		"windSpeed" : 3.4,
		"windDir" : 192,
		"rain" : 0,
		"cloudbase" : 79.436000000004,
		"flyability" : 0,
		"reason" : "cloudbase",
		"timestamp" :1554771600
		},
	"2019-04-09T05:00:00+02:00" : {
		"windSpeed" : 4.1,
		"windDir" : 183,
		"rain" : 0,
		"cloudbase" : 30,
		"flyability" : 0,
		"reason" : "cloudbase",
		"timestamp" :1554782400
		},
	"2019-04-09T08:00:00+02:00" : {
		"windSpeed" : 5.4,
		"windDir" : 187,
		"rain" : 0,
		"cloudbase" : 30,
		"flyability" : 0,
		"reason" : "windSpeed, cloudbase",
		"timestamp" :1554793200
		},
	"2019-04-09T11:00:00+02:00" : {
		"windSpeed" : 5.7,
		"windDir" : 220,
		"rain" : 0,
		"cloudbase" : 204.67399999999,
		"flyability" : 0,
		"reason" : "windSpeed, cloudbase",
		"timestamp" :1554804000
		},
	"2019-04-09T14:00:00+02:00" : {
		"windSpeed" : 4.8,
		"windDir" : 263,
		"rain" : 0,
		"cloudbase" : 126.13,
		"flyability" : 0,
		"reason" : "windDir, cloudbase",
		"timestamp" :1554814800
		},
	"2019-04-09T17:00:00+02:00" : {
		"windSpeed" : 4.8,
		"windDir" : 256,
		"rain" : 0,
		"cloudbase" : 513.80799999999,
		"flyability" : 0,
		"reason" : "windDir, cloudbase",
		"timestamp" :1554825600
		},
	"2019-04-09T20:00:00+02:00" : {
		"windSpeed" : 4.1,
		"windDir" : 249,
		"rain" : 0,
		"cloudbase" : 269.22399999998,
		"flyability" : 0,
		"reason" : "windDir, cloudbase",
		"timestamp" :1554836400
		},
	"2019-04-09T23:00:00+02:00" : {
		"windSpeed" : 3.8,
		"windDir" : 263,
		"rain" : 0,
		"cloudbase" : 53.683999999997,
		"flyability" : 0,
		"reason" : "windDir, cloudbase",
		"timestamp" :1554847200
		},
	"2019-04-10T02:00:00+02:00" : {
		"windSpeed" : 4.2,
		"windDir" : 270,
		"rain" : 0,
		"cloudbase" : 33.782999999999,
		"flyability" : 0,
		"reason" : "windDir, cloudbase",
		"timestamp" :1554858000
		},
	"2019-04-10T05:00:00+02:00" : {
		"windSpeed" : 3.7,
		"windDir" : 281,
		"rain" : 0,
		"cloudbase" : 35.043999999999,
		"flyability" : 0,
		"reason" : "windDir, cloudbase",
		"timestamp" :1554868800
		},
	"2019-04-10T08:00:00+02:00" : {
		"windSpeed" : 4.7,
		"windDir" : 287,
		"rain" : 0,
		"cloudbase" : 30.679,
		"flyability" : 0,
		"reason" : "windDir, cloudbase",
		"timestamp" :1554879600
		},
	"2019-04-10T11:00:00+02:00" : {
		"windSpeed" : 5.6,
		"windDir" : 297,
		"rain" : 0,
		"cloudbase" : null,
		"flyability" : 0,
		"reason" : "windSpeed",
		"timestamp" :1554890400
		},
	"2019-04-10T14:00:00+02:00" : {
		"windSpeed" : 5.2,
		"windDir" : 303,
		"rain" : 1,
		"cloudbase" : 1171.7760000001,
		"flyability" : 0,
		"reason" : "windSpeed, rain, cloudbase",
		"timestamp" :1554901200
		},
	"2019-04-10T17:00:00+02:00" : {
		"windSpeed" : 3.5,
		"windDir" : 292,
		"rain" : 1,
		"cloudbase" : 149.24699999999,
		"flyability" : 0,
		"reason" : "windDir, rain, cloudbase",
		"timestamp" :1554912000
		},
	"2019-04-10T20:00:00+02:00" : {
		"windSpeed" : 2.8,
		"windDir" : 301,
		"rain" : 1,
		"cloudbase" : 170.09599999999,
		"flyability" : 0,
		"reason" : "rain, cloudbase",
		"timestamp" :1554922800
		},
	"2019-04-10T23:00:00+02:00" : {
		"windSpeed" : 2.4,
		"windDir" : 297,
		"rain" : 1,
		"cloudbase" : 60.263999999993,
		"flyability" : 0,
		"reason" : "rain, cloudbase",
		"timestamp" :1554933600
		},
	"2019-04-11T02:00:00+02:00" : {
		"windSpeed" : 1.4,
		"windDir" : 268,
		"rain" : 0,
		"cloudbase" : 30,
		"flyability" : 0,
		"reason" : "windDir, cloudbase",
		"timestamp" :1554944400
		}
	}
}