{
"site" : "Gamonal - Angliru",
"id" : 10248,
"orientations" : "00200000",
"forecasts" : { 
	"2019-04-05T05:00:00+02:00" : {
		"windSpeed" : 0.7,
		"windDir" : 332,
		"rain" : 1,
		"cloudbase" : 1165.558288,
		"flyability" : 0,
		"reason" : "windDir, rain, cloudbase",
		"timestamp" :1554436800
		},
	"2019-04-05T08:00:00+02:00" : {
		"windSpeed" : 0.8,
		"windDir" : 173,
		"rain" : 1,
		"cloudbase" : null,
		"flyability" : 0,
		"reason" : "windDir, rain",
		"timestamp" :1554447600
		},
	"2019-04-05T11:00:00+02:00" : {
		"windSpeed" : 0.4,
		"windDir" : 338,
		"rain" : 1,
		"cloudbase" : 5700,
		"flyability" : 0,
		"reason" : "windDir, rain",
		"timestamp" :1554458400
		},
	"2019-04-05T14:00:00+02:00" : {
		"windSpeed" : 1.5,
		"windDir" : 258,
		"rain" : 1,
		"cloudbase" : null,
		"flyability" : 0,
		"reason" : "windDir, rain",
		"timestamp" :1554469200
		},
	"2019-04-05T17:00:00+02:00" : {
		"windSpeed" : 1.9,
		"windDir" : 295,
		"rain" : 1,
		"cloudbase" : 4298.47755,
		"flyability" : 0,
		"reason" : "windDir, rain",
		"timestamp" :1554480000
		},
	"2019-04-05T20:00:00+02:00" : {
		"windSpeed" : 1.3,
		"windDir" : 40,
		"rain" : 1,
		"cloudbase" : 6200,
		"flyability" : 0,
		"reason" : "windDir, rain",
		"timestamp" :1554490800
		},
	"2019-04-05T23:00:00+02:00" : {
		"windSpeed" : 1.4,
		"windDir" : 195,
		"rain" : 1,
		"cloudbase" : null,
		"flyability" : 0,
		"reason" : "windDir, rain",
		"timestamp" :1554501600
		},
	"2019-04-06T02:00:00+02:00" : {
		"windSpeed" : 1.9,
		"windDir" : 192,
		"rain" : 0,
		"cloudbase" : 5497.19604,
		"flyability" : 0,
		"reason" : "windDir",
		"timestamp" :1554512400
		},
	"2019-04-06T05:00:00+02:00" : {
		"windSpeed" : 1.5,
		"windDir" : 166,
		"rain" : 0,
		"cloudbase" : 3214.16604,
		"flyability" : 0,
		"reason" : "windDir",
		"timestamp" :1554523200
		},
	"2019-04-06T08:00:00+02:00" : {
		"windSpeed" : 1.5,
		"windDir" : 176,
		"rain" : 1,
		"cloudbase" : 2227.5620800001,
		"flyability" : 0,
		"reason" : "windDir, rain",
		"timestamp" :1554534000
		},
	"2019-04-06T11:00:00+02:00" : {
		"windSpeed" : 1.7,
		"windDir" : 175,
		"rain" : 1,
		"cloudbase" : null,
		"flyability" : 0,
		"reason" : "windDir, rain",
		"timestamp" :1554544800
		},
	"2019-04-06T14:00:00+02:00" : {
		"windSpeed" : 1.9,
		"windDir" : 329,
		"rain" : 1,
		"cloudbase" : 1750,
		"flyability" : 0,
		"reason" : "windDir, rain",
		"timestamp" :1554555600
		},
	"2019-04-06T17:00:00+02:00" : {
		"windSpeed" : 1.5,
		"windDir" : 329,
		"rain" : 1,
		"cloudbase" : 1500,
		"flyability" : 0,
		"reason" : "windDir, rain",
		"timestamp" :1554566400
		},
	"2019-04-06T20:00:00+02:00" : {
		"windSpeed" : 2.2,
		"windDir" : 289,
		"rain" : 1,
		"cloudbase" : 4596.0107699997,
		"flyability" : 0,
		"reason" : "windDir, rain",
		"timestamp" :1554577200
		},
	"2019-04-06T23:00:00+02:00" : {
		"windSpeed" : 2,
		"windDir" : 227,
		"rain" : 1,
		"cloudbase" : null,
		"flyability" : 0,
		"reason" : "windDir, rain",
		"timestamp" :1554588000
		},
	"2019-04-07T02:00:00+02:00" : {
		"windSpeed" : 1.6,
		"windDir" : 199,
		"rain" : 0,
		"cloudbase" : null,
		"flyability" : 0,
		"reason" : "windDir",
		"timestamp" :1554598800
		},
	"2019-04-07T05:00:00+02:00" : {
		"windSpeed" : 1.6,
		"windDir" : 204,
		"rain" : 0,
		"cloudbase" : null,
		"flyability" : 0,
		"reason" : "windDir",
		"timestamp" :1554609600
		},
	"2019-04-07T08:00:00+02:00" : {
		"windSpeed" : 1.8,
		"windDir" : 193,
		"rain" : 0,
		"cloudbase" : null,
		"flyability" : 0,
		"reason" : "windDir",
		"timestamp" :1554620400
		},
	"2019-04-07T11:00:00+02:00" : {
		"windSpeed" : 1.4,
		"windDir" : 216,
		"rain" : 0,
		"cloudbase" : null,
		"flyability" : 0,
		"reason" : "windDir",
		"timestamp" :1554631200
		},
	"2019-04-07T14:00:00+02:00" : {
		"windSpeed" : 2.8,
		"windDir" : 247,
		"rain" : 0,
		"cloudbase" : 2038.47349,
		"flyability" : 0,
		"reason" : "windDir",
		"timestamp" :1554642000
		},
	"2019-04-07T17:00:00+02:00" : {
		"windSpeed" : 2.5,
		"windDir" : 180,
		"rain" : 1,
		"cloudbase" : 2506.04453,
		"flyability" : 0,
		"reason" : "windDir, rain",
		"timestamp" :1554652800
		},
	"2019-04-07T20:00:00+02:00" : {
		"windSpeed" : 1.4,
		"windDir" : 147,
		"rain" : 1,
		"cloudbase" : 2165.23792,
		"flyability" : 0,
		"reason" : "windDir, rain",
		"timestamp" :1554663600
		},
	"2019-04-07T23:00:00+02:00" : {
		"windSpeed" : 1.5,
		"windDir" : 191,
		"rain" : 1,
		"cloudbase" : 2198.47755,
		"flyability" : 0,
		"reason" : "windDir, rain",
		"timestamp" :1554674400
		},
	"2019-04-08T02:00:00+02:00" : {
		"windSpeed" : 1.6,
		"windDir" : 192,
		"rain" : 0,
		"cloudbase" : 1057.44651,
		"flyability" : 0,
		"reason" : "windDir, cloudbase",
		"timestamp" :1554685200
		},
	"2019-04-08T05:00:00+02:00" : {
		"windSpeed" : 0.8,
		"windDir" : 213,
		"rain" : 1,
		"cloudbase" : null,
		"flyability" : 0,
		"reason" : "windDir, rain",
		"timestamp" :1554696000
		},
	"2019-04-08T08:00:00+02:00" : {
		"windSpeed" : 1.9,
		"windDir" : 185,
		"rain" : 0,
		"cloudbase" : null,
		"flyability" : 0,
		"reason" : "windDir",
		"timestamp" :1554706800
		},
	"2019-04-08T11:00:00+02:00" : {
		"windSpeed" : 2.2,
		"windDir" : 224,
		"rain" : 0,
		"cloudbase" : null,
		"flyability" : 0,
		"reason" : "windDir",
		"timestamp" :1554717600
		},
	"2019-04-08T14:00:00+02:00" : {
		"windSpeed" : 3.5,
		"windDir" : 226,
		"rain" : 0,
		"cloudbase" : null,
		"flyability" : 0,
		"reason" : "windDir",
		"timestamp" :1554728400
		},
	"2019-04-08T17:00:00+02:00" : {
		"windSpeed" : 2.8,
		"windDir" : 213,
		"rain" : 1,
		"cloudbase" : 6339.15906,
		"flyability" : 0,
		"reason" : "windDir, rain",
		"timestamp" :1554739200
		},
	"2019-04-08T20:00:00+02:00" : {
		"windSpeed" : 1.2,
		"windDir" : 156,
		"rain" : 0,
		"cloudbase" : 6342.20396,
		"flyability" : 0,
		"reason" : "windDir",
		"timestamp" :1554750000
		},
	"2019-04-08T23:00:00+02:00" : {
		"windSpeed" : 2,
		"windDir" : 177,
		"rain" : 0,
		"cloudbase" : 6118.0469800001,
		"flyability" : 0,
		"reason" : "windDir",
		"timestamp" :1554760800
		},
	"2019-04-09T02:00:00+02:00" : {
		"windSpeed" : 2.9,
		"windDir" : 180,
		"rain" : 0,
		"cloudbase" : null,
		"flyability" : 0,
		"reason" : "windDir",
		"timestamp" :1554771600
		},
	"2019-04-09T05:00:00+02:00" : {
		"windSpeed" : 2.1,
		"windDir" : 178,
		"rain" : 0,
		"cloudbase" : 1977.2340660002,
		"flyability" : 0,
		"reason" : "windDir",
		"timestamp" :1554782400
		},
	"2019-04-09T08:00:00+02:00" : {
		"windSpeed" : 2.5,
		"windDir" : 168,
		"rain" : 0,
		"cloudbase" : 5447.2412699997,
		"flyability" : 0,
		"reason" : "windDir",
		"timestamp" :1554793200
		},
	"2019-04-09T11:00:00+02:00" : {
		"windSpeed" : 4.1,
		"windDir" : 197,
		"rain" : 0,
		"cloudbase" : 5971.30698,
		"flyability" : 0,
		"reason" : "windDir",
		"timestamp" :1554804000
		},
	"2019-04-09T14:00:00+02:00" : {
		"windSpeed" : 4.1,
		"windDir" : 256,
		"rain" : 1,
		"cloudbase" : null,
		"flyability" : 0,
		"reason" : "windDir, rain",
		"timestamp" :1554814800
		},
	"2019-04-09T17:00:00+02:00" : {
		"windSpeed" : 5,
		"windDir" : 259,
		"rain" : 1,
		"cloudbase" : 1689.285,
		"flyability" : 0,
		"reason" : "windDir, rain",
		"timestamp" :1554825600
		},
	"2019-04-09T20:00:00+02:00" : {
		"windSpeed" : 2.2,
		"windDir" : 240,
		"rain" : 1,
		"cloudbase" : 5539.46,
		"flyability" : 0,
		"reason" : "windDir, rain",
		"timestamp" :1554836400
		},
	"2019-04-09T23:00:00+02:00" : {
		"windSpeed" : 2.3,
		"windDir" : 242,
		"rain" : 1,
		"cloudbase" : 2343.1,
		"flyability" : 0,
		"reason" : "windDir, rain",
		"timestamp" :1554847200
		},
	"2019-04-10T02:00:00+02:00" : {
		"windSpeed" : 2.6,
		"windDir" : 237,
		"rain" : 0,
		"cloudbase" : null,
		"flyability" : 0,
		"reason" : "windDir",
		"timestamp" :1554858000
		},
	"2019-04-10T05:00:00+02:00" : {
		"windSpeed" : 2,
		"windDir" : 227,
		"rain" : 0,
		"cloudbase" : null,
		"flyability" : 0,
		"reason" : "windDir",
		"timestamp" :1554868800
		},
	"2019-04-10T08:00:00+02:00" : {
		"windSpeed" : 2.1,
		"windDir" : 221,
		"rain" : 0,
		"cloudbase" : null,
		"flyability" : 0,
		"reason" : "windDir",
		"timestamp" :1554879600
		},
	"2019-04-10T11:00:00+02:00" : {
		"windSpeed" : 4.6,
		"windDir" : 280,
		"rain" : 1,
		"cloudbase" : null,
		"flyability" : 0,
		"reason" : "windDir, rain",
		"timestamp" :1554890400
		},
	"2019-04-10T14:00:00+02:00" : {
		"windSpeed" : 4.6,
		"windDir" : 300,
		"rain" : 1,
		"cloudbase" : 8323.79604,
		"flyability" : 0,
		"reason" : "windDir, rain",
		"timestamp" :1554901200
		},
	"2019-04-10T17:00:00+02:00" : {
		"windSpeed" : 2.7,
		"windDir" : 299,
		"rain" : 1,
		"cloudbase" : 784.84652999998,
		"flyability" : 0,
		"reason" : "windDir, rain, cloudbase",
		"timestamp" :1554912000
		},
	"2019-04-10T20:00:00+02:00" : {
		"windSpeed" : 2.7,
		"windDir" : 290,
		"rain" : 1,
		"cloudbase" : 4449.5590599997,
		"flyability" : 0,
		"reason" : "windDir, rain",
		"timestamp" :1554922800
		},
	"2019-04-10T23:00:00+02:00" : {
		"windSpeed" : 1.3,
		"windDir" : 257,
		"rain" : 0,
		"cloudbase" : 1700,
		"flyability" : 0,
		"reason" : "windDir",
		"timestamp" :1554933600
		},
	"2019-04-11T02:00:00+02:00" : {
		"windSpeed" : 1.3,
		"windDir" : 217,
		"rain" : 0,
		"cloudbase" : null,
		"flyability" : 0,
		"reason" : "windDir",
		"timestamp" :1554944400
		}
	}
}