{
"site" : "Kiikala",
"id" : 10588,
"orientations" : "21212121",
"forecasts" : { 
	"2019-04-08T18:00:00+03:00" : {
		"windSpeed" : 2.4,
		"windDir" : 39,
		"rain" : 1,
		"cloudbase" : 1143.83352,
		"flyability" : 0,
		"reason" : "rain",
		"timestamp" :1554735600
		},
	"2019-04-08T21:00:00+03:00" : {
		"windSpeed" : 2.3,
		"windDir" : 320,
		"rain" : 1,
		"cloudbase" : 572.44632,
		"flyability" : 0,
		"reason" : "rain",
		"timestamp" :1554746400
		},
	"2019-04-09T00:00:00+03:00" : {
		"windSpeed" : 2.7,
		"windDir" : 334,
		"rain" : 1,
		"cloudbase" : 54.18456,
		"flyability" : 0,
		"reason" : "rain, cloudbase",
		"timestamp" :1554757200
		},
	"2019-04-09T03:00:00+03:00" : {
		"windSpeed" : 3.1,
		"windDir" : 327,
		"rain" : 1,
		"cloudbase" : 92.733679999999,
		"flyability" : 0,
		"reason" : "rain, cloudbase",
		"timestamp" :1554768000
		},
	"2019-04-09T06:00:00+03:00" : {
		"windSpeed" : 3.3,
		"windDir" : 333,
		"rain" : 0,
		"cloudbase" : 139.18456,
		"flyability" : 100,
		"reason" : "",
		"timestamp" :1554778800
		},
	"2019-04-09T09:00:00+03:00" : {
		"windSpeed" : 3.5,
		"windDir" : 337,
		"rain" : 0,
		"cloudbase" : 293.10912,
		"flyability" : 100,
		"reason" : "",
		"timestamp" :1554789600
		},
	"2019-04-09T12:00:00+03:00" : {
		"windSpeed" : 3.9,
		"windDir" : 5,
		"rain" : 1,
		"cloudbase" : 173.09368,
		"flyability" : 0,
		"reason" : "rain",
		"timestamp" :1554800400
		},
	"2019-04-09T15:00:00+03:00" : {
		"windSpeed" : 4.1,
		"windDir" : 2,
		"rain" : 1,
		"cloudbase" : 740,
		"flyability" : 0,
		"reason" : "rain",
		"timestamp" :1554811200
		},
	"2019-04-09T18:00:00+03:00" : {
		"windSpeed" : 3.8,
		"windDir" : 358,
		"rain" : 1,
		"cloudbase" : null,
		"flyability" : 0,
		"reason" : "rain",
		"timestamp" :1554822000
		},
	"2019-04-09T21:00:00+03:00" : {
		"windSpeed" : 5.1,
		"windDir" : 11,
		"rain" : 0,
		"cloudbase" : 300.18,
		"flyability" : 0,
		"reason" : "windSpeed",
		"timestamp" :1554832800
		},
	"2019-04-10T00:00:00+03:00" : {
		"windSpeed" : 5.1,
		"windDir" : 8,
		"rain" : 0,
		"cloudbase" : 252.5,
		"flyability" : 0,
		"reason" : "windSpeed",
		"timestamp" :1554843600
		},
	"2019-04-10T03:00:00+03:00" : {
		"windSpeed" : 5.1,
		"windDir" : 11,
		"rain" : 0,
		"cloudbase" : 312.32,
		"flyability" : 0,
		"reason" : "windSpeed",
		"timestamp" :1554854400
		},
	"2019-04-10T06:00:00+03:00" : {
		"windSpeed" : 5,
		"windDir" : 6,
		"rain" : 0,
		"cloudbase" : 406.16,
		"flyability" : 100,
		"reason" : "",
		"timestamp" :1554865200
		},
	"2019-04-10T09:00:00+03:00" : {
		"windSpeed" : 5.6,
		"windDir" : 9,
		"rain" : 0,
		"cloudbase" : 431.72632,
		"flyability" : 0,
		"reason" : "windSpeed",
		"timestamp" :1554876000
		},
	"2019-04-10T12:00:00+03:00" : {
		"windSpeed" : 5.5,
		"windDir" : 9,
		"rain" : 0,
		"cloudbase" : 489.06176,
		"flyability" : 0,
		"reason" : "windSpeed",
		"timestamp" :1554886800
		},
	"2019-04-10T15:00:00+03:00" : {
		"windSpeed" : 5.5,
		"windDir" : 5,
		"rain" : 0,
		"cloudbase" : 743.26176,
		"flyability" : 0,
		"reason" : "windSpeed",
		"timestamp" :1554897600
		},
	"2019-04-10T18:00:00+03:00" : {
		"windSpeed" : 4.8,
		"windDir" : 12,
		"rain" : 0,
		"cloudbase" : 907.90176,
		"flyability" : 100,
		"reason" : "",
		"timestamp" :1554908400
		},
	"2019-04-10T21:00:00+03:00" : {
		"windSpeed" : 3.8,
		"windDir" : 360,
		"rain" : 0,
		"cloudbase" : 772.09824,
		"flyability" : 100,
		"reason" : "",
		"timestamp" :1554919200
		},
	"2019-04-11T00:00:00+03:00" : {
		"windSpeed" : 3.3,
		"windDir" : 351,
		"rain" : 0,
		"cloudbase" : 703.04,
		"flyability" : 100,
		"reason" : "",
		"timestamp" :1554930000
		},
	"2019-04-11T03:00:00+03:00" : {
		"windSpeed" : 3.5,
		"windDir" : 352,
		"rain" : 0,
		"cloudbase" : 649.28,
		"flyability" : 100,
		"reason" : "",
		"timestamp" :1554940800
		},
	"2019-04-11T06:00:00+03:00" : {
		"windSpeed" : 3.6,
		"windDir" : 344,
		"rain" : 0,
		"cloudbase" : 820.25264,
		"flyability" : 100,
		"reason" : "",
		"timestamp" :1554951600
		},
	"2019-04-11T09:00:00+03:00" : {
		"windSpeed" : 3.6,
		"windDir" : 344,
		"rain" : 0,
		"cloudbase" : null,
		"flyability" : 100,
		"reason" : "",
		"timestamp" :1554962400
		},
	"2019-04-11T12:00:00+03:00" : {
		"windSpeed" : 4,
		"windDir" : 360,
		"rain" : 0,
		"cloudbase" : 737.81824,
		"flyability" : 100,
		"reason" : "",
		"timestamp" :1554973200
		},
	"2019-04-11T15:00:00+03:00" : {
		"windSpeed" : 3.8,
		"windDir" : 8,
		"rain" : 0,
		"cloudbase" : 931.72736,
		"flyability" : 100,
		"reason" : "",
		"timestamp" :1554984000
		},
	"2019-04-11T18:00:00+03:00" : {
		"windSpeed" : 3.8,
		"windDir" : 9,
		"rain" : 0,
		"cloudbase" : 947.81824,
		"flyability" : 100,
		"reason" : "",
		"timestamp" :1554994800
		},
	"2019-04-11T21:00:00+03:00" : {
		"windSpeed" : 2.1,
		"windDir" : 49,
		"rain" : 0,
		"cloudbase" : 1131.7,
		"flyability" : 100,
		"reason" : "",
		"timestamp" :1555005600
		},
	"2019-04-12T00:00:00+03:00" : {
		"windSpeed" : 1.8,
		"windDir" : 22,
		"rain" : 0,
		"cloudbase" : 6300,
		"flyability" : 100,
		"reason" : "",
		"timestamp" :1555016400
		},
	"2019-04-12T03:00:00+03:00" : {
		"windSpeed" : 1.8,
		"windDir" : 352,
		"rain" : 1,
		"cloudbase" : null,
		"flyability" : 0,
		"reason" : "rain",
		"timestamp" :1555027200
		},
	"2019-04-12T06:00:00+03:00" : {
		"windSpeed" : 2.5,
		"windDir" : 9,
		"rain" : 0,
		"cloudbase" : null,
		"flyability" : 100,
		"reason" : "",
		"timestamp" :1555038000
		},
	"2019-04-12T09:00:00+03:00" : {
		"windSpeed" : 2.1,
		"windDir" : 14,
		"rain" : 0,
		"cloudbase" : null,
		"flyability" : 100,
		"reason" : "",
		"timestamp" :1555048800
		},
	"2019-04-12T12:00:00+03:00" : {
		"windSpeed" : 2.6,
		"windDir" : 35,
		"rain" : 0,
		"cloudbase" : null,
		"flyability" : 100,
		"reason" : "",
		"timestamp" :1555059600
		},
	"2019-04-12T15:00:00+03:00" : {
		"windSpeed" : 2.1,
		"windDir" : 21,
		"rain" : 0,
		"cloudbase" : null,
		"flyability" : 100,
		"reason" : "",
		"timestamp" :1555070400
		},
	"2019-04-12T18:00:00+03:00" : {
		"windSpeed" : 2.4,
		"windDir" : 6,
		"rain" : 0,
		"cloudbase" : null,
		"flyability" : 100,
		"reason" : "",
		"timestamp" :1555081200
		},
	"2019-04-12T21:00:00+03:00" : {
		"windSpeed" : 2.8,
		"windDir" : 19,
		"rain" : 0,
		"cloudbase" : 1650,
		"flyability" : 100,
		"reason" : "",
		"timestamp" :1555092000
		},
	"2019-04-13T00:00:00+03:00" : {
		"windSpeed" : 2.6,
		"windDir" : 45,
		"rain" : 0,
		"cloudbase" : null,
		"flyability" : 100,
		"reason" : "",
		"timestamp" :1555102800
		},
	"2019-04-13T03:00:00+03:00" : {
		"windSpeed" : 2.3,
		"windDir" : 17,
		"rain" : 0,
		"cloudbase" : 1602.1728,
		"flyability" : 100,
		"reason" : "",
		"timestamp" :1555113600
		},
	"2019-04-13T06:00:00+03:00" : {
		"windSpeed" : 1.9,
		"windDir" : 352,
		"rain" : 0,
		"cloudbase" : 1578.6272,
		"flyability" : 100,
		"reason" : "",
		"timestamp" :1555124400
		},
	"2019-04-13T09:00:00+03:00" : {
		"windSpeed" : 1.1,
		"windDir" : 27,
		"rain" : 0,
		"cloudbase" : 1669.2,
		"flyability" : 100,
		"reason" : "",
		"timestamp" :1555135200
		},
	"2019-04-13T12:00:00+03:00" : {
		"windSpeed" : 3.1,
		"windDir" : 61,
		"rain" : 0,
		"cloudbase" : 1492.9544,
		"flyability" : 100,
		"reason" : "",
		"timestamp" :1555146000
		},
	"2019-04-13T15:00:00+03:00" : {
		"windSpeed" : 1.9,
		"windDir" : 52,
		"rain" : 0,
		"cloudbase" : 1580.2456,
		"flyability" : 100,
		"reason" : "",
		"timestamp" :1555156800
		},
	"2019-04-13T18:00:00+03:00" : {
		"windSpeed" : 1.7,
		"windDir" : 47,
		"rain" : 0,
		"cloudbase" : 1550,
		"flyability" : 100,
		"reason" : "",
		"timestamp" :1555167600
		},
	"2019-04-13T21:00:00+03:00" : {
		"windSpeed" : 1.8,
		"windDir" : 69,
		"rain" : 0,
		"cloudbase" : 1625.45,
		"flyability" : 100,
		"reason" : "",
		"timestamp" :1555178400
		},
	"2019-04-14T00:00:00+03:00" : {
		"windSpeed" : 2.3,
		"windDir" : 53,
		"rain" : 0,
		"cloudbase" : 1457.6,
		"flyability" : 100,
		"reason" : "",
		"timestamp" :1555189200
		},
	"2019-04-14T03:00:00+03:00" : {
		"windSpeed" : 2.1,
		"windDir" : 32,
		"rain" : 0,
		"cloudbase" : 1475.45,
		"flyability" : 100,
		"reason" : "",
		"timestamp" :1555200000
		},
	"2019-04-14T06:00:00+03:00" : {
		"windSpeed" : 1.8,
		"windDir" : 35,
		"rain" : 0,
		"cloudbase" : 1499.6544,
		"flyability" : 100,
		"reason" : "",
		"timestamp" :1555210800
		},
	"2019-04-14T09:00:00+03:00" : {
		"windSpeed" : 1.4,
		"windDir" : 360,
		"rain" : 0,
		"cloudbase" : 1456.25,
		"flyability" : 100,
		"reason" : "",
		"timestamp" :1555221600
		},
	"2019-04-14T12:00:00+03:00" : {
		"windSpeed" : 1.7,
		"windDir" : 31,
		"rain" : 0,
		"cloudbase" : 1700,
		"flyability" : 100,
		"reason" : "",
		"timestamp" :1555232400
		},
	"2019-04-14T15:00:00+03:00" : {
		"windSpeed" : 1.8,
		"windDir" : 8,
		"rain" : 0,
		"cloudbase" : 1700,
		"flyability" : 100,
		"reason" : "",
		"timestamp" :1555243200
		}
	}
}