{
"site" : "Aviano",
"id" : 10592,
"orientations" : "00012100",
"forecasts" : { 
	"2019-04-22T17:00:00+02:00" : {
		"windSpeed" : 2.5,
		"windDir" : 180,
		"rain" : 1,
		"cloudbase" : 960,
		"flyability" : 0,
		"reason" : "rain, cloudbase",
		"timestamp" :1555948800
		},
	"2019-04-22T20:00:00+02:00" : {
		"windSpeed" : 1.1,
		"windDir" : 180,
		"rain" : 1,
		"cloudbase" : 7759.20995,
		"flyability" : 0,
		"reason" : "rain",
		"timestamp" :1555959600
		},
	"2019-04-22T23:00:00+02:00" : {
		"windSpeed" : 1.8,
		"windDir" : 349,
		"rain" : 0,
		"cloudbase" : 3837.4509999998,
		"flyability" : 0,
		"reason" : "windDir",
		"timestamp" :1555970400
		},
	"2019-04-23T02:00:00+02:00" : {
		"windSpeed" : 1.4,
		"windDir" : 10,
		"rain" : 1,
		"cloudbase" : 1154.24105,
		"flyability" : 0,
		"reason" : "windDir, rain",
		"timestamp" :1555981200
		},
	"2019-04-23T05:00:00+02:00" : {
		"windSpeed" : 1,
		"windDir" : 9,
		"rain" : 1,
		"cloudbase" : 778.26075999999,
		"flyability" : 0,
		"reason" : "windDir, rain, cloudbase",
		"timestamp" :1555992000
		},
	"2019-04-23T08:00:00+02:00" : {
		"windSpeed" : 0.4,
		"windDir" : 23,
		"rain" : 1,
		"cloudbase" : 737.01556999997,
		"flyability" : 0,
		"reason" : "windDir, rain, cloudbase",
		"timestamp" :1556002800
		},
	"2019-04-23T11:00:00+02:00" : {
		"windSpeed" : 2.7,
		"windDir" : 71,
		"rain" : 1,
		"cloudbase" : 852.57518999999,
		"flyability" : 0,
		"reason" : "windDir, rain, cloudbase",
		"timestamp" :1556013600
		},
	"2019-04-23T14:00:00+02:00" : {
		"windSpeed" : 2.4,
		"windDir" : 51,
		"rain" : 1,
		"cloudbase" : 651.54868,
		"flyability" : 0,
		"reason" : "windDir, rain, cloudbase",
		"timestamp" :1556024400
		},
	"2019-04-23T17:00:00+02:00" : {
		"windSpeed" : 1.8,
		"windDir" : 53,
		"rain" : 1,
		"cloudbase" : 496.34386999999,
		"flyability" : 0,
		"reason" : "windDir, rain, cloudbase",
		"timestamp" :1556035200
		},
	"2019-04-23T20:00:00+02:00" : {
		"windSpeed" : 1.4,
		"windDir" : 14,
		"rain" : 1,
		"cloudbase" : 472.15519,
		"flyability" : 0,
		"reason" : "windDir, rain, cloudbase",
		"timestamp" :1556046000
		},
	"2019-04-23T23:00:00+02:00" : {
		"windSpeed" : 1.3,
		"windDir" : 53,
		"rain" : 1,
		"cloudbase" : 461.44651,
		"flyability" : 0,
		"reason" : "windDir, rain, cloudbase",
		"timestamp" :1556056800
		},
	"2019-04-24T02:00:00+02:00" : {
		"windSpeed" : 0.9,
		"windDir" : 24,
		"rain" : 1,
		"cloudbase" : 365.83302,
		"flyability" : 0,
		"reason" : "windDir, rain, cloudbase",
		"timestamp" :1556067600
		},
	"2019-04-24T05:00:00+02:00" : {
		"windSpeed" : 1.2,
		"windDir" : 35,
		"rain" : 1,
		"cloudbase" : 185.41735999999,
		"flyability" : 0,
		"reason" : "windDir, rain, cloudbase",
		"timestamp" :1556078400
		},
	"2019-04-24T08:00:00+02:00" : {
		"windSpeed" : 1,
		"windDir" : 358,
		"rain" : 1,
		"cloudbase" : 230.72735999999,
		"flyability" : 0,
		"reason" : "windDir, rain, cloudbase",
		"timestamp" :1556089200
		},
	"2019-04-24T11:00:00+02:00" : {
		"windSpeed" : 0.8,
		"windDir" : 113,
		"rain" : 1,
		"cloudbase" : 382.98575,
		"flyability" : 0,
		"reason" : "rain, cloudbase",
		"timestamp" :1556100000
		},
	"2019-04-24T14:00:00+02:00" : {
		"windSpeed" : 1,
		"windDir" : 146,
		"rain" : 1,
		"cloudbase" : 219.08915,
		"flyability" : 0,
		"reason" : "rain, cloudbase",
		"timestamp" :1556110800
		},
	"2019-04-24T17:00:00+02:00" : {
		"windSpeed" : 1.1,
		"windDir" : 153,
		"rain" : 1,
		"cloudbase" : 779.81187999998,
		"flyability" : 0,
		"reason" : "rain, cloudbase",
		"timestamp" :1556121600
		},
	"2019-04-24T20:00:00+02:00" : {
		"windSpeed" : 0.9,
		"windDir" : 26,
		"rain" : 1,
		"cloudbase" : 5200,
		"flyability" : 0,
		"reason" : "windDir, rain",
		"timestamp" :1556132400
		},
	"2019-04-24T23:00:00+02:00" : {
		"windSpeed" : 1,
		"windDir" : 354,
		"rain" : 0,
		"cloudbase" : 5742.5967499998,
		"flyability" : 0,
		"reason" : "windDir",
		"timestamp" :1556143200
		},
	"2019-04-25T02:00:00+02:00" : {
		"windSpeed" : 0.6,
		"windDir" : 346,
		"rain" : 1,
		"cloudbase" : 740,
		"flyability" : 0,
		"reason" : "windDir, rain, cloudbase",
		"timestamp" :1556154000
		},
	"2019-04-25T05:00:00+02:00" : {
		"windSpeed" : 1,
		"windDir" : 21,
		"rain" : 1,
		"cloudbase" : 206.49349,
		"flyability" : 0,
		"reason" : "windDir, rain, cloudbase",
		"timestamp" :1556164800
		},
	"2019-04-25T08:00:00+02:00" : {
		"windSpeed" : 1.7,
		"windDir" : 62,
		"rain" : 1,
		"cloudbase" : 221.77264,
		"flyability" : 0,
		"reason" : "windDir, rain, cloudbase",
		"timestamp" :1556175600
		},
	"2019-04-25T11:00:00+02:00" : {
		"windSpeed" : 1.6,
		"windDir" : 77,
		"rain" : 1,
		"cloudbase" : 560,
		"flyability" : 0,
		"reason" : "windDir, rain, cloudbase",
		"timestamp" :1556186400
		},
	"2019-04-25T14:00:00+02:00" : {
		"windSpeed" : 1.8,
		"windDir" : 116,
		"rain" : 1,
		"cloudbase" : null,
		"flyability" : 0,
		"reason" : "rain",
		"timestamp" :1556197200
		},
	"2019-04-25T17:00:00+02:00" : {
		"windSpeed" : 0.7,
		"windDir" : 133,
		"rain" : 1,
		"cloudbase" : 110,
		"flyability" : 0,
		"reason" : "rain, cloudbase",
		"timestamp" :1556208000
		},
	"2019-04-25T20:00:00+02:00" : {
		"windSpeed" : 0.7,
		"windDir" : 57,
		"rain" : 1,
		"cloudbase" : 330,
		"flyability" : 0,
		"reason" : "windDir, rain, cloudbase",
		"timestamp" :1556218800
		},
	"2019-04-25T23:00:00+02:00" : {
		"windSpeed" : 0.7,
		"windDir" : 5,
		"rain" : 1,
		"cloudbase" : 500.56161000001,
		"flyability" : 0,
		"reason" : "windDir, rain, cloudbase",
		"timestamp" :1556229600
		},
	"2019-04-26T02:00:00+02:00" : {
		"windSpeed" : 0.5,
		"windDir" : 45,
		"rain" : 1,
		"cloudbase" : 1250.4058950001,
		"flyability" : 0,
		"reason" : "windDir, rain",
		"timestamp" :1556240400
		},
	"2019-04-26T05:00:00+02:00" : {
		"windSpeed" : 0.6,
		"windDir" : 55,
		"rain" : 1,
		"cloudbase" : 931.13104999996,
		"flyability" : 0,
		"reason" : "windDir, rain, cloudbase",
		"timestamp" :1556251200
		},
	"2019-04-26T08:00:00+02:00" : {
		"windSpeed" : 1,
		"windDir" : 61,
		"rain" : 1,
		"cloudbase" : 209.66085,
		"flyability" : 0,
		"reason" : "windDir, rain, cloudbase",
		"timestamp" :1556262000
		},
	"2019-04-26T11:00:00+02:00" : {
		"windSpeed" : 1,
		"windDir" : 97,
		"rain" : 1,
		"cloudbase" : 315.38433999999,
		"flyability" : 0,
		"reason" : "windDir, rain, cloudbase",
		"timestamp" :1556272800
		},
	"2019-04-26T14:00:00+02:00" : {
		"windSpeed" : 1.4,
		"windDir" : 105,
		"rain" : 1,
		"cloudbase" : 354.16905999999,
		"flyability" : 0,
		"reason" : "windDir, rain, cloudbase",
		"timestamp" :1556283600
		},
	"2019-04-26T17:00:00+02:00" : {
		"windSpeed" : 0.6,
		"windDir" : 161,
		"rain" : 1,
		"cloudbase" : 3250,
		"flyability" : 0,
		"reason" : "rain",
		"timestamp" :1556294400
		},
	"2019-04-26T20:00:00+02:00" : {
		"windSpeed" : 0.4,
		"windDir" : 260,
		"rain" : 1,
		"cloudbase" : 540,
		"flyability" : 0,
		"reason" : "windDir, rain, cloudbase",
		"timestamp" :1556305200
		},
	"2019-04-26T23:00:00+02:00" : {
		"windSpeed" : 0.8,
		"windDir" : 357,
		"rain" : 0,
		"cloudbase" : 160,
		"flyability" : 0,
		"reason" : "windDir, cloudbase",
		"timestamp" :1556316000
		},
	"2019-04-27T02:00:00+02:00" : {
		"windSpeed" : 0.9,
		"windDir" : 303,
		"rain" : 1,
		"cloudbase" : 3934.8098500001,
		"flyability" : 0,
		"reason" : "windDir, rain",
		"timestamp" :1556326800
		},
	"2019-04-27T05:00:00+02:00" : {
		"windSpeed" : 0.9,
		"windDir" : 331,
		"rain" : 0,
		"cloudbase" : 3590.13255,
		"flyability" : 0,
		"reason" : "windDir",
		"timestamp" :1556337600
		},
	"2019-04-27T08:00:00+02:00" : {
		"windSpeed" : 1,
		"windDir" : 287,
		"rain" : 0,
		"cloudbase" : 3982.14765,
		"flyability" : 0,
		"reason" : "windDir",
		"timestamp" :1556348400
		},
	"2019-04-27T11:00:00+02:00" : {
		"windSpeed" : 1.5,
		"windDir" : 210,
		"rain" : 0,
		"cloudbase" : 4464.7387,
		"flyability" : 100,
		"reason" : "",
		"timestamp" :1556359200
		},
	"2019-04-27T14:00:00+02:00" : {
		"windSpeed" : 2,
		"windDir" : 203,
		"rain" : 1,
		"cloudbase" : 1524.6462200001,
		"flyability" : 0,
		"reason" : "rain",
		"timestamp" :1556370000
		},
	"2019-04-27T17:00:00+02:00" : {
		"windSpeed" : 1.6,
		"windDir" : 198,
		"rain" : 1,
		"cloudbase" : 3077.4124799999,
		"flyability" : 0,
		"reason" : "rain",
		"timestamp" :1556380800
		},
	"2019-04-27T20:00:00+02:00" : {
		"windSpeed" : 0.8,
		"windDir" : 180,
		"rain" : 0,
		"cloudbase" : null,
		"flyability" : 100,
		"reason" : "",
		"timestamp" :1556391600
		},
	"2019-04-27T23:00:00+02:00" : {
		"windSpeed" : 0.7,
		"windDir" : 319,
		"rain" : 0,
		"cloudbase" : 30,
		"flyability" : 0,
		"reason" : "windDir, cloudbase",
		"timestamp" :1556402400
		},
	"2019-04-28T02:00:00+02:00" : {
		"windSpeed" : 0.5,
		"windDir" : 360,
		"rain" : 0,
		"cloudbase" : null,
		"flyability" : 0,
		"reason" : "windDir",
		"timestamp" :1556413200
		},
	"2019-04-28T05:00:00+02:00" : {
		"windSpeed" : 0.5,
		"windDir" : 344,
		"rain" : 0,
		"cloudbase" : null,
		"flyability" : 0,
		"reason" : "windDir",
		"timestamp" :1556424000
		},
	"2019-04-28T08:00:00+02:00" : {
		"windSpeed" : 0.6,
		"windDir" : 266,
		"rain" : 0,
		"cloudbase" : 8020.7783,
		"flyability" : 0,
		"reason" : "windDir",
		"timestamp" :1556434800
		},
	"2019-04-28T11:00:00+02:00" : {
		"windSpeed" : 1.5,
		"windDir" : 168,
		"rain" : 0,
		"cloudbase" : 7836.8,
		"flyability" : 100,
		"reason" : "",
		"timestamp" :1556445600
		},
	"2019-04-28T14:00:00+02:00" : {
		"windSpeed" : 1.8,
		"windDir" : 166,
		"rain" : 0,
		"cloudbase" : null,
		"flyability" : 100,
		"reason" : "",
		"timestamp" :1556456400
		}
	}
}