{
"site" : "Huergas de Babia",
"id" : 10631,
"orientations" : "21000001",
"forecasts" : { 
	"2019-04-03T05:00:00+02:00" : {
		"windSpeed" : 2.9,
		"windDir" : 313,
		"rain" : 0,
		"cloudbase" : 259.7248,
		"flyability" : 0,
		"reason" : "cloudbase",
		"timestamp" :1554264000
		},
	"2019-04-03T08:00:00+02:00" : {
		"windSpeed" : 3.5,
		"windDir" : 314,
		"rain" : 0,
		"cloudbase" : 176.56429999999,
		"flyability" : 0,
		"reason" : "cloudbase",
		"timestamp" :1554274800
		},
	"2019-04-03T11:00:00+02:00" : {
		"windSpeed" : 3.9,
		"windDir" : 313,
		"rain" : 0,
		"cloudbase" : 117.2044,
		"flyability" : 0,
		"reason" : "cloudbase",
		"timestamp" :1554285600
		},
	"2019-04-03T14:00:00+02:00" : {
		"windSpeed" : 5.3,
		"windDir" : 310,
		"rain" : 0,
		"cloudbase" : 160,
		"flyability" : 0,
		"reason" : "windSpeed, cloudbase",
		"timestamp" :1554296400
		},
	"2019-04-03T17:00:00+02:00" : {
		"windSpeed" : 5,
		"windDir" : 316,
		"rain" : 0,
		"cloudbase" : 201.04209999999,
		"flyability" : 0,
		"reason" : "cloudbase",
		"timestamp" :1554307200
		},
	"2019-04-03T20:00:00+02:00" : {
		"windSpeed" : 4.9,
		"windDir" : 314,
		"rain" : 0,
		"cloudbase" : 151.0755,
		"flyability" : 0,
		"reason" : "cloudbase",
		"timestamp" :1554318000
		},
	"2019-04-03T23:00:00+02:00" : {
		"windSpeed" : 3.9,
		"windDir" : 311,
		"rain" : 0,
		"cloudbase" : 78.761099999998,
		"flyability" : 0,
		"reason" : "cloudbase",
		"timestamp" :1554328800
		},
	"2019-04-04T02:00:00+02:00" : {
		"windSpeed" : 3.4,
		"windDir" : 298,
		"rain" : 0,
		"cloudbase" : 62.561099999999,
		"flyability" : 0,
		"reason" : "cloudbase",
		"timestamp" :1554339600
		},
	"2019-04-04T05:00:00+02:00" : {
		"windSpeed" : 3.2,
		"windDir" : 290,
		"rain" : 0,
		"cloudbase" : 66.631099999999,
		"flyability" : 0,
		"reason" : "windDir, cloudbase",
		"timestamp" :1554350400
		},
	"2019-04-04T08:00:00+02:00" : {
		"windSpeed" : 3.1,
		"windDir" : 285,
		"rain" : 0,
		"cloudbase" : 68.058899999999,
		"flyability" : 0,
		"reason" : "windDir, cloudbase",
		"timestamp" :1554361200
		},
	"2019-04-04T11:00:00+02:00" : {
		"windSpeed" : 3.6,
		"windDir" : 232,
		"rain" : 0,
		"cloudbase" : 164.8622,
		"flyability" : 0,
		"reason" : "windDir, cloudbase",
		"timestamp" :1554372000
		},
	"2019-04-04T14:00:00+02:00" : {
		"windSpeed" : 4.7,
		"windDir" : 217,
		"rain" : 0,
		"cloudbase" : 347.2148,
		"flyability" : 0,
		"reason" : "windDir, cloudbase",
		"timestamp" :1554382800
		},
	"2019-04-04T17:00:00+02:00" : {
		"windSpeed" : 4.9,
		"windDir" : 212,
		"rain" : 0,
		"cloudbase" : 561.4172,
		"flyability" : 0,
		"reason" : "windDir, cloudbase",
		"timestamp" :1554393600
		},
	"2019-04-04T20:00:00+02:00" : {
		"windSpeed" : 4.2,
		"windDir" : 201,
		"rain" : 0,
		"cloudbase" : 283.5432,
		"flyability" : 0,
		"reason" : "windDir, cloudbase",
		"timestamp" :1554404400
		},
	"2019-04-04T23:00:00+02:00" : {
		"windSpeed" : 2.8,
		"windDir" : 168,
		"rain" : 0,
		"cloudbase" : 55.938900000001,
		"flyability" : 0,
		"reason" : "windDir, cloudbase",
		"timestamp" :1554415200
		},
	"2019-04-05T02:00:00+02:00" : {
		"windSpeed" : 2.1,
		"windDir" : 171,
		"rain" : 0,
		"cloudbase" : 36.3878,
		"flyability" : 0,
		"reason" : "windDir, cloudbase",
		"timestamp" :1554426000
		},
	"2019-04-05T05:00:00+02:00" : {
		"windSpeed" : 1.3,
		"windDir" : 202,
		"rain" : 0,
		"cloudbase" : 143.32040000001,
		"flyability" : 0,
		"reason" : "windDir, cloudbase",
		"timestamp" :1554436800
		},
	"2019-04-05T08:00:00+02:00" : {
		"windSpeed" : 1.6,
		"windDir" : 198,
		"rain" : 0,
		"cloudbase" : 52.671200000001,
		"flyability" : 0,
		"reason" : "windDir, cloudbase",
		"timestamp" :1554447600
		},
	"2019-04-05T11:00:00+02:00" : {
		"windSpeed" : 3.1,
		"windDir" : 219,
		"rain" : 0,
		"cloudbase" : 190,
		"flyability" : 0,
		"reason" : "windDir, cloudbase",
		"timestamp" :1554458400
		},
	"2019-04-05T14:00:00+02:00" : {
		"windSpeed" : 4.2,
		"windDir" : 230,
		"rain" : 0,
		"cloudbase" : null,
		"flyability" : 0,
		"reason" : "windDir",
		"timestamp" :1554469200
		},
	"2019-04-05T17:00:00+02:00" : {
		"windSpeed" : 3.6,
		"windDir" : 238,
		"rain" : 0,
		"cloudbase" : 2651.079,
		"flyability" : 0,
		"reason" : "windDir",
		"timestamp" :1554480000
		},
	"2019-04-05T20:00:00+02:00" : {
		"windSpeed" : 2.1,
		"windDir" : 292,
		"rain" : 0,
		"cloudbase" : 4800,
		"flyability" : 0,
		"reason" : "windDir",
		"timestamp" :1554490800
		},
	"2019-04-05T23:00:00+02:00" : {
		"windSpeed" : 2,
		"windDir" : 276,
		"rain" : 0,
		"cloudbase" : null,
		"flyability" : 0,
		"reason" : "windDir",
		"timestamp" :1554501600
		},
	"2019-04-06T02:00:00+02:00" : {
		"windSpeed" : 1.7,
		"windDir" : 190,
		"rain" : 0,
		"cloudbase" : 85.940299999999,
		"flyability" : 0,
		"reason" : "windDir, cloudbase",
		"timestamp" :1554512400
		},
	"2019-04-06T05:00:00+02:00" : {
		"windSpeed" : 3.1,
		"windDir" : 209,
		"rain" : 0,
		"cloudbase" : 31.9311,
		"flyability" : 0,
		"reason" : "windDir, cloudbase",
		"timestamp" :1554523200
		},
	"2019-04-06T08:00:00+02:00" : {
		"windSpeed" : 2.7,
		"windDir" : 187,
		"rain" : 0,
		"cloudbase" : 229.39559999999,
		"flyability" : 0,
		"reason" : "windDir, cloudbase",
		"timestamp" :1554534000
		},
	"2019-04-06T11:00:00+02:00" : {
		"windSpeed" : 4.1,
		"windDir" : 197,
		"rain" : 0,
		"cloudbase" : 234.3512,
		"flyability" : 0,
		"reason" : "windDir, cloudbase",
		"timestamp" :1554544800
		},
	"2019-04-06T14:00:00+02:00" : {
		"windSpeed" : 4.8,
		"windDir" : 236,
		"rain" : 0,
		"cloudbase" : 512.29940000002,
		"flyability" : 0,
		"reason" : "windDir, cloudbase",
		"timestamp" :1554555600
		},
	"2019-04-06T17:00:00+02:00" : {
		"windSpeed" : 3.6,
		"windDir" : 231,
		"rain" : 0,
		"cloudbase" : 2739.923,
		"flyability" : 0,
		"reason" : "windDir",
		"timestamp" :1554566400
		},
	"2019-04-06T20:00:00+02:00" : {
		"windSpeed" : 2.7,
		"windDir" : 201,
		"rain" : 0,
		"cloudbase" : 442.07780000002,
		"flyability" : 0,
		"reason" : "windDir, cloudbase",
		"timestamp" :1554577200
		},
	"2019-04-06T23:00:00+02:00" : {
		"windSpeed" : 2.1,
		"windDir" : 193,
		"rain" : 0,
		"cloudbase" : 876.47879999996,
		"flyability" : 0,
		"reason" : "windDir, cloudbase",
		"timestamp" :1554588000
		},
	"2019-04-07T02:00:00+02:00" : {
		"windSpeed" : 1.6,
		"windDir" : 251,
		"rain" : 0,
		"cloudbase" : 138.5472,
		"flyability" : 0,
		"reason" : "windDir, cloudbase",
		"timestamp" :1554598800
		},
	"2019-04-07T05:00:00+02:00" : {
		"windSpeed" : 3.7,
		"windDir" : 279,
		"rain" : 0,
		"cloudbase" : 30.3422,
		"flyability" : 0,
		"reason" : "windDir, cloudbase",
		"timestamp" :1554609600
		},
	"2019-04-07T08:00:00+02:00" : {
		"windSpeed" : 3.6,
		"windDir" : 274,
		"rain" : 0,
		"cloudbase" : 30,
		"flyability" : 0,
		"reason" : "windDir, cloudbase",
		"timestamp" :1554620400
		},
	"2019-04-07T11:00:00+02:00" : {
		"windSpeed" : 4.9,
		"windDir" : 283,
		"rain" : 0,
		"cloudbase" : 85.050899999998,
		"flyability" : 0,
		"reason" : "windDir, cloudbase",
		"timestamp" :1554631200
		},
	"2019-04-07T14:00:00+02:00" : {
		"windSpeed" : 3.5,
		"windDir" : 278,
		"rain" : 0,
		"cloudbase" : 537.3424,
		"flyability" : 0,
		"reason" : "windDir, cloudbase",
		"timestamp" :1554642000
		},
	"2019-04-07T17:00:00+02:00" : {
		"windSpeed" : 3.2,
		"windDir" : 247,
		"rain" : 0,
		"cloudbase" : 713.0176,
		"flyability" : 0,
		"reason" : "windDir, cloudbase",
		"timestamp" :1554652800
		},
	"2019-04-07T20:00:00+02:00" : {
		"windSpeed" : 1.8,
		"windDir" : 227,
		"rain" : 0,
		"cloudbase" : 560,
		"flyability" : 0,
		"reason" : "windDir, cloudbase",
		"timestamp" :1554663600
		},
	"2019-04-07T23:00:00+02:00" : {
		"windSpeed" : 1.7,
		"windDir" : 190,
		"rain" : 0,
		"cloudbase" : 1942.411,
		"flyability" : 0,
		"reason" : "windDir",
		"timestamp" :1554674400
		},
	"2019-04-08T02:00:00+02:00" : {
		"windSpeed" : 2.1,
		"windDir" : 172,
		"rain" : 0,
		"cloudbase" : 858.17980000001,
		"flyability" : 0,
		"reason" : "windDir, cloudbase",
		"timestamp" :1554685200
		},
	"2019-04-08T05:00:00+02:00" : {
		"windSpeed" : 3,
		"windDir" : 169,
		"rain" : 0,
		"cloudbase" : 37.1914,
		"flyability" : 0,
		"reason" : "windDir, cloudbase",
		"timestamp" :1554696000
		},
	"2019-04-08T08:00:00+02:00" : {
		"windSpeed" : 2.2,
		"windDir" : 180,
		"rain" : 0,
		"cloudbase" : 52.193300000001,
		"flyability" : 0,
		"reason" : "windDir, cloudbase",
		"timestamp" :1554706800
		},
	"2019-04-08T11:00:00+02:00" : {
		"windSpeed" : 3.8,
		"windDir" : 212,
		"rain" : 1,
		"cloudbase" : 130,
		"flyability" : 0,
		"reason" : "windDir, rain, cloudbase",
		"timestamp" :1554717600
		},
	"2019-04-08T14:00:00+02:00" : {
		"windSpeed" : 4.4,
		"windDir" : 219,
		"rain" : 0,
		"cloudbase" : 640,
		"flyability" : 0,
		"reason" : "windDir, cloudbase",
		"timestamp" :1554728400
		},
	"2019-04-08T17:00:00+02:00" : {
		"windSpeed" : 3.8,
		"windDir" : 217,
		"rain" : 0,
		"cloudbase" : 1058.7,
		"flyability" : 0,
		"reason" : "windDir, cloudbase",
		"timestamp" :1554739200
		},
	"2019-04-08T20:00:00+02:00" : {
		"windSpeed" : 1.7,
		"windDir" : 208,
		"rain" : 0,
		"cloudbase" : null,
		"flyability" : 0,
		"reason" : "windDir",
		"timestamp" :1554750000
		},
	"2019-04-08T23:00:00+02:00" : {
		"windSpeed" : 1.7,
		"windDir" : 190,
		"rain" : 0,
		"cloudbase" : 339.6178,
		"flyability" : 0,
		"reason" : "windDir, cloudbase",
		"timestamp" :1554760800
		},
	"2019-04-09T02:00:00+02:00" : {
		"windSpeed" : 2.6,
		"windDir" : 167,
		"rain" : 0,
		"cloudbase" : 30,
		"flyability" : 0,
		"reason" : "windDir, cloudbase",
		"timestamp" :1554771600
		}
	}
}