{
"site" : "Alcaria Ruiva",
"id" : 10657,
"orientations" : "21012101",
"forecasts" : { 
	"2019-04-05T04:00:00+01:00" : {
		"windSpeed" : 3,
		"windDir" : 270,
		"rain" : 1,
		"cloudbase" : 1400.25,
		"flyability" : 0,
		"reason" : "windDir, rain",
		"timestamp" :1554429600
		},
	"2019-04-05T07:00:00+01:00" : {
		"windSpeed" : 5.2,
		"windDir" : 287,
		"rain" : 1,
		"cloudbase" : null,
		"flyability" : 0,
		"reason" : "windSpeed, windDir, rain",
		"timestamp" :1554440400
		},
	"2019-04-05T10:00:00+01:00" : {
		"windSpeed" : 5.8,
		"windDir" : 285,
		"rain" : 1,
		"cloudbase" : null,
		"flyability" : 0,
		"reason" : "windSpeed, windDir, rain",
		"timestamp" :1554451200
		},
	"2019-04-05T13:00:00+01:00" : {
		"windSpeed" : 6,
		"windDir" : 272,
		"rain" : 1,
		"cloudbase" : 1050,
		"flyability" : 0,
		"reason" : "windSpeed, windDir, rain",
		"timestamp" :1554462000
		},
	"2019-04-05T16:00:00+01:00" : {
		"windSpeed" : 8.7,
		"windDir" : 277,
		"rain" : 1,
		"cloudbase" : null,
		"flyability" : 0,
		"reason" : "windSpeed, windDir, rain",
		"timestamp" :1554472800
		},
	"2019-04-05T19:00:00+01:00" : {
		"windSpeed" : 6.7,
		"windDir" : 283,
		"rain" : 1,
		"cloudbase" : 6213.4114999999,
		"flyability" : 0,
		"reason" : "windSpeed, windDir, rain",
		"timestamp" :1554483600
		},
	"2019-04-05T22:00:00+01:00" : {
		"windSpeed" : 4.6,
		"windDir" : 279,
		"rain" : 0,
		"cloudbase" : null,
		"flyability" : 0,
		"reason" : "windDir",
		"timestamp" :1554494400
		},
	"2019-04-06T01:00:00+01:00" : {
		"windSpeed" : 4.3,
		"windDir" : 270,
		"rain" : 1,
		"cloudbase" : null,
		"flyability" : 0,
		"reason" : "windDir, rain",
		"timestamp" :1554505200
		},
	"2019-04-06T04:00:00+01:00" : {
		"windSpeed" : 4.3,
		"windDir" : 263,
		"rain" : 1,
		"cloudbase" : null,
		"flyability" : 0,
		"reason" : "windDir, rain",
		"timestamp" :1554516000
		},
	"2019-04-06T07:00:00+01:00" : {
		"windSpeed" : 3.5,
		"windDir" : 265,
		"rain" : 1,
		"cloudbase" : null,
		"flyability" : 0,
		"reason" : "windDir, rain",
		"timestamp" :1554526800
		},
	"2019-04-06T10:00:00+01:00" : {
		"windSpeed" : 4.8,
		"windDir" : 270,
		"rain" : 1,
		"cloudbase" : 960,
		"flyability" : 0,
		"reason" : "windDir, rain",
		"timestamp" :1554537600
		},
	"2019-04-06T13:00:00+01:00" : {
		"windSpeed" : 6.5,
		"windDir" : 283,
		"rain" : 1,
		"cloudbase" : null,
		"flyability" : 0,
		"reason" : "windSpeed, windDir, rain",
		"timestamp" :1554548400
		},
	"2019-04-06T16:00:00+01:00" : {
		"windSpeed" : 7.5,
		"windDir" : 282,
		"rain" : 1,
		"cloudbase" : null,
		"flyability" : 0,
		"reason" : "windSpeed, windDir, rain",
		"timestamp" :1554559200
		},
	"2019-04-06T19:00:00+01:00" : {
		"windSpeed" : 6.2,
		"windDir" : 284,
		"rain" : 0,
		"cloudbase" : null,
		"flyability" : 0,
		"reason" : "windSpeed, windDir",
		"timestamp" :1554570000
		},
	"2019-04-06T22:00:00+01:00" : {
		"windSpeed" : 3.5,
		"windDir" : 270,
		"rain" : 0,
		"cloudbase" : null,
		"flyability" : 0,
		"reason" : "windDir",
		"timestamp" :1554580800
		},
	"2019-04-07T01:00:00+01:00" : {
		"windSpeed" : 3.1,
		"windDir" : 245,
		"rain" : 1,
		"cloudbase" : 700,
		"flyability" : 0,
		"reason" : "rain",
		"timestamp" :1554591600
		},
	"2019-04-07T04:00:00+01:00" : {
		"windSpeed" : 3.1,
		"windDir" : 229,
		"rain" : 0,
		"cloudbase" : null,
		"flyability" : 100,
		"reason" : "",
		"timestamp" :1554602400
		},
	"2019-04-07T07:00:00+01:00" : {
		"windSpeed" : 3.1,
		"windDir" : 216,
		"rain" : 0,
		"cloudbase" : 1318.00575,
		"flyability" : 100,
		"reason" : "",
		"timestamp" :1554613200
		},
	"2019-04-07T10:00:00+01:00" : {
		"windSpeed" : 3.6,
		"windDir" : 203,
		"rain" : 0,
		"cloudbase" : 1644.6711000002,
		"flyability" : 100,
		"reason" : "",
		"timestamp" :1554624000
		},
	"2019-04-07T13:00:00+01:00" : {
		"windSpeed" : 5.8,
		"windDir" : 275,
		"rain" : 1,
		"cloudbase" : 873.12919999996,
		"flyability" : 0,
		"reason" : "windSpeed, windDir, rain",
		"timestamp" :1554634800
		},
	"2019-04-07T16:00:00+01:00" : {
		"windSpeed" : 6.8,
		"windDir" : 270,
		"rain" : 1,
		"cloudbase" : null,
		"flyability" : 0,
		"reason" : "windSpeed, windDir, rain",
		"timestamp" :1554645600
		},
	"2019-04-07T19:00:00+01:00" : {
		"windSpeed" : 5.7,
		"windDir" : 257,
		"rain" : 0,
		"cloudbase" : null,
		"flyability" : 0,
		"reason" : "windSpeed, windDir",
		"timestamp" :1554656400
		},
	"2019-04-07T22:00:00+01:00" : {
		"windSpeed" : 4.1,
		"windDir" : 243,
		"rain" : 0,
		"cloudbase" : 5994.6494999996,
		"flyability" : 100,
		"reason" : "",
		"timestamp" :1554667200
		},
	"2019-04-08T01:00:00+01:00" : {
		"windSpeed" : 4,
		"windDir" : 225,
		"rain" : 0,
		"cloudbase" : 3868.1587499998,
		"flyability" : 100,
		"reason" : "",
		"timestamp" :1554678000
		},
	"2019-04-08T04:00:00+01:00" : {
		"windSpeed" : 3.3,
		"windDir" : 287,
		"rain" : 1,
		"cloudbase" : null,
		"flyability" : 0,
		"reason" : "windDir, rain",
		"timestamp" :1554688800
		},
	"2019-04-08T07:00:00+01:00" : {
		"windSpeed" : 1.7,
		"windDir" : 260,
		"rain" : 0,
		"cloudbase" : null,
		"flyability" : 0,
		"reason" : "windDir",
		"timestamp" :1554699600
		},
	"2019-04-08T10:00:00+01:00" : {
		"windSpeed" : 3.6,
		"windDir" : 281,
		"rain" : 0,
		"cloudbase" : null,
		"flyability" : 0,
		"reason" : "windDir",
		"timestamp" :1554710400
		},
	"2019-04-08T13:00:00+01:00" : {
		"windSpeed" : 4.5,
		"windDir" : 266,
		"rain" : 0,
		"cloudbase" : 1793.67125,
		"flyability" : 0,
		"reason" : "windDir",
		"timestamp" :1554721200
		},
	"2019-04-08T16:00:00+01:00" : {
		"windSpeed" : 5.9,
		"windDir" : 277,
		"rain" : 0,
		"cloudbase" : 6436.8350000003,
		"flyability" : 0,
		"reason" : "windSpeed, windDir",
		"timestamp" :1554732000
		},
	"2019-04-08T19:00:00+01:00" : {
		"windSpeed" : 5.5,
		"windDir" : 270,
		"rain" : 0,
		"cloudbase" : 2698.8075,
		"flyability" : 0,
		"reason" : "windSpeed, windDir",
		"timestamp" :1554742800
		},
	"2019-04-08T22:00:00+01:00" : {
		"windSpeed" : 2.5,
		"windDir" : 259,
		"rain" : 0,
		"cloudbase" : 8001.1885,
		"flyability" : 0,
		"reason" : "windDir",
		"timestamp" :1554753600
		},
	"2019-04-09T01:00:00+01:00" : {
		"windSpeed" : 2.5,
		"windDir" : 233,
		"rain" : 0,
		"cloudbase" : null,
		"flyability" : 100,
		"reason" : "",
		"timestamp" :1554764400
		},
	"2019-04-09T04:00:00+01:00" : {
		"windSpeed" : 2.6,
		"windDir" : 230,
		"rain" : 0,
		"cloudbase" : null,
		"flyability" : 100,
		"reason" : "",
		"timestamp" :1554775200
		},
	"2019-04-09T07:00:00+01:00" : {
		"windSpeed" : 2.9,
		"windDir" : 260,
		"rain" : 0,
		"cloudbase" : 560,
		"flyability" : 0,
		"reason" : "windDir",
		"timestamp" :1554786000
		},
	"2019-04-09T10:00:00+01:00" : {
		"windSpeed" : 5.2,
		"windDir" : 285,
		"rain" : 1,
		"cloudbase" : null,
		"flyability" : 0,
		"reason" : "windSpeed, windDir, rain",
		"timestamp" :1554796800
		},
	"2019-04-09T13:00:00+01:00" : {
		"windSpeed" : 5.7,
		"windDir" : 285,
		"rain" : 0,
		"cloudbase" : null,
		"flyability" : 0,
		"reason" : "windSpeed, windDir",
		"timestamp" :1554807600
		},
	"2019-04-09T16:00:00+01:00" : {
		"windSpeed" : 6,
		"windDir" : 293,
		"rain" : 0,
		"cloudbase" : 1868.1,
		"flyability" : 0,
		"reason" : "windSpeed",
		"timestamp" :1554818400
		},
	"2019-04-09T19:00:00+01:00" : {
		"windSpeed" : 5.8,
		"windDir" : 301,
		"rain" : 1,
		"cloudbase" : null,
		"flyability" : 0,
		"reason" : "windSpeed, rain",
		"timestamp" :1554829200
		},
	"2019-04-09T22:00:00+01:00" : {
		"windSpeed" : 3.8,
		"windDir" : 293,
		"rain" : 0,
		"cloudbase" : null,
		"flyability" : 100,
		"reason" : "",
		"timestamp" :1554840000
		},
	"2019-04-10T01:00:00+01:00" : {
		"windSpeed" : 2.7,
		"windDir" : 292,
		"rain" : 0,
		"cloudbase" : null,
		"flyability" : 0,
		"reason" : "windDir",
		"timestamp" :1554850800
		},
	"2019-04-10T04:00:00+01:00" : {
		"windSpeed" : 2.7,
		"windDir" : 292,
		"rain" : 0,
		"cloudbase" : null,
		"flyability" : 0,
		"reason" : "windDir",
		"timestamp" :1554861600
		},
	"2019-04-10T07:00:00+01:00" : {
		"windSpeed" : 2.4,
		"windDir" : 295,
		"rain" : 0,
		"cloudbase" : null,
		"flyability" : 100,
		"reason" : "",
		"timestamp" :1554872400
		},
	"2019-04-10T10:00:00+01:00" : {
		"windSpeed" : 3.9,
		"windDir" : 320,
		"rain" : 0,
		"cloudbase" : 800,
		"flyability" : 100,
		"reason" : "",
		"timestamp" :1554883200
		},
	"2019-04-10T13:00:00+01:00" : {
		"windSpeed" : 4.2,
		"windDir" : 315,
		"rain" : 1,
		"cloudbase" : 1718.25575,
		"flyability" : 0,
		"reason" : "rain",
		"timestamp" :1554894000
		},
	"2019-04-10T16:00:00+01:00" : {
		"windSpeed" : 5.2,
		"windDir" : 317,
		"rain" : 0,
		"cloudbase" : 1912.4885,
		"flyability" : 0,
		"reason" : "windSpeed",
		"timestamp" :1554904800
		},
	"2019-04-10T19:00:00+01:00" : {
		"windSpeed" : 5.3,
		"windDir" : 305,
		"rain" : 0,
		"cloudbase" : null,
		"flyability" : 0,
		"reason" : "windSpeed",
		"timestamp" :1554915600
		},
	"2019-04-10T22:00:00+01:00" : {
		"windSpeed" : 4.7,
		"windDir" : 302,
		"rain" : 0,
		"cloudbase" : null,
		"flyability" : 100,
		"reason" : "",
		"timestamp" :1554926400
		},
	"2019-04-11T01:00:00+01:00" : {
		"windSpeed" : 2.9,
		"windDir" : 301,
		"rain" : 0,
		"cloudbase" : null,
		"flyability" : 100,
		"reason" : "",
		"timestamp" :1554937200
		}
	}
}