{
"site" : "Lough Bray",
"id" : 10743,
"orientations" : "00221000",
"forecasts" : { 
	"2019-04-20T04:00:00+01:00" : {
		"windSpeed" : 1.8,
		"windDir" : 216,
		"rain" : 0,
		"cloudbase" : 8986.6272,
		"flyability" : 0,
		"reason" : "windDir",
		"timestamp" :1555725600
		},
	"2019-04-20T07:00:00+01:00" : {
		"windSpeed" : 1.1,
		"windDir" : 243,
		"rain" : 0,
		"cloudbase" : 8388.8,
		"flyability" : 0,
		"reason" : "windDir",
		"timestamp" :1555736400
		},
	"2019-04-20T10:00:00+01:00" : {
		"windSpeed" : 0.5,
		"windDir" : 109,
		"rain" : 0,
		"cloudbase" : 8397.4136,
		"flyability" : 100,
		"reason" : "",
		"timestamp" :1555747200
		},
	"2019-04-20T13:00:00+01:00" : {
		"windSpeed" : 0.7,
		"windDir" : 147,
		"rain" : 0,
		"cloudbase" : null,
		"flyability" : 100,
		"reason" : "",
		"timestamp" :1555758000
		},
	"2019-04-20T16:00:00+01:00" : {
		"windSpeed" : 0.8,
		"windDir" : 154,
		"rain" : 0,
		"cloudbase" : 9849.7408,
		"flyability" : 100,
		"reason" : "",
		"timestamp" :1555768800
		},
	"2019-04-20T19:00:00+01:00" : {
		"windSpeed" : 0.8,
		"windDir" : 219,
		"rain" : 0,
		"cloudbase" : 6861.2,
		"flyability" : 0,
		"reason" : "windDir",
		"timestamp" :1555779600
		},
	"2019-04-20T22:00:00+01:00" : {
		"windSpeed" : 1.4,
		"windDir" : 224,
		"rain" : 0,
		"cloudbase" : 6080.1864,
		"flyability" : 0,
		"reason" : "windDir",
		"timestamp" :1555790400
		},
	"2019-04-21T01:00:00+01:00" : {
		"windSpeed" : 1.4,
		"windDir" : 223,
		"rain" : 0,
		"cloudbase" : 5690.3,
		"flyability" : 0,
		"reason" : "windDir",
		"timestamp" :1555801200
		},
	"2019-04-21T04:00:00+01:00" : {
		"windSpeed" : 1.9,
		"windDir" : 215,
		"rain" : 0,
		"cloudbase" : 9450.8272,
		"flyability" : 0,
		"reason" : "windDir",
		"timestamp" :1555812000
		},
	"2019-04-21T07:00:00+01:00" : {
		"windSpeed" : 2.5,
		"windDir" : 218,
		"rain" : 0,
		"cloudbase" : 9398.9136,
		"flyability" : 0,
		"reason" : "windDir",
		"timestamp" :1555822800
		},
	"2019-04-21T10:00:00+01:00" : {
		"windSpeed" : 2.6,
		"windDir" : 216,
		"rain" : 0,
		"cloudbase" : 9688.8,
		"flyability" : 0,
		"reason" : "windDir",
		"timestamp" :1555833600
		},
	"2019-04-21T13:00:00+01:00" : {
		"windSpeed" : 3.7,
		"windDir" : 213,
		"rain" : 0,
		"cloudbase" : 10038.3864,
		"flyability" : 0,
		"reason" : "windDir",
		"timestamp" :1555844400
		},
	"2019-04-21T16:00:00+01:00" : {
		"windSpeed" : 4.4,
		"windDir" : 215,
		"rain" : 0,
		"cloudbase" : null,
		"flyability" : 0,
		"reason" : "windDir",
		"timestamp" :1555855200
		},
	"2019-04-21T19:00:00+01:00" : {
		"windSpeed" : 4.4,
		"windDir" : 201,
		"rain" : 0,
		"cloudbase" : null,
		"flyability" : 100,
		"reason" : "",
		"timestamp" :1555866000
		},
	"2019-04-21T22:00:00+01:00" : {
		"windSpeed" : 4.3,
		"windDir" : 200,
		"rain" : 0,
		"cloudbase" : null,
		"flyability" : 100,
		"reason" : "",
		"timestamp" :1555876800
		},
	"2019-04-22T01:00:00+01:00" : {
		"windSpeed" : 5,
		"windDir" : 186,
		"rain" : 0,
		"cloudbase" : null,
		"flyability" : 100,
		"reason" : "",
		"timestamp" :1555887600
		},
	"2019-04-22T04:00:00+01:00" : {
		"windSpeed" : 5.4,
		"windDir" : 180,
		"rain" : 0,
		"cloudbase" : null,
		"flyability" : 0,
		"reason" : "windSpeed",
		"timestamp" :1555898400
		},
	"2019-04-22T07:00:00+01:00" : {
		"windSpeed" : 5.2,
		"windDir" : 163,
		"rain" : 0,
		"cloudbase" : null,
		"flyability" : 0,
		"reason" : "windSpeed",
		"timestamp" :1555909200
		},
	"2019-04-22T10:00:00+01:00" : {
		"windSpeed" : 5.7,
		"windDir" : 159,
		"rain" : 0,
		"cloudbase" : null,
		"flyability" : 0,
		"reason" : "windSpeed",
		"timestamp" :1555920000
		},
	"2019-04-22T13:00:00+01:00" : {
		"windSpeed" : 6.1,
		"windDir" : 155,
		"rain" : 0,
		"cloudbase" : null,
		"flyability" : 0,
		"reason" : "windSpeed",
		"timestamp" :1555930800
		},
	"2019-04-22T16:00:00+01:00" : {
		"windSpeed" : 5.1,
		"windDir" : 151,
		"rain" : 0,
		"cloudbase" : null,
		"flyability" : 0,
		"reason" : "windSpeed",
		"timestamp" :1555941600
		},
	"2019-04-22T19:00:00+01:00" : {
		"windSpeed" : 3.8,
		"windDir" : 156,
		"rain" : 0,
		"cloudbase" : null,
		"flyability" : 100,
		"reason" : "",
		"timestamp" :1555952400
		},
	"2019-04-22T22:00:00+01:00" : {
		"windSpeed" : 3.5,
		"windDir" : 144,
		"rain" : 1,
		"cloudbase" : null,
		"flyability" : 0,
		"reason" : "rain",
		"timestamp" :1555963200
		},
	"2019-04-23T01:00:00+01:00" : {
		"windSpeed" : 3.2,
		"windDir" : 139,
		"rain" : 1,
		"cloudbase" : null,
		"flyability" : 0,
		"reason" : "rain",
		"timestamp" :1555974000
		},
	"2019-04-23T04:00:00+01:00" : {
		"windSpeed" : 3.3,
		"windDir" : 153,
		"rain" : 0,
		"cloudbase" : 2691.8136,
		"flyability" : 100,
		"reason" : "",
		"timestamp" :1555984800
		},
	"2019-04-23T07:00:00+01:00" : {
		"windSpeed" : 3.5,
		"windDir" : 163,
		"rain" : 0,
		"cloudbase" : 4443.832,
		"flyability" : 100,
		"reason" : "",
		"timestamp" :1555995600
		},
	"2019-04-23T10:00:00+01:00" : {
		"windSpeed" : 3,
		"windDir" : 169,
		"rain" : 1,
		"cloudbase" : 2616.4,
		"flyability" : 0,
		"reason" : "rain",
		"timestamp" :1556006400
		},
	"2019-04-23T13:00:00+01:00" : {
		"windSpeed" : 3.2,
		"windDir" : 129,
		"rain" : 1,
		"cloudbase" : null,
		"flyability" : 0,
		"reason" : "rain",
		"timestamp" :1556017200
		},
	"2019-04-23T16:00:00+01:00" : {
		"windSpeed" : 3.6,
		"windDir" : 124,
		"rain" : 0,
		"cloudbase" : 9700,
		"flyability" : 100,
		"reason" : "",
		"timestamp" :1556028000
		},
	"2019-04-23T19:00:00+01:00" : {
		"windSpeed" : 2.1,
		"windDir" : 102,
		"rain" : 0,
		"cloudbase" : null,
		"flyability" : 100,
		"reason" : "",
		"timestamp" :1556038800
		},
	"2019-04-23T22:00:00+01:00" : {
		"windSpeed" : 1.9,
		"windDir" : 120,
		"rain" : 0,
		"cloudbase" : 3538.8,
		"flyability" : 100,
		"reason" : "",
		"timestamp" :1556049600
		},
	"2019-04-24T01:00:00+01:00" : {
		"windSpeed" : 3.6,
		"windDir" : 155,
		"rain" : 1,
		"cloudbase" : 7160.1136,
		"flyability" : 0,
		"reason" : "rain",
		"timestamp" :1556060400
		},
	"2019-04-24T04:00:00+01:00" : {
		"windSpeed" : 2.8,
		"windDir" : 147,
		"rain" : 0,
		"cloudbase" : 4460.5024,
		"flyability" : 100,
		"reason" : "",
		"timestamp" :1556071200
		},
	"2019-04-24T07:00:00+01:00" : {
		"windSpeed" : 3.3,
		"windDir" : 153,
		"rain" : 1,
		"cloudbase" : 980,
		"flyability" : 0,
		"reason" : "rain",
		"timestamp" :1556082000
		},
	"2019-04-24T10:00:00+01:00" : {
		"windSpeed" : 4.8,
		"windDir" : 162,
		"rain" : 1,
		"cloudbase" : 240,
		"flyability" : 0,
		"reason" : "rain, cloudbase",
		"timestamp" :1556092800
		},
	"2019-04-24T13:00:00+01:00" : {
		"windSpeed" : 4.4,
		"windDir" : 152,
		"rain" : 1,
		"cloudbase" : 122.24544,
		"flyability" : 0,
		"reason" : "rain, cloudbase",
		"timestamp" :1556103600
		},
	"2019-04-24T16:00:00+01:00" : {
		"windSpeed" : 4.7,
		"windDir" : 148,
		"rain" : 1,
		"cloudbase" : 120,
		"flyability" : 0,
		"reason" : "rain, cloudbase",
		"timestamp" :1556114400
		},
	"2019-04-24T19:00:00+01:00" : {
		"windSpeed" : 4.6,
		"windDir" : 139,
		"rain" : 1,
		"cloudbase" : 364.59919999996,
		"flyability" : 0,
		"reason" : "rain, cloudbase",
		"timestamp" :1556125200
		},
	"2019-04-24T22:00:00+01:00" : {
		"windSpeed" : 6.1,
		"windDir" : 145,
		"rain" : 1,
		"cloudbase" : 44.18136,
		"flyability" : 0,
		"reason" : "windSpeed, rain, cloudbase",
		"timestamp" :1556136000
		},
	"2019-04-25T01:00:00+01:00" : {
		"windSpeed" : 6.5,
		"windDir" : 147,
		"rain" : 1,
		"cloudbase" : 5933.8080000002,
		"flyability" : 0,
		"reason" : "windSpeed, rain",
		"timestamp" :1556146800
		},
	"2019-04-25T04:00:00+01:00" : {
		"windSpeed" : 7,
		"windDir" : 135,
		"rain" : 1,
		"cloudbase" : 225.16976,
		"flyability" : 0,
		"reason" : "windSpeed, rain, cloudbase",
		"timestamp" :1556157600
		},
	"2019-04-25T07:00:00+01:00" : {
		"windSpeed" : 8.5,
		"windDir" : 140,
		"rain" : 1,
		"cloudbase" : 446.55488,
		"flyability" : 0,
		"reason" : "windSpeed, rain, cloudbase",
		"timestamp" :1556168400
		},
	"2019-04-25T10:00:00+01:00" : {
		"windSpeed" : 7.7,
		"windDir" : 165,
		"rain" : 1,
		"cloudbase" : 130,
		"flyability" : 0,
		"reason" : "windSpeed, rain, cloudbase",
		"timestamp" :1556179200
		},
	"2019-04-25T13:00:00+01:00" : {
		"windSpeed" : 5.8,
		"windDir" : 161,
		"rain" : 1,
		"cloudbase" : 4908.2384,
		"flyability" : 0,
		"reason" : "windSpeed, rain",
		"timestamp" :1556190000
		},
	"2019-04-25T16:00:00+01:00" : {
		"windSpeed" : 6.5,
		"windDir" : 181,
		"rain" : 1,
		"cloudbase" : null,
		"flyability" : 0,
		"reason" : "windSpeed, rain",
		"timestamp" :1556200800
		},
	"2019-04-25T19:00:00+01:00" : {
		"windSpeed" : 4.6,
		"windDir" : 187,
		"rain" : 0,
		"cloudbase" : null,
		"flyability" : 100,
		"reason" : "",
		"timestamp" :1556211600
		},
	"2019-04-25T22:00:00+01:00" : {
		"windSpeed" : 2.5,
		"windDir" : 190,
		"rain" : 0,
		"cloudbase" : null,
		"flyability" : 100,
		"reason" : "",
		"timestamp" :1556222400
		},
	"2019-04-26T01:00:00+01:00" : {
		"windSpeed" : 1.8,
		"windDir" : 215,
		"rain" : 0,
		"cloudbase" : null,
		"flyability" : 0,
		"reason" : "windDir",
		"timestamp" :1556233200
		}
	}
}