{
"site" : "Parapente los cerezos",
"id" : 10816,
"orientations" : "12221000",
"forecasts" : { 
	"2019-04-04T22:00:00-05:00" : {
		"windSpeed" : 1,
		"windDir" : 223,
		"rain" : 1,
		"cloudbase" : 10025.515599999,
		"flyability" : 0,
		"reason" : "windDir, rain",
		"timestamp" :1554429600
		},
	"2019-04-05T01:00:00-05:00" : {
		"windSpeed" : 0.9,
		"windDir" : 358,
		"rain" : 1,
		"cloudbase" : 674.27770400021,
		"flyability" : 0,
		"reason" : "rain, cloudbase",
		"timestamp" :1554440400
		},
	"2019-04-05T04:00:00-05:00" : {
		"windSpeed" : 0.5,
		"windDir" : 13,
		"rain" : 1,
		"cloudbase" : 6939.9710519985,
		"flyability" : 0,
		"reason" : "rain",
		"timestamp" :1554451200
		},
	"2019-04-05T07:00:00-05:00" : {
		"windSpeed" : 1.1,
		"windDir" : 81,
		"rain" : 0,
		"cloudbase" : 6807.6683119987,
		"flyability" : 100,
		"reason" : "",
		"timestamp" :1554462000
		},
	"2019-04-05T10:00:00-05:00" : {
		"windSpeed" : 1.8,
		"windDir" : 292,
		"rain" : 0,
		"cloudbase" : 5162.3053400002,
		"flyability" : 0,
		"reason" : "windDir",
		"timestamp" :1554472800
		},
	"2019-04-05T13:00:00-05:00" : {
		"windSpeed" : 2.6,
		"windDir" : 246,
		"rain" : 1,
		"cloudbase" : 6855.9237799993,
		"flyability" : 0,
		"reason" : "windDir, rain",
		"timestamp" :1554483600
		},
	"2019-04-05T16:00:00-05:00" : {
		"windSpeed" : 1.3,
		"windDir" : 244,
		"rain" : 1,
		"cloudbase" : 2023.3761000004,
		"flyability" : 0,
		"reason" : "windDir, rain, cloudbase",
		"timestamp" :1554494400
		},
	"2019-04-05T19:00:00-05:00" : {
		"windSpeed" : 0.3,
		"windDir" : 232,
		"rain" : 1,
		"cloudbase" : 1482.65064,
		"flyability" : 0,
		"reason" : "windDir, rain, cloudbase",
		"timestamp" :1554505200
		},
	"2019-04-05T22:00:00-05:00" : {
		"windSpeed" : 0.6,
		"windDir" : 218,
		"rain" : 1,
		"cloudbase" : 1677.6915759999,
		"flyability" : 0,
		"reason" : "windDir, rain, cloudbase",
		"timestamp" :1554516000
		},
	"2019-04-06T01:00:00-05:00" : {
		"windSpeed" : 0.3,
		"windDir" : 264,
		"rain" : 1,
		"cloudbase" : null,
		"flyability" : 0,
		"reason" : "windDir, rain",
		"timestamp" :1554526800
		},
	"2019-04-06T04:00:00-05:00" : {
		"windSpeed" : 0.7,
		"windDir" : 44,
		"rain" : 1,
		"cloudbase" : null,
		"flyability" : 0,
		"reason" : "rain",
		"timestamp" :1554537600
		},
	"2019-04-06T07:00:00-05:00" : {
		"windSpeed" : 1.1,
		"windDir" : 63,
		"rain" : 1,
		"cloudbase" : null,
		"flyability" : 0,
		"reason" : "rain",
		"timestamp" :1554548400
		},
	"2019-04-06T10:00:00-05:00" : {
		"windSpeed" : 1.8,
		"windDir" : 66,
		"rain" : 1,
		"cloudbase" : null,
		"flyability" : 0,
		"reason" : "rain",
		"timestamp" :1554559200
		},
	"2019-04-06T13:00:00-05:00" : {
		"windSpeed" : 1.7,
		"windDir" : 89,
		"rain" : 1,
		"cloudbase" : 2100,
		"flyability" : 0,
		"reason" : "rain, cloudbase",
		"timestamp" :1554570000
		},
	"2019-04-06T16:00:00-05:00" : {
		"windSpeed" : 0.9,
		"windDir" : 92,
		"rain" : 1,
		"cloudbase" : 4392.7884800015,
		"flyability" : 0,
		"reason" : "rain",
		"timestamp" :1554580800
		},
	"2019-04-06T19:00:00-05:00" : {
		"windSpeed" : 1.2,
		"windDir" : 102,
		"rain" : 1,
		"cloudbase" : 2250,
		"flyability" : 0,
		"reason" : "rain, cloudbase",
		"timestamp" :1554591600
		},
	"2019-04-06T22:00:00-05:00" : {
		"windSpeed" : 1.2,
		"windDir" : 64,
		"rain" : 1,
		"cloudbase" : null,
		"flyability" : 0,
		"reason" : "rain",
		"timestamp" :1554602400
		},
	"2019-04-07T01:00:00-05:00" : {
		"windSpeed" : 0.6,
		"windDir" : 73,
		"rain" : 1,
		"cloudbase" : 905.85324799994,
		"flyability" : 0,
		"reason" : "rain, cloudbase",
		"timestamp" :1554613200
		},
	"2019-04-07T04:00:00-05:00" : {
		"windSpeed" : 1.1,
		"windDir" : 59,
		"rain" : 0,
		"cloudbase" : 1472.454764,
		"flyability" : 0,
		"reason" : "cloudbase",
		"timestamp" :1554624000
		},
	"2019-04-07T07:00:00-05:00" : {
		"windSpeed" : 2,
		"windDir" : 69,
		"rain" : 1,
		"cloudbase" : 4110.1154400016,
		"flyability" : 0,
		"reason" : "rain",
		"timestamp" :1554634800
		},
	"2019-04-07T10:00:00-05:00" : {
		"windSpeed" : 2.6,
		"windDir" : 103,
		"rain" : 0,
		"cloudbase" : null,
		"flyability" : 100,
		"reason" : "",
		"timestamp" :1554645600
		},
	"2019-04-07T13:00:00-05:00" : {
		"windSpeed" : 1.8,
		"windDir" : 50,
		"rain" : 0,
		"cloudbase" : 2050,
		"flyability" : 0,
		"reason" : "cloudbase",
		"timestamp" :1554656400
		},
	"2019-04-07T16:00:00-05:00" : {
		"windSpeed" : 3,
		"windDir" : 93,
		"rain" : 0,
		"cloudbase" : 1900,
		"flyability" : 0,
		"reason" : "cloudbase",
		"timestamp" :1554667200
		},
	"2019-04-07T19:00:00-05:00" : {
		"windSpeed" : 1.6,
		"windDir" : 102,
		"rain" : 0,
		"cloudbase" : null,
		"flyability" : 100,
		"reason" : "",
		"timestamp" :1554678000
		},
	"2019-04-07T22:00:00-05:00" : {
		"windSpeed" : 1.4,
		"windDir" : 57,
		"rain" : 0,
		"cloudbase" : 7841.7354200002,
		"flyability" : 100,
		"reason" : "",
		"timestamp" :1554688800
		},
	"2019-04-08T01:00:00-05:00" : {
		"windSpeed" : 0.6,
		"windDir" : 67,
		"rain" : 1,
		"cloudbase" : 7375.7679199998,
		"flyability" : 0,
		"reason" : "rain",
		"timestamp" :1554699600
		},
	"2019-04-08T04:00:00-05:00" : {
		"windSpeed" : 0.9,
		"windDir" : 110,
		"rain" : 0,
		"cloudbase" : 3671.7096680007,
		"flyability" : 100,
		"reason" : "",
		"timestamp" :1554710400
		},
	"2019-04-08T07:00:00-05:00" : {
		"windSpeed" : 1,
		"windDir" : 79,
		"rain" : 0,
		"cloudbase" : 7129.4563399995,
		"flyability" : 100,
		"reason" : "",
		"timestamp" :1554721200
		},
	"2019-04-08T10:00:00-05:00" : {
		"windSpeed" : 1.6,
		"windDir" : 84,
		"rain" : 0,
		"cloudbase" : 8118.9037600001,
		"flyability" : 100,
		"reason" : "",
		"timestamp" :1554732000
		},
	"2019-04-08T13:00:00-05:00" : {
		"windSpeed" : 0.9,
		"windDir" : 5,
		"rain" : 0,
		"cloudbase" : 1850,
		"flyability" : 0,
		"reason" : "cloudbase",
		"timestamp" :1554742800
		},
	"2019-04-08T16:00:00-05:00" : {
		"windSpeed" : 2.6,
		"windDir" : 103,
		"rain" : 0,
		"cloudbase" : null,
		"flyability" : 100,
		"reason" : "",
		"timestamp" :1554753600
		},
	"2019-04-08T19:00:00-05:00" : {
		"windSpeed" : 0.9,
		"windDir" : 138,
		"rain" : 0,
		"cloudbase" : null,
		"flyability" : 100,
		"reason" : "",
		"timestamp" :1554764400
		},
	"2019-04-08T22:00:00-05:00" : {
		"windSpeed" : 0.9,
		"windDir" : 86,
		"rain" : 1,
		"cloudbase" : 9908.6020799999,
		"flyability" : 0,
		"reason" : "rain",
		"timestamp" :1554775200
		},
	"2019-04-09T01:00:00-05:00" : {
		"windSpeed" : 0.9,
		"windDir" : 88,
		"rain" : 1,
		"cloudbase" : 4609.7759799993,
		"flyability" : 0,
		"reason" : "rain",
		"timestamp" :1554786000
		},
	"2019-04-09T04:00:00-05:00" : {
		"windSpeed" : 0.7,
		"windDir" : 253,
		"rain" : 1,
		"cloudbase" : 4799.3498000001,
		"flyability" : 0,
		"reason" : "windDir, rain",
		"timestamp" :1554796800
		},
	"2019-04-09T07:00:00-05:00" : {
		"windSpeed" : 1.5,
		"windDir" : 77,
		"rain" : 0,
		"cloudbase" : 11288.9094,
		"flyability" : 100,
		"reason" : "",
		"timestamp" :1554807600
		},
	"2019-04-09T10:00:00-05:00" : {
		"windSpeed" : 1.6,
		"windDir" : 77,
		"rain" : 1,
		"cloudbase" : 1500,
		"flyability" : 0,
		"reason" : "rain, cloudbase",
		"timestamp" :1554818400
		},
	"2019-04-09T13:00:00-05:00" : {
		"windSpeed" : 0.9,
		"windDir" : 129,
		"rain" : 1,
		"cloudbase" : 1950,
		"flyability" : 0,
		"reason" : "rain, cloudbase",
		"timestamp" :1554829200
		},
	"2019-04-09T16:00:00-05:00" : {
		"windSpeed" : 0.6,
		"windDir" : 202,
		"rain" : 1,
		"cloudbase" : 3790.7647800013,
		"flyability" : 0,
		"reason" : "rain",
		"timestamp" :1554840000
		},
	"2019-04-09T19:00:00-05:00" : {
		"windSpeed" : 1.6,
		"windDir" : 209,
		"rain" : 1,
		"cloudbase" : 7337.1744400004,
		"flyability" : 0,
		"reason" : "windDir, rain",
		"timestamp" :1554850800
		},
	"2019-04-09T22:00:00-05:00" : {
		"windSpeed" : 0.8,
		"windDir" : 222,
		"rain" : 1,
		"cloudbase" : 1362.63564,
		"flyability" : 0,
		"reason" : "windDir, rain, cloudbase",
		"timestamp" :1554861600
		},
	"2019-04-10T01:00:00-05:00" : {
		"windSpeed" : 0.5,
		"windDir" : 260,
		"rain" : 1,
		"cloudbase" : 1998.06752,
		"flyability" : 0,
		"reason" : "windDir, rain, cloudbase",
		"timestamp" :1554872400
		},
	"2019-04-10T04:00:00-05:00" : {
		"windSpeed" : 0,
		"windDir" : 323,
		"rain" : 1,
		"cloudbase" : 3041.4010199999,
		"flyability" : 0,
		"reason" : "windDir, rain, cloudbase",
		"timestamp" :1554883200
		},
	"2019-04-10T07:00:00-05:00" : {
		"windSpeed" : 0.6,
		"windDir" : 33,
		"rain" : 0,
		"cloudbase" : 2007.5442600003,
		"flyability" : 0,
		"reason" : "cloudbase",
		"timestamp" :1554894000
		},
	"2019-04-10T10:00:00-05:00" : {
		"windSpeed" : 1.3,
		"windDir" : 324,
		"rain" : 1,
		"cloudbase" : 1550,
		"flyability" : 0,
		"reason" : "windDir, rain, cloudbase",
		"timestamp" :1554904800
		},
	"2019-04-10T13:00:00-05:00" : {
		"windSpeed" : 0.9,
		"windDir" : 212,
		"rain" : 1,
		"cloudbase" : 640,
		"flyability" : 0,
		"reason" : "windDir, rain, cloudbase",
		"timestamp" :1554915600
		},
	"2019-04-10T16:00:00-05:00" : {
		"windSpeed" : 1.7,
		"windDir" : 281,
		"rain" : 0,
		"cloudbase" : 3963.5858999995,
		"flyability" : 0,
		"reason" : "windDir",
		"timestamp" :1554926400
		},
	"2019-04-10T19:00:00-05:00" : {
		"windSpeed" : 1,
		"windDir" : 179,
		"rain" : 1,
		"cloudbase" : 1954.0350639999,
		"flyability" : 0,
		"reason" : "rain, cloudbase",
		"timestamp" :1554937200
		}
	}
}