{
"site" : "Cota 2000",
"id" : 10854,
"orientations" : "00012100",
"forecasts" : { 
	"2019-04-17T06:00:00+03:00" : {
		"windSpeed" : 1.6,
		"windDir" : 325,
		"rain" : 0,
		"cloudbase" : 311.61378,
		"flyability" : 0,
		"reason" : "windDir, cloudbase",
		"timestamp" :1555470000
		},
	"2019-04-17T09:00:00+03:00" : {
		"windSpeed" : 2.6,
		"windDir" : 351,
		"rain" : 0,
		"cloudbase" : 154.1757,
		"flyability" : 0,
		"reason" : "windDir, cloudbase",
		"timestamp" :1555480800
		},
	"2019-04-17T12:00:00+03:00" : {
		"windSpeed" : 1.9,
		"windDir" : 2,
		"rain" : 0,
		"cloudbase" : 329.35264000001,
		"flyability" : 0,
		"reason" : "windDir, cloudbase",
		"timestamp" :1555491600
		},
	"2019-04-17T15:00:00+03:00" : {
		"windSpeed" : 2.3,
		"windDir" : 351,
		"rain" : 0,
		"cloudbase" : 382.1286,
		"flyability" : 0,
		"reason" : "windDir, cloudbase",
		"timestamp" :1555502400
		},
	"2019-04-17T18:00:00+03:00" : {
		"windSpeed" : 1.9,
		"windDir" : 15,
		"rain" : 0,
		"cloudbase" : 181.22222,
		"flyability" : 0,
		"reason" : "windDir, cloudbase",
		"timestamp" :1555513200
		},
	"2019-04-17T21:00:00+03:00" : {
		"windSpeed" : 1.1,
		"windDir" : 61,
		"rain" : 0,
		"cloudbase" : 36.40224,
		"flyability" : 0,
		"reason" : "windDir, cloudbase",
		"timestamp" :1555524000
		},
	"2019-04-18T00:00:00+03:00" : {
		"windSpeed" : 1.4,
		"windDir" : 86,
		"rain" : 0,
		"cloudbase" : 130,
		"flyability" : 0,
		"reason" : "windDir, cloudbase",
		"timestamp" :1555534800
		},
	"2019-04-18T03:00:00+03:00" : {
		"windSpeed" : 1.1,
		"windDir" : 60,
		"rain" : 0,
		"cloudbase" : 105.53972,
		"flyability" : 0,
		"reason" : "windDir, cloudbase",
		"timestamp" :1555545600
		},
	"2019-04-18T06:00:00+03:00" : {
		"windSpeed" : 1.2,
		"windDir" : 59,
		"rain" : 0,
		"cloudbase" : 32.16,
		"flyability" : 0,
		"reason" : "windDir, cloudbase",
		"timestamp" :1555556400
		},
	"2019-04-18T09:00:00+03:00" : {
		"windSpeed" : 2.2,
		"windDir" : 66,
		"rain" : 0,
		"cloudbase" : 2025.677,
		"flyability" : 0,
		"reason" : "windDir",
		"timestamp" :1555567200
		},
	"2019-04-18T12:00:00+03:00" : {
		"windSpeed" : 2.1,
		"windDir" : 29,
		"rain" : 0,
		"cloudbase" : 398.6828,
		"flyability" : 0,
		"reason" : "windDir, cloudbase",
		"timestamp" :1555578000
		},
	"2019-04-18T15:00:00+03:00" : {
		"windSpeed" : 2.8,
		"windDir" : 29,
		"rain" : 0,
		"cloudbase" : 249.32756,
		"flyability" : 0,
		"reason" : "windDir, cloudbase",
		"timestamp" :1555588800
		},
	"2019-04-18T18:00:00+03:00" : {
		"windSpeed" : 2.7,
		"windDir" : 28,
		"rain" : 1,
		"cloudbase" : 334.5226,
		"flyability" : 0,
		"reason" : "windDir, rain, cloudbase",
		"timestamp" :1555599600
		},
	"2019-04-18T21:00:00+03:00" : {
		"windSpeed" : 1.9,
		"windDir" : 49,
		"rain" : 0,
		"cloudbase" : null,
		"flyability" : 0,
		"reason" : "windDir",
		"timestamp" :1555610400
		},
	"2019-04-19T00:00:00+03:00" : {
		"windSpeed" : 2.5,
		"windDir" : 34,
		"rain" : 0,
		"cloudbase" : null,
		"flyability" : 0,
		"reason" : "windDir",
		"timestamp" :1555621200
		},
	"2019-04-19T03:00:00+03:00" : {
		"windSpeed" : 2.1,
		"windDir" : 12,
		"rain" : 0,
		"cloudbase" : null,
		"flyability" : 0,
		"reason" : "windDir",
		"timestamp" :1555632000
		},
	"2019-04-19T06:00:00+03:00" : {
		"windSpeed" : 3,
		"windDir" : 0,
		"rain" : 0,
		"cloudbase" : 160,
		"flyability" : 0,
		"reason" : "windDir, cloudbase",
		"timestamp" :1555642800
		},
	"2019-04-19T09:00:00+03:00" : {
		"windSpeed" : 3.7,
		"windDir" : 345,
		"rain" : 0,
		"cloudbase" : 760,
		"flyability" : 0,
		"reason" : "windDir, cloudbase",
		"timestamp" :1555653600
		},
	"2019-04-19T12:00:00+03:00" : {
		"windSpeed" : 4.1,
		"windDir" : 353,
		"rain" : 0,
		"cloudbase" : null,
		"flyability" : 0,
		"reason" : "windDir",
		"timestamp" :1555664400
		},
	"2019-04-19T15:00:00+03:00" : {
		"windSpeed" : 4.9,
		"windDir" : 4,
		"rain" : 0,
		"cloudbase" : 981.3684,
		"flyability" : 0,
		"reason" : "windDir, cloudbase",
		"timestamp" :1555675200
		},
	"2019-04-19T18:00:00+03:00" : {
		"windSpeed" : 4.5,
		"windDir" : 12,
		"rain" : 0,
		"cloudbase" : null,
		"flyability" : 0,
		"reason" : "windDir",
		"timestamp" :1555686000
		},
	"2019-04-19T21:00:00+03:00" : {
		"windSpeed" : 3.5,
		"windDir" : 31,
		"rain" : 0,
		"cloudbase" : null,
		"flyability" : 0,
		"reason" : "windDir",
		"timestamp" :1555696800
		},
	"2019-04-20T00:00:00+03:00" : {
		"windSpeed" : 2.4,
		"windDir" : 35,
		"rain" : 0,
		"cloudbase" : null,
		"flyability" : 0,
		"reason" : "windDir",
		"timestamp" :1555707600
		},
	"2019-04-20T03:00:00+03:00" : {
		"windSpeed" : 1,
		"windDir" : 121,
		"rain" : 0,
		"cloudbase" : null,
		"flyability" : 100,
		"reason" : "",
		"timestamp" :1555718400
		},
	"2019-04-20T06:00:00+03:00" : {
		"windSpeed" : 2.1,
		"windDir" : 39,
		"rain" : 0,
		"cloudbase" : null,
		"flyability" : 0,
		"reason" : "windDir",
		"timestamp" :1555729200
		},
	"2019-04-20T09:00:00+03:00" : {
		"windSpeed" : 3.4,
		"windDir" : 37,
		"rain" : 0,
		"cloudbase" : null,
		"flyability" : 0,
		"reason" : "windDir",
		"timestamp" :1555740000
		},
	"2019-04-20T12:00:00+03:00" : {
		"windSpeed" : 3.5,
		"windDir" : 33,
		"rain" : 0,
		"cloudbase" : 1050,
		"flyability" : 0,
		"reason" : "windDir, cloudbase",
		"timestamp" :1555750800
		},
	"2019-04-20T15:00:00+03:00" : {
		"windSpeed" : 2.8,
		"windDir" : 28,
		"rain" : 0,
		"cloudbase" : 900,
		"flyability" : 0,
		"reason" : "windDir, cloudbase",
		"timestamp" :1555761600
		},
	"2019-04-20T18:00:00+03:00" : {
		"windSpeed" : 2.2,
		"windDir" : 25,
		"rain" : 0,
		"cloudbase" : null,
		"flyability" : 0,
		"reason" : "windDir",
		"timestamp" :1555772400
		},
	"2019-04-20T21:00:00+03:00" : {
		"windSpeed" : 1.8,
		"windDir" : 114,
		"rain" : 0,
		"cloudbase" : 1150,
		"flyability" : 0,
		"reason" : "cloudbase",
		"timestamp" :1555783200
		},
	"2019-04-21T00:00:00+03:00" : {
		"windSpeed" : 1.3,
		"windDir" : 169,
		"rain" : 0,
		"cloudbase" : null,
		"flyability" : 100,
		"reason" : "",
		"timestamp" :1555794000
		},
	"2019-04-21T03:00:00+03:00" : {
		"windSpeed" : 1.7,
		"windDir" : 180,
		"rain" : 0,
		"cloudbase" : 6503.14976,
		"flyability" : 100,
		"reason" : "",
		"timestamp" :1555804800
		},
	"2019-04-21T06:00:00+03:00" : {
		"windSpeed" : 1.3,
		"windDir" : 200,
		"rain" : 0,
		"cloudbase" : 4700,
		"flyability" : 100,
		"reason" : "",
		"timestamp" :1555815600
		},
	"2019-04-21T09:00:00+03:00" : {
		"windSpeed" : 2.4,
		"windDir" : 323,
		"rain" : 0,
		"cloudbase" : 1967.6364,
		"flyability" : 0,
		"reason" : "windDir",
		"timestamp" :1555826400
		},
	"2019-04-21T12:00:00+03:00" : {
		"windSpeed" : 3.2,
		"windDir" : 331,
		"rain" : 0,
		"cloudbase" : 2600,
		"flyability" : 0,
		"reason" : "windDir",
		"timestamp" :1555837200
		},
	"2019-04-21T15:00:00+03:00" : {
		"windSpeed" : 2.9,
		"windDir" : 328,
		"rain" : 0,
		"cloudbase" : 1950.9696,
		"flyability" : 0,
		"reason" : "windDir",
		"timestamp" :1555848000
		},
	"2019-04-21T18:00:00+03:00" : {
		"windSpeed" : 2.4,
		"windDir" : 347,
		"rain" : 0,
		"cloudbase" : 1191.5042,
		"flyability" : 0,
		"reason" : "windDir, cloudbase",
		"timestamp" :1555858800
		},
	"2019-04-21T21:00:00+03:00" : {
		"windSpeed" : 0.7,
		"windDir" : 189,
		"rain" : 0,
		"cloudbase" : null,
		"flyability" : 100,
		"reason" : "",
		"timestamp" :1555869600
		},
	"2019-04-22T00:00:00+03:00" : {
		"windSpeed" : 0.7,
		"windDir" : 223,
		"rain" : 0,
		"cloudbase" : null,
		"flyability" : 100,
		"reason" : "",
		"timestamp" :1555880400
		},
	"2019-04-22T03:00:00+03:00" : {
		"windSpeed" : 0.8,
		"windDir" : 189,
		"rain" : 0,
		"cloudbase" : null,
		"flyability" : 100,
		"reason" : "",
		"timestamp" :1555891200
		},
	"2019-04-22T06:00:00+03:00" : {
		"windSpeed" : 0.7,
		"windDir" : 209,
		"rain" : 0,
		"cloudbase" : 4523.1972,
		"flyability" : 100,
		"reason" : "",
		"timestamp" :1555902000
		},
	"2019-04-22T09:00:00+03:00" : {
		"windSpeed" : 0.6,
		"windDir" : 222,
		"rain" : 0,
		"cloudbase" : 3533.9972,
		"flyability" : 100,
		"reason" : "",
		"timestamp" :1555912800
		},
	"2019-04-22T12:00:00+03:00" : {
		"windSpeed" : 1.1,
		"windDir" : 175,
		"rain" : 0,
		"cloudbase" : 1529.35496,
		"flyability" : 0,
		"reason" : "cloudbase",
		"timestamp" :1555923600
		},
	"2019-04-22T15:00:00+03:00" : {
		"windSpeed" : 1.7,
		"windDir" : 176,
		"rain" : 0,
		"cloudbase" : 619.38868,
		"flyability" : 0,
		"reason" : "cloudbase",
		"timestamp" :1555934400
		},
	"2019-04-22T18:00:00+03:00" : {
		"windSpeed" : 2.2,
		"windDir" : 164,
		"rain" : 0,
		"cloudbase" : 486.71692,
		"flyability" : 0,
		"reason" : "cloudbase",
		"timestamp" :1555945200
		},
	"2019-04-22T21:00:00+03:00" : {
		"windSpeed" : 2.2,
		"windDir" : 153,
		"rain" : 0,
		"cloudbase" : 385.42804,
		"flyability" : 0,
		"reason" : "cloudbase",
		"timestamp" :1555956000
		},
	"2019-04-23T00:00:00+03:00" : {
		"windSpeed" : 2.9,
		"windDir" : 159,
		"rain" : 0,
		"cloudbase" : 296.63804,
		"flyability" : 0,
		"reason" : "cloudbase",
		"timestamp" :1555966800
		},
	"2019-04-23T03:00:00+03:00" : {
		"windSpeed" : 3.1,
		"windDir" : 160,
		"rain" : 0,
		"cloudbase" : 94.59906,
		"flyability" : 0,
		"reason" : "cloudbase",
		"timestamp" :1555977600
		}
	}
}