{
"site" : "Talybont",
"id" : 10953,
"orientations" : "00022201",
"forecasts" : { 
	"2019-04-22T04:00:00+01:00" : {
		"windSpeed" : 2.2,
		"windDir" : 125,
		"rain" : 0,
		"cloudbase" : null,
		"flyability" : 100,
		"reason" : "",
		"timestamp" :1555898400
		},
	"2019-04-22T07:00:00+01:00" : {
		"windSpeed" : 2.5,
		"windDir" : 116,
		"rain" : 0,
		"cloudbase" : null,
		"flyability" : 100,
		"reason" : "",
		"timestamp" :1555909200
		},
	"2019-04-22T10:00:00+01:00" : {
		"windSpeed" : 3.7,
		"windDir" : 105,
		"rain" : 0,
		"cloudbase" : null,
		"flyability" : 0,
		"reason" : "windDir",
		"timestamp" :1555920000
		},
	"2019-04-22T13:00:00+01:00" : {
		"windSpeed" : 4.2,
		"windDir" : 109,
		"rain" : 0,
		"cloudbase" : 4336.691,
		"flyability" : 0,
		"reason" : "windDir",
		"timestamp" :1555930800
		},
	"2019-04-22T16:00:00+01:00" : {
		"windSpeed" : 4.9,
		"windDir" : 127,
		"rain" : 1,
		"cloudbase" : 3450,
		"flyability" : 0,
		"reason" : "rain",
		"timestamp" :1555941600
		},
	"2019-04-22T19:00:00+01:00" : {
		"windSpeed" : 3.3,
		"windDir" : 154,
		"rain" : 1,
		"cloudbase" : 8613.818,
		"flyability" : 0,
		"reason" : "rain",
		"timestamp" :1555952400
		},
	"2019-04-22T22:00:00+01:00" : {
		"windSpeed" : 2.9,
		"windDir" : 145,
		"rain" : 0,
		"cloudbase" : 3204.759,
		"flyability" : 100,
		"reason" : "",
		"timestamp" :1555963200
		},
	"2019-04-23T01:00:00+01:00" : {
		"windSpeed" : 1.7,
		"windDir" : 107,
		"rain" : 1,
		"cloudbase" : 2936.264,
		"flyability" : 0,
		"reason" : "windDir, rain",
		"timestamp" :1555974000
		},
	"2019-04-23T04:00:00+01:00" : {
		"windSpeed" : 2.6,
		"windDir" : 69,
		"rain" : 0,
		"cloudbase" : null,
		"flyability" : 0,
		"reason" : "windDir",
		"timestamp" :1555984800
		},
	"2019-04-23T07:00:00+01:00" : {
		"windSpeed" : 3.3,
		"windDir" : 63,
		"rain" : 0,
		"cloudbase" : 2600,
		"flyability" : 0,
		"reason" : "windDir",
		"timestamp" :1555995600
		},
	"2019-04-23T10:00:00+01:00" : {
		"windSpeed" : 4.3,
		"windDir" : 77,
		"rain" : 0,
		"cloudbase" : null,
		"flyability" : 0,
		"reason" : "windDir",
		"timestamp" :1556006400
		},
	"2019-04-23T13:00:00+01:00" : {
		"windSpeed" : 4.7,
		"windDir" : 92,
		"rain" : 0,
		"cloudbase" : 8568.4820000001,
		"flyability" : 0,
		"reason" : "windDir",
		"timestamp" :1556017200
		},
	"2019-04-23T16:00:00+01:00" : {
		"windSpeed" : 4.6,
		"windDir" : 119,
		"rain" : 0,
		"cloudbase" : 9134.164,
		"flyability" : 100,
		"reason" : "",
		"timestamp" :1556028000
		},
	"2019-04-23T19:00:00+01:00" : {
		"windSpeed" : 2.8,
		"windDir" : 120,
		"rain" : 0,
		"cloudbase" : 7476.6,
		"flyability" : 100,
		"reason" : "",
		"timestamp" :1556038800
		},
	"2019-04-23T22:00:00+01:00" : {
		"windSpeed" : 1.8,
		"windDir" : 119,
		"rain" : 0,
		"cloudbase" : 5555.382,
		"flyability" : 100,
		"reason" : "",
		"timestamp" :1556049600
		},
	"2019-04-24T01:00:00+01:00" : {
		"windSpeed" : 2,
		"windDir" : 120,
		"rain" : 0,
		"cloudbase" : 4462.177,
		"flyability" : 100,
		"reason" : "",
		"timestamp" :1556060400
		},
	"2019-04-24T04:00:00+01:00" : {
		"windSpeed" : 2,
		"windDir" : 103,
		"rain" : 0,
		"cloudbase" : 4001.7050000002,
		"flyability" : 0,
		"reason" : "windDir",
		"timestamp" :1556071200
		},
	"2019-04-24T07:00:00+01:00" : {
		"windSpeed" : 3.2,
		"windDir" : 94,
		"rain" : 0,
		"cloudbase" : 4241.4480000003,
		"flyability" : 0,
		"reason" : "windDir",
		"timestamp" :1556082000
		},
	"2019-04-24T10:00:00+01:00" : {
		"windSpeed" : 4,
		"windDir" : 110,
		"rain" : 1,
		"cloudbase" : 1110.4186000001,
		"flyability" : 0,
		"reason" : "windDir, rain",
		"timestamp" :1556092800
		},
	"2019-04-24T13:00:00+01:00" : {
		"windSpeed" : 5.2,
		"windDir" : 222,
		"rain" : 1,
		"cloudbase" : 199.51460000001,
		"flyability" : 0,
		"reason" : "windSpeed, rain, cloudbase",
		"timestamp" :1556103600
		},
	"2019-04-24T16:00:00+01:00" : {
		"windSpeed" : 5.1,
		"windDir" : 203,
		"rain" : 1,
		"cloudbase" : 935.7272,
		"flyability" : 0,
		"reason" : "windSpeed, rain",
		"timestamp" :1556114400
		},
	"2019-04-24T19:00:00+01:00" : {
		"windSpeed" : 5.4,
		"windDir" : 159,
		"rain" : 1,
		"cloudbase" : 6500,
		"flyability" : 0,
		"reason" : "windSpeed, rain",
		"timestamp" :1556125200
		},
	"2019-04-24T22:00:00+01:00" : {
		"windSpeed" : 5.5,
		"windDir" : 137,
		"rain" : 1,
		"cloudbase" : 292.2664,
		"flyability" : 0,
		"reason" : "windSpeed, rain, cloudbase",
		"timestamp" :1556136000
		},
	"2019-04-25T01:00:00+01:00" : {
		"windSpeed" : 6.3,
		"windDir" : 132,
		"rain" : 1,
		"cloudbase" : 6379.882,
		"flyability" : 0,
		"reason" : "windSpeed, rain",
		"timestamp" :1556146800
		},
	"2019-04-25T04:00:00+01:00" : {
		"windSpeed" : 6.1,
		"windDir" : 129,
		"rain" : 1,
		"cloudbase" : 569.8,
		"flyability" : 0,
		"reason" : "windSpeed, rain, cloudbase",
		"timestamp" :1556157600
		},
	"2019-04-25T07:00:00+01:00" : {
		"windSpeed" : 7,
		"windDir" : 132,
		"rain" : 1,
		"cloudbase" : 479.26700000002,
		"flyability" : 0,
		"reason" : "windSpeed, rain, cloudbase",
		"timestamp" :1556168400
		},
	"2019-04-25T10:00:00+01:00" : {
		"windSpeed" : 5,
		"windDir" : 139,
		"rain" : 1,
		"cloudbase" : 472.34660000001,
		"flyability" : 0,
		"reason" : "rain, cloudbase",
		"timestamp" :1556179200
		},
	"2019-04-25T13:00:00+01:00" : {
		"windSpeed" : 6.5,
		"windDir" : 163,
		"rain" : 1,
		"cloudbase" : null,
		"flyability" : 0,
		"reason" : "windSpeed, rain",
		"timestamp" :1556190000
		},
	"2019-04-25T16:00:00+01:00" : {
		"windSpeed" : 6.8,
		"windDir" : 173,
		"rain" : 1,
		"cloudbase" : null,
		"flyability" : 0,
		"reason" : "windSpeed, rain",
		"timestamp" :1556200800
		},
	"2019-04-25T19:00:00+01:00" : {
		"windSpeed" : 5.2,
		"windDir" : 174,
		"rain" : 1,
		"cloudbase" : null,
		"flyability" : 0,
		"reason" : "windSpeed, rain",
		"timestamp" :1556211600
		},
	"2019-04-25T22:00:00+01:00" : {
		"windSpeed" : 3.6,
		"windDir" : 161,
		"rain" : 0,
		"cloudbase" : null,
		"flyability" : 100,
		"reason" : "",
		"timestamp" :1556222400
		},
	"2019-04-26T01:00:00+01:00" : {
		"windSpeed" : 3.4,
		"windDir" : 160,
		"rain" : 0,
		"cloudbase" : 75,
		"flyability" : 0,
		"reason" : "cloudbase",
		"timestamp" :1556233200
		},
	"2019-04-26T04:00:00+01:00" : {
		"windSpeed" : 4.1,
		"windDir" : 151,
		"rain" : 0,
		"cloudbase" : 85.119599999998,
		"flyability" : 0,
		"reason" : "cloudbase",
		"timestamp" :1556244000
		},
	"2019-04-26T07:00:00+01:00" : {
		"windSpeed" : 5,
		"windDir" : 141,
		"rain" : 0,
		"cloudbase" : 67.4073,
		"flyability" : 0,
		"reason" : "cloudbase",
		"timestamp" :1556254800
		},
	"2019-04-26T10:00:00+01:00" : {
		"windSpeed" : 5.1,
		"windDir" : 155,
		"rain" : 1,
		"cloudbase" : 525.0622,
		"flyability" : 0,
		"reason" : "windSpeed, rain, cloudbase",
		"timestamp" :1556265600
		},
	"2019-04-26T13:00:00+01:00" : {
		"windSpeed" : 5.4,
		"windDir" : 204,
		"rain" : 1,
		"cloudbase" : 205.32590000001,
		"flyability" : 0,
		"reason" : "windSpeed, rain, cloudbase",
		"timestamp" :1556276400
		},
	"2019-04-26T16:00:00+01:00" : {
		"windSpeed" : 5.4,
		"windDir" : 234,
		"rain" : 1,
		"cloudbase" : 240,
		"flyability" : 0,
		"reason" : "windSpeed, rain, cloudbase",
		"timestamp" :1556287200
		},
	"2019-04-26T19:00:00+01:00" : {
		"windSpeed" : 4.9,
		"windDir" : 246,
		"rain" : 1,
		"cloudbase" : 4150,
		"flyability" : 0,
		"reason" : "rain",
		"timestamp" :1556298000
		},
	"2019-04-26T22:00:00+01:00" : {
		"windSpeed" : 4.9,
		"windDir" : 239,
		"rain" : 0,
		"cloudbase" : 1920.1905999999,
		"flyability" : 100,
		"reason" : "",
		"timestamp" :1556308800
		},
	"2019-04-27T01:00:00+01:00" : {
		"windSpeed" : 3.1,
		"windDir" : 177,
		"rain" : 1,
		"cloudbase" : 1347.361,
		"flyability" : 0,
		"reason" : "rain",
		"timestamp" :1556319600
		},
	"2019-04-27T04:00:00+01:00" : {
		"windSpeed" : 4.1,
		"windDir" : 78,
		"rain" : 1,
		"cloudbase" : 58.2564,
		"flyability" : 0,
		"reason" : "windDir, rain, cloudbase",
		"timestamp" :1556330400
		},
	"2019-04-27T07:00:00+01:00" : {
		"windSpeed" : 6.4,
		"windDir" : 332,
		"rain" : 1,
		"cloudbase" : 49.314599999998,
		"flyability" : 0,
		"reason" : "windSpeed, rain, cloudbase",
		"timestamp" :1556341200
		},
	"2019-04-27T10:00:00+01:00" : {
		"windSpeed" : 8.4,
		"windDir" : 310,
		"rain" : 1,
		"cloudbase" : 892.40060000006,
		"flyability" : 0,
		"reason" : "windSpeed, rain",
		"timestamp" :1556352000
		},
	"2019-04-27T13:00:00+01:00" : {
		"windSpeed" : 7.2,
		"windDir" : 302,
		"rain" : 1,
		"cloudbase" : 370,
		"flyability" : 0,
		"reason" : "windSpeed, rain, cloudbase",
		"timestamp" :1556362800
		},
	"2019-04-27T16:00:00+01:00" : {
		"windSpeed" : 7.7,
		"windDir" : 303,
		"rain" : 1,
		"cloudbase" : null,
		"flyability" : 0,
		"reason" : "windSpeed, rain",
		"timestamp" :1556373600
		},
	"2019-04-27T19:00:00+01:00" : {
		"windSpeed" : 5.4,
		"windDir" : 300,
		"rain" : 1,
		"cloudbase" : 8300,
		"flyability" : 0,
		"reason" : "windSpeed, rain",
		"timestamp" :1556384400
		},
	"2019-04-27T22:00:00+01:00" : {
		"windSpeed" : 2.9,
		"windDir" : 269,
		"rain" : 0,
		"cloudbase" : 7201.1080000001,
		"flyability" : 0,
		"reason" : "windDir",
		"timestamp" :1556395200
		},
	"2019-04-28T01:00:00+01:00" : {
		"windSpeed" : 2.4,
		"windDir" : 251,
		"rain" : 0,
		"cloudbase" : 6900,
		"flyability" : 0,
		"reason" : "windDir",
		"timestamp" :1556406000
		}
	}
}