{
"site" : "Garlock",
"id" : 11029,
"orientations" : "00021000",
"forecasts" : { 
	"2019-04-04T20:00:00-07:00" : {
		"windSpeed" : 3.8,
		"windDir" : 217,
		"rain" : 1,
		"cloudbase" : 4726,
		"flyability" : 0,
		"reason" : "windDir, rain",
		"timestamp" :1554436800
		},
	"2019-04-04T23:00:00-07:00" : {
		"windSpeed" : 2.2,
		"windDir" : 189,
		"rain" : 1,
		"cloudbase" : 7755,
		"flyability" : 0,
		"reason" : "rain",
		"timestamp" :1554447600
		},
	"2019-04-05T02:00:00-07:00" : {
		"windSpeed" : 2.7,
		"windDir" : 175,
		"rain" : 0,
		"cloudbase" : 8700,
		"flyability" : 100,
		"reason" : "",
		"timestamp" :1554458400
		},
	"2019-04-05T05:00:00-07:00" : {
		"windSpeed" : 2,
		"windDir" : 161,
		"rain" : 0,
		"cloudbase" : null,
		"flyability" : 100,
		"reason" : "",
		"timestamp" :1554469200
		},
	"2019-04-05T08:00:00-07:00" : {
		"windSpeed" : 1.9,
		"windDir" : 170,
		"rain" : 0,
		"cloudbase" : null,
		"flyability" : 100,
		"reason" : "",
		"timestamp" :1554480000
		},
	"2019-04-05T11:00:00-07:00" : {
		"windSpeed" : 2.5,
		"windDir" : 286,
		"rain" : 0,
		"cloudbase" : 10500,
		"flyability" : 0,
		"reason" : "windDir",
		"timestamp" :1554490800
		},
	"2019-04-05T14:00:00-07:00" : {
		"windSpeed" : 4.6,
		"windDir" : 258,
		"rain" : 0,
		"cloudbase" : 3690.5000000003,
		"flyability" : 0,
		"reason" : "windDir",
		"timestamp" :1554501600
		},
	"2019-04-05T17:00:00-07:00" : {
		"windSpeed" : 5.9,
		"windDir" : 272,
		"rain" : 0,
		"cloudbase" : 4955,
		"flyability" : 0,
		"reason" : "windSpeed, windDir",
		"timestamp" :1554512400
		},
	"2019-04-05T20:00:00-07:00" : {
		"windSpeed" : 3.5,
		"windDir" : 235,
		"rain" : 1,
		"cloudbase" : null,
		"flyability" : 0,
		"reason" : "windDir, rain",
		"timestamp" :1554523200
		},
	"2019-04-05T23:00:00-07:00" : {
		"windSpeed" : 1.6,
		"windDir" : 213,
		"rain" : 0,
		"cloudbase" : null,
		"flyability" : 0,
		"reason" : "windDir",
		"timestamp" :1554534000
		},
	"2019-04-06T02:00:00-07:00" : {
		"windSpeed" : 0.4,
		"windDir" : 165,
		"rain" : 0,
		"cloudbase" : 9264,
		"flyability" : 100,
		"reason" : "",
		"timestamp" :1554544800
		},
	"2019-04-06T05:00:00-07:00" : {
		"windSpeed" : 1.2,
		"windDir" : 326,
		"rain" : 0,
		"cloudbase" : null,
		"flyability" : 0,
		"reason" : "windDir",
		"timestamp" :1554555600
		},
	"2019-04-06T08:00:00-07:00" : {
		"windSpeed" : 1.4,
		"windDir" : 152,
		"rain" : 0,
		"cloudbase" : null,
		"flyability" : 100,
		"reason" : "",
		"timestamp" :1554566400
		},
	"2019-04-06T11:00:00-07:00" : {
		"windSpeed" : 2.7,
		"windDir" : 171,
		"rain" : 0,
		"cloudbase" : 7100,
		"flyability" : 100,
		"reason" : "",
		"timestamp" :1554577200
		},
	"2019-04-06T14:00:00-07:00" : {
		"windSpeed" : 2.8,
		"windDir" : 277,
		"rain" : 0,
		"cloudbase" : 10205,
		"flyability" : 0,
		"reason" : "windDir",
		"timestamp" :1554588000
		},
	"2019-04-06T17:00:00-07:00" : {
		"windSpeed" : 4.9,
		"windDir" : 300,
		"rain" : 0,
		"cloudbase" : 10705,
		"flyability" : 0,
		"reason" : "windDir",
		"timestamp" :1554598800
		},
	"2019-04-06T20:00:00-07:00" : {
		"windSpeed" : 3.8,
		"windDir" : 290,
		"rain" : 0,
		"cloudbase" : null,
		"flyability" : 0,
		"reason" : "windDir",
		"timestamp" :1554609600
		},
	"2019-04-06T23:00:00-07:00" : {
		"windSpeed" : 2.8,
		"windDir" : 312,
		"rain" : 0,
		"cloudbase" : 10545,
		"flyability" : 0,
		"reason" : "windDir",
		"timestamp" :1554620400
		},
	"2019-04-07T02:00:00-07:00" : {
		"windSpeed" : 0.9,
		"windDir" : 337,
		"rain" : 0,
		"cloudbase" : null,
		"flyability" : 0,
		"reason" : "windDir",
		"timestamp" :1554631200
		},
	"2019-04-07T05:00:00-07:00" : {
		"windSpeed" : 0.8,
		"windDir" : 48,
		"rain" : 0,
		"cloudbase" : 7864,
		"flyability" : 0,
		"reason" : "windDir",
		"timestamp" :1554642000
		},
	"2019-04-07T08:00:00-07:00" : {
		"windSpeed" : 1.2,
		"windDir" : 31,
		"rain" : 0,
		"cloudbase" : 10455,
		"flyability" : 0,
		"reason" : "windDir",
		"timestamp" :1554652800
		},
	"2019-04-07T11:00:00-07:00" : {
		"windSpeed" : 0.3,
		"windDir" : 12,
		"rain" : 0,
		"cloudbase" : 9918,
		"flyability" : 0,
		"reason" : "windDir",
		"timestamp" :1554663600
		},
	"2019-04-07T14:00:00-07:00" : {
		"windSpeed" : 0.7,
		"windDir" : 221,
		"rain" : 0,
		"cloudbase" : 8941,
		"flyability" : 0,
		"reason" : "windDir",
		"timestamp" :1554674400
		},
	"2019-04-07T17:00:00-07:00" : {
		"windSpeed" : 3.8,
		"windDir" : 294,
		"rain" : 0,
		"cloudbase" : null,
		"flyability" : 0,
		"reason" : "windDir",
		"timestamp" :1554685200
		},
	"2019-04-07T20:00:00-07:00" : {
		"windSpeed" : 3.2,
		"windDir" : 311,
		"rain" : 0,
		"cloudbase" : 8941,
		"flyability" : 0,
		"reason" : "windDir",
		"timestamp" :1554696000
		},
	"2019-04-07T23:00:00-07:00" : {
		"windSpeed" : 1.6,
		"windDir" : 327,
		"rain" : 0,
		"cloudbase" : 7832,
		"flyability" : 0,
		"reason" : "windDir",
		"timestamp" :1554706800
		},
	"2019-04-08T02:00:00-07:00" : {
		"windSpeed" : 0.2,
		"windDir" : 129,
		"rain" : 0,
		"cloudbase" : 10795,
		"flyability" : 100,
		"reason" : "",
		"timestamp" :1554717600
		},
	"2019-04-08T05:00:00-07:00" : {
		"windSpeed" : 1.6,
		"windDir" : 345,
		"rain" : 0,
		"cloudbase" : 7241,
		"flyability" : 0,
		"reason" : "windDir",
		"timestamp" :1554728400
		},
	"2019-04-08T08:00:00-07:00" : {
		"windSpeed" : 0.6,
		"windDir" : 82,
		"rain" : 0,
		"cloudbase" : 6377,
		"flyability" : 0,
		"reason" : "windDir",
		"timestamp" :1554739200
		},
	"2019-04-08T11:00:00-07:00" : {
		"windSpeed" : 0.9,
		"windDir" : 224,
		"rain" : 0,
		"cloudbase" : 8037,
		"flyability" : 0,
		"reason" : "windDir",
		"timestamp" :1554750000
		},
	"2019-04-08T14:00:00-07:00" : {
		"windSpeed" : 2.4,
		"windDir" : 216,
		"rain" : 0,
		"cloudbase" : 8984.9999999999,
		"flyability" : 0,
		"reason" : "windDir",
		"timestamp" :1554760800
		},
	"2019-04-08T17:00:00-07:00" : {
		"windSpeed" : 5.5,
		"windDir" : 274,
		"rain" : 0,
		"cloudbase" : 10302,
		"flyability" : 0,
		"reason" : "windSpeed, windDir",
		"timestamp" :1554771600
		},
	"2019-04-08T20:00:00-07:00" : {
		"windSpeed" : 4.1,
		"windDir" : 273,
		"rain" : 0,
		"cloudbase" : 9241,
		"flyability" : 0,
		"reason" : "windDir",
		"timestamp" :1554782400
		},
	"2019-04-08T23:00:00-07:00" : {
		"windSpeed" : 3.5,
		"windDir" : 269,
		"rain" : 0,
		"cloudbase" : 8723,
		"flyability" : 0,
		"reason" : "windDir",
		"timestamp" :1554793200
		},
	"2019-04-09T02:00:00-07:00" : {
		"windSpeed" : 2.6,
		"windDir" : 220,
		"rain" : 0,
		"cloudbase" : 7900,
		"flyability" : 0,
		"reason" : "windDir",
		"timestamp" :1554804000
		},
	"2019-04-09T05:00:00-07:00" : {
		"windSpeed" : 3,
		"windDir" : 234,
		"rain" : 0,
		"cloudbase" : null,
		"flyability" : 0,
		"reason" : "windDir",
		"timestamp" :1554814800
		},
	"2019-04-09T08:00:00-07:00" : {
		"windSpeed" : 3.1,
		"windDir" : 215,
		"rain" : 0,
		"cloudbase" : null,
		"flyability" : 0,
		"reason" : "windDir",
		"timestamp" :1554825600
		},
	"2019-04-09T11:00:00-07:00" : {
		"windSpeed" : 7.7,
		"windDir" : 281,
		"rain" : 1,
		"cloudbase" : null,
		"flyability" : 0,
		"reason" : "windSpeed, windDir, rain",
		"timestamp" :1554836400
		},
	"2019-04-09T14:00:00-07:00" : {
		"windSpeed" : 7.7,
		"windDir" : 285,
		"rain" : 0,
		"cloudbase" : null,
		"flyability" : 0,
		"reason" : "windSpeed, windDir",
		"timestamp" :1554847200
		},
	"2019-04-09T17:00:00-07:00" : {
		"windSpeed" : 5.8,
		"windDir" : 302,
		"rain" : 0,
		"cloudbase" : null,
		"flyability" : 0,
		"reason" : "windSpeed, windDir",
		"timestamp" :1554858000
		},
	"2019-04-09T20:00:00-07:00" : {
		"windSpeed" : 4.9,
		"windDir" : 302,
		"rain" : 0,
		"cloudbase" : null,
		"flyability" : 0,
		"reason" : "windDir",
		"timestamp" :1554868800
		},
	"2019-04-09T23:00:00-07:00" : {
		"windSpeed" : 5,
		"windDir" : 303,
		"rain" : 0,
		"cloudbase" : null,
		"flyability" : 0,
		"reason" : "windDir",
		"timestamp" :1554879600
		},
	"2019-04-10T02:00:00-07:00" : {
		"windSpeed" : 2.7,
		"windDir" : 299,
		"rain" : 0,
		"cloudbase" : null,
		"flyability" : 0,
		"reason" : "windDir",
		"timestamp" :1554890400
		},
	"2019-04-10T05:00:00-07:00" : {
		"windSpeed" : 2.5,
		"windDir" : 292,
		"rain" : 0,
		"cloudbase" : null,
		"flyability" : 0,
		"reason" : "windDir",
		"timestamp" :1554901200
		},
	"2019-04-10T08:00:00-07:00" : {
		"windSpeed" : 1.9,
		"windDir" : 140,
		"rain" : 0,
		"cloudbase" : null,
		"flyability" : 100,
		"reason" : "",
		"timestamp" :1554912000
		},
	"2019-04-10T11:00:00-07:00" : {
		"windSpeed" : 4.2,
		"windDir" : 334,
		"rain" : 0,
		"cloudbase" : null,
		"flyability" : 0,
		"reason" : "windDir",
		"timestamp" :1554922800
		},
	"2019-04-10T14:00:00-07:00" : {
		"windSpeed" : 3.6,
		"windDir" : 302,
		"rain" : 0,
		"cloudbase" : null,
		"flyability" : 0,
		"reason" : "windDir",
		"timestamp" :1554933600
		},
	"2019-04-10T17:00:00-07:00" : {
		"windSpeed" : 5.8,
		"windDir" : 299,
		"rain" : 0,
		"cloudbase" : null,
		"flyability" : 0,
		"reason" : "windSpeed, windDir",
		"timestamp" :1554944400
		}
	}
}