{
"site" : "Bai\u00e3o Teste",
"id" : 11055,
"orientations" : "00012100",
"forecasts" : { 
	"2019-04-09T04:00:00+01:00" : {
		"windSpeed" : 5.1,
		"windDir" : 233,
		"rain" : 1,
		"cloudbase" : 4900,
		"flyability" : 0,
		"reason" : "windSpeed, rain",
		"timestamp" :1554775200
		},
	"2019-04-09T07:00:00+01:00" : {
		"windSpeed" : 3.2,
		"windDir" : 225,
		"rain" : 1,
		"cloudbase" : 344.26,
		"flyability" : 0,
		"reason" : "rain, cloudbase",
		"timestamp" :1554786000
		},
	"2019-04-09T10:00:00+01:00" : {
		"windSpeed" : 3,
		"windDir" : 260,
		"rain" : 1,
		"cloudbase" : null,
		"flyability" : 0,
		"reason" : "windDir, rain",
		"timestamp" :1554796800
		},
	"2019-04-09T13:00:00+01:00" : {
		"windSpeed" : 4.7,
		"windDir" : 250,
		"rain" : 1,
		"cloudbase" : 410,
		"flyability" : 0,
		"reason" : "windDir, rain, cloudbase",
		"timestamp" :1554807600
		},
	"2019-04-09T16:00:00+01:00" : {
		"windSpeed" : 4.8,
		"windDir" : 255,
		"rain" : 1,
		"cloudbase" : 268.68,
		"flyability" : 0,
		"reason" : "windDir, rain, cloudbase",
		"timestamp" :1554818400
		},
	"2019-04-09T19:00:00+01:00" : {
		"windSpeed" : 4.2,
		"windDir" : 263,
		"rain" : 1,
		"cloudbase" : 740,
		"flyability" : 0,
		"reason" : "windDir, rain, cloudbase",
		"timestamp" :1554829200
		},
	"2019-04-09T22:00:00+01:00" : {
		"windSpeed" : 3.6,
		"windDir" : 262,
		"rain" : 1,
		"cloudbase" : 37.130000000001,
		"flyability" : 0,
		"reason" : "windDir, rain, cloudbase",
		"timestamp" :1554840000
		},
	"2019-04-10T01:00:00+01:00" : {
		"windSpeed" : 3.4,
		"windDir" : 277,
		"rain" : 1,
		"cloudbase" : 2270.76,
		"flyability" : 0,
		"reason" : "windDir, rain",
		"timestamp" :1554850800
		},
	"2019-04-10T04:00:00+01:00" : {
		"windSpeed" : 3.1,
		"windDir" : 274,
		"rain" : 1,
		"cloudbase" : 62.600000000003,
		"flyability" : 0,
		"reason" : "windDir, rain, cloudbase",
		"timestamp" :1554861600
		},
	"2019-04-10T07:00:00+01:00" : {
		"windSpeed" : 3.8,
		"windDir" : 288,
		"rain" : 1,
		"cloudbase" : 119.36,
		"flyability" : 0,
		"reason" : "windDir, rain, cloudbase",
		"timestamp" :1554872400
		},
	"2019-04-10T10:00:00+01:00" : {
		"windSpeed" : 3.4,
		"windDir" : 288,
		"rain" : 1,
		"cloudbase" : 450,
		"flyability" : 0,
		"reason" : "windDir, rain, cloudbase",
		"timestamp" :1554883200
		},
	"2019-04-10T13:00:00+01:00" : {
		"windSpeed" : 4,
		"windDir" : 306,
		"rain" : 1,
		"cloudbase" : 1150,
		"flyability" : 0,
		"reason" : "windDir, rain",
		"timestamp" :1554894000
		},
	"2019-04-10T16:00:00+01:00" : {
		"windSpeed" : 4.5,
		"windDir" : 306,
		"rain" : 1,
		"cloudbase" : null,
		"flyability" : 0,
		"reason" : "windDir, rain",
		"timestamp" :1554904800
		},
	"2019-04-10T19:00:00+01:00" : {
		"windSpeed" : 3.4,
		"windDir" : 298,
		"rain" : 1,
		"cloudbase" : null,
		"flyability" : 0,
		"reason" : "windDir, rain",
		"timestamp" :1554915600
		},
	"2019-04-10T22:00:00+01:00" : {
		"windSpeed" : 1.3,
		"windDir" : 248,
		"rain" : 1,
		"cloudbase" : 210,
		"flyability" : 0,
		"reason" : "windDir, rain, cloudbase",
		"timestamp" :1554926400
		},
	"2019-04-11T01:00:00+01:00" : {
		"windSpeed" : 0.7,
		"windDir" : 243,
		"rain" : 1,
		"cloudbase" : 40,
		"flyability" : 0,
		"reason" : "rain, cloudbase",
		"timestamp" :1554937200
		},
	"2019-04-11T04:00:00+01:00" : {
		"windSpeed" : 0.8,
		"windDir" : 113,
		"rain" : 0,
		"cloudbase" : 30,
		"flyability" : 0,
		"reason" : "cloudbase",
		"timestamp" :1554948000
		},
	"2019-04-11T07:00:00+01:00" : {
		"windSpeed" : 1.5,
		"windDir" : 109,
		"rain" : 1,
		"cloudbase" : 30,
		"flyability" : 0,
		"reason" : "windDir, rain, cloudbase",
		"timestamp" :1554958800
		},
	"2019-04-11T10:00:00+01:00" : {
		"windSpeed" : 1.6,
		"windDir" : 94,
		"rain" : 1,
		"cloudbase" : null,
		"flyability" : 0,
		"reason" : "windDir, rain",
		"timestamp" :1554969600
		},
	"2019-04-11T13:00:00+01:00" : {
		"windSpeed" : 0.5,
		"windDir" : 343,
		"rain" : 0,
		"cloudbase" : 1600,
		"flyability" : 0,
		"reason" : "windDir",
		"timestamp" :1554980400
		},
	"2019-04-11T16:00:00+01:00" : {
		"windSpeed" : 2.7,
		"windDir" : 298,
		"rain" : 1,
		"cloudbase" : 1776.2,
		"flyability" : 0,
		"reason" : "windDir, rain",
		"timestamp" :1554991200
		},
	"2019-04-11T19:00:00+01:00" : {
		"windSpeed" : 2.5,
		"windDir" : 296,
		"rain" : 0,
		"cloudbase" : 8400,
		"flyability" : 0,
		"reason" : "windDir",
		"timestamp" :1555002000
		},
	"2019-04-11T22:00:00+01:00" : {
		"windSpeed" : 1.4,
		"windDir" : 199,
		"rain" : 1,
		"cloudbase" : 6491.6,
		"flyability" : 0,
		"reason" : "rain",
		"timestamp" :1555012800
		},
	"2019-04-12T01:00:00+01:00" : {
		"windSpeed" : 0.9,
		"windDir" : 142,
		"rain" : 1,
		"cloudbase" : 6116,
		"flyability" : 0,
		"reason" : "rain",
		"timestamp" :1555023600
		},
	"2019-04-12T04:00:00+01:00" : {
		"windSpeed" : 1.7,
		"windDir" : 104,
		"rain" : 1,
		"cloudbase" : null,
		"flyability" : 0,
		"reason" : "windDir, rain",
		"timestamp" :1555034400
		},
	"2019-04-12T07:00:00+01:00" : {
		"windSpeed" : 1.7,
		"windDir" : 104,
		"rain" : 0,
		"cloudbase" : null,
		"flyability" : 0,
		"reason" : "windDir",
		"timestamp" :1555045200
		},
	"2019-04-12T10:00:00+01:00" : {
		"windSpeed" : 2.3,
		"windDir" : 99,
		"rain" : 1,
		"cloudbase" : null,
		"flyability" : 0,
		"reason" : "windDir, rain",
		"timestamp" :1555056000
		},
	"2019-04-12T13:00:00+01:00" : {
		"windSpeed" : 1,
		"windDir" : 356,
		"rain" : 0,
		"cloudbase" : null,
		"flyability" : 0,
		"reason" : "windDir",
		"timestamp" :1555066800
		},
	"2019-04-12T16:00:00+01:00" : {
		"windSpeed" : 2,
		"windDir" : 320,
		"rain" : 1,
		"cloudbase" : null,
		"flyability" : 0,
		"reason" : "windDir, rain",
		"timestamp" :1555077600
		},
	"2019-04-12T19:00:00+01:00" : {
		"windSpeed" : 2.7,
		"windDir" : 280,
		"rain" : 0,
		"cloudbase" : null,
		"flyability" : 0,
		"reason" : "windDir",
		"timestamp" :1555088400
		},
	"2019-04-12T22:00:00+01:00" : {
		"windSpeed" : 1.5,
		"windDir" : 180,
		"rain" : 1,
		"cloudbase" : null,
		"flyability" : 0,
		"reason" : "rain",
		"timestamp" :1555099200
		},
	"2019-04-13T01:00:00+01:00" : {
		"windSpeed" : 0.8,
		"windDir" : 131,
		"rain" : 1,
		"cloudbase" : 7916,
		"flyability" : 0,
		"reason" : "rain",
		"timestamp" :1555110000
		},
	"2019-04-13T04:00:00+01:00" : {
		"windSpeed" : 0.8,
		"windDir" : 135,
		"rain" : 1,
		"cloudbase" : null,
		"flyability" : 0,
		"reason" : "rain",
		"timestamp" :1555120800
		},
	"2019-04-13T07:00:00+01:00" : {
		"windSpeed" : 0.7,
		"windDir" : 120,
		"rain" : 1,
		"cloudbase" : null,
		"flyability" : 0,
		"reason" : "rain",
		"timestamp" :1555131600
		},
	"2019-04-13T10:00:00+01:00" : {
		"windSpeed" : 0.3,
		"windDir" : 285,
		"rain" : 0,
		"cloudbase" : null,
		"flyability" : 0,
		"reason" : "windDir",
		"timestamp" :1555142400
		},
	"2019-04-13T13:00:00+01:00" : {
		"windSpeed" : 2,
		"windDir" : 277,
		"rain" : 0,
		"cloudbase" : null,
		"flyability" : 0,
		"reason" : "windDir",
		"timestamp" :1555153200
		},
	"2019-04-13T16:00:00+01:00" : {
		"windSpeed" : 3.2,
		"windDir" : 273,
		"rain" : 0,
		"cloudbase" : null,
		"flyability" : 0,
		"reason" : "windDir",
		"timestamp" :1555164000
		},
	"2019-04-13T19:00:00+01:00" : {
		"windSpeed" : 2.3,
		"windDir" : 270,
		"rain" : 0,
		"cloudbase" : 3050,
		"flyability" : 0,
		"reason" : "windDir",
		"timestamp" :1555174800
		},
	"2019-04-13T22:00:00+01:00" : {
		"windSpeed" : 0.8,
		"windDir" : 211,
		"rain" : 0,
		"cloudbase" : null,
		"flyability" : 100,
		"reason" : "",
		"timestamp" :1555185600
		},
	"2019-04-14T01:00:00+01:00" : {
		"windSpeed" : 1,
		"windDir" : 129,
		"rain" : 0,
		"cloudbase" : 9221.8,
		"flyability" : 100,
		"reason" : "",
		"timestamp" :1555196400
		},
	"2019-04-14T04:00:00+01:00" : {
		"windSpeed" : 0.4,
		"windDir" : 114,
		"rain" : 0,
		"cloudbase" : 7524,
		"flyability" : 100,
		"reason" : "",
		"timestamp" :1555207200
		},
	"2019-04-14T07:00:00+01:00" : {
		"windSpeed" : 0.7,
		"windDir" : 126,
		"rain" : 0,
		"cloudbase" : 4550,
		"flyability" : 100,
		"reason" : "",
		"timestamp" :1555218000
		},
	"2019-04-14T10:00:00+01:00" : {
		"windSpeed" : 1.5,
		"windDir" : 254,
		"rain" : 0,
		"cloudbase" : 2089.0399999998,
		"flyability" : 0,
		"reason" : "windDir",
		"timestamp" :1555228800
		},
	"2019-04-14T13:00:00+01:00" : {
		"windSpeed" : 2.9,
		"windDir" : 263,
		"rain" : 0,
		"cloudbase" : 705.64,
		"flyability" : 0,
		"reason" : "windDir, cloudbase",
		"timestamp" :1555239600
		},
	"2019-04-14T16:00:00+01:00" : {
		"windSpeed" : 4.3,
		"windDir" : 256,
		"rain" : 0,
		"cloudbase" : 1764.6999999999,
		"flyability" : 0,
		"reason" : "windDir",
		"timestamp" :1555250400
		},
	"2019-04-14T19:00:00+01:00" : {
		"windSpeed" : 2.6,
		"windDir" : 253,
		"rain" : 0,
		"cloudbase" : 4845.8000000003,
		"flyability" : 0,
		"reason" : "windDir",
		"timestamp" :1555261200
		},
	"2019-04-14T22:00:00+01:00" : {
		"windSpeed" : 0.8,
		"windDir" : 190,
		"rain" : 0,
		"cloudbase" : 260.72,
		"flyability" : 0,
		"reason" : "cloudbase",
		"timestamp" :1555272000
		},
	"2019-04-15T01:00:00+01:00" : {
		"windSpeed" : 1.2,
		"windDir" : 224,
		"rain" : 0,
		"cloudbase" : 224.08,
		"flyability" : 0,
		"reason" : "cloudbase",
		"timestamp" :1555282800
		}
	}
}