{
"site" : "EFKJ",
"id" : 11127,
"orientations" : "02100210",
"forecasts" : { 
	"2019-04-04T18:00:00+03:00" : {
		"windSpeed" : 3.2,
		"windDir" : 237,
		"rain" : 1,
		"cloudbase" : 2060.6,
		"flyability" : 0,
		"reason" : "rain",
		"timestamp" :1554390000
		},
	"2019-04-04T21:00:00+03:00" : {
		"windSpeed" : 1.7,
		"windDir" : 265,
		"rain" : 1,
		"cloudbase" : 2449.8734000001,
		"flyability" : 0,
		"reason" : "rain",
		"timestamp" :1554400800
		},
	"2019-04-05T00:00:00+03:00" : {
		"windSpeed" : 1.9,
		"windDir" : 39,
		"rain" : 1,
		"cloudbase" : 2236.3588,
		"flyability" : 0,
		"reason" : "rain",
		"timestamp" :1554411600
		},
	"2019-04-05T03:00:00+03:00" : {
		"windSpeed" : 2.8,
		"windDir" : 34,
		"rain" : 0,
		"cloudbase" : 45.15,
		"flyability" : 0,
		"reason" : "cloudbase",
		"timestamp" :1554422400
		},
	"2019-04-05T06:00:00+03:00" : {
		"windSpeed" : 3.2,
		"windDir" : 38,
		"rain" : 0,
		"cloudbase" : 87.137640000005,
		"flyability" : 0,
		"reason" : "cloudbase",
		"timestamp" :1554433200
		},
	"2019-04-05T09:00:00+03:00" : {
		"windSpeed" : 3.5,
		"windDir" : 36,
		"rain" : 0,
		"cloudbase" : 101.32,
		"flyability" : 0,
		"reason" : "cloudbase",
		"timestamp" :1554444000
		},
	"2019-04-05T12:00:00+03:00" : {
		"windSpeed" : 3.6,
		"windDir" : 56,
		"rain" : 1,
		"cloudbase" : 226.68824,
		"flyability" : 0,
		"reason" : "rain",
		"timestamp" :1554454800
		},
	"2019-04-05T15:00:00+03:00" : {
		"windSpeed" : 4,
		"windDir" : 83,
		"rain" : 1,
		"cloudbase" : 381.79176,
		"flyability" : 0,
		"reason" : "rain",
		"timestamp" :1554465600
		},
	"2019-04-05T18:00:00+03:00" : {
		"windSpeed" : 1.9,
		"windDir" : 69,
		"rain" : 1,
		"cloudbase" : 3712.7412,
		"flyability" : 0,
		"reason" : "rain",
		"timestamp" :1554476400
		},
	"2019-04-05T21:00:00+03:00" : {
		"windSpeed" : 2.8,
		"windDir" : 64,
		"rain" : 0,
		"cloudbase" : null,
		"flyability" : 100,
		"reason" : "",
		"timestamp" :1554487200
		},
	"2019-04-06T00:00:00+03:00" : {
		"windSpeed" : 3.4,
		"windDir" : 159,
		"rain" : 0,
		"cloudbase" : 7000,
		"flyability" : 0,
		"reason" : "windDir",
		"timestamp" :1554498000
		},
	"2019-04-06T03:00:00+03:00" : {
		"windSpeed" : 3.2,
		"windDir" : 162,
		"rain" : 0,
		"cloudbase" : 6736.1176,
		"flyability" : 0,
		"reason" : "windDir",
		"timestamp" :1554508800
		},
	"2019-04-06T06:00:00+03:00" : {
		"windSpeed" : 3.7,
		"windDir" : 160,
		"rain" : 0,
		"cloudbase" : null,
		"flyability" : 0,
		"reason" : "windDir",
		"timestamp" :1554519600
		},
	"2019-04-06T09:00:00+03:00" : {
		"windSpeed" : 3.2,
		"windDir" : 161,
		"rain" : 0,
		"cloudbase" : 7993.0412,
		"flyability" : 0,
		"reason" : "windDir",
		"timestamp" :1554530400
		},
	"2019-04-06T12:00:00+03:00" : {
		"windSpeed" : 3.1,
		"windDir" : 168,
		"rain" : 0,
		"cloudbase" : null,
		"flyability" : 0,
		"reason" : "windDir",
		"timestamp" :1554541200
		},
	"2019-04-06T15:00:00+03:00" : {
		"windSpeed" : 4,
		"windDir" : 180,
		"rain" : 0,
		"cloudbase" : null,
		"flyability" : 0,
		"reason" : "windDir",
		"timestamp" :1554552000
		},
	"2019-04-06T18:00:00+03:00" : {
		"windSpeed" : 2.9,
		"windDir" : 175,
		"rain" : 0,
		"cloudbase" : 7300,
		"flyability" : 0,
		"reason" : "windDir",
		"timestamp" :1554562800
		},
	"2019-04-06T21:00:00+03:00" : {
		"windSpeed" : 2.7,
		"windDir" : 182,
		"rain" : 0,
		"cloudbase" : 7000,
		"flyability" : 0,
		"reason" : "windDir",
		"timestamp" :1554573600
		},
	"2019-04-07T00:00:00+03:00" : {
		"windSpeed" : 3.4,
		"windDir" : 178,
		"rain" : 0,
		"cloudbase" : 6700,
		"flyability" : 0,
		"reason" : "windDir",
		"timestamp" :1554584400
		},
	"2019-04-07T03:00:00+03:00" : {
		"windSpeed" : 3.2,
		"windDir" : 171,
		"rain" : 0,
		"cloudbase" : 6219.2,
		"flyability" : 0,
		"reason" : "windDir",
		"timestamp" :1554595200
		},
	"2019-04-07T06:00:00+03:00" : {
		"windSpeed" : 3.5,
		"windDir" : 172,
		"rain" : 0,
		"cloudbase" : 5711.2412,
		"flyability" : 0,
		"reason" : "windDir",
		"timestamp" :1554606000
		},
	"2019-04-07T09:00:00+03:00" : {
		"windSpeed" : 3.2,
		"windDir" : 179,
		"rain" : 0,
		"cloudbase" : 4019.2,
		"flyability" : 0,
		"reason" : "windDir",
		"timestamp" :1554616800
		},
	"2019-04-07T12:00:00+03:00" : {
		"windSpeed" : 3.5,
		"windDir" : 197,
		"rain" : 0,
		"cloudbase" : 2649.5,
		"flyability" : 0,
		"reason" : "windDir",
		"timestamp" :1554627600
		},
	"2019-04-07T15:00:00+03:00" : {
		"windSpeed" : 3.9,
		"windDir" : 207,
		"rain" : 1,
		"cloudbase" : 1256.0999999999,
		"flyability" : 0,
		"reason" : "rain",
		"timestamp" :1554638400
		},
	"2019-04-07T18:00:00+03:00" : {
		"windSpeed" : 3.4,
		"windDir" : 241,
		"rain" : 1,
		"cloudbase" : 30,
		"flyability" : 0,
		"reason" : "rain, cloudbase",
		"timestamp" :1554649200
		},
	"2019-04-07T21:00:00+03:00" : {
		"windSpeed" : 3.5,
		"windDir" : 301,
		"rain" : 0,
		"cloudbase" : 41.507939999999,
		"flyability" : 0,
		"reason" : "windDir, cloudbase",
		"timestamp" :1554660000
		},
	"2019-04-08T00:00:00+03:00" : {
		"windSpeed" : 3.4,
		"windDir" : 306,
		"rain" : 0,
		"cloudbase" : 268.96472,
		"flyability" : 0,
		"reason" : "windDir",
		"timestamp" :1554670800
		},
	"2019-04-08T03:00:00+03:00" : {
		"windSpeed" : 3.2,
		"windDir" : 288,
		"rain" : 0,
		"cloudbase" : 368.77588000001,
		"flyability" : 100,
		"reason" : "",
		"timestamp" :1554681600
		},
	"2019-04-08T06:00:00+03:00" : {
		"windSpeed" : 2.6,
		"windDir" : 252,
		"rain" : 0,
		"cloudbase" : 315.53176,
		"flyability" : 100,
		"reason" : "",
		"timestamp" :1554692400
		},
	"2019-04-08T09:00:00+03:00" : {
		"windSpeed" : 2.7,
		"windDir" : 202,
		"rain" : 0,
		"cloudbase" : 483.83999999999,
		"flyability" : 0,
		"reason" : "windDir",
		"timestamp" :1554703200
		},
	"2019-04-08T12:00:00+03:00" : {
		"windSpeed" : 2.5,
		"windDir" : 149,
		"rain" : 0,
		"cloudbase" : 695.42472,
		"flyability" : 0,
		"reason" : "windDir",
		"timestamp" :1554714000
		},
	"2019-04-08T15:00:00+03:00" : {
		"windSpeed" : 2.5,
		"windDir" : 127,
		"rain" : 0,
		"cloudbase" : 838.28704,
		"flyability" : 0,
		"reason" : "windDir",
		"timestamp" :1554724800
		},
	"2019-04-08T18:00:00+03:00" : {
		"windSpeed" : 1.6,
		"windDir" : 117,
		"rain" : 0,
		"cloudbase" : 783.24824000001,
		"flyability" : 0,
		"reason" : "windDir",
		"timestamp" :1554735600
		},
	"2019-04-08T21:00:00+03:00" : {
		"windSpeed" : 0.5,
		"windDir" : 23,
		"rain" : 0,
		"cloudbase" : 847.76703999999,
		"flyability" : 100,
		"reason" : "",
		"timestamp" :1554746400
		},
	"2019-04-09T00:00:00+03:00" : {
		"windSpeed" : 1.6,
		"windDir" : 7,
		"rain" : 0,
		"cloudbase" : 1050,
		"flyability" : 0,
		"reason" : "windDir",
		"timestamp" :1554757200
		},
	"2019-04-09T03:00:00+03:00" : {
		"windSpeed" : 0.7,
		"windDir" : 35,
		"rain" : 0,
		"cloudbase" : 956.36,
		"flyability" : 100,
		"reason" : "",
		"timestamp" :1554768000
		},
	"2019-04-09T06:00:00+03:00" : {
		"windSpeed" : 0.6,
		"windDir" : 155,
		"rain" : 0,
		"cloudbase" : null,
		"flyability" : 0,
		"reason" : "windDir",
		"timestamp" :1554778800
		},
	"2019-04-09T09:00:00+03:00" : {
		"windSpeed" : 0.7,
		"windDir" : 160,
		"rain" : 0,
		"cloudbase" : 2500,
		"flyability" : 0,
		"reason" : "windDir",
		"timestamp" :1554789600
		},
	"2019-04-09T12:00:00+03:00" : {
		"windSpeed" : 2.2,
		"windDir" : 117,
		"rain" : 0,
		"cloudbase" : 1250,
		"flyability" : 0,
		"reason" : "windDir",
		"timestamp" :1554800400
		},
	"2019-04-09T15:00:00+03:00" : {
		"windSpeed" : 2.5,
		"windDir" : 127,
		"rain" : 0,
		"cloudbase" : null,
		"flyability" : 0,
		"reason" : "windDir",
		"timestamp" :1554811200
		},
	"2019-04-09T18:00:00+03:00" : {
		"windSpeed" : 1.8,
		"windDir" : 124,
		"rain" : 0,
		"cloudbase" : 1656.1206,
		"flyability" : 0,
		"reason" : "windDir",
		"timestamp" :1554822000
		},
	"2019-04-09T21:00:00+03:00" : {
		"windSpeed" : 1.9,
		"windDir" : 74,
		"rain" : 0,
		"cloudbase" : 2075.1382,
		"flyability" : 100,
		"reason" : "",
		"timestamp" :1554832800
		},
	"2019-04-10T00:00:00+03:00" : {
		"windSpeed" : 1.7,
		"windDir" : 25,
		"rain" : 0,
		"cloudbase" : 3298.5648,
		"flyability" : 100,
		"reason" : "",
		"timestamp" :1554843600
		},
	"2019-04-10T03:00:00+03:00" : {
		"windSpeed" : 4.2,
		"windDir" : 47,
		"rain" : 0,
		"cloudbase" : 353.41176,
		"flyability" : 100,
		"reason" : "",
		"timestamp" :1554854400
		},
	"2019-04-10T06:00:00+03:00" : {
		"windSpeed" : 5.7,
		"windDir" : 45,
		"rain" : 0,
		"cloudbase" : 468.83648,
		"flyability" : 0,
		"reason" : "windSpeed",
		"timestamp" :1554865200
		},
	"2019-04-10T09:00:00+03:00" : {
		"windSpeed" : 5.1,
		"windDir" : 33,
		"rain" : 0,
		"cloudbase" : 482.84824000001,
		"flyability" : 0,
		"reason" : "windSpeed",
		"timestamp" :1554876000
		},
	"2019-04-10T12:00:00+03:00" : {
		"windSpeed" : 5.2,
		"windDir" : 35,
		"rain" : 0,
		"cloudbase" : 377.25176,
		"flyability" : 0,
		"reason" : "windSpeed",
		"timestamp" :1554886800
		},
	"2019-04-10T15:00:00+03:00" : {
		"windSpeed" : 4.1,
		"windDir" : 30,
		"rain" : 0,
		"cloudbase" : 403.44412000001,
		"flyability" : 100,
		"reason" : "",
		"timestamp" :1554897600
		}
	}
}