{
"site" : "Tipilesti",
"id" : 11120,
"orientations" : "02000000",
"forecasts" : { 
	"2019-04-17T06:00:00+03:00" : {
		"windSpeed" : 3.5,
		"windDir" : 334,
		"rain" : 1,
		"cloudbase" : 790.0904,
		"flyability" : 0,
		"reason" : "windDir, rain",
		"timestamp" :1555470000
		},
	"2019-04-17T09:00:00+03:00" : {
		"windSpeed" : 3.5,
		"windDir" : 32,
		"rain" : 1,
		"cloudbase" : 892.568,
		"flyability" : 0,
		"reason" : "rain",
		"timestamp" :1555480800
		},
	"2019-04-17T12:00:00+03:00" : {
		"windSpeed" : 2.8,
		"windDir" : 45,
		"rain" : 1,
		"cloudbase" : 837.9,
		"flyability" : 0,
		"reason" : "rain",
		"timestamp" :1555491600
		},
	"2019-04-17T15:00:00+03:00" : {
		"windSpeed" : 2.4,
		"windDir" : 51,
		"rain" : 1,
		"cloudbase" : 926.5016,
		"flyability" : 0,
		"reason" : "rain",
		"timestamp" :1555502400
		},
	"2019-04-17T18:00:00+03:00" : {
		"windSpeed" : 0.5,
		"windDir" : 164,
		"rain" : 1,
		"cloudbase" : 1750,
		"flyability" : 0,
		"reason" : "windDir, rain",
		"timestamp" :1555513200
		},
	"2019-04-17T21:00:00+03:00" : {
		"windSpeed" : 1.8,
		"windDir" : 304,
		"rain" : 0,
		"cloudbase" : 1339.4,
		"flyability" : 0,
		"reason" : "windDir",
		"timestamp" :1555524000
		},
	"2019-04-18T00:00:00+03:00" : {
		"windSpeed" : 3,
		"windDir" : 19,
		"rain" : 1,
		"cloudbase" : 1787.0068,
		"flyability" : 0,
		"reason" : "windDir, rain",
		"timestamp" :1555534800
		},
	"2019-04-18T03:00:00+03:00" : {
		"windSpeed" : 3.4,
		"windDir" : 43,
		"rain" : 1,
		"cloudbase" : 921.78320000001,
		"flyability" : 0,
		"reason" : "rain",
		"timestamp" :1555545600
		},
	"2019-04-18T06:00:00+03:00" : {
		"windSpeed" : 3.3,
		"windDir" : 37,
		"rain" : 1,
		"cloudbase" : 1201.638,
		"flyability" : 0,
		"reason" : "rain",
		"timestamp" :1555556400
		},
	"2019-04-18T09:00:00+03:00" : {
		"windSpeed" : 3.5,
		"windDir" : 42,
		"rain" : 1,
		"cloudbase" : 2496.164,
		"flyability" : 0,
		"reason" : "rain",
		"timestamp" :1555567200
		},
	"2019-04-18T12:00:00+03:00" : {
		"windSpeed" : 2.9,
		"windDir" : 31,
		"rain" : 1,
		"cloudbase" : 1450,
		"flyability" : 0,
		"reason" : "rain",
		"timestamp" :1555578000
		},
	"2019-04-18T15:00:00+03:00" : {
		"windSpeed" : 4.1,
		"windDir" : 16,
		"rain" : 1,
		"cloudbase" : 1653.888,
		"flyability" : 0,
		"reason" : "windDir, rain",
		"timestamp" :1555588800
		},
	"2019-04-18T18:00:00+03:00" : {
		"windSpeed" : 3.5,
		"windDir" : 358,
		"rain" : 0,
		"cloudbase" : 2113.942,
		"flyability" : 0,
		"reason" : "windDir",
		"timestamp" :1555599600
		},
	"2019-04-18T21:00:00+03:00" : {
		"windSpeed" : 2.4,
		"windDir" : 335,
		"rain" : 0,
		"cloudbase" : 8206.2500000001,
		"flyability" : 0,
		"reason" : "windDir",
		"timestamp" :1555610400
		},
	"2019-04-19T00:00:00+03:00" : {
		"windSpeed" : 2.5,
		"windDir" : 11,
		"rain" : 0,
		"cloudbase" : 5400,
		"flyability" : 0,
		"reason" : "windDir",
		"timestamp" :1555621200
		},
	"2019-04-19T03:00:00+03:00" : {
		"windSpeed" : 2.3,
		"windDir" : 300,
		"rain" : 0,
		"cloudbase" : 2050,
		"flyability" : 0,
		"reason" : "windDir",
		"timestamp" :1555632000
		},
	"2019-04-19T06:00:00+03:00" : {
		"windSpeed" : 3.9,
		"windDir" : 320,
		"rain" : 0,
		"cloudbase" : null,
		"flyability" : 0,
		"reason" : "windDir",
		"timestamp" :1555642800
		},
	"2019-04-19T09:00:00+03:00" : {
		"windSpeed" : 3.9,
		"windDir" : 338,
		"rain" : 1,
		"cloudbase" : null,
		"flyability" : 0,
		"reason" : "windDir, rain",
		"timestamp" :1555653600
		},
	"2019-04-19T12:00:00+03:00" : {
		"windSpeed" : 3.5,
		"windDir" : 8,
		"rain" : 1,
		"cloudbase" : null,
		"flyability" : 0,
		"reason" : "windDir, rain",
		"timestamp" :1555664400
		},
	"2019-04-19T15:00:00+03:00" : {
		"windSpeed" : 5.2,
		"windDir" : 7,
		"rain" : 0,
		"cloudbase" : null,
		"flyability" : 0,
		"reason" : "windSpeed, windDir",
		"timestamp" :1555675200
		},
	"2019-04-19T18:00:00+03:00" : {
		"windSpeed" : 3.1,
		"windDir" : 23,
		"rain" : 1,
		"cloudbase" : 4450,
		"flyability" : 0,
		"reason" : "rain",
		"timestamp" :1555686000
		},
	"2019-04-19T21:00:00+03:00" : {
		"windSpeed" : 2.1,
		"windDir" : 346,
		"rain" : 1,
		"cloudbase" : null,
		"flyability" : 0,
		"reason" : "windDir, rain",
		"timestamp" :1555696800
		},
	"2019-04-20T00:00:00+03:00" : {
		"windSpeed" : 2.5,
		"windDir" : 8,
		"rain" : 0,
		"cloudbase" : 2523.754,
		"flyability" : 0,
		"reason" : "windDir",
		"timestamp" :1555707600
		},
	"2019-04-20T03:00:00+03:00" : {
		"windSpeed" : 2.5,
		"windDir" : 11,
		"rain" : 0,
		"cloudbase" : null,
		"flyability" : 0,
		"reason" : "windDir",
		"timestamp" :1555718400
		},
	"2019-04-20T06:00:00+03:00" : {
		"windSpeed" : 2.2,
		"windDir" : 27,
		"rain" : 0,
		"cloudbase" : null,
		"flyability" : 100,
		"reason" : "",
		"timestamp" :1555729200
		},
	"2019-04-20T09:00:00+03:00" : {
		"windSpeed" : 2.2,
		"windDir" : 23,
		"rain" : 0,
		"cloudbase" : null,
		"flyability" : 100,
		"reason" : "",
		"timestamp" :1555740000
		},
	"2019-04-20T12:00:00+03:00" : {
		"windSpeed" : 5.1,
		"windDir" : 28,
		"rain" : 0,
		"cloudbase" : 1850,
		"flyability" : 0,
		"reason" : "windSpeed",
		"timestamp" :1555750800
		},
	"2019-04-20T15:00:00+03:00" : {
		"windSpeed" : 4.1,
		"windDir" : 14,
		"rain" : 0,
		"cloudbase" : 2048.296,
		"flyability" : 0,
		"reason" : "windDir",
		"timestamp" :1555761600
		},
	"2019-04-20T18:00:00+03:00" : {
		"windSpeed" : 3,
		"windDir" : 3,
		"rain" : 0,
		"cloudbase" : 2000,
		"flyability" : 0,
		"reason" : "windDir",
		"timestamp" :1555772400
		},
	"2019-04-20T21:00:00+03:00" : {
		"windSpeed" : 1.9,
		"windDir" : 328,
		"rain" : 0,
		"cloudbase" : 4338.1720000002,
		"flyability" : 0,
		"reason" : "windDir",
		"timestamp" :1555783200
		},
	"2019-04-21T00:00:00+03:00" : {
		"windSpeed" : 1.8,
		"windDir" : 304,
		"rain" : 0,
		"cloudbase" : 5511.706,
		"flyability" : 0,
		"reason" : "windDir",
		"timestamp" :1555794000
		},
	"2019-04-21T03:00:00+03:00" : {
		"windSpeed" : 0.9,
		"windDir" : 164,
		"rain" : 0,
		"cloudbase" : 2298.704,
		"flyability" : 0,
		"reason" : "windDir",
		"timestamp" :1555804800
		},
	"2019-04-21T06:00:00+03:00" : {
		"windSpeed" : 0.7,
		"windDir" : 300,
		"rain" : 0,
		"cloudbase" : 2049.796,
		"flyability" : 0,
		"reason" : "windDir",
		"timestamp" :1555815600
		},
	"2019-04-21T09:00:00+03:00" : {
		"windSpeed" : 0.7,
		"windDir" : 225,
		"rain" : 0,
		"cloudbase" : 1851.638,
		"flyability" : 0,
		"reason" : "windDir",
		"timestamp" :1555826400
		},
	"2019-04-21T12:00:00+03:00" : {
		"windSpeed" : 0.5,
		"windDir" : 91,
		"rain" : 0,
		"cloudbase" : 2020.9919999999,
		"flyability" : 0,
		"reason" : "windDir",
		"timestamp" :1555837200
		},
	"2019-04-21T15:00:00+03:00" : {
		"windSpeed" : 0.6,
		"windDir" : 91,
		"rain" : 1,
		"cloudbase" : 2065.67,
		"flyability" : 0,
		"reason" : "windDir, rain",
		"timestamp" :1555848000
		},
	"2019-04-21T18:00:00+03:00" : {
		"windSpeed" : 1.5,
		"windDir" : 110,
		"rain" : 0,
		"cloudbase" : 2020.208,
		"flyability" : 0,
		"reason" : "windDir",
		"timestamp" :1555858800
		},
	"2019-04-21T21:00:00+03:00" : {
		"windSpeed" : 1.8,
		"windDir" : 124,
		"rain" : 0,
		"cloudbase" : 2204.284,
		"flyability" : 0,
		"reason" : "windDir",
		"timestamp" :1555869600
		},
	"2019-04-22T00:00:00+03:00" : {
		"windSpeed" : 1.8,
		"windDir" : 124,
		"rain" : 0,
		"cloudbase" : 2400,
		"flyability" : 0,
		"reason" : "windDir",
		"timestamp" :1555880400
		},
	"2019-04-22T03:00:00+03:00" : {
		"windSpeed" : 1.8,
		"windDir" : 124,
		"rain" : 1,
		"cloudbase" : 2202.046,
		"flyability" : 0,
		"reason" : "windDir, rain",
		"timestamp" :1555891200
		},
	"2019-04-22T06:00:00+03:00" : {
		"windSpeed" : 1.7,
		"windDir" : 120,
		"rain" : 0,
		"cloudbase" : null,
		"flyability" : 0,
		"reason" : "windDir",
		"timestamp" :1555902000
		},
	"2019-04-22T09:00:00+03:00" : {
		"windSpeed" : 1.9,
		"windDir" : 105,
		"rain" : 0,
		"cloudbase" : 2600,
		"flyability" : 0,
		"reason" : "windDir",
		"timestamp" :1555912800
		},
	"2019-04-22T12:00:00+03:00" : {
		"windSpeed" : 3.2,
		"windDir" : 129,
		"rain" : 0,
		"cloudbase" : 2333.262,
		"flyability" : 0,
		"reason" : "windDir",
		"timestamp" :1555923600
		},
	"2019-04-22T15:00:00+03:00" : {
		"windSpeed" : 3.2,
		"windDir" : 132,
		"rain" : 0,
		"cloudbase" : 2051.5,
		"flyability" : 0,
		"reason" : "windDir",
		"timestamp" :1555934400
		},
	"2019-04-22T18:00:00+03:00" : {
		"windSpeed" : 3.2,
		"windDir" : 111,
		"rain" : 0,
		"cloudbase" : 2011.554,
		"flyability" : 0,
		"reason" : "windDir",
		"timestamp" :1555945200
		},
	"2019-04-22T21:00:00+03:00" : {
		"windSpeed" : 2.2,
		"windDir" : 117,
		"rain" : 0,
		"cloudbase" : 2050.546,
		"flyability" : 0,
		"reason" : "windDir",
		"timestamp" :1555956000
		},
	"2019-04-23T00:00:00+03:00" : {
		"windSpeed" : 1.8,
		"windDir" : 146,
		"rain" : 0,
		"cloudbase" : null,
		"flyability" : 0,
		"reason" : "windDir",
		"timestamp" :1555966800
		},
	"2019-04-23T03:00:00+03:00" : {
		"windSpeed" : 1.7,
		"windDir" : 120,
		"rain" : 0,
		"cloudbase" : null,
		"flyability" : 0,
		"reason" : "windDir",
		"timestamp" :1555977600
		}
	}
}