{
"site" : "Fang San station",
"id" : 11257,
"orientations" : "00002220",
"forecasts" : { 
	"2019-04-03T11:00:00+08:00" : {
		"windSpeed" : 3.5,
		"windDir" : 287,
		"rain" : 1,
		"cloudbase" : 1100,
		"flyability" : 0,
		"reason" : "rain",
		"timestamp" :1554264000
		},
	"2019-04-03T14:00:00+08:00" : {
		"windSpeed" : 3.5,
		"windDir" : 267,
		"rain" : 0,
		"cloudbase" : null,
		"flyability" : 100,
		"reason" : "",
		"timestamp" :1554274800
		},
	"2019-04-03T17:00:00+08:00" : {
		"windSpeed" : 2.2,
		"windDir" : 254,
		"rain" : 1,
		"cloudbase" : null,
		"flyability" : 0,
		"reason" : "rain",
		"timestamp" :1554285600
		},
	"2019-04-03T20:00:00+08:00" : {
		"windSpeed" : 2.7,
		"windDir" : 121,
		"rain" : 0,
		"cloudbase" : 1100,
		"flyability" : 0,
		"reason" : "windDir",
		"timestamp" :1554296400
		},
	"2019-04-03T23:00:00+08:00" : {
		"windSpeed" : 3.2,
		"windDir" : 109,
		"rain" : 1,
		"cloudbase" : 1017.2409999999,
		"flyability" : 0,
		"reason" : "windDir, rain",
		"timestamp" :1554307200
		},
	"2019-04-04T02:00:00+08:00" : {
		"windSpeed" : 1.5,
		"windDir" : 13,
		"rain" : 0,
		"cloudbase" : 1572.845,
		"flyability" : 0,
		"reason" : "windDir",
		"timestamp" :1554318000
		},
	"2019-04-04T05:00:00+08:00" : {
		"windSpeed" : 1.2,
		"windDir" : 358,
		"rain" : 0,
		"cloudbase" : 1650,
		"flyability" : 0,
		"reason" : "windDir",
		"timestamp" :1554328800
		},
	"2019-04-04T08:00:00+08:00" : {
		"windSpeed" : 0.8,
		"windDir" : 45,
		"rain" : 0,
		"cloudbase" : null,
		"flyability" : 0,
		"reason" : "windDir",
		"timestamp" :1554339600
		},
	"2019-04-04T11:00:00+08:00" : {
		"windSpeed" : 1.5,
		"windDir" : 268,
		"rain" : 1,
		"cloudbase" : 1000,
		"flyability" : 0,
		"reason" : "rain",
		"timestamp" :1554350400
		},
	"2019-04-04T14:00:00+08:00" : {
		"windSpeed" : 1.4,
		"windDir" : 230,
		"rain" : 1,
		"cloudbase" : 890.69199999997,
		"flyability" : 0,
		"reason" : "rain",
		"timestamp" :1554361200
		},
	"2019-04-04T17:00:00+08:00" : {
		"windSpeed" : 2,
		"windDir" : 158,
		"rain" : 1,
		"cloudbase" : null,
		"flyability" : 0,
		"reason" : "rain",
		"timestamp" :1554372000
		},
	"2019-04-04T20:00:00+08:00" : {
		"windSpeed" : 2.4,
		"windDir" : 111,
		"rain" : 1,
		"cloudbase" : 340,
		"flyability" : 0,
		"reason" : "windDir, rain",
		"timestamp" :1554382800
		},
	"2019-04-04T23:00:00+08:00" : {
		"windSpeed" : 1.9,
		"windDir" : 115,
		"rain" : 1,
		"cloudbase" : 340,
		"flyability" : 0,
		"reason" : "windDir, rain",
		"timestamp" :1554393600
		},
	"2019-04-05T02:00:00+08:00" : {
		"windSpeed" : 1.3,
		"windDir" : 140,
		"rain" : 1,
		"cloudbase" : 846.35999999982,
		"flyability" : 0,
		"reason" : "windDir, rain",
		"timestamp" :1554404400
		},
	"2019-04-05T05:00:00+08:00" : {
		"windSpeed" : 1.3,
		"windDir" : 205,
		"rain" : 1,
		"cloudbase" : 303.67399999997,
		"flyability" : 0,
		"reason" : "rain",
		"timestamp" :1554415200
		},
	"2019-04-05T08:00:00+08:00" : {
		"windSpeed" : 1.6,
		"windDir" : 277,
		"rain" : 1,
		"cloudbase" : 410,
		"flyability" : 0,
		"reason" : "rain",
		"timestamp" :1554426000
		},
	"2019-04-05T11:00:00+08:00" : {
		"windSpeed" : 4.1,
		"windDir" : 293,
		"rain" : 1,
		"cloudbase" : 13500,
		"flyability" : 0,
		"reason" : "windDir, rain",
		"timestamp" :1554436800
		},
	"2019-04-05T14:00:00+08:00" : {
		"windSpeed" : 5.8,
		"windDir" : 293,
		"rain" : 0,
		"cloudbase" : null,
		"flyability" : 0,
		"reason" : "windSpeed, windDir",
		"timestamp" :1554447600
		},
	"2019-04-05T17:00:00+08:00" : {
		"windSpeed" : 5,
		"windDir" : 300,
		"rain" : 0,
		"cloudbase" : null,
		"flyability" : 0,
		"reason" : "windDir",
		"timestamp" :1554458400
		},
	"2019-04-05T20:00:00+08:00" : {
		"windSpeed" : 0.6,
		"windDir" : 92,
		"rain" : 0,
		"cloudbase" : 13500,
		"flyability" : 0,
		"reason" : "windDir",
		"timestamp" :1554469200
		},
	"2019-04-05T23:00:00+08:00" : {
		"windSpeed" : 2.8,
		"windDir" : 68,
		"rain" : 1,
		"cloudbase" : null,
		"flyability" : 0,
		"reason" : "windDir, rain",
		"timestamp" :1554480000
		},
	"2019-04-06T02:00:00+08:00" : {
		"windSpeed" : 2.9,
		"windDir" : 51,
		"rain" : 0,
		"cloudbase" : 13500,
		"flyability" : 0,
		"reason" : "windDir",
		"timestamp" :1554490800
		},
	"2019-04-06T05:00:00+08:00" : {
		"windSpeed" : 1.8,
		"windDir" : 46,
		"rain" : 0,
		"cloudbase" : 13675,
		"flyability" : 0,
		"reason" : "windDir",
		"timestamp" :1554501600
		},
	"2019-04-06T08:00:00+08:00" : {
		"windSpeed" : 0.4,
		"windDir" : 21,
		"rain" : 0,
		"cloudbase" : null,
		"flyability" : 0,
		"reason" : "windDir",
		"timestamp" :1554512400
		},
	"2019-04-06T11:00:00+08:00" : {
		"windSpeed" : 3.4,
		"windDir" : 275,
		"rain" : 0,
		"cloudbase" : 13500,
		"flyability" : 100,
		"reason" : "",
		"timestamp" :1554523200
		},
	"2019-04-06T14:00:00+08:00" : {
		"windSpeed" : 3.8,
		"windDir" : 289,
		"rain" : 0,
		"cloudbase" : 13500,
		"flyability" : 100,
		"reason" : "",
		"timestamp" :1554534000
		},
	"2019-04-06T17:00:00+08:00" : {
		"windSpeed" : 4.2,
		"windDir" : 305,
		"rain" : 0,
		"cloudbase" : 13500,
		"flyability" : 0,
		"reason" : "windDir",
		"timestamp" :1554544800
		},
	"2019-04-06T20:00:00+08:00" : {
		"windSpeed" : 2.9,
		"windDir" : 324,
		"rain" : 0,
		"cloudbase" : null,
		"flyability" : 0,
		"reason" : "windDir",
		"timestamp" :1554555600
		},
	"2019-04-06T23:00:00+08:00" : {
		"windSpeed" : 3.1,
		"windDir" : 332,
		"rain" : 0,
		"cloudbase" : 13500,
		"flyability" : 0,
		"reason" : "windDir",
		"timestamp" :1554566400
		},
	"2019-04-07T02:00:00+08:00" : {
		"windSpeed" : 3,
		"windDir" : 318,
		"rain" : 0,
		"cloudbase" : 13500,
		"flyability" : 0,
		"reason" : "windDir",
		"timestamp" :1554577200
		},
	"2019-04-07T05:00:00+08:00" : {
		"windSpeed" : 3.2,
		"windDir" : 320,
		"rain" : 0,
		"cloudbase" : null,
		"flyability" : 0,
		"reason" : "windDir",
		"timestamp" :1554588000
		},
	"2019-04-07T08:00:00+08:00" : {
		"windSpeed" : 3.1,
		"windDir" : 302,
		"rain" : 0,
		"cloudbase" : null,
		"flyability" : 0,
		"reason" : "windDir",
		"timestamp" :1554598800
		},
	"2019-04-07T11:00:00+08:00" : {
		"windSpeed" : 4.1,
		"windDir" : 297,
		"rain" : 0,
		"cloudbase" : null,
		"flyability" : 0,
		"reason" : "windDir",
		"timestamp" :1554609600
		},
	"2019-04-07T14:00:00+08:00" : {
		"windSpeed" : 4.2,
		"windDir" : 293,
		"rain" : 0,
		"cloudbase" : null,
		"flyability" : 0,
		"reason" : "windDir",
		"timestamp" :1554620400
		},
	"2019-04-07T17:00:00+08:00" : {
		"windSpeed" : 3.3,
		"windDir" : 297,
		"rain" : 0,
		"cloudbase" : null,
		"flyability" : 0,
		"reason" : "windDir",
		"timestamp" :1554631200
		},
	"2019-04-07T20:00:00+08:00" : {
		"windSpeed" : 2.4,
		"windDir" : 321,
		"rain" : 0,
		"cloudbase" : null,
		"flyability" : 0,
		"reason" : "windDir",
		"timestamp" :1554642000
		},
	"2019-04-07T23:00:00+08:00" : {
		"windSpeed" : 1.1,
		"windDir" : 25,
		"rain" : 0,
		"cloudbase" : null,
		"flyability" : 0,
		"reason" : "windDir",
		"timestamp" :1554652800
		},
	"2019-04-08T02:00:00+08:00" : {
		"windSpeed" : 1.6,
		"windDir" : 352,
		"rain" : 0,
		"cloudbase" : null,
		"flyability" : 0,
		"reason" : "windDir",
		"timestamp" :1554663600
		},
	"2019-04-08T05:00:00+08:00" : {
		"windSpeed" : 1.8,
		"windDir" : 312,
		"rain" : 0,
		"cloudbase" : 14675,
		"flyability" : 0,
		"reason" : "windDir",
		"timestamp" :1554674400
		},
	"2019-04-08T08:00:00+08:00" : {
		"windSpeed" : 1.9,
		"windDir" : 290,
		"rain" : 0,
		"cloudbase" : null,
		"flyability" : 100,
		"reason" : "",
		"timestamp" :1554685200
		},
	"2019-04-08T11:00:00+08:00" : {
		"windSpeed" : 2.4,
		"windDir" : 262,
		"rain" : 0,
		"cloudbase" : null,
		"flyability" : 100,
		"reason" : "",
		"timestamp" :1554696000
		},
	"2019-04-08T14:00:00+08:00" : {
		"windSpeed" : 2.1,
		"windDir" : 258,
		"rain" : 0,
		"cloudbase" : null,
		"flyability" : 100,
		"reason" : "",
		"timestamp" :1554706800
		},
	"2019-04-08T17:00:00+08:00" : {
		"windSpeed" : 2.2,
		"windDir" : 309,
		"rain" : 0,
		"cloudbase" : null,
		"flyability" : 0,
		"reason" : "windDir",
		"timestamp" :1554717600
		},
	"2019-04-08T20:00:00+08:00" : {
		"windSpeed" : 0.1,
		"windDir" : 90,
		"rain" : 0,
		"cloudbase" : null,
		"flyability" : 0,
		"reason" : "windDir",
		"timestamp" :1554728400
		},
	"2019-04-08T23:00:00+08:00" : {
		"windSpeed" : 1.7,
		"windDir" : 108,
		"rain" : 0,
		"cloudbase" : null,
		"flyability" : 0,
		"reason" : "windDir",
		"timestamp" :1554739200
		},
	"2019-04-09T02:00:00+08:00" : {
		"windSpeed" : 1.9,
		"windDir" : 99,
		"rain" : 0,
		"cloudbase" : null,
		"flyability" : 0,
		"reason" : "windDir",
		"timestamp" :1554750000
		},
	"2019-04-09T05:00:00+08:00" : {
		"windSpeed" : 1.6,
		"windDir" : 111,
		"rain" : 0,
		"cloudbase" : 110,
		"flyability" : 0,
		"reason" : "windDir, cloudbase",
		"timestamp" :1554760800
		},
	"2019-04-09T08:00:00+08:00" : {
		"windSpeed" : 2.5,
		"windDir" : 176,
		"rain" : 0,
		"cloudbase" : null,
		"flyability" : 100,
		"reason" : "",
		"timestamp" :1554771600
		}
	}
}