{
"site" : "Seefin NE (Co.Kerry)",
"id" : 11287,
"orientations" : "22000000",
"forecasts" : { 
	"2019-04-20T04:00:00+01:00" : {
		"windSpeed" : 0.7,
		"windDir" : 315,
		"rain" : 0,
		"cloudbase" : 30,
		"flyability" : 0,
		"reason" : "windDir, cloudbase",
		"timestamp" :1555725600
		},
	"2019-04-20T07:00:00+01:00" : {
		"windSpeed" : 1,
		"windDir" : 78,
		"rain" : 0,
		"cloudbase" : 30,
		"flyability" : 0,
		"reason" : "windDir, cloudbase",
		"timestamp" :1555736400
		},
	"2019-04-20T10:00:00+01:00" : {
		"windSpeed" : 0.7,
		"windDir" : 360,
		"rain" : 0,
		"cloudbase" : 55.199999999996,
		"flyability" : 0,
		"reason" : "cloudbase",
		"timestamp" :1555747200
		},
	"2019-04-20T13:00:00+01:00" : {
		"windSpeed" : 0.5,
		"windDir" : 0,
		"rain" : 0,
		"cloudbase" : 364.59999999998,
		"flyability" : 100,
		"reason" : "",
		"timestamp" :1555758000
		},
	"2019-04-20T16:00:00+01:00" : {
		"windSpeed" : 1.9,
		"windDir" : 317,
		"rain" : 0,
		"cloudbase" : 7379.9999999998,
		"flyability" : 0,
		"reason" : "windDir",
		"timestamp" :1555768800
		},
	"2019-04-20T19:00:00+01:00" : {
		"windSpeed" : 2.4,
		"windDir" : 330,
		"rain" : 0,
		"cloudbase" : 9958,
		"flyability" : 0,
		"reason" : "windDir",
		"timestamp" :1555779600
		},
	"2019-04-20T22:00:00+01:00" : {
		"windSpeed" : 0.9,
		"windDir" : 325,
		"rain" : 0,
		"cloudbase" : 9899.999999999,
		"flyability" : 0,
		"reason" : "windDir",
		"timestamp" :1555790400
		},
	"2019-04-21T01:00:00+01:00" : {
		"windSpeed" : 0.9,
		"windDir" : 212,
		"rain" : 0,
		"cloudbase" : 3761.199999999,
		"flyability" : 0,
		"reason" : "windDir",
		"timestamp" :1555801200
		},
	"2019-04-21T04:00:00+01:00" : {
		"windSpeed" : 1.4,
		"windDir" : 201,
		"rain" : 0,
		"cloudbase" : 30,
		"flyability" : 0,
		"reason" : "windDir, cloudbase",
		"timestamp" :1555812000
		},
	"2019-04-21T07:00:00+01:00" : {
		"windSpeed" : 2.2,
		"windDir" : 207,
		"rain" : 0,
		"cloudbase" : 30,
		"flyability" : 0,
		"reason" : "windDir, cloudbase",
		"timestamp" :1555822800
		},
	"2019-04-21T10:00:00+01:00" : {
		"windSpeed" : 3.7,
		"windDir" : 200,
		"rain" : 0,
		"cloudbase" : 149,
		"flyability" : 0,
		"reason" : "windDir, cloudbase",
		"timestamp" :1555833600
		},
	"2019-04-21T13:00:00+01:00" : {
		"windSpeed" : 4.4,
		"windDir" : 190,
		"rain" : 1,
		"cloudbase" : 229.59999999999,
		"flyability" : 0,
		"reason" : "windDir, rain, cloudbase",
		"timestamp" :1555844400
		},
	"2019-04-21T16:00:00+01:00" : {
		"windSpeed" : 4.9,
		"windDir" : 189,
		"rain" : 1,
		"cloudbase" : 163.8,
		"flyability" : 0,
		"reason" : "windDir, rain, cloudbase",
		"timestamp" :1555855200
		},
	"2019-04-21T19:00:00+01:00" : {
		"windSpeed" : 5,
		"windDir" : 178,
		"rain" : 1,
		"cloudbase" : 100.1,
		"flyability" : 0,
		"reason" : "windDir, rain, cloudbase",
		"timestamp" :1555866000
		},
	"2019-04-21T22:00:00+01:00" : {
		"windSpeed" : 5.5,
		"windDir" : 173,
		"rain" : 1,
		"cloudbase" : 80.600000000001,
		"flyability" : 0,
		"reason" : "windSpeed, windDir, rain, cloudbase",
		"timestamp" :1555876800
		},
	"2019-04-22T01:00:00+01:00" : {
		"windSpeed" : 6.4,
		"windDir" : 166,
		"rain" : 1,
		"cloudbase" : 71.900000000006,
		"flyability" : 0,
		"reason" : "windSpeed, windDir, rain, cloudbase",
		"timestamp" :1555887600
		},
	"2019-04-22T04:00:00+01:00" : {
		"windSpeed" : 6.2,
		"windDir" : 161,
		"rain" : 1,
		"cloudbase" : 82.700000000001,
		"flyability" : 0,
		"reason" : "windSpeed, windDir, rain, cloudbase",
		"timestamp" :1555898400
		},
	"2019-04-22T07:00:00+01:00" : {
		"windSpeed" : 6.2,
		"windDir" : 156,
		"rain" : 0,
		"cloudbase" : 6858,
		"flyability" : 0,
		"reason" : "windSpeed, windDir",
		"timestamp" :1555909200
		},
	"2019-04-22T10:00:00+01:00" : {
		"windSpeed" : 6.2,
		"windDir" : 156,
		"rain" : 0,
		"cloudbase" : 6493.9999999998,
		"flyability" : 0,
		"reason" : "windSpeed, windDir",
		"timestamp" :1555920000
		},
	"2019-04-22T13:00:00+01:00" : {
		"windSpeed" : 6.1,
		"windDir" : 161,
		"rain" : 0,
		"cloudbase" : 5458,
		"flyability" : 0,
		"reason" : "windSpeed, windDir",
		"timestamp" :1555930800
		},
	"2019-04-22T16:00:00+01:00" : {
		"windSpeed" : 5.6,
		"windDir" : 159,
		"rain" : 0,
		"cloudbase" : 5874,
		"flyability" : 0,
		"reason" : "windSpeed, windDir",
		"timestamp" :1555941600
		},
	"2019-04-22T19:00:00+01:00" : {
		"windSpeed" : 4.5,
		"windDir" : 146,
		"rain" : 0,
		"cloudbase" : 6557.9999999999,
		"flyability" : 0,
		"reason" : "windDir",
		"timestamp" :1555952400
		},
	"2019-04-22T22:00:00+01:00" : {
		"windSpeed" : 4.2,
		"windDir" : 135,
		"rain" : 0,
		"cloudbase" : 225.40000000033,
		"flyability" : 0,
		"reason" : "windDir, cloudbase",
		"timestamp" :1555963200
		},
	"2019-04-23T01:00:00+01:00" : {
		"windSpeed" : 3.7,
		"windDir" : 160,
		"rain" : 0,
		"cloudbase" : 121.7,
		"flyability" : 0,
		"reason" : "windDir, cloudbase",
		"timestamp" :1555974000
		},
	"2019-04-23T04:00:00+01:00" : {
		"windSpeed" : 2.3,
		"windDir" : 180,
		"rain" : 0,
		"cloudbase" : null,
		"flyability" : 0,
		"reason" : "windDir",
		"timestamp" :1555984800
		},
	"2019-04-23T07:00:00+01:00" : {
		"windSpeed" : 1.6,
		"windDir" : 252,
		"rain" : 0,
		"cloudbase" : 1700,
		"flyability" : 0,
		"reason" : "windDir",
		"timestamp" :1555995600
		},
	"2019-04-23T10:00:00+01:00" : {
		"windSpeed" : 2.1,
		"windDir" : 346,
		"rain" : 0,
		"cloudbase" : 1137.6000000002,
		"flyability" : 100,
		"reason" : "",
		"timestamp" :1556006400
		},
	"2019-04-23T13:00:00+01:00" : {
		"windSpeed" : 2.6,
		"windDir" : 347,
		"rain" : 1,
		"cloudbase" : 594.80000000001,
		"flyability" : 0,
		"reason" : "rain",
		"timestamp" :1556017200
		},
	"2019-04-23T16:00:00+01:00" : {
		"windSpeed" : 3.5,
		"windDir" : 355,
		"rain" : 1,
		"cloudbase" : 758.00000000002,
		"flyability" : 0,
		"reason" : "rain",
		"timestamp" :1556028000
		},
	"2019-04-23T19:00:00+01:00" : {
		"windSpeed" : 2.7,
		"windDir" : 22,
		"rain" : 1,
		"cloudbase" : 780.8,
		"flyability" : 0,
		"reason" : "rain",
		"timestamp" :1556038800
		},
	"2019-04-23T22:00:00+01:00" : {
		"windSpeed" : 1.6,
		"windDir" : 38,
		"rain" : 1,
		"cloudbase" : 414.80000000004,
		"flyability" : 0,
		"reason" : "rain",
		"timestamp" :1556049600
		},
	"2019-04-24T01:00:00+01:00" : {
		"windSpeed" : 1.7,
		"windDir" : 145,
		"rain" : 1,
		"cloudbase" : 1182.6000000001,
		"flyability" : 0,
		"reason" : "windDir, rain",
		"timestamp" :1556060400
		},
	"2019-04-24T04:00:00+01:00" : {
		"windSpeed" : 1.7,
		"windDir" : 190,
		"rain" : 1,
		"cloudbase" : 139.6,
		"flyability" : 0,
		"reason" : "windDir, rain, cloudbase",
		"timestamp" :1556071200
		},
	"2019-04-24T07:00:00+01:00" : {
		"windSpeed" : 1.4,
		"windDir" : 213,
		"rain" : 1,
		"cloudbase" : 200.60000000005,
		"flyability" : 0,
		"reason" : "windDir, rain, cloudbase",
		"timestamp" :1556082000
		},
	"2019-04-24T10:00:00+01:00" : {
		"windSpeed" : 2.1,
		"windDir" : 160,
		"rain" : 0,
		"cloudbase" : 540.00000000002,
		"flyability" : 0,
		"reason" : "windDir",
		"timestamp" :1556092800
		},
	"2019-04-24T13:00:00+01:00" : {
		"windSpeed" : 4.5,
		"windDir" : 158,
		"rain" : 1,
		"cloudbase" : 629.60000000001,
		"flyability" : 0,
		"reason" : "windDir, rain",
		"timestamp" :1556103600
		},
	"2019-04-24T16:00:00+01:00" : {
		"windSpeed" : 3.2,
		"windDir" : 176,
		"rain" : 1,
		"cloudbase" : 654.80000000001,
		"flyability" : 0,
		"reason" : "windDir, rain",
		"timestamp" :1556114400
		},
	"2019-04-24T19:00:00+01:00" : {
		"windSpeed" : 2,
		"windDir" : 174,
		"rain" : 1,
		"cloudbase" : 1563,
		"flyability" : 0,
		"reason" : "windDir, rain",
		"timestamp" :1556125200
		},
	"2019-04-24T22:00:00+01:00" : {
		"windSpeed" : 0.7,
		"windDir" : 135,
		"rain" : 1,
		"cloudbase" : 943.00000000013,
		"flyability" : 0,
		"reason" : "windDir, rain",
		"timestamp" :1556136000
		},
	"2019-04-25T01:00:00+01:00" : {
		"windSpeed" : 0.9,
		"windDir" : 51,
		"rain" : 1,
		"cloudbase" : 3551.0000000005,
		"flyability" : 0,
		"reason" : "rain",
		"timestamp" :1556146800
		},
	"2019-04-25T04:00:00+01:00" : {
		"windSpeed" : 0.8,
		"windDir" : 345,
		"rain" : 1,
		"cloudbase" : 589.80000000005,
		"flyability" : 0,
		"reason" : "rain",
		"timestamp" :1556157600
		},
	"2019-04-25T07:00:00+01:00" : {
		"windSpeed" : 4.8,
		"windDir" : 197,
		"rain" : 1,
		"cloudbase" : 563.2,
		"flyability" : 0,
		"reason" : "windDir, rain",
		"timestamp" :1556168400
		},
	"2019-04-25T10:00:00+01:00" : {
		"windSpeed" : 6,
		"windDir" : 208,
		"rain" : 1,
		"cloudbase" : 565.19999999999,
		"flyability" : 0,
		"reason" : "windSpeed, windDir, rain",
		"timestamp" :1556179200
		},
	"2019-04-25T13:00:00+01:00" : {
		"windSpeed" : 7.3,
		"windDir" : 224,
		"rain" : 1,
		"cloudbase" : 1497.9999999999,
		"flyability" : 0,
		"reason" : "windSpeed, windDir, rain",
		"timestamp" :1556190000
		},
	"2019-04-25T16:00:00+01:00" : {
		"windSpeed" : 5.5,
		"windDir" : 240,
		"rain" : 1,
		"cloudbase" : 3914.9999999998,
		"flyability" : 0,
		"reason" : "windSpeed, windDir, rain",
		"timestamp" :1556200800
		},
	"2019-04-25T19:00:00+01:00" : {
		"windSpeed" : 4.3,
		"windDir" : 242,
		"rain" : 1,
		"cloudbase" : 5200,
		"flyability" : 0,
		"reason" : "windDir, rain",
		"timestamp" :1556211600
		},
	"2019-04-25T22:00:00+01:00" : {
		"windSpeed" : 4,
		"windDir" : 231,
		"rain" : 1,
		"cloudbase" : 5758,
		"flyability" : 0,
		"reason" : "windDir, rain",
		"timestamp" :1556222400
		},
	"2019-04-26T01:00:00+01:00" : {
		"windSpeed" : 4.7,
		"windDir" : 254,
		"rain" : 1,
		"cloudbase" : 6158.0000000001,
		"flyability" : 0,
		"reason" : "windDir, rain",
		"timestamp" :1556233200
		}
	}
}