{
"site" : "Aiguille du Midi -S \/ N",
"id" : 11292,
"orientations" : "21012101",
"forecasts" : { 
	"2019-04-20T05:00:00+02:00" : {
		"windSpeed" : 0.9,
		"windDir" : 86,
		"rain" : 0,
		"cloudbase" : 1100,
		"flyability" : 0,
		"reason" : "windDir, cloudbase",
		"timestamp" :1555732800
		},
	"2019-04-20T08:00:00+02:00" : {
		"windSpeed" : 0.6,
		"windDir" : 83,
		"rain" : 0,
		"cloudbase" : null,
		"flyability" : 0,
		"reason" : "windDir",
		"timestamp" :1555743600
		},
	"2019-04-20T11:00:00+02:00" : {
		"windSpeed" : 0.9,
		"windDir" : 117,
		"rain" : 0,
		"cloudbase" : null,
		"flyability" : 100,
		"reason" : "",
		"timestamp" :1555754400
		},
	"2019-04-20T14:00:00+02:00" : {
		"windSpeed" : 1.3,
		"windDir" : 108,
		"rain" : 0,
		"cloudbase" : null,
		"flyability" : 0,
		"reason" : "windDir",
		"timestamp" :1555765200
		},
	"2019-04-20T17:00:00+02:00" : {
		"windSpeed" : 1.2,
		"windDir" : 90,
		"rain" : 0,
		"cloudbase" : null,
		"flyability" : 0,
		"reason" : "windDir",
		"timestamp" :1555776000
		},
	"2019-04-20T20:00:00+02:00" : {
		"windSpeed" : 1.2,
		"windDir" : 110,
		"rain" : 0,
		"cloudbase" : null,
		"flyability" : 0,
		"reason" : "windDir",
		"timestamp" :1555786800
		},
	"2019-04-20T23:00:00+02:00" : {
		"windSpeed" : 1.2,
		"windDir" : 86,
		"rain" : 0,
		"cloudbase" : 7387.89186,
		"flyability" : 0,
		"reason" : "windDir",
		"timestamp" :1555797600
		},
	"2019-04-21T02:00:00+02:00" : {
		"windSpeed" : 1.1,
		"windDir" : 81,
		"rain" : 0,
		"cloudbase" : 6194.3155800001,
		"flyability" : 0,
		"reason" : "windDir",
		"timestamp" :1555808400
		},
	"2019-04-21T05:00:00+02:00" : {
		"windSpeed" : 1,
		"windDir" : 102,
		"rain" : 0,
		"cloudbase" : 5100,
		"flyability" : 0,
		"reason" : "windDir",
		"timestamp" :1555819200
		},
	"2019-04-21T08:00:00+02:00" : {
		"windSpeed" : 1.1,
		"windDir" : 86,
		"rain" : 0,
		"cloudbase" : 6049.0518599998,
		"flyability" : 0,
		"reason" : "windDir",
		"timestamp" :1555830000
		},
	"2019-04-21T11:00:00+02:00" : {
		"windSpeed" : 1.2,
		"windDir" : 105,
		"rain" : 0,
		"cloudbase" : 6891.1037200001,
		"flyability" : 0,
		"reason" : "windDir",
		"timestamp" :1555840800
		},
	"2019-04-21T14:00:00+02:00" : {
		"windSpeed" : 1.2,
		"windDir" : 108,
		"rain" : 0,
		"cloudbase" : 6191.1037200001,
		"flyability" : 0,
		"reason" : "windDir",
		"timestamp" :1555851600
		},
	"2019-04-21T17:00:00+02:00" : {
		"windSpeed" : 1.1,
		"windDir" : 90,
		"rain" : 0,
		"cloudbase" : 4393.6626700002,
		"flyability" : 0,
		"reason" : "windDir",
		"timestamp" :1555862400
		},
	"2019-04-21T20:00:00+02:00" : {
		"windSpeed" : 1.1,
		"windDir" : 106,
		"rain" : 0,
		"cloudbase" : 7548.1691899994,
		"flyability" : 0,
		"reason" : "windDir",
		"timestamp" :1555873200
		},
	"2019-04-21T23:00:00+02:00" : {
		"windSpeed" : 1.6,
		"windDir" : 104,
		"rain" : 0,
		"cloudbase" : 8175.7837200001,
		"flyability" : 0,
		"reason" : "windDir",
		"timestamp" :1555884000
		},
	"2019-04-22T02:00:00+02:00" : {
		"windSpeed" : 1.8,
		"windDir" : 116,
		"rain" : 0,
		"cloudbase" : 7391.1037200001,
		"flyability" : 100,
		"reason" : "",
		"timestamp" :1555894800
		},
	"2019-04-22T05:00:00+02:00" : {
		"windSpeed" : 1.2,
		"windDir" : 105,
		"rain" : 0,
		"cloudbase" : 6660.4637200001,
		"flyability" : 0,
		"reason" : "windDir",
		"timestamp" :1555905600
		},
	"2019-04-22T08:00:00+02:00" : {
		"windSpeed" : 1.3,
		"windDir" : 105,
		"rain" : 0,
		"cloudbase" : 5486.25965,
		"flyability" : 0,
		"reason" : "windDir",
		"timestamp" :1555916400
		},
	"2019-04-22T11:00:00+02:00" : {
		"windSpeed" : 1.9,
		"windDir" : 116,
		"rain" : 0,
		"cloudbase" : null,
		"flyability" : 100,
		"reason" : "",
		"timestamp" :1555927200
		},
	"2019-04-22T14:00:00+02:00" : {
		"windSpeed" : 1.5,
		"windDir" : 121,
		"rain" : 0,
		"cloudbase" : null,
		"flyability" : 100,
		"reason" : "",
		"timestamp" :1555938000
		},
	"2019-04-22T17:00:00+02:00" : {
		"windSpeed" : 1.5,
		"windDir" : 127,
		"rain" : 0,
		"cloudbase" : null,
		"flyability" : 100,
		"reason" : "",
		"timestamp" :1555948800
		},
	"2019-04-22T20:00:00+02:00" : {
		"windSpeed" : 1.8,
		"windDir" : 117,
		"rain" : 0,
		"cloudbase" : null,
		"flyability" : 100,
		"reason" : "",
		"timestamp" :1555959600
		},
	"2019-04-22T23:00:00+02:00" : {
		"windSpeed" : 1.8,
		"windDir" : 117,
		"rain" : 0,
		"cloudbase" : 5750.87151,
		"flyability" : 100,
		"reason" : "",
		"timestamp" :1555970400
		},
	"2019-04-23T02:00:00+02:00" : {
		"windSpeed" : 1.8,
		"windDir" : 117,
		"rain" : 0,
		"cloudbase" : 3200,
		"flyability" : 0,
		"reason" : "cloudbase",
		"timestamp" :1555981200
		},
	"2019-04-23T05:00:00+02:00" : {
		"windSpeed" : 1.7,
		"windDir" : 104,
		"rain" : 0,
		"cloudbase" : 4243.8837199998,
		"flyability" : 0,
		"reason" : "windDir",
		"timestamp" :1555992000
		},
	"2019-04-23T08:00:00+02:00" : {
		"windSpeed" : 1.2,
		"windDir" : 104,
		"rain" : 0,
		"cloudbase" : 439.45920800024,
		"flyability" : 0,
		"reason" : "windDir, cloudbase",
		"timestamp" :1556002800
		},
	"2019-04-23T11:00:00+02:00" : {
		"windSpeed" : 1.5,
		"windDir" : 121,
		"rain" : 0,
		"cloudbase" : 358.92467400037,
		"flyability" : 0,
		"reason" : "cloudbase",
		"timestamp" :1556013600
		},
	"2019-04-23T14:00:00+02:00" : {
		"windSpeed" : 1.4,
		"windDir" : 108,
		"rain" : 0,
		"cloudbase" : 3519.543720001,
		"flyability" : 0,
		"reason" : "windDir, cloudbase",
		"timestamp" :1556024400
		},
	"2019-04-23T17:00:00+02:00" : {
		"windSpeed" : 1.4,
		"windDir" : 123,
		"rain" : 0,
		"cloudbase" : 3661.8658920008,
		"flyability" : 100,
		"reason" : "",
		"timestamp" :1556035200
		},
	"2019-04-23T20:00:00+02:00" : {
		"windSpeed" : 1.6,
		"windDir" : 106,
		"rain" : 0,
		"cloudbase" : 4050,
		"flyability" : 0,
		"reason" : "windDir",
		"timestamp" :1556046000
		},
	"2019-04-23T23:00:00+02:00" : {
		"windSpeed" : 1.2,
		"windDir" : 110,
		"rain" : 0,
		"cloudbase" : 334.36537800004,
		"flyability" : 0,
		"reason" : "windDir, cloudbase",
		"timestamp" :1556056800
		},
	"2019-04-24T02:00:00+02:00" : {
		"windSpeed" : 1.4,
		"windDir" : 126,
		"rain" : 0,
		"cloudbase" : 118.80748400049,
		"flyability" : 0,
		"reason" : "cloudbase",
		"timestamp" :1556067600
		},
	"2019-04-24T05:00:00+02:00" : {
		"windSpeed" : 1.2,
		"windDir" : 111,
		"rain" : 0,
		"cloudbase" : 30,
		"flyability" : 0,
		"reason" : "windDir, cloudbase",
		"timestamp" :1556078400
		},
	"2019-04-24T08:00:00+02:00" : {
		"windSpeed" : 1.7,
		"windDir" : 119,
		"rain" : 0,
		"cloudbase" : 50.051667000048,
		"flyability" : 0,
		"reason" : "cloudbase",
		"timestamp" :1556089200
		},
	"2019-04-24T11:00:00+02:00" : {
		"windSpeed" : 1.5,
		"windDir" : 124,
		"rain" : 1,
		"cloudbase" : 265.89813600044,
		"flyability" : 0,
		"reason" : "rain, cloudbase",
		"timestamp" :1556100000
		},
	"2019-04-24T14:00:00+02:00" : {
		"windSpeed" : 1.6,
		"windDir" : 125,
		"rain" : 1,
		"cloudbase" : 2757.931474,
		"flyability" : 0,
		"reason" : "rain, cloudbase",
		"timestamp" :1556110800
		},
	"2019-04-24T17:00:00+02:00" : {
		"windSpeed" : 1.6,
		"windDir" : 125,
		"rain" : 1,
		"cloudbase" : 211.02760200034,
		"flyability" : 0,
		"reason" : "rain, cloudbase",
		"timestamp" :1556121600
		},
	"2019-04-24T20:00:00+02:00" : {
		"windSpeed" : 1.9,
		"windDir" : 122,
		"rain" : 0,
		"cloudbase" : 115.91017100039,
		"flyability" : 0,
		"reason" : "cloudbase",
		"timestamp" :1556132400
		},
	"2019-04-24T23:00:00+02:00" : {
		"windSpeed" : 1.9,
		"windDir" : 122,
		"rain" : 0,
		"cloudbase" : 2067.2645860001,
		"flyability" : 0,
		"reason" : "cloudbase",
		"timestamp" :1556143200
		},
	"2019-04-25T02:00:00+02:00" : {
		"windSpeed" : 1.5,
		"windDir" : 126,
		"rain" : 0,
		"cloudbase" : 2217.583868,
		"flyability" : 0,
		"reason" : "cloudbase",
		"timestamp" :1556154000
		},
	"2019-04-25T05:00:00+02:00" : {
		"windSpeed" : 1.6,
		"windDir" : 104,
		"rain" : 0,
		"cloudbase" : 2898.5501100006,
		"flyability" : 0,
		"reason" : "windDir, cloudbase",
		"timestamp" :1556164800
		},
	"2019-04-25T08:00:00+02:00" : {
		"windSpeed" : 1.3,
		"windDir" : 109,
		"rain" : 0,
		"cloudbase" : 428.15762400037,
		"flyability" : 0,
		"reason" : "windDir, cloudbase",
		"timestamp" :1556175600
		},
	"2019-04-25T11:00:00+02:00" : {
		"windSpeed" : 1.2,
		"windDir" : 108,
		"rain" : 0,
		"cloudbase" : 433.92841600033,
		"flyability" : 0,
		"reason" : "windDir, cloudbase",
		"timestamp" :1556186400
		},
	"2019-04-25T14:00:00+02:00" : {
		"windSpeed" : 1.2,
		"windDir" : 108,
		"rain" : 0,
		"cloudbase" : 455.40056000006,
		"flyability" : 0,
		"reason" : "windDir, cloudbase",
		"timestamp" :1556197200
		},
	"2019-04-25T17:00:00+02:00" : {
		"windSpeed" : 0.7,
		"windDir" : 124,
		"rain" : 0,
		"cloudbase" : 30,
		"flyability" : 0,
		"reason" : "cloudbase",
		"timestamp" :1556208000
		},
	"2019-04-25T20:00:00+02:00" : {
		"windSpeed" : 0.4,
		"windDir" : 169,
		"rain" : 0,
		"cloudbase" : 640,
		"flyability" : 0,
		"reason" : "cloudbase",
		"timestamp" :1556218800
		},
	"2019-04-25T23:00:00+02:00" : {
		"windSpeed" : 1.5,
		"windDir" : 274,
		"rain" : 0,
		"cloudbase" : 82.225277999983,
		"flyability" : 0,
		"reason" : "windDir, cloudbase",
		"timestamp" :1556229600
		},
	"2019-04-26T02:00:00+02:00" : {
		"windSpeed" : 1.6,
		"windDir" : 284,
		"rain" : 0,
		"cloudbase" : 137.522674,
		"flyability" : 0,
		"reason" : "windDir, cloudbase",
		"timestamp" :1556240400
		}
	}
}