{
"site" : "Preseli's",
"id" : 11299,
"orientations" : "21222002",
"forecasts" : { 
	"2019-04-11T04:00:00+01:00" : {
		"windSpeed" : 3,
		"windDir" : 115,
		"rain" : 0,
		"cloudbase" : null,
		"flyability" : 100,
		"reason" : "",
		"timestamp" :1554948000
		},
	"2019-04-11T07:00:00+01:00" : {
		"windSpeed" : 3.2,
		"windDir" : 123,
		"rain" : 0,
		"cloudbase" : null,
		"flyability" : 100,
		"reason" : "",
		"timestamp" :1554958800
		},
	"2019-04-11T10:00:00+01:00" : {
		"windSpeed" : 3,
		"windDir" : 138,
		"rain" : 0,
		"cloudbase" : 1000,
		"flyability" : 100,
		"reason" : "",
		"timestamp" :1554969600
		},
	"2019-04-11T13:00:00+01:00" : {
		"windSpeed" : 1.7,
		"windDir" : 134,
		"rain" : 0,
		"cloudbase" : 926.86,
		"flyability" : 100,
		"reason" : "",
		"timestamp" :1554980400
		},
	"2019-04-11T16:00:00+01:00" : {
		"windSpeed" : 1.7,
		"windDir" : 166,
		"rain" : 0,
		"cloudbase" : 960,
		"flyability" : 100,
		"reason" : "",
		"timestamp" :1554991200
		},
	"2019-04-11T19:00:00+01:00" : {
		"windSpeed" : 1.5,
		"windDir" : 357,
		"rain" : 0,
		"cloudbase" : 836.4243,
		"flyability" : 100,
		"reason" : "",
		"timestamp" :1555002000
		},
	"2019-04-11T22:00:00+01:00" : {
		"windSpeed" : 1.7,
		"windDir" : 23,
		"rain" : 0,
		"cloudbase" : null,
		"flyability" : 100,
		"reason" : "",
		"timestamp" :1555012800
		},
	"2019-04-12T01:00:00+01:00" : {
		"windSpeed" : 2,
		"windDir" : 77,
		"rain" : 0,
		"cloudbase" : null,
		"flyability" : 100,
		"reason" : "",
		"timestamp" :1555023600
		},
	"2019-04-12T04:00:00+01:00" : {
		"windSpeed" : 2.7,
		"windDir" : 118,
		"rain" : 0,
		"cloudbase" : null,
		"flyability" : 100,
		"reason" : "",
		"timestamp" :1555034400
		},
	"2019-04-12T07:00:00+01:00" : {
		"windSpeed" : 3.4,
		"windDir" : 121,
		"rain" : 0,
		"cloudbase" : null,
		"flyability" : 100,
		"reason" : "",
		"timestamp" :1555045200
		},
	"2019-04-12T10:00:00+01:00" : {
		"windSpeed" : 4.2,
		"windDir" : 140,
		"rain" : 0,
		"cloudbase" : null,
		"flyability" : 100,
		"reason" : "",
		"timestamp" :1555056000
		},
	"2019-04-12T13:00:00+01:00" : {
		"windSpeed" : 4.4,
		"windDir" : 142,
		"rain" : 0,
		"cloudbase" : 1058.3544,
		"flyability" : 100,
		"reason" : "",
		"timestamp" :1555066800
		},
	"2019-04-12T16:00:00+01:00" : {
		"windSpeed" : 3.8,
		"windDir" : 135,
		"rain" : 0,
		"cloudbase" : 1084.3715,
		"flyability" : 100,
		"reason" : "",
		"timestamp" :1555077600
		},
	"2019-04-12T19:00:00+01:00" : {
		"windSpeed" : 2.8,
		"windDir" : 155,
		"rain" : 0,
		"cloudbase" : 1300,
		"flyability" : 100,
		"reason" : "",
		"timestamp" :1555088400
		},
	"2019-04-12T22:00:00+01:00" : {
		"windSpeed" : 3.8,
		"windDir" : 122,
		"rain" : 0,
		"cloudbase" : 1088.61075,
		"flyability" : 100,
		"reason" : "",
		"timestamp" :1555099200
		},
	"2019-04-13T01:00:00+01:00" : {
		"windSpeed" : 4,
		"windDir" : 115,
		"rain" : 0,
		"cloudbase" : 1300,
		"flyability" : 100,
		"reason" : "",
		"timestamp" :1555110000
		},
	"2019-04-13T04:00:00+01:00" : {
		"windSpeed" : 4.7,
		"windDir" : 118,
		"rain" : 0,
		"cloudbase" : 1241.06075,
		"flyability" : 100,
		"reason" : "",
		"timestamp" :1555120800
		},
	"2019-04-13T07:00:00+01:00" : {
		"windSpeed" : 5.2,
		"windDir" : 116,
		"rain" : 0,
		"cloudbase" : null,
		"flyability" : 0,
		"reason" : "windSpeed",
		"timestamp" :1555131600
		},
	"2019-04-13T10:00:00+01:00" : {
		"windSpeed" : 6.9,
		"windDir" : 125,
		"rain" : 0,
		"cloudbase" : 9423.9785,
		"flyability" : 0,
		"reason" : "windSpeed",
		"timestamp" :1555142400
		},
	"2019-04-13T13:00:00+01:00" : {
		"windSpeed" : 6.9,
		"windDir" : 131,
		"rain" : 0,
		"cloudbase" : null,
		"flyability" : 0,
		"reason" : "windSpeed",
		"timestamp" :1555153200
		},
	"2019-04-13T16:00:00+01:00" : {
		"windSpeed" : 6.4,
		"windDir" : 134,
		"rain" : 0,
		"cloudbase" : 9400,
		"flyability" : 0,
		"reason" : "windSpeed",
		"timestamp" :1555164000
		},
	"2019-04-13T19:00:00+01:00" : {
		"windSpeed" : 4.5,
		"windDir" : 135,
		"rain" : 0,
		"cloudbase" : null,
		"flyability" : 100,
		"reason" : "",
		"timestamp" :1555174800
		},
	"2019-04-13T22:00:00+01:00" : {
		"windSpeed" : 5.6,
		"windDir" : 113,
		"rain" : 0,
		"cloudbase" : 7862.9214999999,
		"flyability" : 0,
		"reason" : "windSpeed",
		"timestamp" :1555185600
		},
	"2019-04-14T01:00:00+01:00" : {
		"windSpeed" : 6.8,
		"windDir" : 124,
		"rain" : 0,
		"cloudbase" : 5524.9,
		"flyability" : 0,
		"reason" : "windSpeed",
		"timestamp" :1555196400
		},
	"2019-04-14T04:00:00+01:00" : {
		"windSpeed" : 7.4,
		"windDir" : 120,
		"rain" : 0,
		"cloudbase" : 5100,
		"flyability" : 0,
		"reason" : "windSpeed",
		"timestamp" :1555207200
		},
	"2019-04-14T07:00:00+01:00" : {
		"windSpeed" : 6.8,
		"windDir" : 123,
		"rain" : 0,
		"cloudbase" : 4812.71775,
		"flyability" : 0,
		"reason" : "windSpeed",
		"timestamp" :1555218000
		},
	"2019-04-14T10:00:00+01:00" : {
		"windSpeed" : 7.5,
		"windDir" : 124,
		"rain" : 0,
		"cloudbase" : 4504.23925,
		"flyability" : 0,
		"reason" : "windSpeed",
		"timestamp" :1555228800
		},
	"2019-04-14T13:00:00+01:00" : {
		"windSpeed" : 7.8,
		"windDir" : 127,
		"rain" : 0,
		"cloudbase" : 4452.1214999999,
		"flyability" : 0,
		"reason" : "windSpeed",
		"timestamp" :1555239600
		},
	"2019-04-14T16:00:00+01:00" : {
		"windSpeed" : 6.7,
		"windDir" : 135,
		"rain" : 0,
		"cloudbase" : 1249.53925,
		"flyability" : 0,
		"reason" : "windSpeed",
		"timestamp" :1555250400
		},
	"2019-04-14T19:00:00+01:00" : {
		"windSpeed" : 5.8,
		"windDir" : 127,
		"rain" : 0,
		"cloudbase" : 1404.43225,
		"flyability" : 0,
		"reason" : "windSpeed",
		"timestamp" :1555261200
		},
	"2019-04-14T22:00:00+01:00" : {
		"windSpeed" : 4.9,
		"windDir" : 132,
		"rain" : 0,
		"cloudbase" : 3288.61075,
		"flyability" : 100,
		"reason" : "",
		"timestamp" :1555272000
		},
	"2019-04-15T01:00:00+01:00" : {
		"windSpeed" : 7.6,
		"windDir" : 126,
		"rain" : 0,
		"cloudbase" : 3004.23925,
		"flyability" : 0,
		"reason" : "windSpeed",
		"timestamp" :1555282800
		},
	"2019-04-15T04:00:00+01:00" : {
		"windSpeed" : 7.6,
		"windDir" : 126,
		"rain" : 0,
		"cloudbase" : 2631.1285,
		"flyability" : 0,
		"reason" : "windSpeed",
		"timestamp" :1555293600
		},
	"2019-04-15T07:00:00+01:00" : {
		"windSpeed" : 8.3,
		"windDir" : 127,
		"rain" : 0,
		"cloudbase" : 3648.01075,
		"flyability" : 0,
		"reason" : "windSpeed",
		"timestamp" :1555304400
		},
	"2019-04-15T10:00:00+01:00" : {
		"windSpeed" : 8.7,
		"windDir" : 125,
		"rain" : 0,
		"cloudbase" : 3250,
		"flyability" : 0,
		"reason" : "windSpeed",
		"timestamp" :1555315200
		},
	"2019-04-15T13:00:00+01:00" : {
		"windSpeed" : 10.4,
		"windDir" : 132,
		"rain" : 0,
		"cloudbase" : 2581.3742499999,
		"flyability" : 0,
		"reason" : "windSpeed",
		"timestamp" :1555326000
		},
	"2019-04-15T16:00:00+01:00" : {
		"windSpeed" : 8.6,
		"windDir" : 123,
		"rain" : 0,
		"cloudbase" : 8155.6215,
		"flyability" : 0,
		"reason" : "windSpeed",
		"timestamp" :1555336800
		},
	"2019-04-15T19:00:00+01:00" : {
		"windSpeed" : 6.9,
		"windDir" : 123,
		"rain" : 0,
		"cloudbase" : 8300,
		"flyability" : 0,
		"reason" : "windSpeed",
		"timestamp" :1555347600
		},
	"2019-04-15T22:00:00+01:00" : {
		"windSpeed" : 8.1,
		"windDir" : 133,
		"rain" : 0,
		"cloudbase" : 10731.1075,
		"flyability" : 0,
		"reason" : "windSpeed",
		"timestamp" :1555358400
		},
	"2019-04-16T01:00:00+01:00" : {
		"windSpeed" : 6.8,
		"windDir" : 126,
		"rain" : 0,
		"cloudbase" : 8600,
		"flyability" : 0,
		"reason" : "windSpeed",
		"timestamp" :1555369200
		},
	"2019-04-16T04:00:00+01:00" : {
		"windSpeed" : 5.5,
		"windDir" : 126,
		"rain" : 0,
		"cloudbase" : 8413.9,
		"flyability" : 0,
		"reason" : "windSpeed",
		"timestamp" :1555380000
		},
	"2019-04-16T07:00:00+01:00" : {
		"windSpeed" : 4.4,
		"windDir" : 128,
		"rain" : 0,
		"cloudbase" : 3940.7602499997,
		"flyability" : 100,
		"reason" : "",
		"timestamp" :1555390800
		},
	"2019-04-16T10:00:00+01:00" : {
		"windSpeed" : 3.2,
		"windDir" : 129,
		"rain" : 1,
		"cloudbase" : 2638.6214999999,
		"flyability" : 0,
		"reason" : "rain",
		"timestamp" :1555401600
		},
	"2019-04-16T13:00:00+01:00" : {
		"windSpeed" : 2.5,
		"windDir" : 156,
		"rain" : 1,
		"cloudbase" : 2526.95375,
		"flyability" : 0,
		"reason" : "rain",
		"timestamp" :1555412400
		},
	"2019-04-16T16:00:00+01:00" : {
		"windSpeed" : 0.5,
		"windDir" : 157,
		"rain" : 1,
		"cloudbase" : 3548.35,
		"flyability" : 0,
		"reason" : "rain",
		"timestamp" :1555423200
		},
	"2019-04-16T19:00:00+01:00" : {
		"windSpeed" : 1.7,
		"windDir" : 28,
		"rain" : 1,
		"cloudbase" : 7726.5645000004,
		"flyability" : 0,
		"reason" : "rain",
		"timestamp" :1555434000
		},
	"2019-04-16T22:00:00+01:00" : {
		"windSpeed" : 1.8,
		"windDir" : 56,
		"rain" : 1,
		"cloudbase" : 2336.95,
		"flyability" : 0,
		"reason" : "rain",
		"timestamp" :1555444800
		},
	"2019-04-17T01:00:00+01:00" : {
		"windSpeed" : 1.4,
		"windDir" : 113,
		"rain" : 1,
		"cloudbase" : null,
		"flyability" : 0,
		"reason" : "rain",
		"timestamp" :1555455600
		}
	}
}