{
"site" : "Mundug",
"id" : 11339,
"orientations" : "00002000",
"forecasts" : { 
	"2019-04-04T22:00:00-05:00" : {
		"windSpeed" : 0.7,
		"windDir" : 40,
		"rain" : 1,
		"cloudbase" : 2691.57215,
		"flyability" : 0,
		"reason" : "windDir, rain, cloudbase",
		"timestamp" :1554429600
		},
	"2019-04-05T01:00:00-05:00" : {
		"windSpeed" : 0.5,
		"windDir" : 356,
		"rain" : 1,
		"cloudbase" : 9337.5428500004,
		"flyability" : 0,
		"reason" : "windDir, rain",
		"timestamp" :1554440400
		},
	"2019-04-05T04:00:00-05:00" : {
		"windSpeed" : 0.5,
		"windDir" : 80,
		"rain" : 0,
		"cloudbase" : 5252.0269300006,
		"flyability" : 0,
		"reason" : "windDir",
		"timestamp" :1554451200
		},
	"2019-04-05T07:00:00-05:00" : {
		"windSpeed" : 0,
		"windDir" : 359,
		"rain" : 0,
		"cloudbase" : 8247.8585500002,
		"flyability" : 0,
		"reason" : "windDir",
		"timestamp" :1554462000
		},
	"2019-04-05T10:00:00-05:00" : {
		"windSpeed" : 0.1,
		"windDir" : 153,
		"rain" : 1,
		"cloudbase" : 10460.56715,
		"flyability" : 0,
		"reason" : "windDir, rain",
		"timestamp" :1554472800
		},
	"2019-04-05T13:00:00-05:00" : {
		"windSpeed" : 1.8,
		"windDir" : 145,
		"rain" : 1,
		"cloudbase" : 9857.4911099999,
		"flyability" : 0,
		"reason" : "windDir, rain",
		"timestamp" :1554483600
		},
	"2019-04-05T16:00:00-05:00" : {
		"windSpeed" : 3.1,
		"windDir" : 141,
		"rain" : 1,
		"cloudbase" : 8865.9718779999,
		"flyability" : 0,
		"reason" : "windDir, rain",
		"timestamp" :1554494400
		},
	"2019-04-05T19:00:00-05:00" : {
		"windSpeed" : 0.9,
		"windDir" : 90,
		"rain" : 1,
		"cloudbase" : 2268.5665544996,
		"flyability" : 0,
		"reason" : "windDir, rain, cloudbase",
		"timestamp" :1554505200
		},
	"2019-04-05T22:00:00-05:00" : {
		"windSpeed" : 1.1,
		"windDir" : 115,
		"rain" : 0,
		"cloudbase" : 2254.7164320004,
		"flyability" : 0,
		"reason" : "windDir, cloudbase",
		"timestamp" :1554516000
		},
	"2019-04-06T01:00:00-05:00" : {
		"windSpeed" : 1,
		"windDir" : 62,
		"rain" : 1,
		"cloudbase" : 2025.5361099997,
		"flyability" : 0,
		"reason" : "windDir, rain, cloudbase",
		"timestamp" :1554526800
		},
	"2019-04-06T04:00:00-05:00" : {
		"windSpeed" : 0.9,
		"windDir" : 357,
		"rain" : 1,
		"cloudbase" : 1988.26186,
		"flyability" : 0,
		"reason" : "windDir, rain, cloudbase",
		"timestamp" :1554537600
		},
	"2019-04-06T07:00:00-05:00" : {
		"windSpeed" : 0.5,
		"windDir" : 355,
		"rain" : 1,
		"cloudbase" : 2515.1608699996,
		"flyability" : 0,
		"reason" : "windDir, rain, cloudbase",
		"timestamp" :1554548400
		},
	"2019-04-06T10:00:00-05:00" : {
		"windSpeed" : 0.7,
		"windDir" : 216,
		"rain" : 1,
		"cloudbase" : 6941.7322699999,
		"flyability" : 0,
		"reason" : "windDir, rain",
		"timestamp" :1554559200
		},
	"2019-04-06T13:00:00-05:00" : {
		"windSpeed" : 1.2,
		"windDir" : 152,
		"rain" : 0,
		"cloudbase" : 7492.15372,
		"flyability" : 0,
		"reason" : "windDir",
		"timestamp" :1554570000
		},
	"2019-04-06T16:00:00-05:00" : {
		"windSpeed" : 2.5,
		"windDir" : 143,
		"rain" : 1,
		"cloudbase" : 8335.5045399998,
		"flyability" : 0,
		"reason" : "windDir, rain",
		"timestamp" :1554580800
		},
	"2019-04-06T19:00:00-05:00" : {
		"windSpeed" : 2,
		"windDir" : 163,
		"rain" : 0,
		"cloudbase" : 8352.1387200004,
		"flyability" : 100,
		"reason" : "",
		"timestamp" :1554591600
		},
	"2019-04-06T22:00:00-05:00" : {
		"windSpeed" : 1,
		"windDir" : 175,
		"rain" : 1,
		"cloudbase" : 1645.2167529998,
		"flyability" : 0,
		"reason" : "rain, cloudbase",
		"timestamp" :1554602400
		},
	"2019-04-07T01:00:00-05:00" : {
		"windSpeed" : 1.1,
		"windDir" : 153,
		"rain" : 1,
		"cloudbase" : 454.7623369998,
		"flyability" : 0,
		"reason" : "windDir, rain, cloudbase",
		"timestamp" :1554613200
		},
	"2019-04-07T04:00:00-05:00" : {
		"windSpeed" : 1,
		"windDir" : 151,
		"rain" : 1,
		"cloudbase" : 635.28731949977,
		"flyability" : 0,
		"reason" : "windDir, rain, cloudbase",
		"timestamp" :1554624000
		},
	"2019-04-07T07:00:00-05:00" : {
		"windSpeed" : 1.1,
		"windDir" : 151,
		"rain" : 1,
		"cloudbase" : 338.65687299976,
		"flyability" : 0,
		"reason" : "windDir, rain, cloudbase",
		"timestamp" :1554634800
		},
	"2019-04-07T10:00:00-05:00" : {
		"windSpeed" : 2,
		"windDir" : 163,
		"rain" : 1,
		"cloudbase" : 5165.9263774995,
		"flyability" : 0,
		"reason" : "rain",
		"timestamp" :1554645600
		},
	"2019-04-07T13:00:00-05:00" : {
		"windSpeed" : 3.3,
		"windDir" : 152,
		"rain" : 1,
		"cloudbase" : 6268.6078274996,
		"flyability" : 0,
		"reason" : "windDir, rain",
		"timestamp" :1554656400
		},
	"2019-04-07T16:00:00-05:00" : {
		"windSpeed" : 2.2,
		"windDir" : 152,
		"rain" : 1,
		"cloudbase" : 6580.8981149999,
		"flyability" : 0,
		"reason" : "windDir, rain",
		"timestamp" :1554667200
		},
	"2019-04-07T19:00:00-05:00" : {
		"windSpeed" : 1.6,
		"windDir" : 158,
		"rain" : 0,
		"cloudbase" : 273.93435649948,
		"flyability" : 0,
		"reason" : "cloudbase",
		"timestamp" :1554678000
		},
	"2019-04-07T22:00:00-05:00" : {
		"windSpeed" : 1,
		"windDir" : 173,
		"rain" : 0,
		"cloudbase" : 274.8569220001,
		"flyability" : 0,
		"reason" : "cloudbase",
		"timestamp" :1554688800
		},
	"2019-04-08T01:00:00-05:00" : {
		"windSpeed" : 1,
		"windDir" : 175,
		"rain" : 1,
		"cloudbase" : 1508.0770920001,
		"flyability" : 0,
		"reason" : "rain, cloudbase",
		"timestamp" :1554699600
		},
	"2019-04-08T04:00:00-05:00" : {
		"windSpeed" : 0.9,
		"windDir" : 180,
		"rain" : 0,
		"cloudbase" : 1586.1594360001,
		"flyability" : 0,
		"reason" : "cloudbase",
		"timestamp" :1554710400
		},
	"2019-04-08T07:00:00-05:00" : {
		"windSpeed" : 1,
		"windDir" : 153,
		"rain" : 0,
		"cloudbase" : 7001.9288899996,
		"flyability" : 0,
		"reason" : "windDir",
		"timestamp" :1554721200
		},
	"2019-04-08T10:00:00-05:00" : {
		"windSpeed" : 2.9,
		"windDir" : 148,
		"rain" : 0,
		"cloudbase" : 1750,
		"flyability" : 0,
		"reason" : "windDir, cloudbase",
		"timestamp" :1554732000
		},
	"2019-04-08T13:00:00-05:00" : {
		"windSpeed" : 3.5,
		"windDir" : 134,
		"rain" : 1,
		"cloudbase" : 2400,
		"flyability" : 0,
		"reason" : "windDir, rain, cloudbase",
		"timestamp" :1554742800
		},
	"2019-04-08T16:00:00-05:00" : {
		"windSpeed" : 3.2,
		"windDir" : 140,
		"rain" : 0,
		"cloudbase" : 12500,
		"flyability" : 0,
		"reason" : "windDir",
		"timestamp" :1554753600
		},
	"2019-04-08T19:00:00-05:00" : {
		"windSpeed" : 1.2,
		"windDir" : 150,
		"rain" : 0,
		"cloudbase" : 3566.8740799994,
		"flyability" : 0,
		"reason" : "windDir",
		"timestamp" :1554764400
		},
	"2019-04-08T22:00:00-05:00" : {
		"windSpeed" : 1.4,
		"windDir" : 177,
		"rain" : 0,
		"cloudbase" : 890.3156000003,
		"flyability" : 0,
		"reason" : "cloudbase",
		"timestamp" :1554775200
		},
	"2019-04-09T01:00:00-05:00" : {
		"windSpeed" : 0.9,
		"windDir" : 180,
		"rain" : 0,
		"cloudbase" : 2055.1724399998,
		"flyability" : 0,
		"reason" : "cloudbase",
		"timestamp" :1554786000
		},
	"2019-04-09T04:00:00-05:00" : {
		"windSpeed" : 0.5,
		"windDir" : 175,
		"rain" : 1,
		"cloudbase" : 179.99020549996,
		"flyability" : 0,
		"reason" : "rain, cloudbase",
		"timestamp" :1554796800
		},
	"2019-04-09T07:00:00-05:00" : {
		"windSpeed" : 1,
		"windDir" : 151,
		"rain" : 0,
		"cloudbase" : 3554.4758640001,
		"flyability" : 0,
		"reason" : "windDir",
		"timestamp" :1554807600
		},
	"2019-04-09T10:00:00-05:00" : {
		"windSpeed" : 2.5,
		"windDir" : 142,
		"rain" : 1,
		"cloudbase" : 4609.9073250002,
		"flyability" : 0,
		"reason" : "windDir, rain",
		"timestamp" :1554818400
		},
	"2019-04-09T13:00:00-05:00" : {
		"windSpeed" : 3.2,
		"windDir" : 142,
		"rain" : 1,
		"cloudbase" : 12130.665964,
		"flyability" : 0,
		"reason" : "windDir, rain",
		"timestamp" :1554829200
		},
	"2019-04-09T16:00:00-05:00" : {
		"windSpeed" : 2.2,
		"windDir" : 151,
		"rain" : 1,
		"cloudbase" : 12459.89565,
		"flyability" : 0,
		"reason" : "windDir, rain",
		"timestamp" :1554840000
		},
	"2019-04-09T19:00:00-05:00" : {
		"windSpeed" : 1.1,
		"windDir" : 151,
		"rain" : 0,
		"cloudbase" : 12452.65314,
		"flyability" : 0,
		"reason" : "windDir",
		"timestamp" :1554850800
		},
	"2019-04-09T22:00:00-05:00" : {
		"windSpeed" : 0.7,
		"windDir" : 130,
		"rain" : 0,
		"cloudbase" : 2350,
		"flyability" : 0,
		"reason" : "windDir, cloudbase",
		"timestamp" :1554861600
		},
	"2019-04-10T01:00:00-05:00" : {
		"windSpeed" : 0.9,
		"windDir" : 88,
		"rain" : 0,
		"cloudbase" : null,
		"flyability" : 0,
		"reason" : "windDir",
		"timestamp" :1554872400
		},
	"2019-04-10T04:00:00-05:00" : {
		"windSpeed" : 1,
		"windDir" : 88,
		"rain" : 0,
		"cloudbase" : null,
		"flyability" : 0,
		"reason" : "windDir",
		"timestamp" :1554883200
		},
	"2019-04-10T07:00:00-05:00" : {
		"windSpeed" : 0.6,
		"windDir" : 132,
		"rain" : 0,
		"cloudbase" : 12452.06715,
		"flyability" : 0,
		"reason" : "windDir",
		"timestamp" :1554894000
		},
	"2019-04-10T10:00:00-05:00" : {
		"windSpeed" : 1.2,
		"windDir" : 152,
		"rain" : 0,
		"cloudbase" : null,
		"flyability" : 0,
		"reason" : "windDir",
		"timestamp" :1554904800
		},
	"2019-04-10T13:00:00-05:00" : {
		"windSpeed" : 3.2,
		"windDir" : 129,
		"rain" : 0,
		"cloudbase" : null,
		"flyability" : 0,
		"reason" : "windDir",
		"timestamp" :1554915600
		},
	"2019-04-10T16:00:00-05:00" : {
		"windSpeed" : 2.8,
		"windDir" : 134,
		"rain" : 0,
		"cloudbase" : 10500,
		"flyability" : 0,
		"reason" : "windDir",
		"timestamp" :1554926400
		},
	"2019-04-10T19:00:00-05:00" : {
		"windSpeed" : 1.4,
		"windDir" : 134,
		"rain" : 0,
		"cloudbase" : 9340.8350700002,
		"flyability" : 0,
		"reason" : "windDir",
		"timestamp" :1554937200
		}
	}
}