{
"site" : "Zarza Capilla",
"id" : 11374,
"orientations" : "00000002",
"forecasts" : { 
	"2019-04-05T05:00:00+02:00" : {
		"windSpeed" : 3.9,
		"windDir" : 206,
		"rain" : 1,
		"cloudbase" : 960.089,
		"flyability" : 0,
		"reason" : "windDir, rain",
		"timestamp" :1554436800
		},
	"2019-04-05T08:00:00+02:00" : {
		"windSpeed" : 4.4,
		"windDir" : 197,
		"rain" : 1,
		"cloudbase" : 2012.5970000001,
		"flyability" : 0,
		"reason" : "windDir, rain",
		"timestamp" :1554447600
		},
	"2019-04-05T11:00:00+02:00" : {
		"windSpeed" : 3.4,
		"windDir" : 234,
		"rain" : 1,
		"cloudbase" : 5441.9,
		"flyability" : 0,
		"reason" : "windDir, rain",
		"timestamp" :1554458400
		},
	"2019-04-05T14:00:00+02:00" : {
		"windSpeed" : 4.8,
		"windDir" : 279,
		"rain" : 1,
		"cloudbase" : 4310.335,
		"flyability" : 0,
		"reason" : "windDir, rain",
		"timestamp" :1554469200
		},
	"2019-04-05T17:00:00+02:00" : {
		"windSpeed" : 5.4,
		"windDir" : 270,
		"rain" : 1,
		"cloudbase" : 1150,
		"flyability" : 0,
		"reason" : "windSpeed, windDir, rain",
		"timestamp" :1554480000
		},
	"2019-04-05T20:00:00+02:00" : {
		"windSpeed" : 5.5,
		"windDir" : 274,
		"rain" : 1,
		"cloudbase" : 4860.305,
		"flyability" : 0,
		"reason" : "windSpeed, windDir, rain",
		"timestamp" :1554490800
		},
	"2019-04-05T23:00:00+02:00" : {
		"windSpeed" : 4.4,
		"windDir" : 257,
		"rain" : 1,
		"cloudbase" : null,
		"flyability" : 0,
		"reason" : "windDir, rain",
		"timestamp" :1554501600
		},
	"2019-04-06T02:00:00+02:00" : {
		"windSpeed" : 5,
		"windDir" : 264,
		"rain" : 1,
		"cloudbase" : 680,
		"flyability" : 0,
		"reason" : "windDir, rain, cloudbase",
		"timestamp" :1554512400
		},
	"2019-04-06T05:00:00+02:00" : {
		"windSpeed" : 4.4,
		"windDir" : 253,
		"rain" : 1,
		"cloudbase" : 398.76,
		"flyability" : 0,
		"reason" : "windDir, rain, cloudbase",
		"timestamp" :1554523200
		},
	"2019-04-06T08:00:00+02:00" : {
		"windSpeed" : 5.1,
		"windDir" : 258,
		"rain" : 1,
		"cloudbase" : 478.151,
		"flyability" : 0,
		"reason" : "windSpeed, windDir, rain, cloudbase",
		"timestamp" :1554534000
		},
	"2019-04-06T11:00:00+02:00" : {
		"windSpeed" : 5.6,
		"windDir" : 244,
		"rain" : 1,
		"cloudbase" : 3348.2850000003,
		"flyability" : 0,
		"reason" : "windSpeed, windDir, rain",
		"timestamp" :1554544800
		},
	"2019-04-06T14:00:00+02:00" : {
		"windSpeed" : 5.6,
		"windDir" : 243,
		"rain" : 1,
		"cloudbase" : 579.00600000001,
		"flyability" : 0,
		"reason" : "windSpeed, windDir, rain, cloudbase",
		"timestamp" :1554555600
		},
	"2019-04-06T17:00:00+02:00" : {
		"windSpeed" : 7.9,
		"windDir" : 272,
		"rain" : 0,
		"cloudbase" : 5098.605,
		"flyability" : 0,
		"reason" : "windSpeed, windDir",
		"timestamp" :1554566400
		},
	"2019-04-06T20:00:00+02:00" : {
		"windSpeed" : 6.3,
		"windDir" : 274,
		"rain" : 0,
		"cloudbase" : null,
		"flyability" : 0,
		"reason" : "windSpeed, windDir",
		"timestamp" :1554577200
		},
	"2019-04-06T23:00:00+02:00" : {
		"windSpeed" : 5.2,
		"windDir" : 270,
		"rain" : 0,
		"cloudbase" : null,
		"flyability" : 0,
		"reason" : "windSpeed, windDir",
		"timestamp" :1554588000
		},
	"2019-04-07T02:00:00+02:00" : {
		"windSpeed" : 4.4,
		"windDir" : 257,
		"rain" : 0,
		"cloudbase" : 2500,
		"flyability" : 0,
		"reason" : "windDir",
		"timestamp" :1554598800
		},
	"2019-04-07T05:00:00+02:00" : {
		"windSpeed" : 3.8,
		"windDir" : 247,
		"rain" : 0,
		"cloudbase" : null,
		"flyability" : 0,
		"reason" : "windDir",
		"timestamp" :1554609600
		},
	"2019-04-07T08:00:00+02:00" : {
		"windSpeed" : 2.8,
		"windDir" : 243,
		"rain" : 1,
		"cloudbase" : 520,
		"flyability" : 0,
		"reason" : "windDir, rain, cloudbase",
		"timestamp" :1554620400
		},
	"2019-04-07T11:00:00+02:00" : {
		"windSpeed" : 4.6,
		"windDir" : 258,
		"rain" : 0,
		"cloudbase" : 906.56500000002,
		"flyability" : 0,
		"reason" : "windDir",
		"timestamp" :1554631200
		},
	"2019-04-07T14:00:00+02:00" : {
		"windSpeed" : 3,
		"windDir" : 213,
		"rain" : 1,
		"cloudbase" : 733.866,
		"flyability" : 0,
		"reason" : "windDir, rain, cloudbase",
		"timestamp" :1554642000
		},
	"2019-04-07T17:00:00+02:00" : {
		"windSpeed" : 3.7,
		"windDir" : 188,
		"rain" : 1,
		"cloudbase" : 519.475,
		"flyability" : 0,
		"reason" : "windDir, rain, cloudbase",
		"timestamp" :1554652800
		},
	"2019-04-07T20:00:00+02:00" : {
		"windSpeed" : 2.8,
		"windDir" : 205,
		"rain" : 1,
		"cloudbase" : 793.46300000007,
		"flyability" : 0,
		"reason" : "windDir, rain",
		"timestamp" :1554663600
		},
	"2019-04-07T23:00:00+02:00" : {
		"windSpeed" : 3.3,
		"windDir" : 243,
		"rain" : 1,
		"cloudbase" : 3985.0000000001,
		"flyability" : 0,
		"reason" : "windDir, rain",
		"timestamp" :1554674400
		},
	"2019-04-08T02:00:00+02:00" : {
		"windSpeed" : 3.5,
		"windDir" : 225,
		"rain" : 1,
		"cloudbase" : 6395.81,
		"flyability" : 0,
		"reason" : "windDir, rain",
		"timestamp" :1554685200
		},
	"2019-04-08T05:00:00+02:00" : {
		"windSpeed" : 4.1,
		"windDir" : 233,
		"rain" : 1,
		"cloudbase" : 415.38,
		"flyability" : 0,
		"reason" : "windDir, rain, cloudbase",
		"timestamp" :1554696000
		},
	"2019-04-08T08:00:00+02:00" : {
		"windSpeed" : 4.1,
		"windDir" : 255,
		"rain" : 1,
		"cloudbase" : 720,
		"flyability" : 0,
		"reason" : "windDir, rain, cloudbase",
		"timestamp" :1554706800
		},
	"2019-04-08T11:00:00+02:00" : {
		"windSpeed" : 4,
		"windDir" : 264,
		"rain" : 0,
		"cloudbase" : null,
		"flyability" : 0,
		"reason" : "windDir",
		"timestamp" :1554717600
		},
	"2019-04-08T14:00:00+02:00" : {
		"windSpeed" : 5,
		"windDir" : 264,
		"rain" : 0,
		"cloudbase" : 1752.71,
		"flyability" : 0,
		"reason" : "windDir",
		"timestamp" :1554728400
		},
	"2019-04-08T17:00:00+02:00" : {
		"windSpeed" : 5.7,
		"windDir" : 285,
		"rain" : 0,
		"cloudbase" : 2133.66,
		"flyability" : 0,
		"reason" : "windSpeed, windDir",
		"timestamp" :1554739200
		},
	"2019-04-08T20:00:00+02:00" : {
		"windSpeed" : 4.8,
		"windDir" : 282,
		"rain" : 0,
		"cloudbase" : 3289.4550000003,
		"flyability" : 0,
		"reason" : "windDir",
		"timestamp" :1554750000
		},
	"2019-04-08T23:00:00+02:00" : {
		"windSpeed" : 3.7,
		"windDir" : 270,
		"rain" : 0,
		"cloudbase" : 5860.4649999998,
		"flyability" : 0,
		"reason" : "windDir",
		"timestamp" :1554760800
		},
	"2019-04-09T02:00:00+02:00" : {
		"windSpeed" : 2.5,
		"windDir" : 263,
		"rain" : 0,
		"cloudbase" : null,
		"flyability" : 0,
		"reason" : "windDir",
		"timestamp" :1554771600
		},
	"2019-04-09T05:00:00+02:00" : {
		"windSpeed" : 2.4,
		"windDir" : 230,
		"rain" : 0,
		"cloudbase" : null,
		"flyability" : 0,
		"reason" : "windDir",
		"timestamp" :1554782400
		},
	"2019-04-09T08:00:00+02:00" : {
		"windSpeed" : 3,
		"windDir" : 240,
		"rain" : 0,
		"cloudbase" : null,
		"flyability" : 0,
		"reason" : "windDir",
		"timestamp" :1554793200
		},
	"2019-04-09T11:00:00+02:00" : {
		"windSpeed" : 5,
		"windDir" : 265,
		"rain" : 1,
		"cloudbase" : null,
		"flyability" : 0,
		"reason" : "windDir, rain",
		"timestamp" :1554804000
		},
	"2019-04-09T14:00:00+02:00" : {
		"windSpeed" : 5.3,
		"windDir" : 260,
		"rain" : 0,
		"cloudbase" : null,
		"flyability" : 0,
		"reason" : "windSpeed, windDir",
		"timestamp" :1554814800
		},
	"2019-04-09T17:00:00+02:00" : {
		"windSpeed" : 7.3,
		"windDir" : 276,
		"rain" : 1,
		"cloudbase" : null,
		"flyability" : 0,
		"reason" : "windSpeed, windDir, rain",
		"timestamp" :1554825600
		},
	"2019-04-09T20:00:00+02:00" : {
		"windSpeed" : 5.4,
		"windDir" : 276,
		"rain" : 1,
		"cloudbase" : null,
		"flyability" : 0,
		"reason" : "windSpeed, windDir, rain",
		"timestamp" :1554836400
		},
	"2019-04-09T23:00:00+02:00" : {
		"windSpeed" : 4.5,
		"windDir" : 276,
		"rain" : 0,
		"cloudbase" : null,
		"flyability" : 0,
		"reason" : "windDir",
		"timestamp" :1554847200
		},
	"2019-04-10T02:00:00+02:00" : {
		"windSpeed" : 4.5,
		"windDir" : 276,
		"rain" : 0,
		"cloudbase" : null,
		"flyability" : 0,
		"reason" : "windDir",
		"timestamp" :1554858000
		},
	"2019-04-10T05:00:00+02:00" : {
		"windSpeed" : 4,
		"windDir" : 277,
		"rain" : 0,
		"cloudbase" : null,
		"flyability" : 0,
		"reason" : "windDir",
		"timestamp" :1554868800
		},
	"2019-04-10T08:00:00+02:00" : {
		"windSpeed" : 4.5,
		"windDir" : 282,
		"rain" : 0,
		"cloudbase" : 134.11200000001,
		"flyability" : 0,
		"reason" : "windDir, cloudbase",
		"timestamp" :1554879600
		},
	"2019-04-10T11:00:00+02:00" : {
		"windSpeed" : 4.9,
		"windDir" : 295,
		"rain" : 0,
		"cloudbase" : 728.76000000001,
		"flyability" : 0,
		"reason" : "cloudbase",
		"timestamp" :1554890400
		},
	"2019-04-10T14:00:00+02:00" : {
		"windSpeed" : 5.2,
		"windDir" : 300,
		"rain" : 0,
		"cloudbase" : 1031.145,
		"flyability" : 0,
		"reason" : "windSpeed",
		"timestamp" :1554901200
		},
	"2019-04-10T17:00:00+02:00" : {
		"windSpeed" : 6.1,
		"windDir" : 297,
		"rain" : 0,
		"cloudbase" : 1550,
		"flyability" : 0,
		"reason" : "windSpeed",
		"timestamp" :1554912000
		},
	"2019-04-10T20:00:00+02:00" : {
		"windSpeed" : 4.5,
		"windDir" : 287,
		"rain" : 0,
		"cloudbase" : null,
		"flyability" : 0,
		"reason" : "windDir",
		"timestamp" :1554922800
		},
	"2019-04-10T23:00:00+02:00" : {
		"windSpeed" : 3,
		"windDir" : 289,
		"rain" : 0,
		"cloudbase" : null,
		"flyability" : 0,
		"reason" : "windDir",
		"timestamp" :1554933600
		},
	"2019-04-11T02:00:00+02:00" : {
		"windSpeed" : 2.6,
		"windDir" : 286,
		"rain" : 0,
		"cloudbase" : null,
		"flyability" : 0,
		"reason" : "windDir",
		"timestamp" :1554944400
		}
	}
}