{
"site" : "Ben Wyvis",
"id" : 11521,
"orientations" : "00110002",
"forecasts" : { 
	"2019-04-20T04:00:00+01:00" : {
		"windSpeed" : 2.6,
		"windDir" : 244,
		"rain" : 0,
		"cloudbase" : 6539.0083,
		"flyability" : 0,
		"reason" : "windDir",
		"timestamp" :1555725600
		},
	"2019-04-20T07:00:00+01:00" : {
		"windSpeed" : 3.8,
		"windDir" : 263,
		"rain" : 0,
		"cloudbase" : 4917.5612699993,
		"flyability" : 0,
		"reason" : "windDir",
		"timestamp" :1555736400
		},
	"2019-04-20T10:00:00+01:00" : {
		"windSpeed" : 4.3,
		"windDir" : 252,
		"rain" : 0,
		"cloudbase" : 713.51916999994,
		"flyability" : 0,
		"reason" : "windDir, cloudbase",
		"timestamp" :1555747200
		},
	"2019-04-20T13:00:00+01:00" : {
		"windSpeed" : 3.8,
		"windDir" : 265,
		"rain" : 0,
		"cloudbase" : 1943.7557399998,
		"flyability" : 0,
		"reason" : "windDir",
		"timestamp" :1555758000
		},
	"2019-04-20T16:00:00+01:00" : {
		"windSpeed" : 3,
		"windDir" : 262,
		"rain" : 0,
		"cloudbase" : 3835.3002,
		"flyability" : 0,
		"reason" : "windDir",
		"timestamp" :1555768800
		},
	"2019-04-20T19:00:00+01:00" : {
		"windSpeed" : 2.2,
		"windDir" : 294,
		"rain" : 1,
		"cloudbase" : 4304.05415,
		"flyability" : 0,
		"reason" : "rain",
		"timestamp" :1555779600
		},
	"2019-04-20T22:00:00+01:00" : {
		"windSpeed" : 0.9,
		"windDir" : 122,
		"rain" : 1,
		"cloudbase" : 1458.0109100001,
		"flyability" : 0,
		"reason" : "rain",
		"timestamp" :1555790400
		},
	"2019-04-21T01:00:00+01:00" : {
		"windSpeed" : 1.3,
		"windDir" : 98,
		"rain" : 1,
		"cloudbase" : 523.81161999999,
		"flyability" : 0,
		"reason" : "rain, cloudbase",
		"timestamp" :1555801200
		},
	"2019-04-21T04:00:00+01:00" : {
		"windSpeed" : 1.2,
		"windDir" : 145,
		"rain" : 1,
		"cloudbase" : 71.786679999998,
		"flyability" : 0,
		"reason" : "rain, cloudbase",
		"timestamp" :1555812000
		},
	"2019-04-21T07:00:00+01:00" : {
		"windSpeed" : 0.6,
		"windDir" : 163,
		"rain" : 1,
		"cloudbase" : 60.041244999995,
		"flyability" : 0,
		"reason" : "windDir, rain, cloudbase",
		"timestamp" :1555822800
		},
	"2019-04-21T10:00:00+01:00" : {
		"windSpeed" : 2.3,
		"windDir" : 175,
		"rain" : 0,
		"cloudbase" : 164.98004,
		"flyability" : 0,
		"reason" : "windDir, cloudbase",
		"timestamp" :1555833600
		},
	"2019-04-21T13:00:00+01:00" : {
		"windSpeed" : 5.2,
		"windDir" : 203,
		"rain" : 1,
		"cloudbase" : 811.93999999999,
		"flyability" : 0,
		"reason" : "windSpeed, windDir, rain, cloudbase",
		"timestamp" :1555844400
		},
	"2019-04-21T16:00:00+01:00" : {
		"windSpeed" : 5.7,
		"windDir" : 201,
		"rain" : 1,
		"cloudbase" : 1608.4393999998,
		"flyability" : 0,
		"reason" : "windSpeed, windDir, rain",
		"timestamp" :1555855200
		},
	"2019-04-21T19:00:00+01:00" : {
		"windSpeed" : 4.1,
		"windDir" : 202,
		"rain" : 0,
		"cloudbase" : null,
		"flyability" : 0,
		"reason" : "windDir",
		"timestamp" :1555866000
		},
	"2019-04-21T22:00:00+01:00" : {
		"windSpeed" : 2.6,
		"windDir" : 180,
		"rain" : 1,
		"cloudbase" : null,
		"flyability" : 0,
		"reason" : "windDir, rain",
		"timestamp" :1555876800
		},
	"2019-04-22T01:00:00+01:00" : {
		"windSpeed" : 2.2,
		"windDir" : 153,
		"rain" : 0,
		"cloudbase" : 9042.1751,
		"flyability" : 100,
		"reason" : "",
		"timestamp" :1555887600
		},
	"2019-04-22T04:00:00+01:00" : {
		"windSpeed" : 1.8,
		"windDir" : 122,
		"rain" : 0,
		"cloudbase" : 8632.7248999999,
		"flyability" : 100,
		"reason" : "",
		"timestamp" :1555898400
		},
	"2019-04-22T07:00:00+01:00" : {
		"windSpeed" : 2.3,
		"windDir" : 133,
		"rain" : 0,
		"cloudbase" : 9285.6083,
		"flyability" : 100,
		"reason" : "",
		"timestamp" :1555909200
		},
	"2019-04-22T10:00:00+01:00" : {
		"windSpeed" : 3.8,
		"windDir" : 165,
		"rain" : 0,
		"cloudbase" : null,
		"flyability" : 0,
		"reason" : "windDir",
		"timestamp" :1555920000
		},
	"2019-04-22T13:00:00+01:00" : {
		"windSpeed" : 5.5,
		"windDir" : 167,
		"rain" : 0,
		"cloudbase" : null,
		"flyability" : 0,
		"reason" : "windSpeed, windDir",
		"timestamp" :1555930800
		},
	"2019-04-22T16:00:00+01:00" : {
		"windSpeed" : 4.9,
		"windDir" : 162,
		"rain" : 0,
		"cloudbase" : null,
		"flyability" : 0,
		"reason" : "windDir",
		"timestamp" :1555941600
		},
	"2019-04-22T19:00:00+01:00" : {
		"windSpeed" : 2.9,
		"windDir" : 137,
		"rain" : 0,
		"cloudbase" : null,
		"flyability" : 100,
		"reason" : "",
		"timestamp" :1555952400
		},
	"2019-04-22T22:00:00+01:00" : {
		"windSpeed" : 2.1,
		"windDir" : 135,
		"rain" : 0,
		"cloudbase" : 6624.6,
		"flyability" : 100,
		"reason" : "",
		"timestamp" :1555963200
		},
	"2019-04-23T01:00:00+01:00" : {
		"windSpeed" : 1.7,
		"windDir" : 118,
		"rain" : 0,
		"cloudbase" : 5335.6,
		"flyability" : 100,
		"reason" : "",
		"timestamp" :1555974000
		},
	"2019-04-23T04:00:00+01:00" : {
		"windSpeed" : 1.5,
		"windDir" : 95,
		"rain" : 0,
		"cloudbase" : null,
		"flyability" : 100,
		"reason" : "",
		"timestamp" :1555984800
		},
	"2019-04-23T07:00:00+01:00" : {
		"windSpeed" : 2,
		"windDir" : 94,
		"rain" : 0,
		"cloudbase" : null,
		"flyability" : 100,
		"reason" : "",
		"timestamp" :1555995600
		},
	"2019-04-23T10:00:00+01:00" : {
		"windSpeed" : 3,
		"windDir" : 112,
		"rain" : 0,
		"cloudbase" : 4218.45415,
		"flyability" : 100,
		"reason" : "",
		"timestamp" :1556006400
		},
	"2019-04-23T13:00:00+01:00" : {
		"windSpeed" : 4,
		"windDir" : 92,
		"rain" : 0,
		"cloudbase" : null,
		"flyability" : 100,
		"reason" : "",
		"timestamp" :1556017200
		},
	"2019-04-23T16:00:00+01:00" : {
		"windSpeed" : 5.4,
		"windDir" : 153,
		"rain" : 0,
		"cloudbase" : 9000,
		"flyability" : 0,
		"reason" : "windSpeed",
		"timestamp" :1556028000
		},
	"2019-04-23T19:00:00+01:00" : {
		"windSpeed" : 3.3,
		"windDir" : 140,
		"rain" : 0,
		"cloudbase" : null,
		"flyability" : 100,
		"reason" : "",
		"timestamp" :1556038800
		},
	"2019-04-23T22:00:00+01:00" : {
		"windSpeed" : 2.8,
		"windDir" : 90,
		"rain" : 0,
		"cloudbase" : null,
		"flyability" : 100,
		"reason" : "",
		"timestamp" :1556049600
		},
	"2019-04-24T01:00:00+01:00" : {
		"windSpeed" : 2.4,
		"windDir" : 66,
		"rain" : 0,
		"cloudbase" : 9109.6917,
		"flyability" : 0,
		"reason" : "windDir",
		"timestamp" :1556060400
		},
	"2019-04-24T04:00:00+01:00" : {
		"windSpeed" : 2.8,
		"windDir" : 57,
		"rain" : 0,
		"cloudbase" : null,
		"flyability" : 0,
		"reason" : "windDir",
		"timestamp" :1556071200
		},
	"2019-04-24T07:00:00+01:00" : {
		"windSpeed" : 3.8,
		"windDir" : 87,
		"rain" : 0,
		"cloudbase" : null,
		"flyability" : 100,
		"reason" : "",
		"timestamp" :1556082000
		},
	"2019-04-24T10:00:00+01:00" : {
		"windSpeed" : 6,
		"windDir" : 97,
		"rain" : 0,
		"cloudbase" : null,
		"flyability" : 0,
		"reason" : "windSpeed",
		"timestamp" :1556092800
		},
	"2019-04-24T13:00:00+01:00" : {
		"windSpeed" : 7.1,
		"windDir" : 106,
		"rain" : 0,
		"cloudbase" : 1143.59585,
		"flyability" : 0,
		"reason" : "windSpeed",
		"timestamp" :1556103600
		},
	"2019-04-24T16:00:00+01:00" : {
		"windSpeed" : 7.2,
		"windDir" : 109,
		"rain" : 0,
		"cloudbase" : 1300,
		"flyability" : 0,
		"reason" : "windSpeed",
		"timestamp" :1556114400
		},
	"2019-04-24T19:00:00+01:00" : {
		"windSpeed" : 6.3,
		"windDir" : 91,
		"rain" : 0,
		"cloudbase" : null,
		"flyability" : 0,
		"reason" : "windSpeed",
		"timestamp" :1556125200
		},
	"2019-04-24T22:00:00+01:00" : {
		"windSpeed" : 5.9,
		"windDir" : 80,
		"rain" : 1,
		"cloudbase" : 332.25497999998,
		"flyability" : 0,
		"reason" : "windSpeed, rain, cloudbase",
		"timestamp" :1556136000
		},
	"2019-04-25T01:00:00+01:00" : {
		"windSpeed" : 5,
		"windDir" : 73,
		"rain" : 1,
		"cloudbase" : 177.25414999999,
		"flyability" : 0,
		"reason" : "rain, cloudbase",
		"timestamp" :1556146800
		},
	"2019-04-25T04:00:00+01:00" : {
		"windSpeed" : 4.1,
		"windDir" : 76,
		"rain" : 1,
		"cloudbase" : 152.65871499998,
		"flyability" : 0,
		"reason" : "rain, cloudbase",
		"timestamp" :1556157600
		},
	"2019-04-25T07:00:00+01:00" : {
		"windSpeed" : 3.3,
		"windDir" : 85,
		"rain" : 1,
		"cloudbase" : 224.35197499996,
		"flyability" : 0,
		"reason" : "rain, cloudbase",
		"timestamp" :1556168400
		},
	"2019-04-25T10:00:00+01:00" : {
		"windSpeed" : 2.9,
		"windDir" : 109,
		"rain" : 1,
		"cloudbase" : null,
		"flyability" : 0,
		"reason" : "rain",
		"timestamp" :1556179200
		},
	"2019-04-25T13:00:00+01:00" : {
		"windSpeed" : 6.5,
		"windDir" : 154,
		"rain" : 1,
		"cloudbase" : 1800,
		"flyability" : 0,
		"reason" : "windSpeed, rain",
		"timestamp" :1556190000
		},
	"2019-04-25T16:00:00+01:00" : {
		"windSpeed" : 5.9,
		"windDir" : 137,
		"rain" : 0,
		"cloudbase" : 1849.34585,
		"flyability" : 0,
		"reason" : "windSpeed",
		"timestamp" :1556200800
		},
	"2019-04-25T19:00:00+01:00" : {
		"windSpeed" : 4.7,
		"windDir" : 126,
		"rain" : 0,
		"cloudbase" : null,
		"flyability" : 100,
		"reason" : "",
		"timestamp" :1556211600
		},
	"2019-04-25T22:00:00+01:00" : {
		"windSpeed" : 4.3,
		"windDir" : 117,
		"rain" : 0,
		"cloudbase" : 1419.24585,
		"flyability" : 100,
		"reason" : "",
		"timestamp" :1556222400
		},
	"2019-04-26T01:00:00+01:00" : {
		"windSpeed" : 2.2,
		"windDir" : 137,
		"rain" : 1,
		"cloudbase" : null,
		"flyability" : 0,
		"reason" : "rain",
		"timestamp" :1556233200
		}
	}
}