{
"site" : "Prish hill",
"id" : 11580,
"orientations" : "22222222",
"forecasts" : { 
	"2019-04-14T19:00:00+04:00" : {
		"windSpeed" : 4.8,
		"windDir" : 192,
		"rain" : 0,
		"cloudbase" : null,
		"flyability" : 100,
		"reason" : "",
		"timestamp" :1555250400
		},
	"2019-04-14T22:00:00+04:00" : {
		"windSpeed" : 3.4,
		"windDir" : 227,
		"rain" : 0,
		"cloudbase" : null,
		"flyability" : 100,
		"reason" : "",
		"timestamp" :1555261200
		},
	"2019-04-15T01:00:00+04:00" : {
		"windSpeed" : 3.4,
		"windDir" : 247,
		"rain" : 0,
		"cloudbase" : null,
		"flyability" : 100,
		"reason" : "",
		"timestamp" :1555272000
		},
	"2019-04-15T04:00:00+04:00" : {
		"windSpeed" : 4,
		"windDir" : 243,
		"rain" : 0,
		"cloudbase" : 9100,
		"flyability" : 100,
		"reason" : "",
		"timestamp" :1555282800
		},
	"2019-04-15T07:00:00+04:00" : {
		"windSpeed" : 4.1,
		"windDir" : 229,
		"rain" : 0,
		"cloudbase" : 9301.8732,
		"flyability" : 100,
		"reason" : "",
		"timestamp" :1555293600
		},
	"2019-04-15T10:00:00+04:00" : {
		"windSpeed" : 6.3,
		"windDir" : 214,
		"rain" : 0,
		"cloudbase" : 9400,
		"flyability" : 0,
		"reason" : "windSpeed",
		"timestamp" :1555304400
		},
	"2019-04-15T13:00:00+04:00" : {
		"windSpeed" : 7.3,
		"windDir" : 199,
		"rain" : 0,
		"cloudbase" : 9300,
		"flyability" : 0,
		"reason" : "windSpeed",
		"timestamp" :1555315200
		},
	"2019-04-15T16:00:00+04:00" : {
		"windSpeed" : 6.8,
		"windDir" : 183,
		"rain" : 0,
		"cloudbase" : 6498.7512,
		"flyability" : 0,
		"reason" : "windSpeed",
		"timestamp" :1555326000
		},
	"2019-04-15T19:00:00+04:00" : {
		"windSpeed" : 4.9,
		"windDir" : 198,
		"rain" : 0,
		"cloudbase" : null,
		"flyability" : 100,
		"reason" : "",
		"timestamp" :1555336800
		},
	"2019-04-15T22:00:00+04:00" : {
		"windSpeed" : 1.9,
		"windDir" : 320,
		"rain" : 0,
		"cloudbase" : 9025.1,
		"flyability" : 100,
		"reason" : "",
		"timestamp" :1555347600
		},
	"2019-04-16T01:00:00+04:00" : {
		"windSpeed" : 2.3,
		"windDir" : 15,
		"rain" : 0,
		"cloudbase" : 8073.4268,
		"flyability" : 100,
		"reason" : "",
		"timestamp" :1555358400
		},
	"2019-04-16T04:00:00+04:00" : {
		"windSpeed" : 2.1,
		"windDir" : 360,
		"rain" : 0,
		"cloudbase" : 4846.3122,
		"flyability" : 100,
		"reason" : "",
		"timestamp" :1555369200
		},
	"2019-04-16T07:00:00+04:00" : {
		"windSpeed" : 1,
		"windDir" : 311,
		"rain" : 0,
		"cloudbase" : 7611.2,
		"flyability" : 100,
		"reason" : "",
		"timestamp" :1555380000
		},
	"2019-04-16T10:00:00+04:00" : {
		"windSpeed" : 2.8,
		"windDir" : 203,
		"rain" : 0,
		"cloudbase" : 7523.8512,
		"flyability" : 100,
		"reason" : "",
		"timestamp" :1555390800
		},
	"2019-04-16T13:00:00+04:00" : {
		"windSpeed" : 5.2,
		"windDir" : 201,
		"rain" : 0,
		"cloudbase" : 9209.5488,
		"flyability" : 0,
		"reason" : "windSpeed",
		"timestamp" :1555401600
		},
	"2019-04-16T16:00:00+04:00" : {
		"windSpeed" : 4.5,
		"windDir" : 212,
		"rain" : 0,
		"cloudbase" : 5987.5679999999,
		"flyability" : 100,
		"reason" : "",
		"timestamp" :1555412400
		},
	"2019-04-16T19:00:00+04:00" : {
		"windSpeed" : 3.4,
		"windDir" : 64,
		"rain" : 0,
		"cloudbase" : 2134.1100799999,
		"flyability" : 100,
		"reason" : "",
		"timestamp" :1555423200
		},
	"2019-04-16T22:00:00+04:00" : {
		"windSpeed" : 2.2,
		"windDir" : 353,
		"rain" : 1,
		"cloudbase" : 3127.7988,
		"flyability" : 0,
		"reason" : "rain",
		"timestamp" :1555434000
		},
	"2019-04-17T01:00:00+04:00" : {
		"windSpeed" : 3.5,
		"windDir" : 2,
		"rain" : 0,
		"cloudbase" : 4200,
		"flyability" : 100,
		"reason" : "",
		"timestamp" :1555444800
		},
	"2019-04-17T04:00:00+04:00" : {
		"windSpeed" : 2.8,
		"windDir" : 5,
		"rain" : 0,
		"cloudbase" : null,
		"flyability" : 100,
		"reason" : "",
		"timestamp" :1555455600
		},
	"2019-04-17T07:00:00+04:00" : {
		"windSpeed" : 3.9,
		"windDir" : 11,
		"rain" : 0,
		"cloudbase" : 7195.0244,
		"flyability" : 100,
		"reason" : "",
		"timestamp" :1555466400
		},
	"2019-04-17T10:00:00+04:00" : {
		"windSpeed" : 5.3,
		"windDir" : 16,
		"rain" : 0,
		"cloudbase" : 2513.2509999998,
		"flyability" : 0,
		"reason" : "windSpeed",
		"timestamp" :1555477200
		},
	"2019-04-17T13:00:00+04:00" : {
		"windSpeed" : 6.7,
		"windDir" : 19,
		"rain" : 1,
		"cloudbase" : 2821.3244,
		"flyability" : 0,
		"reason" : "windSpeed, rain",
		"timestamp" :1555488000
		},
	"2019-04-17T16:00:00+04:00" : {
		"windSpeed" : 5.3,
		"windDir" : 12,
		"rain" : 1,
		"cloudbase" : 1423.7,
		"flyability" : 0,
		"reason" : "windSpeed, rain",
		"timestamp" :1555498800
		},
	"2019-04-17T19:00:00+04:00" : {
		"windSpeed" : 4.4,
		"windDir" : 9,
		"rain" : 1,
		"cloudbase" : 2999.8184,
		"flyability" : 0,
		"reason" : "rain",
		"timestamp" :1555509600
		},
	"2019-04-17T22:00:00+04:00" : {
		"windSpeed" : 2.3,
		"windDir" : 241,
		"rain" : 1,
		"cloudbase" : 2282.5134,
		"flyability" : 0,
		"reason" : "rain",
		"timestamp" :1555520400
		},
	"2019-04-18T01:00:00+04:00" : {
		"windSpeed" : 2.7,
		"windDir" : 293,
		"rain" : 1,
		"cloudbase" : 1870.517,
		"flyability" : 0,
		"reason" : "rain",
		"timestamp" :1555531200
		},
	"2019-04-18T04:00:00+04:00" : {
		"windSpeed" : 2.5,
		"windDir" : 12,
		"rain" : 1,
		"cloudbase" : 2847.5622,
		"flyability" : 0,
		"reason" : "rain",
		"timestamp" :1555542000
		},
	"2019-04-18T07:00:00+04:00" : {
		"windSpeed" : 7.4,
		"windDir" : 1,
		"rain" : 0,
		"cloudbase" : 2439.3914,
		"flyability" : 0,
		"reason" : "windSpeed",
		"timestamp" :1555552800
		},
	"2019-04-18T10:00:00+04:00" : {
		"windSpeed" : 6.1,
		"windDir" : 7,
		"rain" : 1,
		"cloudbase" : 1344.9122,
		"flyability" : 0,
		"reason" : "windSpeed, rain",
		"timestamp" :1555563600
		},
	"2019-04-18T13:00:00+04:00" : {
		"windSpeed" : 6.9,
		"windDir" : 14,
		"rain" : 1,
		"cloudbase" : 1020.05732,
		"flyability" : 0,
		"reason" : "windSpeed, rain",
		"timestamp" :1555574400
		},
	"2019-04-18T16:00:00+04:00" : {
		"windSpeed" : 7.2,
		"windDir" : 17,
		"rain" : 1,
		"cloudbase" : 1162.2378,
		"flyability" : 0,
		"reason" : "windSpeed, rain",
		"timestamp" :1555585200
		},
	"2019-04-18T19:00:00+04:00" : {
		"windSpeed" : 7.2,
		"windDir" : 20,
		"rain" : 1,
		"cloudbase" : 1271.5244,
		"flyability" : 0,
		"reason" : "windSpeed, rain",
		"timestamp" :1555596000
		},
	"2019-04-18T22:00:00+04:00" : {
		"windSpeed" : 6.5,
		"windDir" : 27,
		"rain" : 0,
		"cloudbase" : 799.36335999996,
		"flyability" : 0,
		"reason" : "windSpeed",
		"timestamp" :1555606800
		},
	"2019-04-19T01:00:00+04:00" : {
		"windSpeed" : 6.2,
		"windDir" : 24,
		"rain" : 0,
		"cloudbase" : 1249.5756,
		"flyability" : 0,
		"reason" : "windSpeed",
		"timestamp" :1555617600
		},
	"2019-04-19T04:00:00+04:00" : {
		"windSpeed" : 5.8,
		"windDir" : 26,
		"rain" : 0,
		"cloudbase" : 856.84871999995,
		"flyability" : 0,
		"reason" : "windSpeed",
		"timestamp" :1555628400
		},
	"2019-04-19T07:00:00+04:00" : {
		"windSpeed" : 5.1,
		"windDir" : 36,
		"rain" : 0,
		"cloudbase" : 302.83755999999,
		"flyability" : 0,
		"reason" : "windSpeed, cloudbase",
		"timestamp" :1555639200
		},
	"2019-04-19T10:00:00+04:00" : {
		"windSpeed" : 3.8,
		"windDir" : 54,
		"rain" : 1,
		"cloudbase" : 309.27219999999,
		"flyability" : 0,
		"reason" : "rain, cloudbase",
		"timestamp" :1555650000
		},
	"2019-04-19T13:00:00+04:00" : {
		"windSpeed" : 4.1,
		"windDir" : 48,
		"rain" : 0,
		"cloudbase" : 405.96803999999,
		"flyability" : 0,
		"reason" : "cloudbase",
		"timestamp" :1555660800
		},
	"2019-04-19T16:00:00+04:00" : {
		"windSpeed" : 4.8,
		"windDir" : 39,
		"rain" : 0,
		"cloudbase" : 854.04871999995,
		"flyability" : 100,
		"reason" : "",
		"timestamp" :1555671600
		},
	"2019-04-19T19:00:00+04:00" : {
		"windSpeed" : 5.1,
		"windDir" : 25,
		"rain" : 0,
		"cloudbase" : 1249.5756,
		"flyability" : 0,
		"reason" : "windSpeed",
		"timestamp" :1555682400
		},
	"2019-04-19T22:00:00+04:00" : {
		"windSpeed" : 5,
		"windDir" : 18,
		"rain" : 1,
		"cloudbase" : 4054.8476000001,
		"flyability" : 0,
		"reason" : "rain",
		"timestamp" :1555693200
		},
	"2019-04-20T01:00:00+04:00" : {
		"windSpeed" : 5.3,
		"windDir" : 28,
		"rain" : 1,
		"cloudbase" : 1218.7634,
		"flyability" : 0,
		"reason" : "windSpeed, rain",
		"timestamp" :1555704000
		},
	"2019-04-20T04:00:00+04:00" : {
		"windSpeed" : 5.9,
		"windDir" : 18,
		"rain" : 1,
		"cloudbase" : 1029.139,
		"flyability" : 0,
		"reason" : "windSpeed, rain",
		"timestamp" :1555714800
		},
	"2019-04-20T07:00:00+04:00" : {
		"windSpeed" : 6.3,
		"windDir" : 14,
		"rain" : 1,
		"cloudbase" : 967.54755999999,
		"flyability" : 0,
		"reason" : "windSpeed, rain",
		"timestamp" :1555725600
		},
	"2019-04-20T10:00:00+04:00" : {
		"windSpeed" : 6.4,
		"windDir" : 12,
		"rain" : 1,
		"cloudbase" : 960.29416,
		"flyability" : 0,
		"reason" : "windSpeed, rain",
		"timestamp" :1555736400
		},
	"2019-04-20T13:00:00+04:00" : {
		"windSpeed" : 7.6,
		"windDir" : 14,
		"rain" : 1,
		"cloudbase" : 1270.9,
		"flyability" : 0,
		"reason" : "windSpeed, rain",
		"timestamp" :1555747200
		},
	"2019-04-20T16:00:00+04:00" : {
		"windSpeed" : 7.2,
		"windDir" : 15,
		"rain" : 1,
		"cloudbase" : 1486.6744,
		"flyability" : 0,
		"reason" : "windSpeed, rain",
		"timestamp" :1555758000
		}
	}
}