{
"site" : "Mt Itajiki Hangglider Area",
"id" : 11960,
"orientations" : "00122210",
"forecasts" : { 
	"2019-04-13T12:00:00+09:00" : {
		"windSpeed" : 0.9,
		"windDir" : 198,
		"rain" : 0,
		"cloudbase" : 2300,
		"flyability" : 100,
		"reason" : "",
		"timestamp" :1555124400
		},
	"2019-04-13T15:00:00+09:00" : {
		"windSpeed" : 2.6,
		"windDir" : 209,
		"rain" : 0,
		"cloudbase" : 2400,
		"flyability" : 100,
		"reason" : "",
		"timestamp" :1555135200
		},
	"2019-04-13T18:00:00+09:00" : {
		"windSpeed" : 2.9,
		"windDir" : 148,
		"rain" : 0,
		"cloudbase" : 8300,
		"flyability" : 100,
		"reason" : "",
		"timestamp" :1555146000
		},
	"2019-04-13T21:00:00+09:00" : {
		"windSpeed" : 2.1,
		"windDir" : 178,
		"rain" : 0,
		"cloudbase" : 7700,
		"flyability" : 100,
		"reason" : "",
		"timestamp" :1555156800
		},
	"2019-04-14T00:00:00+09:00" : {
		"windSpeed" : 1.7,
		"windDir" : 163,
		"rain" : 0,
		"cloudbase" : 5978.1359999999,
		"flyability" : 100,
		"reason" : "",
		"timestamp" :1555167600
		},
	"2019-04-14T03:00:00+09:00" : {
		"windSpeed" : 1.9,
		"windDir" : 171,
		"rain" : 0,
		"cloudbase" : 4785.864,
		"flyability" : 100,
		"reason" : "",
		"timestamp" :1555178400
		},
	"2019-04-14T06:00:00+09:00" : {
		"windSpeed" : 1.4,
		"windDir" : 174,
		"rain" : 0,
		"cloudbase" : 3750,
		"flyability" : 100,
		"reason" : "",
		"timestamp" :1555189200
		},
	"2019-04-14T09:00:00+09:00" : {
		"windSpeed" : 3.3,
		"windDir" : 199,
		"rain" : 0,
		"cloudbase" : 6584.336,
		"flyability" : 100,
		"reason" : "",
		"timestamp" :1555200000
		},
	"2019-04-14T12:00:00+09:00" : {
		"windSpeed" : 4.7,
		"windDir" : 199,
		"rain" : 0,
		"cloudbase" : 7482.2,
		"flyability" : 100,
		"reason" : "",
		"timestamp" :1555210800
		},
	"2019-04-14T15:00:00+09:00" : {
		"windSpeed" : 5.8,
		"windDir" : 195,
		"rain" : 1,
		"cloudbase" : 5110.8079999998,
		"flyability" : 0,
		"reason" : "windSpeed, rain",
		"timestamp" :1555221600
		},
	"2019-04-14T18:00:00+09:00" : {
		"windSpeed" : 5.5,
		"windDir" : 178,
		"rain" : 1,
		"cloudbase" : 3295.068,
		"flyability" : 0,
		"reason" : "windSpeed, rain",
		"timestamp" :1555232400
		},
	"2019-04-14T21:00:00+09:00" : {
		"windSpeed" : 5.1,
		"windDir" : 174,
		"rain" : 1,
		"cloudbase" : 401.13920000003,
		"flyability" : 0,
		"reason" : "windSpeed, rain",
		"timestamp" :1555243200
		},
	"2019-04-15T00:00:00+09:00" : {
		"windSpeed" : 6,
		"windDir" : 184,
		"rain" : 1,
		"cloudbase" : 406.5304,
		"flyability" : 0,
		"reason" : "windSpeed, rain",
		"timestamp" :1555254000
		},
	"2019-04-15T03:00:00+09:00" : {
		"windSpeed" : 5.8,
		"windDir" : 191,
		"rain" : 1,
		"cloudbase" : 559.57680000041,
		"flyability" : 0,
		"reason" : "windSpeed, rain",
		"timestamp" :1555264800
		},
	"2019-04-15T06:00:00+09:00" : {
		"windSpeed" : 3.3,
		"windDir" : 173,
		"rain" : 1,
		"cloudbase" : 275.48720000002,
		"flyability" : 0,
		"reason" : "rain, cloudbase",
		"timestamp" :1555275600
		},
	"2019-04-15T09:00:00+09:00" : {
		"windSpeed" : 2.6,
		"windDir" : 254,
		"rain" : 1,
		"cloudbase" : null,
		"flyability" : 0,
		"reason" : "rain",
		"timestamp" :1555286400
		},
	"2019-04-15T12:00:00+09:00" : {
		"windSpeed" : 4.7,
		"windDir" : 292,
		"rain" : 1,
		"cloudbase" : null,
		"flyability" : 0,
		"reason" : "rain",
		"timestamp" :1555297200
		},
	"2019-04-15T15:00:00+09:00" : {
		"windSpeed" : 4.2,
		"windDir" : 305,
		"rain" : 1,
		"cloudbase" : null,
		"flyability" : 0,
		"reason" : "windDir, rain",
		"timestamp" :1555308000
		},
	"2019-04-15T18:00:00+09:00" : {
		"windSpeed" : 6,
		"windDir" : 313,
		"rain" : 1,
		"cloudbase" : null,
		"flyability" : 0,
		"reason" : "windSpeed, windDir, rain",
		"timestamp" :1555318800
		},
	"2019-04-15T21:00:00+09:00" : {
		"windSpeed" : 2.2,
		"windDir" : 314,
		"rain" : 0,
		"cloudbase" : null,
		"flyability" : 0,
		"reason" : "windDir",
		"timestamp" :1555329600
		},
	"2019-04-16T00:00:00+09:00" : {
		"windSpeed" : 2.2,
		"windDir" : 298,
		"rain" : 0,
		"cloudbase" : null,
		"flyability" : 0,
		"reason" : "windDir",
		"timestamp" :1555340400
		},
	"2019-04-16T03:00:00+09:00" : {
		"windSpeed" : 2.4,
		"windDir" : 305,
		"rain" : 0,
		"cloudbase" : null,
		"flyability" : 0,
		"reason" : "windDir",
		"timestamp" :1555351200
		},
	"2019-04-16T06:00:00+09:00" : {
		"windSpeed" : 2,
		"windDir" : 6,
		"rain" : 0,
		"cloudbase" : null,
		"flyability" : 0,
		"reason" : "windDir",
		"timestamp" :1555362000
		},
	"2019-04-16T09:00:00+09:00" : {
		"windSpeed" : 1.1,
		"windDir" : 356,
		"rain" : 0,
		"cloudbase" : null,
		"flyability" : 0,
		"reason" : "windDir",
		"timestamp" :1555372800
		},
	"2019-04-16T12:00:00+09:00" : {
		"windSpeed" : 1.3,
		"windDir" : 184,
		"rain" : 0,
		"cloudbase" : null,
		"flyability" : 100,
		"reason" : "",
		"timestamp" :1555383600
		},
	"2019-04-16T15:00:00+09:00" : {
		"windSpeed" : 3.8,
		"windDir" : 158,
		"rain" : 0,
		"cloudbase" : null,
		"flyability" : 100,
		"reason" : "",
		"timestamp" :1555394400
		},
	"2019-04-16T18:00:00+09:00" : {
		"windSpeed" : 2.6,
		"windDir" : 128,
		"rain" : 0,
		"cloudbase" : null,
		"flyability" : 100,
		"reason" : "",
		"timestamp" :1555405200
		},
	"2019-04-16T21:00:00+09:00" : {
		"windSpeed" : 1.6,
		"windDir" : 176,
		"rain" : 0,
		"cloudbase" : 9517.8,
		"flyability" : 100,
		"reason" : "",
		"timestamp" :1555416000
		},
	"2019-04-17T00:00:00+09:00" : {
		"windSpeed" : 1.4,
		"windDir" : 175,
		"rain" : 0,
		"cloudbase" : 8084.336,
		"flyability" : 100,
		"reason" : "",
		"timestamp" :1555426800
		},
	"2019-04-17T03:00:00+09:00" : {
		"windSpeed" : 0.8,
		"windDir" : 204,
		"rain" : 0,
		"cloudbase" : 10028.656,
		"flyability" : 100,
		"reason" : "",
		"timestamp" :1555437600
		},
	"2019-04-17T06:00:00+09:00" : {
		"windSpeed" : 1,
		"windDir" : 179,
		"rain" : 0,
		"cloudbase" : 10000,
		"flyability" : 100,
		"reason" : "",
		"timestamp" :1555448400
		},
	"2019-04-17T09:00:00+09:00" : {
		"windSpeed" : 2.5,
		"windDir" : 217,
		"rain" : 0,
		"cloudbase" : 9622.072,
		"flyability" : 100,
		"reason" : "",
		"timestamp" :1555459200
		},
	"2019-04-17T12:00:00+09:00" : {
		"windSpeed" : 3.9,
		"windDir" : 203,
		"rain" : 0,
		"cloudbase" : 9004.272,
		"flyability" : 100,
		"reason" : "",
		"timestamp" :1555470000
		},
	"2019-04-17T15:00:00+09:00" : {
		"windSpeed" : 3.7,
		"windDir" : 196,
		"rain" : 0,
		"cloudbase" : 5700,
		"flyability" : 100,
		"reason" : "",
		"timestamp" :1555480800
		},
	"2019-04-17T18:00:00+09:00" : {
		"windSpeed" : 1.5,
		"windDir" : 167,
		"rain" : 0,
		"cloudbase" : 5182.2,
		"flyability" : 100,
		"reason" : "",
		"timestamp" :1555491600
		},
	"2019-04-17T21:00:00+09:00" : {
		"windSpeed" : 1.1,
		"windDir" : 174,
		"rain" : 0,
		"cloudbase" : 4909.296,
		"flyability" : 100,
		"reason" : "",
		"timestamp" :1555502400
		},
	"2019-04-18T00:00:00+09:00" : {
		"windSpeed" : 1.4,
		"windDir" : 138,
		"rain" : 0,
		"cloudbase" : 5355.9360000001,
		"flyability" : 100,
		"reason" : "",
		"timestamp" :1555513200
		},
	"2019-04-18T03:00:00+09:00" : {
		"windSpeed" : 0.7,
		"windDir" : 52,
		"rain" : 0,
		"cloudbase" : null,
		"flyability" : 0,
		"reason" : "windDir",
		"timestamp" :1555524000
		},
	"2019-04-18T06:00:00+09:00" : {
		"windSpeed" : 1.1,
		"windDir" : 123,
		"rain" : 1,
		"cloudbase" : null,
		"flyability" : 0,
		"reason" : "rain",
		"timestamp" :1555534800
		},
	"2019-04-18T09:00:00+09:00" : {
		"windSpeed" : 2.5,
		"windDir" : 191,
		"rain" : 1,
		"cloudbase" : null,
		"flyability" : 0,
		"reason" : "rain",
		"timestamp" :1555545600
		},
	"2019-04-18T12:00:00+09:00" : {
		"windSpeed" : 3.2,
		"windDir" : 199,
		"rain" : 1,
		"cloudbase" : null,
		"flyability" : 0,
		"reason" : "rain",
		"timestamp" :1555556400
		},
	"2019-04-18T15:00:00+09:00" : {
		"windSpeed" : 4.2,
		"windDir" : 193,
		"rain" : 0,
		"cloudbase" : 8472.336,
		"flyability" : 100,
		"reason" : "",
		"timestamp" :1555567200
		},
	"2019-04-18T18:00:00+09:00" : {
		"windSpeed" : 2.1,
		"windDir" : 166,
		"rain" : 1,
		"cloudbase" : null,
		"flyability" : 0,
		"reason" : "rain",
		"timestamp" :1555578000
		},
	"2019-04-18T21:00:00+09:00" : {
		"windSpeed" : 1.6,
		"windDir" : 108,
		"rain" : 0,
		"cloudbase" : null,
		"flyability" : 100,
		"reason" : "",
		"timestamp" :1555588800
		},
	"2019-04-19T00:00:00+09:00" : {
		"windSpeed" : 1.2,
		"windDir" : 119,
		"rain" : 0,
		"cloudbase" : null,
		"flyability" : 100,
		"reason" : "",
		"timestamp" :1555599600
		},
	"2019-04-19T03:00:00+09:00" : {
		"windSpeed" : 0.8,
		"windDir" : 271,
		"rain" : 0,
		"cloudbase" : null,
		"flyability" : 100,
		"reason" : "",
		"timestamp" :1555610400
		},
	"2019-04-19T06:00:00+09:00" : {
		"windSpeed" : 1.1,
		"windDir" : 296,
		"rain" : 0,
		"cloudbase" : 30,
		"flyability" : 0,
		"reason" : "windDir, cloudbase",
		"timestamp" :1555621200
		},
	"2019-04-19T09:00:00+09:00" : {
		"windSpeed" : 1.6,
		"windDir" : 5,
		"rain" : 0,
		"cloudbase" : 2442.168,
		"flyability" : 0,
		"reason" : "windDir",
		"timestamp" :1555632000
		}
	}
}