{
"site" : "Geising-Schauh\u00fcbel",
"id" : 12021,
"orientations" : "00000000",
"forecasts" : { 
	"2019-04-14T05:00:00+02:00" : {
		"windSpeed" : 3,
		"windDir" : 360,
		"rain" : 0,
		"cloudbase" : 45.389999999999,
		"flyability" : -0,
		"reason" : "orientationsUnknown, cloudbase",
		"timestamp" :1555214400
		},
	"2019-04-14T08:00:00+02:00" : {
		"windSpeed" : 3.6,
		"windDir" : 16,
		"rain" : 0,
		"cloudbase" : 140.06411,
		"flyability" : -0,
		"reason" : "orientationsUnknown, cloudbase",
		"timestamp" :1555225200
		},
	"2019-04-14T11:00:00+02:00" : {
		"windSpeed" : 3.4,
		"windDir" : 17,
		"rain" : 0,
		"cloudbase" : 113.69046,
		"flyability" : -0,
		"reason" : "orientationsUnknown, cloudbase",
		"timestamp" :1555236000
		},
	"2019-04-14T14:00:00+02:00" : {
		"windSpeed" : 3.2,
		"windDir" : 18,
		"rain" : 1,
		"cloudbase" : 178.99950999999,
		"flyability" : -0,
		"reason" : "orientationsUnknown, rain, cloudbase",
		"timestamp" :1555246800
		},
	"2019-04-14T17:00:00+02:00" : {
		"windSpeed" : 2.6,
		"windDir" : 348,
		"rain" : 1,
		"cloudbase" : 1328.8273,
		"flyability" : -0,
		"reason" : "orientationsUnknown, rain",
		"timestamp" :1555257600
		},
	"2019-04-14T20:00:00+02:00" : {
		"windSpeed" : 2.8,
		"windDir" : 27,
		"rain" : 0,
		"cloudbase" : 1574.1273,
		"flyability" : -50,
		"reason" : "orientationsUnknown",
		"timestamp" :1555268400
		},
	"2019-04-14T23:00:00+02:00" : {
		"windSpeed" : 3.2,
		"windDir" : 44,
		"rain" : 0,
		"cloudbase" : 8200,
		"flyability" : -50,
		"reason" : "orientationsUnknown",
		"timestamp" :1555279200
		},
	"2019-04-15T02:00:00+02:00" : {
		"windSpeed" : 2.5,
		"windDir" : 44,
		"rain" : 0,
		"cloudbase" : null,
		"flyability" : -50,
		"reason" : "orientationsUnknown",
		"timestamp" :1555290000
		},
	"2019-04-15T05:00:00+02:00" : {
		"windSpeed" : 2.2,
		"windDir" : 26,
		"rain" : 0,
		"cloudbase" : null,
		"flyability" : -50,
		"reason" : "orientationsUnknown",
		"timestamp" :1555300800
		},
	"2019-04-15T08:00:00+02:00" : {
		"windSpeed" : 2.8,
		"windDir" : 26,
		"rain" : 0,
		"cloudbase" : null,
		"flyability" : -50,
		"reason" : "orientationsUnknown",
		"timestamp" :1555311600
		},
	"2019-04-15T11:00:00+02:00" : {
		"windSpeed" : 3.8,
		"windDir" : 58,
		"rain" : 0,
		"cloudbase" : 8500,
		"flyability" : -50,
		"reason" : "orientationsUnknown",
		"timestamp" :1555322400
		},
	"2019-04-15T14:00:00+02:00" : {
		"windSpeed" : 3.8,
		"windDir" : 58,
		"rain" : 0,
		"cloudbase" : null,
		"flyability" : -50,
		"reason" : "orientationsUnknown",
		"timestamp" :1555333200
		},
	"2019-04-15T17:00:00+02:00" : {
		"windSpeed" : 3.9,
		"windDir" : 49,
		"rain" : 0,
		"cloudbase" : null,
		"flyability" : -50,
		"reason" : "orientationsUnknown",
		"timestamp" :1555344000
		},
	"2019-04-15T20:00:00+02:00" : {
		"windSpeed" : 2.4,
		"windDir" : 71,
		"rain" : 0,
		"cloudbase" : null,
		"flyability" : -50,
		"reason" : "orientationsUnknown",
		"timestamp" :1555354800
		},
	"2019-04-15T23:00:00+02:00" : {
		"windSpeed" : 2,
		"windDir" : 89,
		"rain" : 0,
		"cloudbase" : null,
		"flyability" : -50,
		"reason" : "orientationsUnknown",
		"timestamp" :1555365600
		},
	"2019-04-16T02:00:00+02:00" : {
		"windSpeed" : 2.4,
		"windDir" : 134,
		"rain" : 0,
		"cloudbase" : null,
		"flyability" : -50,
		"reason" : "orientationsUnknown",
		"timestamp" :1555376400
		},
	"2019-04-16T05:00:00+02:00" : {
		"windSpeed" : 2.4,
		"windDir" : 134,
		"rain" : 0,
		"cloudbase" : null,
		"flyability" : -50,
		"reason" : "orientationsUnknown",
		"timestamp" :1555387200
		},
	"2019-04-16T08:00:00+02:00" : {
		"windSpeed" : 3,
		"windDir" : 138,
		"rain" : 0,
		"cloudbase" : null,
		"flyability" : -50,
		"reason" : "orientationsUnknown",
		"timestamp" :1555398000
		},
	"2019-04-16T11:00:00+02:00" : {
		"windSpeed" : 4.4,
		"windDir" : 128,
		"rain" : 0,
		"cloudbase" : null,
		"flyability" : -50,
		"reason" : "orientationsUnknown",
		"timestamp" :1555408800
		},
	"2019-04-16T14:00:00+02:00" : {
		"windSpeed" : 4.6,
		"windDir" : 119,
		"rain" : 0,
		"cloudbase" : null,
		"flyability" : -50,
		"reason" : "orientationsUnknown",
		"timestamp" :1555419600
		},
	"2019-04-16T17:00:00+02:00" : {
		"windSpeed" : 4,
		"windDir" : 112,
		"rain" : 0,
		"cloudbase" : null,
		"flyability" : -50,
		"reason" : "orientationsUnknown",
		"timestamp" :1555430400
		},
	"2019-04-16T20:00:00+02:00" : {
		"windSpeed" : 2.2,
		"windDir" : 116,
		"rain" : 0,
		"cloudbase" : null,
		"flyability" : -50,
		"reason" : "orientationsUnknown",
		"timestamp" :1555441200
		},
	"2019-04-16T23:00:00+02:00" : {
		"windSpeed" : 2.7,
		"windDir" : 111,
		"rain" : 0,
		"cloudbase" : null,
		"flyability" : -50,
		"reason" : "orientationsUnknown",
		"timestamp" :1555452000
		},
	"2019-04-17T02:00:00+02:00" : {
		"windSpeed" : 2.6,
		"windDir" : 130,
		"rain" : 0,
		"cloudbase" : null,
		"flyability" : -50,
		"reason" : "orientationsUnknown",
		"timestamp" :1555462800
		},
	"2019-04-17T05:00:00+02:00" : {
		"windSpeed" : 2.3,
		"windDir" : 148,
		"rain" : 0,
		"cloudbase" : null,
		"flyability" : -50,
		"reason" : "orientationsUnknown",
		"timestamp" :1555473600
		},
	"2019-04-17T08:00:00+02:00" : {
		"windSpeed" : 1.6,
		"windDir" : 153,
		"rain" : 0,
		"cloudbase" : null,
		"flyability" : -50,
		"reason" : "orientationsUnknown",
		"timestamp" :1555484400
		},
	"2019-04-17T11:00:00+02:00" : {
		"windSpeed" : 2.6,
		"windDir" : 119,
		"rain" : 0,
		"cloudbase" : null,
		"flyability" : -50,
		"reason" : "orientationsUnknown",
		"timestamp" :1555495200
		},
	"2019-04-17T14:00:00+02:00" : {
		"windSpeed" : 2.5,
		"windDir" : 101,
		"rain" : 0,
		"cloudbase" : null,
		"flyability" : -50,
		"reason" : "orientationsUnknown",
		"timestamp" :1555506000
		},
	"2019-04-17T17:00:00+02:00" : {
		"windSpeed" : 2.3,
		"windDir" : 63,
		"rain" : 0,
		"cloudbase" : 2000,
		"flyability" : -50,
		"reason" : "orientationsUnknown",
		"timestamp" :1555516800
		},
	"2019-04-17T20:00:00+02:00" : {
		"windSpeed" : 2.2,
		"windDir" : 64,
		"rain" : 0,
		"cloudbase" : 1750,
		"flyability" : -50,
		"reason" : "orientationsUnknown",
		"timestamp" :1555527600
		},
	"2019-04-17T23:00:00+02:00" : {
		"windSpeed" : 2,
		"windDir" : 82,
		"rain" : 0,
		"cloudbase" : 1378.9954,
		"flyability" : -50,
		"reason" : "orientationsUnknown",
		"timestamp" :1555538400
		},
	"2019-04-18T02:00:00+02:00" : {
		"windSpeed" : 2.1,
		"windDir" : 75,
		"rain" : 0,
		"cloudbase" : null,
		"flyability" : -50,
		"reason" : "orientationsUnknown",
		"timestamp" :1555549200
		},
	"2019-04-18T05:00:00+02:00" : {
		"windSpeed" : 1.8,
		"windDir" : 80,
		"rain" : 0,
		"cloudbase" : null,
		"flyability" : -50,
		"reason" : "orientationsUnknown",
		"timestamp" :1555560000
		},
	"2019-04-18T08:00:00+02:00" : {
		"windSpeed" : 1.9,
		"windDir" : 66,
		"rain" : 0,
		"cloudbase" : null,
		"flyability" : -50,
		"reason" : "orientationsUnknown",
		"timestamp" :1555570800
		},
	"2019-04-18T11:00:00+02:00" : {
		"windSpeed" : 3.5,
		"windDir" : 86,
		"rain" : 0,
		"cloudbase" : 1750,
		"flyability" : -50,
		"reason" : "orientationsUnknown",
		"timestamp" :1555581600
		},
	"2019-04-18T14:00:00+02:00" : {
		"windSpeed" : 3.6,
		"windDir" : 74,
		"rain" : 0,
		"cloudbase" : null,
		"flyability" : -50,
		"reason" : "orientationsUnknown",
		"timestamp" :1555592400
		},
	"2019-04-18T17:00:00+02:00" : {
		"windSpeed" : 4.4,
		"windDir" : 73,
		"rain" : 0,
		"cloudbase" : null,
		"flyability" : -50,
		"reason" : "orientationsUnknown",
		"timestamp" :1555603200
		},
	"2019-04-18T20:00:00+02:00" : {
		"windSpeed" : 3,
		"windDir" : 55,
		"rain" : 0,
		"cloudbase" : null,
		"flyability" : -50,
		"reason" : "orientationsUnknown",
		"timestamp" :1555614000
		},
	"2019-04-18T23:00:00+02:00" : {
		"windSpeed" : 2.1,
		"windDir" : 75,
		"rain" : 0,
		"cloudbase" : null,
		"flyability" : -50,
		"reason" : "orientationsUnknown",
		"timestamp" :1555624800
		},
	"2019-04-19T02:00:00+02:00" : {
		"windSpeed" : 1.6,
		"windDir" : 70,
		"rain" : 0,
		"cloudbase" : null,
		"flyability" : -50,
		"reason" : "orientationsUnknown",
		"timestamp" :1555635600
		},
	"2019-04-19T05:00:00+02:00" : {
		"windSpeed" : 2,
		"windDir" : 81,
		"rain" : 0,
		"cloudbase" : null,
		"flyability" : -50,
		"reason" : "orientationsUnknown",
		"timestamp" :1555646400
		},
	"2019-04-19T08:00:00+02:00" : {
		"windSpeed" : 1.4,
		"windDir" : 135,
		"rain" : 0,
		"cloudbase" : null,
		"flyability" : -50,
		"reason" : "orientationsUnknown",
		"timestamp" :1555657200
		},
	"2019-04-19T11:00:00+02:00" : {
		"windSpeed" : 2,
		"windDir" : 97,
		"rain" : 0,
		"cloudbase" : null,
		"flyability" : -50,
		"reason" : "orientationsUnknown",
		"timestamp" :1555668000
		},
	"2019-04-19T14:00:00+02:00" : {
		"windSpeed" : 2.4,
		"windDir" : 58,
		"rain" : 0,
		"cloudbase" : null,
		"flyability" : -50,
		"reason" : "orientationsUnknown",
		"timestamp" :1555678800
		},
	"2019-04-19T17:00:00+02:00" : {
		"windSpeed" : 2.5,
		"windDir" : 53,
		"rain" : 0,
		"cloudbase" : null,
		"flyability" : -50,
		"reason" : "orientationsUnknown",
		"timestamp" :1555689600
		},
	"2019-04-19T20:00:00+02:00" : {
		"windSpeed" : 1.9,
		"windDir" : 40,
		"rain" : 0,
		"cloudbase" : null,
		"flyability" : -50,
		"reason" : "orientationsUnknown",
		"timestamp" :1555700400
		},
	"2019-04-19T23:00:00+02:00" : {
		"windSpeed" : 1.8,
		"windDir" : 73,
		"rain" : 0,
		"cloudbase" : null,
		"flyability" : -50,
		"reason" : "orientationsUnknown",
		"timestamp" :1555711200
		},
	"2019-04-20T02:00:00+02:00" : {
		"windSpeed" : 1.2,
		"windDir" : 143,
		"rain" : 0,
		"cloudbase" : null,
		"flyability" : -50,
		"reason" : "orientationsUnknown",
		"timestamp" :1555722000
		}
	}
}