{
"site" : "rohtang",
"id" : 12059,
"orientations" : "00000000",
"forecasts" : { 
	"2019-04-10T08:30:00+05:30" : {
		"windSpeed" : 1.2,
		"windDir" : 40,
		"rain" : 0,
		"cloudbase" : null,
		"flyability" : -50,
		"reason" : "orientationsUnknown",
		"timestamp" :1554868800
		},
	"2019-04-10T11:30:00+05:30" : {
		"windSpeed" : 1,
		"windDir" : 61,
		"rain" : 0,
		"cloudbase" : null,
		"flyability" : -50,
		"reason" : "orientationsUnknown",
		"timestamp" :1554879600
		},
	"2019-04-10T14:30:00+05:30" : {
		"windSpeed" : 0.5,
		"windDir" : 90,
		"rain" : 0,
		"cloudbase" : null,
		"flyability" : -50,
		"reason" : "orientationsUnknown",
		"timestamp" :1554890400
		},
	"2019-04-10T17:30:00+05:30" : {
		"windSpeed" : 0.7,
		"windDir" : 60,
		"rain" : 0,
		"cloudbase" : 7143.4000000001,
		"flyability" : -50,
		"reason" : "orientationsUnknown",
		"timestamp" :1554901200
		},
	"2019-04-10T20:30:00+05:30" : {
		"windSpeed" : 1.5,
		"windDir" : 34,
		"rain" : 0,
		"cloudbase" : 7600,
		"flyability" : -50,
		"reason" : "orientationsUnknown",
		"timestamp" :1554912000
		},
	"2019-04-10T23:30:00+05:30" : {
		"windSpeed" : 1.5,
		"windDir" : 35,
		"rain" : 0,
		"cloudbase" : null,
		"flyability" : -50,
		"reason" : "orientationsUnknown",
		"timestamp" :1554922800
		},
	"2019-04-11T02:30:00+05:30" : {
		"windSpeed" : 1.6,
		"windDir" : 38,
		"rain" : 0,
		"cloudbase" : null,
		"flyability" : -50,
		"reason" : "orientationsUnknown",
		"timestamp" :1554933600
		},
	"2019-04-11T05:30:00+05:30" : {
		"windSpeed" : 1.6,
		"windDir" : 38,
		"rain" : 0,
		"cloudbase" : null,
		"flyability" : -50,
		"reason" : "orientationsUnknown",
		"timestamp" :1554944400
		},
	"2019-04-11T08:30:00+05:30" : {
		"windSpeed" : 1.5,
		"windDir" : 38,
		"rain" : 0,
		"cloudbase" : null,
		"flyability" : -50,
		"reason" : "orientationsUnknown",
		"timestamp" :1554955200
		},
	"2019-04-11T11:30:00+05:30" : {
		"windSpeed" : 1.3,
		"windDir" : 49,
		"rain" : 0,
		"cloudbase" : 6299.7844,
		"flyability" : -50,
		"reason" : "orientationsUnknown",
		"timestamp" :1554966000
		},
	"2019-04-11T14:30:00+05:30" : {
		"windSpeed" : 0.5,
		"windDir" : 67,
		"rain" : 0,
		"cloudbase" : null,
		"flyability" : -50,
		"reason" : "orientationsUnknown",
		"timestamp" :1554976800
		},
	"2019-04-11T17:30:00+05:30" : {
		"windSpeed" : 0.6,
		"windDir" : 54,
		"rain" : 0,
		"cloudbase" : 7153.6578000001,
		"flyability" : -50,
		"reason" : "orientationsUnknown",
		"timestamp" :1554987600
		},
	"2019-04-11T20:30:00+05:30" : {
		"windSpeed" : 1.5,
		"windDir" : 33,
		"rain" : 0,
		"cloudbase" : 5809.0844000001,
		"flyability" : -50,
		"reason" : "orientationsUnknown",
		"timestamp" :1554998400
		},
	"2019-04-11T23:30:00+05:30" : {
		"windSpeed" : 1.5,
		"windDir" : 39,
		"rain" : 0,
		"cloudbase" : 6016.5,
		"flyability" : -50,
		"reason" : "orientationsUnknown",
		"timestamp" :1555009200
		},
	"2019-04-12T02:30:00+05:30" : {
		"windSpeed" : 1.5,
		"windDir" : 39,
		"rain" : 0,
		"cloudbase" : 4600,
		"flyability" : -50,
		"reason" : "orientationsUnknown",
		"timestamp" :1555020000
		},
	"2019-04-12T05:30:00+05:30" : {
		"windSpeed" : 1.5,
		"windDir" : 38,
		"rain" : 0,
		"cloudbase" : null,
		"flyability" : -50,
		"reason" : "orientationsUnknown",
		"timestamp" :1555030800
		},
	"2019-04-12T08:30:00+05:30" : {
		"windSpeed" : 1.4,
		"windDir" : 44,
		"rain" : 0,
		"cloudbase" : 6600,
		"flyability" : -50,
		"reason" : "orientationsUnknown",
		"timestamp" :1555041600
		},
	"2019-04-12T11:30:00+05:30" : {
		"windSpeed" : 0.7,
		"windDir" : 90,
		"rain" : 0,
		"cloudbase" : null,
		"flyability" : -50,
		"reason" : "orientationsUnknown",
		"timestamp" :1555052400
		},
	"2019-04-12T14:30:00+05:30" : {
		"windSpeed" : 0.5,
		"windDir" : 90,
		"rain" : 0,
		"cloudbase" : 1652.6422,
		"flyability" : -0,
		"reason" : "orientationsUnknown, cloudbase",
		"timestamp" :1555063200
		},
	"2019-04-12T17:30:00+05:30" : {
		"windSpeed" : 0.1,
		"windDir" : 60,
		"rain" : 0,
		"cloudbase" : 1800,
		"flyability" : -0,
		"reason" : "orientationsUnknown, cloudbase",
		"timestamp" :1555074000
		},
	"2019-04-12T20:30:00+05:30" : {
		"windSpeed" : 1.2,
		"windDir" : 38,
		"rain" : 0,
		"cloudbase" : 6100,
		"flyability" : -50,
		"reason" : "orientationsUnknown",
		"timestamp" :1555084800
		},
	"2019-04-12T23:30:00+05:30" : {
		"windSpeed" : 1.2,
		"windDir" : 38,
		"rain" : 0,
		"cloudbase" : 4677.5340000001,
		"flyability" : -50,
		"reason" : "orientationsUnknown",
		"timestamp" :1555095600
		},
	"2019-04-13T02:30:00+05:30" : {
		"windSpeed" : 1,
		"windDir" : 27,
		"rain" : 0,
		"cloudbase" : 1816.6577999998,
		"flyability" : -0,
		"reason" : "orientationsUnknown, cloudbase",
		"timestamp" :1555106400
		},
	"2019-04-13T05:30:00+05:30" : {
		"windSpeed" : 1.1,
		"windDir" : 37,
		"rain" : 0,
		"cloudbase" : 2522.3325999999,
		"flyability" : -0,
		"reason" : "orientationsUnknown, cloudbase",
		"timestamp" :1555117200
		},
	"2019-04-13T08:30:00+05:30" : {
		"windSpeed" : 0.8,
		"windDir" : 37,
		"rain" : 0,
		"cloudbase" : 1250,
		"flyability" : -0,
		"reason" : "orientationsUnknown, cloudbase",
		"timestamp" :1555128000
		},
	"2019-04-13T11:30:00+05:30" : {
		"windSpeed" : 0.5,
		"windDir" : 128,
		"rain" : 0,
		"cloudbase" : 1077.5164200001,
		"flyability" : -0,
		"reason" : "orientationsUnknown, cloudbase",
		"timestamp" :1555138800
		},
	"2019-04-13T14:30:00+05:30" : {
		"windSpeed" : 0.4,
		"windDir" : 106,
		"rain" : 0,
		"cloudbase" : 1347.8504600001,
		"flyability" : -0,
		"reason" : "orientationsUnknown, cloudbase",
		"timestamp" :1555149600
		},
	"2019-04-13T17:30:00+05:30" : {
		"windSpeed" : 0.7,
		"windDir" : 27,
		"rain" : 0,
		"cloudbase" : 1599.0252399996,
		"flyability" : -0,
		"reason" : "orientationsUnknown, cloudbase",
		"timestamp" :1555160400
		},
	"2019-04-13T20:30:00+05:30" : {
		"windSpeed" : 1,
		"windDir" : 23,
		"rain" : 0,
		"cloudbase" : 7300,
		"flyability" : -50,
		"reason" : "orientationsUnknown",
		"timestamp" :1555171200
		},
	"2019-04-13T23:30:00+05:30" : {
		"windSpeed" : 1.4,
		"windDir" : 27,
		"rain" : 0,
		"cloudbase" : 1150,
		"flyability" : -0,
		"reason" : "orientationsUnknown, cloudbase",
		"timestamp" :1555182000
		},
	"2019-04-14T02:30:00+05:30" : {
		"windSpeed" : 1.3,
		"windDir" : 21,
		"rain" : 0,
		"cloudbase" : null,
		"flyability" : -50,
		"reason" : "orientationsUnknown",
		"timestamp" :1555192800
		},
	"2019-04-14T05:30:00+05:30" : {
		"windSpeed" : 1.3,
		"windDir" : 23,
		"rain" : 0,
		"cloudbase" : 6500,
		"flyability" : -50,
		"reason" : "orientationsUnknown",
		"timestamp" :1555203600
		},
	"2019-04-14T08:30:00+05:30" : {
		"windSpeed" : 1.4,
		"windDir" : 31,
		"rain" : 0,
		"cloudbase" : null,
		"flyability" : -50,
		"reason" : "orientationsUnknown",
		"timestamp" :1555214400
		},
	"2019-04-14T11:30:00+05:30" : {
		"windSpeed" : 0.8,
		"windDir" : 51,
		"rain" : 0,
		"cloudbase" : 6641.5890000001,
		"flyability" : -50,
		"reason" : "orientationsUnknown",
		"timestamp" :1555225200
		},
	"2019-04-14T14:30:00+05:30" : {
		"windSpeed" : 0.5,
		"windDir" : 90,
		"rain" : 0,
		"cloudbase" : null,
		"flyability" : -50,
		"reason" : "orientationsUnknown",
		"timestamp" :1555236000
		},
	"2019-04-14T17:30:00+05:30" : {
		"windSpeed" : 0.4,
		"windDir" : 50,
		"rain" : 0,
		"cloudbase" : null,
		"flyability" : -50,
		"reason" : "orientationsUnknown",
		"timestamp" :1555246800
		},
	"2019-04-14T20:30:00+05:30" : {
		"windSpeed" : 1.5,
		"windDir" : 34,
		"rain" : 0,
		"cloudbase" : null,
		"flyability" : -50,
		"reason" : "orientationsUnknown",
		"timestamp" :1555257600
		},
	"2019-04-14T23:30:00+05:30" : {
		"windSpeed" : 1.5,
		"windDir" : 35,
		"rain" : 0,
		"cloudbase" : null,
		"flyability" : -50,
		"reason" : "orientationsUnknown",
		"timestamp" :1555268400
		},
	"2019-04-15T02:30:00+05:30" : {
		"windSpeed" : 1.5,
		"windDir" : 33,
		"rain" : 0,
		"cloudbase" : null,
		"flyability" : -50,
		"reason" : "orientationsUnknown",
		"timestamp" :1555279200
		},
	"2019-04-15T05:30:00+05:30" : {
		"windSpeed" : 1.5,
		"windDir" : 33,
		"rain" : 0,
		"cloudbase" : 7839.8578000001,
		"flyability" : -50,
		"reason" : "orientationsUnknown",
		"timestamp" :1555290000
		},
	"2019-04-15T08:30:00+05:30" : {
		"windSpeed" : 1.5,
		"windDir" : 39,
		"rain" : 0,
		"cloudbase" : 6749.5577999999,
		"flyability" : -50,
		"reason" : "orientationsUnknown",
		"timestamp" :1555300800
		},
	"2019-04-15T11:30:00+05:30" : {
		"windSpeed" : 0.9,
		"windDir" : 41,
		"rain" : 0,
		"cloudbase" : null,
		"flyability" : -50,
		"reason" : "orientationsUnknown",
		"timestamp" :1555311600
		},
	"2019-04-15T14:30:00+05:30" : {
		"windSpeed" : 0.3,
		"windDir" : 90,
		"rain" : 0,
		"cloudbase" : null,
		"flyability" : -50,
		"reason" : "orientationsUnknown",
		"timestamp" :1555322400
		},
	"2019-04-15T17:30:00+05:30" : {
		"windSpeed" : 0.7,
		"windDir" : 31,
		"rain" : 0,
		"cloudbase" : 7977.2,
		"flyability" : -50,
		"reason" : "orientationsUnknown",
		"timestamp" :1555333200
		},
	"2019-04-15T20:30:00+05:30" : {
		"windSpeed" : 1.5,
		"windDir" : 33,
		"rain" : 0,
		"cloudbase" : 7090.7422,
		"flyability" : -50,
		"reason" : "orientationsUnknown",
		"timestamp" :1555344000
		},
	"2019-04-15T23:30:00+05:30" : {
		"windSpeed" : 1.4,
		"windDir" : 34,
		"rain" : 0,
		"cloudbase" : 6031.2953999999,
		"flyability" : -50,
		"reason" : "orientationsUnknown",
		"timestamp" :1555354800
		},
	"2019-04-16T02:30:00+05:30" : {
		"windSpeed" : 1.4,
		"windDir" : 34,
		"rain" : 0,
		"cloudbase" : 4214.5422,
		"flyability" : -50,
		"reason" : "orientationsUnknown",
		"timestamp" :1555365600
		},
	"2019-04-16T05:30:00+05:30" : {
		"windSpeed" : 1.4,
		"windDir" : 36,
		"rain" : 0,
		"cloudbase" : null,
		"flyability" : -50,
		"reason" : "orientationsUnknown",
		"timestamp" :1555376400
		}
	}
}