{
"site" : "\u00ce \u00cf\u0081.\u00ce\u2014\u00ce\u00bb\u00ce\u00af\u00ce\u00b1\u00cf\u201a \u00ce\u00a3\u00cf\u201e\u00ce\u00b1\u00cf\u2026\u00cf\u0081\u00ce\u00bf\u00cf\u008d\u00cf\u20ac\u00ce\u00bf\u00ce\u00bb\u00ce\u00b7\u00cf\u201a",
"id" : 12332,
"orientations" : "00000000",
"forecasts" : {
	}
}