{
"site" : "Magura Branului (Predelutului)",
"id" : 12452,
"orientations" : "12000000",
"forecasts" : { 
	"2019-04-17T06:00:00+03:00" : {
		"windSpeed" : 1.6,
		"windDir" : 4,
		"rain" : 0,
		"cloudbase" : 3368.3750000004,
		"flyability" : 100,
		"reason" : "",
		"timestamp" :1555470000
		},
	"2019-04-17T09:00:00+03:00" : {
		"windSpeed" : 2.4,
		"windDir" : 357,
		"rain" : 1,
		"cloudbase" : 409.20000000003,
		"flyability" : 0,
		"reason" : "rain, cloudbase",
		"timestamp" :1555480800
		},
	"2019-04-17T12:00:00+03:00" : {
		"windSpeed" : 2.5,
		"windDir" : 350,
		"rain" : 0,
		"cloudbase" : 501.12500000005,
		"flyability" : 0,
		"reason" : "cloudbase",
		"timestamp" :1555491600
		},
	"2019-04-17T15:00:00+03:00" : {
		"windSpeed" : 3.3,
		"windDir" : 3,
		"rain" : 1,
		"cloudbase" : 428.1,
		"flyability" : 0,
		"reason" : "rain, cloudbase",
		"timestamp" :1555502400
		},
	"2019-04-17T18:00:00+03:00" : {
		"windSpeed" : 2.7,
		"windDir" : 32,
		"rain" : 1,
		"cloudbase" : 216.9,
		"flyability" : 0,
		"reason" : "rain, cloudbase",
		"timestamp" :1555513200
		},
	"2019-04-17T21:00:00+03:00" : {
		"windSpeed" : 1.4,
		"windDir" : 36,
		"rain" : 1,
		"cloudbase" : 361.94999999994,
		"flyability" : 0,
		"reason" : "rain, cloudbase",
		"timestamp" :1555524000
		},
	"2019-04-18T00:00:00+03:00" : {
		"windSpeed" : 1.2,
		"windDir" : 360,
		"rain" : 1,
		"cloudbase" : 263.32499999999,
		"flyability" : 0,
		"reason" : "rain, cloudbase",
		"timestamp" :1555534800
		},
	"2019-04-18T03:00:00+03:00" : {
		"windSpeed" : 1.7,
		"windDir" : 360,
		"rain" : 1,
		"cloudbase" : 56.899999999996,
		"flyability" : 0,
		"reason" : "rain, cloudbase",
		"timestamp" :1555545600
		},
	"2019-04-18T06:00:00+03:00" : {
		"windSpeed" : 1.4,
		"windDir" : 1,
		"rain" : 1,
		"cloudbase" : 43.01249999998,
		"flyability" : 0,
		"reason" : "rain, cloudbase",
		"timestamp" :1555556400
		},
	"2019-04-18T09:00:00+03:00" : {
		"windSpeed" : 2.1,
		"windDir" : 18,
		"rain" : 1,
		"cloudbase" : 135.4125,
		"flyability" : 0,
		"reason" : "rain, cloudbase",
		"timestamp" :1555567200
		},
	"2019-04-18T12:00:00+03:00" : {
		"windSpeed" : 3.3,
		"windDir" : 3,
		"rain" : 1,
		"cloudbase" : 253.60000000002,
		"flyability" : 0,
		"reason" : "rain, cloudbase",
		"timestamp" :1555578000
		},
	"2019-04-18T15:00:00+03:00" : {
		"windSpeed" : 3.3,
		"windDir" : 14,
		"rain" : 1,
		"cloudbase" : 246.92500000002,
		"flyability" : 0,
		"reason" : "rain, cloudbase",
		"timestamp" :1555588800
		},
	"2019-04-18T18:00:00+03:00" : {
		"windSpeed" : 3.2,
		"windDir" : 36,
		"rain" : 1,
		"cloudbase" : 577.34999999997,
		"flyability" : 0,
		"reason" : "rain, cloudbase",
		"timestamp" :1555599600
		},
	"2019-04-18T21:00:00+03:00" : {
		"windSpeed" : 0.4,
		"windDir" : 254,
		"rain" : 1,
		"cloudbase" : null,
		"flyability" : 0,
		"reason" : "windDir, rain",
		"timestamp" :1555610400
		},
	"2019-04-19T00:00:00+03:00" : {
		"windSpeed" : 1.6,
		"windDir" : 356,
		"rain" : 0,
		"cloudbase" : null,
		"flyability" : 100,
		"reason" : "",
		"timestamp" :1555621200
		},
	"2019-04-19T03:00:00+03:00" : {
		"windSpeed" : 2.1,
		"windDir" : 341,
		"rain" : 0,
		"cloudbase" : null,
		"flyability" : 100,
		"reason" : "",
		"timestamp" :1555632000
		},
	"2019-04-19T06:00:00+03:00" : {
		"windSpeed" : 1.7,
		"windDir" : 346,
		"rain" : 0,
		"cloudbase" : null,
		"flyability" : 100,
		"reason" : "",
		"timestamp" :1555642800
		},
	"2019-04-19T09:00:00+03:00" : {
		"windSpeed" : 3.1,
		"windDir" : 350,
		"rain" : 1,
		"cloudbase" : 800,
		"flyability" : 0,
		"reason" : "rain, cloudbase",
		"timestamp" :1555653600
		},
	"2019-04-19T12:00:00+03:00" : {
		"windSpeed" : 3.1,
		"windDir" : 359,
		"rain" : 1,
		"cloudbase" : 450,
		"flyability" : 0,
		"reason" : "rain, cloudbase",
		"timestamp" :1555664400
		},
	"2019-04-19T15:00:00+03:00" : {
		"windSpeed" : 4.2,
		"windDir" : 2,
		"rain" : 1,
		"cloudbase" : 1550,
		"flyability" : 0,
		"reason" : "rain",
		"timestamp" :1555675200
		},
	"2019-04-19T18:00:00+03:00" : {
		"windSpeed" : 4.1,
		"windDir" : 19,
		"rain" : 1,
		"cloudbase" : 1900,
		"flyability" : 0,
		"reason" : "rain",
		"timestamp" :1555686000
		},
	"2019-04-19T21:00:00+03:00" : {
		"windSpeed" : 1.7,
		"windDir" : 50,
		"rain" : 1,
		"cloudbase" : 1262.9999999999,
		"flyability" : 0,
		"reason" : "rain",
		"timestamp" :1555696800
		},
	"2019-04-20T00:00:00+03:00" : {
		"windSpeed" : 1.5,
		"windDir" : 29,
		"rain" : 0,
		"cloudbase" : 670.27500000003,
		"flyability" : 0,
		"reason" : "cloudbase",
		"timestamp" :1555707600
		},
	"2019-04-20T03:00:00+03:00" : {
		"windSpeed" : 0.7,
		"windDir" : 322,
		"rain" : 0,
		"cloudbase" : 100,
		"flyability" : 0,
		"reason" : "windDir, cloudbase",
		"timestamp" :1555718400
		},
	"2019-04-20T06:00:00+03:00" : {
		"windSpeed" : 1.1,
		"windDir" : 354,
		"rain" : 0,
		"cloudbase" : 270,
		"flyability" : 0,
		"reason" : "cloudbase",
		"timestamp" :1555729200
		},
	"2019-04-20T09:00:00+03:00" : {
		"windSpeed" : 3.6,
		"windDir" : 13,
		"rain" : 0,
		"cloudbase" : null,
		"flyability" : 100,
		"reason" : "",
		"timestamp" :1555740000
		},
	"2019-04-20T12:00:00+03:00" : {
		"windSpeed" : 4,
		"windDir" : 37,
		"rain" : 0,
		"cloudbase" : 949.525,
		"flyability" : 0,
		"reason" : "cloudbase",
		"timestamp" :1555750800
		},
	"2019-04-20T15:00:00+03:00" : {
		"windSpeed" : 3.8,
		"windDir" : 12,
		"rain" : 0,
		"cloudbase" : 1114.55,
		"flyability" : 0,
		"reason" : "cloudbase",
		"timestamp" :1555761600
		},
	"2019-04-20T18:00:00+03:00" : {
		"windSpeed" : 3.2,
		"windDir" : 6,
		"rain" : 0,
		"cloudbase" : 1176.75,
		"flyability" : 0,
		"reason" : "cloudbase",
		"timestamp" :1555772400
		},
	"2019-04-20T21:00:00+03:00" : {
		"windSpeed" : 0.9,
		"windDir" : 62,
		"rain" : 0,
		"cloudbase" : 1225,
		"flyability" : 0,
		"reason" : "cloudbase",
		"timestamp" :1555783200
		},
	"2019-04-21T00:00:00+03:00" : {
		"windSpeed" : 1.5,
		"windDir" : 196,
		"rain" : 0,
		"cloudbase" : null,
		"flyability" : 0,
		"reason" : "windDir",
		"timestamp" :1555794000
		},
	"2019-04-21T03:00:00+03:00" : {
		"windSpeed" : 2.7,
		"windDir" : 200,
		"rain" : 0,
		"cloudbase" : 1248.25,
		"flyability" : 0,
		"reason" : "windDir, cloudbase",
		"timestamp" :1555804800
		},
	"2019-04-21T06:00:00+03:00" : {
		"windSpeed" : 2.1,
		"windDir" : 206,
		"rain" : 0,
		"cloudbase" : 2653.8749999993,
		"flyability" : 0,
		"reason" : "windDir",
		"timestamp" :1555815600
		},
	"2019-04-21T09:00:00+03:00" : {
		"windSpeed" : 0.8,
		"windDir" : 207,
		"rain" : 0,
		"cloudbase" : 4460.125,
		"flyability" : 0,
		"reason" : "windDir",
		"timestamp" :1555826400
		},
	"2019-04-21T12:00:00+03:00" : {
		"windSpeed" : 2.4,
		"windDir" : 10,
		"rain" : 1,
		"cloudbase" : 1975.1249999996,
		"flyability" : 0,
		"reason" : "rain",
		"timestamp" :1555837200
		},
	"2019-04-21T15:00:00+03:00" : {
		"windSpeed" : 2.7,
		"windDir" : 350,
		"rain" : 1,
		"cloudbase" : 1950,
		"flyability" : 0,
		"reason" : "rain",
		"timestamp" :1555848000
		},
	"2019-04-21T18:00:00+03:00" : {
		"windSpeed" : 1.2,
		"windDir" : 62,
		"rain" : 1,
		"cloudbase" : 1524.0000000002,
		"flyability" : 0,
		"reason" : "rain",
		"timestamp" :1555858800
		},
	"2019-04-21T21:00:00+03:00" : {
		"windSpeed" : 1,
		"windDir" : 190,
		"rain" : 1,
		"cloudbase" : 4976.1249999999,
		"flyability" : 0,
		"reason" : "windDir, rain",
		"timestamp" :1555869600
		},
	"2019-04-22T00:00:00+03:00" : {
		"windSpeed" : 2,
		"windDir" : 195,
		"rain" : 0,
		"cloudbase" : null,
		"flyability" : 0,
		"reason" : "windDir",
		"timestamp" :1555880400
		},
	"2019-04-22T03:00:00+03:00" : {
		"windSpeed" : 2.6,
		"windDir" : 192,
		"rain" : 0,
		"cloudbase" : 5500,
		"flyability" : 0,
		"reason" : "windDir",
		"timestamp" :1555891200
		},
	"2019-04-22T06:00:00+03:00" : {
		"windSpeed" : 2.4,
		"windDir" : 190,
		"rain" : 0,
		"cloudbase" : null,
		"flyability" : 0,
		"reason" : "windDir",
		"timestamp" :1555902000
		},
	"2019-04-22T09:00:00+03:00" : {
		"windSpeed" : 2.8,
		"windDir" : 192,
		"rain" : 0,
		"cloudbase" : 5030.1249999998,
		"flyability" : 0,
		"reason" : "windDir",
		"timestamp" :1555912800
		},
	"2019-04-22T12:00:00+03:00" : {
		"windSpeed" : 2.9,
		"windDir" : 186,
		"rain" : 1,
		"cloudbase" : 1000,
		"flyability" : 0,
		"reason" : "windDir, rain, cloudbase",
		"timestamp" :1555923600
		},
	"2019-04-22T15:00:00+03:00" : {
		"windSpeed" : 2.9,
		"windDir" : 176,
		"rain" : 1,
		"cloudbase" : 1350,
		"flyability" : 0,
		"reason" : "windDir, rain",
		"timestamp" :1555934400
		},
	"2019-04-22T18:00:00+03:00" : {
		"windSpeed" : 2.2,
		"windDir" : 155,
		"rain" : 0,
		"cloudbase" : 1154.125,
		"flyability" : 0,
		"reason" : "windDir, cloudbase",
		"timestamp" :1555945200
		},
	"2019-04-22T21:00:00+03:00" : {
		"windSpeed" : 1.6,
		"windDir" : 187,
		"rain" : 0,
		"cloudbase" : 1400,
		"flyability" : 0,
		"reason" : "windDir",
		"timestamp" :1555956000
		},
	"2019-04-23T00:00:00+03:00" : {
		"windSpeed" : 2.1,
		"windDir" : 204,
		"rain" : 0,
		"cloudbase" : null,
		"flyability" : 0,
		"reason" : "windDir",
		"timestamp" :1555966800
		},
	"2019-04-23T03:00:00+03:00" : {
		"windSpeed" : 2,
		"windDir" : 203,
		"rain" : 0,
		"cloudbase" : null,
		"flyability" : 0,
		"reason" : "windDir",
		"timestamp" :1555977600
		}
	}
}