{
"site" : "Monte Ragola",
"id" : 12523,
"orientations" : "00022200",
"forecasts" : { 
	"2019-04-20T17:00:00+02:00" : {
		"windSpeed" : 4.3,
		"windDir" : 68,
		"rain" : 0,
		"cloudbase" : null,
		"flyability" : 0,
		"reason" : "windDir",
		"timestamp" :1555776000
		},
	"2019-04-20T20:00:00+02:00" : {
		"windSpeed" : 1.7,
		"windDir" : 49,
		"rain" : 0,
		"cloudbase" : 7785.42936,
		"flyability" : 0,
		"reason" : "windDir",
		"timestamp" :1555786800
		},
	"2019-04-20T23:00:00+02:00" : {
		"windSpeed" : 1.6,
		"windDir" : 37,
		"rain" : 0,
		"cloudbase" : 6742.18,
		"flyability" : 0,
		"reason" : "windDir",
		"timestamp" :1555797600
		},
	"2019-04-21T02:00:00+02:00" : {
		"windSpeed" : 1.9,
		"windDir" : 49,
		"rain" : 0,
		"cloudbase" : 6659.9265999999,
		"flyability" : 0,
		"reason" : "windDir",
		"timestamp" :1555808400
		},
	"2019-04-21T05:00:00+02:00" : {
		"windSpeed" : 1.2,
		"windDir" : 75,
		"rain" : 0,
		"cloudbase" : 7072.86276,
		"flyability" : 0,
		"reason" : "windDir",
		"timestamp" :1555819200
		},
	"2019-04-21T08:00:00+02:00" : {
		"windSpeed" : 0.9,
		"windDir" : 50,
		"rain" : 0,
		"cloudbase" : 5000.67,
		"flyability" : 0,
		"reason" : "windDir",
		"timestamp" :1555830000
		},
	"2019-04-21T11:00:00+02:00" : {
		"windSpeed" : 2.4,
		"windDir" : 87,
		"rain" : 0,
		"cloudbase" : 4236.39798,
		"flyability" : 0,
		"reason" : "windDir",
		"timestamp" :1555840800
		},
	"2019-04-21T14:00:00+02:00" : {
		"windSpeed" : 2.7,
		"windDir" : 66,
		"rain" : 0,
		"cloudbase" : 3801.34,
		"flyability" : 0,
		"reason" : "windDir",
		"timestamp" :1555851600
		},
	"2019-04-21T17:00:00+02:00" : {
		"windSpeed" : 2.7,
		"windDir" : 64,
		"rain" : 0,
		"cloudbase" : 3168.36532,
		"flyability" : 0,
		"reason" : "windDir",
		"timestamp" :1555862400
		},
	"2019-04-21T20:00:00+02:00" : {
		"windSpeed" : 1.5,
		"windDir" : 32,
		"rain" : 0,
		"cloudbase" : 3355.31468,
		"flyability" : 0,
		"reason" : "windDir",
		"timestamp" :1555873200
		},
	"2019-04-21T23:00:00+02:00" : {
		"windSpeed" : 1.3,
		"windDir" : 49,
		"rain" : 0,
		"cloudbase" : 3505.29798,
		"flyability" : 0,
		"reason" : "windDir",
		"timestamp" :1555884000
		},
	"2019-04-22T02:00:00+02:00" : {
		"windSpeed" : 1.5,
		"windDir" : 57,
		"rain" : 0,
		"cloudbase" : 3100,
		"flyability" : 0,
		"reason" : "windDir",
		"timestamp" :1555894800
		},
	"2019-04-22T05:00:00+02:00" : {
		"windSpeed" : 1.2,
		"windDir" : 43,
		"rain" : 0,
		"cloudbase" : 4691.8198999999,
		"flyability" : 0,
		"reason" : "windDir",
		"timestamp" :1555905600
		},
	"2019-04-22T08:00:00+02:00" : {
		"windSpeed" : 2.8,
		"windDir" : 40,
		"rain" : 1,
		"cloudbase" : 4751.9525600003,
		"flyability" : 0,
		"reason" : "windDir, rain",
		"timestamp" :1555916400
		},
	"2019-04-22T11:00:00+02:00" : {
		"windSpeed" : 4.3,
		"windDir" : 60,
		"rain" : 0,
		"cloudbase" : 478.92464800002,
		"flyability" : 0,
		"reason" : "windDir, cloudbase",
		"timestamp" :1555927200
		},
	"2019-04-22T14:00:00+02:00" : {
		"windSpeed" : 5.3,
		"windDir" : 71,
		"rain" : 1,
		"cloudbase" : 1042.689488,
		"flyability" : 0,
		"reason" : "windSpeed, windDir, rain, cloudbase",
		"timestamp" :1555938000
		},
	"2019-04-22T17:00:00+02:00" : {
		"windSpeed" : 5.3,
		"windDir" : 66,
		"rain" : 0,
		"cloudbase" : 2347.8247799999,
		"flyability" : 0,
		"reason" : "windSpeed, windDir",
		"timestamp" :1555948800
		},
	"2019-04-22T20:00:00+02:00" : {
		"windSpeed" : 3.8,
		"windDir" : 65,
		"rain" : 0,
		"cloudbase" : 820.08401200001,
		"flyability" : 0,
		"reason" : "windDir, cloudbase",
		"timestamp" :1555959600
		},
	"2019-04-22T23:00:00+02:00" : {
		"windSpeed" : 2.6,
		"windDir" : 59,
		"rain" : 1,
		"cloudbase" : 58.809862,
		"flyability" : 0,
		"reason" : "windDir, rain, cloudbase",
		"timestamp" :1555970400
		},
	"2019-04-23T02:00:00+02:00" : {
		"windSpeed" : 2.1,
		"windDir" : 57,
		"rain" : 1,
		"cloudbase" : 209.94740400001,
		"flyability" : 0,
		"reason" : "windDir, rain, cloudbase",
		"timestamp" :1555981200
		},
	"2019-04-23T05:00:00+02:00" : {
		"windSpeed" : 1.6,
		"windDir" : 42,
		"rain" : 1,
		"cloudbase" : 35.828256,
		"flyability" : 0,
		"reason" : "windDir, rain, cloudbase",
		"timestamp" :1555992000
		},
	"2019-04-23T08:00:00+02:00" : {
		"windSpeed" : 1.7,
		"windDir" : 63,
		"rain" : 1,
		"cloudbase" : 56.955684000002,
		"flyability" : 0,
		"reason" : "windDir, rain, cloudbase",
		"timestamp" :1556002800
		},
	"2019-04-23T11:00:00+02:00" : {
		"windSpeed" : 2.1,
		"windDir" : 73,
		"rain" : 1,
		"cloudbase" : 343.99444400004,
		"flyability" : 0,
		"reason" : "windDir, rain, cloudbase",
		"timestamp" :1556013600
		},
	"2019-04-23T14:00:00+02:00" : {
		"windSpeed" : 2.1,
		"windDir" : 76,
		"rain" : 1,
		"cloudbase" : 414.81206000001,
		"flyability" : 0,
		"reason" : "windDir, rain, cloudbase",
		"timestamp" :1556024400
		},
	"2019-04-23T17:00:00+02:00" : {
		"windSpeed" : 1.9,
		"windDir" : 84,
		"rain" : 1,
		"cloudbase" : 34.251743999998,
		"flyability" : 0,
		"reason" : "windDir, rain, cloudbase",
		"timestamp" :1556035200
		},
	"2019-04-23T20:00:00+02:00" : {
		"windSpeed" : 2.1,
		"windDir" : 166,
		"rain" : 1,
		"cloudbase" : 57.312798000001,
		"flyability" : 0,
		"reason" : "rain, cloudbase",
		"timestamp" :1556046000
		},
	"2019-04-23T23:00:00+02:00" : {
		"windSpeed" : 2.9,
		"windDir" : 165,
		"rain" : 1,
		"cloudbase" : 128.38306399999,
		"flyability" : 0,
		"reason" : "rain, cloudbase",
		"timestamp" :1556056800
		},
	"2019-04-24T02:00:00+02:00" : {
		"windSpeed" : 3.4,
		"windDir" : 181,
		"rain" : 1,
		"cloudbase" : 75.504999999997,
		"flyability" : 0,
		"reason" : "rain, cloudbase",
		"timestamp" :1556067600
		},
	"2019-04-24T05:00:00+02:00" : {
		"windSpeed" : 3.5,
		"windDir" : 197,
		"rain" : 1,
		"cloudbase" : 83.392659999995,
		"flyability" : 0,
		"reason" : "rain, cloudbase",
		"timestamp" :1556078400
		},
	"2019-04-24T08:00:00+02:00" : {
		"windSpeed" : 3.1,
		"windDir" : 195,
		"rain" : 1,
		"cloudbase" : 1307.8110279996,
		"flyability" : 0,
		"reason" : "rain, cloudbase",
		"timestamp" :1556089200
		},
	"2019-04-24T11:00:00+02:00" : {
		"windSpeed" : 2.9,
		"windDir" : 191,
		"rain" : 1,
		"cloudbase" : 8103.09016,
		"flyability" : 0,
		"reason" : "rain",
		"timestamp" :1556100000
		},
	"2019-04-24T14:00:00+02:00" : {
		"windSpeed" : 3.5,
		"windDir" : 181,
		"rain" : 0,
		"cloudbase" : 7187.4,
		"flyability" : 100,
		"reason" : "",
		"timestamp" :1556110800
		},
	"2019-04-24T17:00:00+02:00" : {
		"windSpeed" : 3.3,
		"windDir" : 153,
		"rain" : 1,
		"cloudbase" : 6400,
		"flyability" : 0,
		"reason" : "rain",
		"timestamp" :1556121600
		},
	"2019-04-24T20:00:00+02:00" : {
		"windSpeed" : 1.7,
		"windDir" : 117,
		"rain" : 1,
		"cloudbase" : null,
		"flyability" : 0,
		"reason" : "rain",
		"timestamp" :1556132400
		},
	"2019-04-24T23:00:00+02:00" : {
		"windSpeed" : 2.5,
		"windDir" : 162,
		"rain" : 1,
		"cloudbase" : 3137.1985199999,
		"flyability" : 0,
		"reason" : "rain",
		"timestamp" :1556143200
		},
	"2019-04-25T02:00:00+02:00" : {
		"windSpeed" : 3.9,
		"windDir" : 188,
		"rain" : 1,
		"cloudbase" : 255.361872,
		"flyability" : 0,
		"reason" : "rain, cloudbase",
		"timestamp" :1556154000
		},
	"2019-04-25T05:00:00+02:00" : {
		"windSpeed" : 4.8,
		"windDir" : 200,
		"rain" : 1,
		"cloudbase" : 99.467457999989,
		"flyability" : 0,
		"reason" : "rain, cloudbase",
		"timestamp" :1556164800
		},
	"2019-04-25T08:00:00+02:00" : {
		"windSpeed" : 4.8,
		"windDir" : 202,
		"rain" : 1,
		"cloudbase" : 206.27746799999,
		"flyability" : 0,
		"reason" : "rain, cloudbase",
		"timestamp" :1556175600
		},
	"2019-04-25T11:00:00+02:00" : {
		"windSpeed" : 4.9,
		"windDir" : 204,
		"rain" : 1,
		"cloudbase" : 680,
		"flyability" : 0,
		"reason" : "rain, cloudbase",
		"timestamp" :1556186400
		},
	"2019-04-25T14:00:00+02:00" : {
		"windSpeed" : 4.7,
		"windDir" : 199,
		"rain" : 1,
		"cloudbase" : null,
		"flyability" : 0,
		"reason" : "rain",
		"timestamp" :1556197200
		},
	"2019-04-25T17:00:00+02:00" : {
		"windSpeed" : 4,
		"windDir" : 195,
		"rain" : 1,
		"cloudbase" : 5728.2878799996,
		"flyability" : 0,
		"reason" : "rain",
		"timestamp" :1556208000
		},
	"2019-04-25T20:00:00+02:00" : {
		"windSpeed" : 1.8,
		"windDir" : 182,
		"rain" : 1,
		"cloudbase" : 7000,
		"flyability" : 0,
		"reason" : "rain",
		"timestamp" :1556218800
		},
	"2019-04-25T23:00:00+02:00" : {
		"windSpeed" : 2.7,
		"windDir" : 190,
		"rain" : 0,
		"cloudbase" : 8114.57064,
		"flyability" : 100,
		"reason" : "",
		"timestamp" :1556229600
		},
	"2019-04-26T02:00:00+02:00" : {
		"windSpeed" : 3.6,
		"windDir" : 191,
		"rain" : 0,
		"cloudbase" : null,
		"flyability" : 100,
		"reason" : "",
		"timestamp" :1556240400
		},
	"2019-04-26T05:00:00+02:00" : {
		"windSpeed" : 2.7,
		"windDir" : 195,
		"rain" : 1,
		"cloudbase" : 1417.38,
		"flyability" : 0,
		"reason" : "rain, cloudbase",
		"timestamp" :1556251200
		},
	"2019-04-26T08:00:00+02:00" : {
		"windSpeed" : 3.8,
		"windDir" : 181,
		"rain" : 1,
		"cloudbase" : 324.22955599996,
		"flyability" : 0,
		"reason" : "rain, cloudbase",
		"timestamp" :1556262000
		},
	"2019-04-26T11:00:00+02:00" : {
		"windSpeed" : 4.1,
		"windDir" : 174,
		"rain" : 1,
		"cloudbase" : 218.37739799994,
		"flyability" : 0,
		"reason" : "rain, cloudbase",
		"timestamp" :1556272800
		},
	"2019-04-26T14:00:00+02:00" : {
		"windSpeed" : 4.8,
		"windDir" : 213,
		"rain" : 1,
		"cloudbase" : 33.64266,
		"flyability" : 0,
		"reason" : "rain, cloudbase",
		"timestamp" :1556283600
		}
	}
}