{
"site" : "Sugar Loaf",
"id" : 12615,
"orientations" : "00000000",
"forecasts" : { 
	"2019-04-14T11:00:00-04:00" : {
		"windSpeed" : 2.3,
		"windDir" : 64,
		"rain" : 0,
		"cloudbase" : 2738.87575,
		"flyability" : -50,
		"reason" : "orientationsUnknown",
		"timestamp" :1555257600
		},
	"2019-04-14T14:00:00-04:00" : {
		"windSpeed" : 2.3,
		"windDir" : 66,
		"rain" : 0,
		"cloudbase" : 3852.9742499999,
		"flyability" : -50,
		"reason" : "orientationsUnknown",
		"timestamp" :1555268400
		},
	"2019-04-14T17:00:00-04:00" : {
		"windSpeed" : 2.4,
		"windDir" : 5,
		"rain" : 1,
		"cloudbase" : 1497.4,
		"flyability" : -0,
		"reason" : "orientationsUnknown, rain",
		"timestamp" :1555279200
		},
	"2019-04-14T20:00:00-04:00" : {
		"windSpeed" : 2.4,
		"windDir" : 354,
		"rain" : 1,
		"cloudbase" : 856.82969999999,
		"flyability" : -0,
		"reason" : "orientationsUnknown, rain",
		"timestamp" :1555290000
		},
	"2019-04-14T23:00:00-04:00" : {
		"windSpeed" : 1.6,
		"windDir" : 347,
		"rain" : 1,
		"cloudbase" : 311.99999999997,
		"flyability" : -0,
		"reason" : "orientationsUnknown, rain, cloudbase",
		"timestamp" :1555300800
		},
	"2019-04-15T02:00:00-04:00" : {
		"windSpeed" : 2,
		"windDir" : 150,
		"rain" : 1,
		"cloudbase" : 33.187524999999,
		"flyability" : -0,
		"reason" : "orientationsUnknown, rain, cloudbase",
		"timestamp" :1555311600
		},
	"2019-04-15T05:00:00-04:00" : {
		"windSpeed" : 4.5,
		"windDir" : 190,
		"rain" : 0,
		"cloudbase" : 40.284950000001,
		"flyability" : -0,
		"reason" : "orientationsUnknown, cloudbase",
		"timestamp" :1555322400
		},
	"2019-04-15T08:00:00-04:00" : {
		"windSpeed" : 3.2,
		"windDir" : 198,
		"rain" : 0,
		"cloudbase" : 6800,
		"flyability" : -50,
		"reason" : "orientationsUnknown",
		"timestamp" :1555333200
		},
	"2019-04-15T11:00:00-04:00" : {
		"windSpeed" : 5.2,
		"windDir" : 265,
		"rain" : 0,
		"cloudbase" : 1365.9995,
		"flyability" : -0,
		"reason" : "windSpeed, orientationsUnknown",
		"timestamp" :1555344000
		},
	"2019-04-15T14:00:00-04:00" : {
		"windSpeed" : 6.4,
		"windDir" : 273,
		"rain" : 0,
		"cloudbase" : 1802.02475,
		"flyability" : -0,
		"reason" : "windSpeed, orientationsUnknown",
		"timestamp" :1555354800
		},
	"2019-04-15T17:00:00-04:00" : {
		"windSpeed" : 6.3,
		"windDir" : 293,
		"rain" : 0,
		"cloudbase" : 857.77999999998,
		"flyability" : -0,
		"reason" : "windSpeed, orientationsUnknown",
		"timestamp" :1555365600
		},
	"2019-04-15T20:00:00-04:00" : {
		"windSpeed" : 6.9,
		"windDir" : 305,
		"rain" : 0,
		"cloudbase" : 732.03919999999,
		"flyability" : -0,
		"reason" : "windSpeed, orientationsUnknown",
		"timestamp" :1555376400
		},
	"2019-04-15T23:00:00-04:00" : {
		"windSpeed" : 6.1,
		"windDir" : 310,
		"rain" : 0,
		"cloudbase" : 1000,
		"flyability" : -0,
		"reason" : "windSpeed, orientationsUnknown",
		"timestamp" :1555387200
		},
	"2019-04-16T02:00:00-04:00" : {
		"windSpeed" : 5.5,
		"windDir" : 303,
		"rain" : 0,
		"cloudbase" : 1000,
		"flyability" : -0,
		"reason" : "windSpeed, orientationsUnknown",
		"timestamp" :1555398000
		},
	"2019-04-16T05:00:00-04:00" : {
		"windSpeed" : 6.4,
		"windDir" : 298,
		"rain" : 0,
		"cloudbase" : null,
		"flyability" : -0,
		"reason" : "windSpeed, orientationsUnknown",
		"timestamp" :1555408800
		},
	"2019-04-16T08:00:00-04:00" : {
		"windSpeed" : 5.8,
		"windDir" : 295,
		"rain" : 0,
		"cloudbase" : null,
		"flyability" : -0,
		"reason" : "windSpeed, orientationsUnknown",
		"timestamp" :1555419600
		},
	"2019-04-16T11:00:00-04:00" : {
		"windSpeed" : 7,
		"windDir" : 299,
		"rain" : 0,
		"cloudbase" : null,
		"flyability" : -0,
		"reason" : "windSpeed, orientationsUnknown",
		"timestamp" :1555430400
		},
	"2019-04-16T14:00:00-04:00" : {
		"windSpeed" : 7.4,
		"windDir" : 297,
		"rain" : 0,
		"cloudbase" : null,
		"flyability" : -0,
		"reason" : "windSpeed, orientationsUnknown",
		"timestamp" :1555441200
		},
	"2019-04-16T17:00:00-04:00" : {
		"windSpeed" : 7.1,
		"windDir" : 300,
		"rain" : 0,
		"cloudbase" : null,
		"flyability" : -0,
		"reason" : "windSpeed, orientationsUnknown",
		"timestamp" :1555452000
		},
	"2019-04-16T20:00:00-04:00" : {
		"windSpeed" : 4.6,
		"windDir" : 293,
		"rain" : 0,
		"cloudbase" : null,
		"flyability" : -50,
		"reason" : "orientationsUnknown",
		"timestamp" :1555462800
		},
	"2019-04-16T23:00:00-04:00" : {
		"windSpeed" : 3.7,
		"windDir" : 335,
		"rain" : 0,
		"cloudbase" : null,
		"flyability" : -50,
		"reason" : "orientationsUnknown",
		"timestamp" :1555473600
		},
	"2019-04-17T02:00:00-04:00" : {
		"windSpeed" : 3.2,
		"windDir" : 290,
		"rain" : 0,
		"cloudbase" : null,
		"flyability" : -50,
		"reason" : "orientationsUnknown",
		"timestamp" :1555484400
		},
	"2019-04-17T05:00:00-04:00" : {
		"windSpeed" : 3.2,
		"windDir" : 308,
		"rain" : 0,
		"cloudbase" : null,
		"flyability" : -50,
		"reason" : "orientationsUnknown",
		"timestamp" :1555495200
		},
	"2019-04-17T08:00:00-04:00" : {
		"windSpeed" : 2.9,
		"windDir" : 316,
		"rain" : 0,
		"cloudbase" : null,
		"flyability" : -50,
		"reason" : "orientationsUnknown",
		"timestamp" :1555506000
		},
	"2019-04-17T11:00:00-04:00" : {
		"windSpeed" : 2.7,
		"windDir" : 1,
		"rain" : 0,
		"cloudbase" : null,
		"flyability" : -50,
		"reason" : "orientationsUnknown",
		"timestamp" :1555516800
		},
	"2019-04-17T14:00:00-04:00" : {
		"windSpeed" : 1.6,
		"windDir" : 13,
		"rain" : 0,
		"cloudbase" : null,
		"flyability" : -50,
		"reason" : "orientationsUnknown",
		"timestamp" :1555527600
		},
	"2019-04-17T17:00:00-04:00" : {
		"windSpeed" : 2.1,
		"windDir" : 57,
		"rain" : 1,
		"cloudbase" : null,
		"flyability" : -0,
		"reason" : "orientationsUnknown, rain",
		"timestamp" :1555538400
		},
	"2019-04-17T20:00:00-04:00" : {
		"windSpeed" : 1.4,
		"windDir" : 52,
		"rain" : 0,
		"cloudbase" : null,
		"flyability" : -50,
		"reason" : "orientationsUnknown",
		"timestamp" :1555549200
		},
	"2019-04-17T23:00:00-04:00" : {
		"windSpeed" : 2,
		"windDir" : 337,
		"rain" : 0,
		"cloudbase" : null,
		"flyability" : -50,
		"reason" : "orientationsUnknown",
		"timestamp" :1555560000
		},
	"2019-04-18T02:00:00-04:00" : {
		"windSpeed" : 1.2,
		"windDir" : 336,
		"rain" : 0,
		"cloudbase" : null,
		"flyability" : -50,
		"reason" : "orientationsUnknown",
		"timestamp" :1555570800
		},
	"2019-04-18T05:00:00-04:00" : {
		"windSpeed" : 0.3,
		"windDir" : 214,
		"rain" : 0,
		"cloudbase" : 4920.4,
		"flyability" : -50,
		"reason" : "orientationsUnknown",
		"timestamp" :1555581600
		},
	"2019-04-18T08:00:00-04:00" : {
		"windSpeed" : 2.6,
		"windDir" : 171,
		"rain" : 0,
		"cloudbase" : 2755.22425,
		"flyability" : -50,
		"reason" : "orientationsUnknown",
		"timestamp" :1555592400
		},
	"2019-04-18T11:00:00-04:00" : {
		"windSpeed" : 3.2,
		"windDir" : 165,
		"rain" : 0,
		"cloudbase" : 1780.45,
		"flyability" : -50,
		"reason" : "orientationsUnknown",
		"timestamp" :1555603200
		},
	"2019-04-18T14:00:00-04:00" : {
		"windSpeed" : 6.2,
		"windDir" : 172,
		"rain" : 0,
		"cloudbase" : 1050,
		"flyability" : -0,
		"reason" : "windSpeed, orientationsUnknown",
		"timestamp" :1555614000
		},
	"2019-04-18T17:00:00-04:00" : {
		"windSpeed" : 5.5,
		"windDir" : 175,
		"rain" : 0,
		"cloudbase" : 1322.27475,
		"flyability" : -0,
		"reason" : "windSpeed, orientationsUnknown",
		"timestamp" :1555624800
		},
	"2019-04-18T20:00:00-04:00" : {
		"windSpeed" : 5.9,
		"windDir" : 176,
		"rain" : 1,
		"cloudbase" : 1118.72525,
		"flyability" : -0,
		"reason" : "windSpeed, orientationsUnknown, rain",
		"timestamp" :1555635600
		},
	"2019-04-18T23:00:00-04:00" : {
		"windSpeed" : 5.4,
		"windDir" : 179,
		"rain" : 0,
		"cloudbase" : 812.41979999998,
		"flyability" : -0,
		"reason" : "windSpeed, orientationsUnknown",
		"timestamp" :1555646400
		},
	"2019-04-19T02:00:00-04:00" : {
		"windSpeed" : 5.5,
		"windDir" : 176,
		"rain" : 0,
		"cloudbase" : 496.81999999998,
		"flyability" : -0,
		"reason" : "windSpeed, orientationsUnknown",
		"timestamp" :1555657200
		},
	"2019-04-19T05:00:00-04:00" : {
		"windSpeed" : 4.9,
		"windDir" : 176,
		"rain" : 1,
		"cloudbase" : 276.11494999998,
		"flyability" : -0,
		"reason" : "orientationsUnknown, rain, cloudbase",
		"timestamp" :1555668000
		},
	"2019-04-19T08:00:00-04:00" : {
		"windSpeed" : 5,
		"windDir" : 170,
		"rain" : 0,
		"cloudbase" : 85.60499999999,
		"flyability" : -0,
		"reason" : "orientationsUnknown, cloudbase",
		"timestamp" :1555678800
		},
	"2019-04-19T11:00:00-04:00" : {
		"windSpeed" : 5.7,
		"windDir" : 166,
		"rain" : 1,
		"cloudbase" : 196.27485,
		"flyability" : -0,
		"reason" : "windSpeed, orientationsUnknown, rain, cloudbase",
		"timestamp" :1555689600
		},
	"2019-04-19T14:00:00-04:00" : {
		"windSpeed" : 6.6,
		"windDir" : 177,
		"rain" : 1,
		"cloudbase" : 960.94384999997,
		"flyability" : -0,
		"reason" : "windSpeed, orientationsUnknown, rain",
		"timestamp" :1555700400
		},
	"2019-04-19T17:00:00-04:00" : {
		"windSpeed" : 6.1,
		"windDir" : 171,
		"rain" : 0,
		"cloudbase" : 455.36524999998,
		"flyability" : -0,
		"reason" : "windSpeed, orientationsUnknown",
		"timestamp" :1555711200
		},
	"2019-04-19T20:00:00-04:00" : {
		"windSpeed" : 6.5,
		"windDir" : 167,
		"rain" : 1,
		"cloudbase" : 328.86484999998,
		"flyability" : -0,
		"reason" : "windSpeed, orientationsUnknown, rain, cloudbase",
		"timestamp" :1555722000
		},
	"2019-04-19T23:00:00-04:00" : {
		"windSpeed" : 6.5,
		"windDir" : 167,
		"rain" : 1,
		"cloudbase" : 187.55989999999,
		"flyability" : -0,
		"reason" : "windSpeed, orientationsUnknown, rain, cloudbase",
		"timestamp" :1555732800
		},
	"2019-04-20T02:00:00-04:00" : {
		"windSpeed" : 6.3,
		"windDir" : 163,
		"rain" : 1,
		"cloudbase" : 158.21969999999,
		"flyability" : -0,
		"reason" : "windSpeed, orientationsUnknown, rain, cloudbase",
		"timestamp" :1555743600
		},
	"2019-04-20T05:00:00-04:00" : {
		"windSpeed" : 5.5,
		"windDir" : 165,
		"rain" : 1,
		"cloudbase" : 138.0097,
		"flyability" : -0,
		"reason" : "windSpeed, orientationsUnknown, rain, cloudbase",
		"timestamp" :1555754400
		},
	"2019-04-20T08:00:00-04:00" : {
		"windSpeed" : 4.7,
		"windDir" : 165,
		"rain" : 1,
		"cloudbase" : 221.9396,
		"flyability" : -0,
		"reason" : "orientationsUnknown, rain, cloudbase",
		"timestamp" :1555765200
		}
	}
}