{
"site" : "Rolante (RS)",
"id" : 12617,
"orientations" : "00222222",
"forecasts" : { 
	"2019-04-03T00:00:00-03:00" : {
		"windSpeed" : 2.1,
		"windDir" : 33,
		"rain" : 0,
		"cloudbase" : null,
		"flyability" : 0,
		"reason" : "windDir",
		"timestamp" :1554260400
		},
	"2019-04-03T03:00:00-03:00" : {
		"windSpeed" : 2.3,
		"windDir" : 11,
		"rain" : 0,
		"cloudbase" : null,
		"flyability" : 0,
		"reason" : "windDir",
		"timestamp" :1554271200
		},
	"2019-04-03T06:00:00-03:00" : {
		"windSpeed" : 2.8,
		"windDir" : 349,
		"rain" : 0,
		"cloudbase" : null,
		"flyability" : 0,
		"reason" : "windDir",
		"timestamp" :1554282000
		},
	"2019-04-03T09:00:00-03:00" : {
		"windSpeed" : 1.8,
		"windDir" : 311,
		"rain" : 0,
		"cloudbase" : null,
		"flyability" : 100,
		"reason" : "",
		"timestamp" :1554292800
		},
	"2019-04-03T12:00:00-03:00" : {
		"windSpeed" : 2.4,
		"windDir" : 257,
		"rain" : 0,
		"cloudbase" : null,
		"flyability" : 100,
		"reason" : "",
		"timestamp" :1554303600
		},
	"2019-04-03T15:00:00-03:00" : {
		"windSpeed" : 0.8,
		"windDir" : 257,
		"rain" : 1,
		"cloudbase" : null,
		"flyability" : 0,
		"reason" : "rain",
		"timestamp" :1554314400
		},
	"2019-04-03T18:00:00-03:00" : {
		"windSpeed" : 1.2,
		"windDir" : 19,
		"rain" : 1,
		"cloudbase" : null,
		"flyability" : 0,
		"reason" : "windDir, rain",
		"timestamp" :1554325200
		},
	"2019-04-03T21:00:00-03:00" : {
		"windSpeed" : 2.1,
		"windDir" : 44,
		"rain" : 0,
		"cloudbase" : null,
		"flyability" : 0,
		"reason" : "windDir",
		"timestamp" :1554336000
		},
	"2019-04-04T00:00:00-03:00" : {
		"windSpeed" : 2.4,
		"windDir" : 33,
		"rain" : 0,
		"cloudbase" : null,
		"flyability" : 0,
		"reason" : "windDir",
		"timestamp" :1554346800
		},
	"2019-04-04T03:00:00-03:00" : {
		"windSpeed" : 2.8,
		"windDir" : 28,
		"rain" : 0,
		"cloudbase" : null,
		"flyability" : 0,
		"reason" : "windDir",
		"timestamp" :1554357600
		},
	"2019-04-04T06:00:00-03:00" : {
		"windSpeed" : 2.7,
		"windDir" : 17,
		"rain" : 0,
		"cloudbase" : null,
		"flyability" : 0,
		"reason" : "windDir",
		"timestamp" :1554368400
		},
	"2019-04-04T09:00:00-03:00" : {
		"windSpeed" : 1.6,
		"windDir" : 321,
		"rain" : 0,
		"cloudbase" : null,
		"flyability" : 100,
		"reason" : "",
		"timestamp" :1554379200
		},
	"2019-04-04T12:00:00-03:00" : {
		"windSpeed" : 2.6,
		"windDir" : 295,
		"rain" : 0,
		"cloudbase" : 12642.272,
		"flyability" : 100,
		"reason" : "",
		"timestamp" :1554390000
		},
	"2019-04-04T15:00:00-03:00" : {
		"windSpeed" : 0.9,
		"windDir" : 125,
		"rain" : 0,
		"cloudbase" : 9967.5456,
		"flyability" : 100,
		"reason" : "",
		"timestamp" :1554400800
		},
	"2019-04-04T18:00:00-03:00" : {
		"windSpeed" : 1.4,
		"windDir" : 70,
		"rain" : 0,
		"cloudbase" : 8751.3984000002,
		"flyability" : 100,
		"reason" : "",
		"timestamp" :1554411600
		},
	"2019-04-04T21:00:00-03:00" : {
		"windSpeed" : 3.1,
		"windDir" : 37,
		"rain" : 1,
		"cloudbase" : 4205.4272000002,
		"flyability" : 0,
		"reason" : "windDir, rain",
		"timestamp" :1554422400
		},
	"2019-04-05T00:00:00-03:00" : {
		"windSpeed" : 4.2,
		"windDir" : 23,
		"rain" : 1,
		"cloudbase" : 4260.272,
		"flyability" : 0,
		"reason" : "windDir, rain",
		"timestamp" :1554433200
		},
	"2019-04-05T03:00:00-03:00" : {
		"windSpeed" : 3.9,
		"windDir" : 359,
		"rain" : 1,
		"cloudbase" : 4557.0367999999,
		"flyability" : 0,
		"reason" : "windDir, rain",
		"timestamp" :1554444000
		},
	"2019-04-05T06:00:00-03:00" : {
		"windSpeed" : 4.2,
		"windDir" : 326,
		"rain" : 1,
		"cloudbase" : 5790.8544,
		"flyability" : 0,
		"reason" : "rain",
		"timestamp" :1554454800
		},
	"2019-04-05T09:00:00-03:00" : {
		"windSpeed" : 4.3,
		"windDir" : 327,
		"rain" : 1,
		"cloudbase" : 5241.0816000001,
		"flyability" : 0,
		"reason" : "rain",
		"timestamp" :1554465600
		},
	"2019-04-05T12:00:00-03:00" : {
		"windSpeed" : 3,
		"windDir" : 324,
		"rain" : 1,
		"cloudbase" : 3779.6095999999,
		"flyability" : 0,
		"reason" : "rain",
		"timestamp" :1554476400
		},
	"2019-04-05T15:00:00-03:00" : {
		"windSpeed" : 2.8,
		"windDir" : 270,
		"rain" : 1,
		"cloudbase" : 386.64640000012,
		"flyability" : 0,
		"reason" : "rain, cloudbase",
		"timestamp" :1554487200
		},
	"2019-04-05T18:00:00-03:00" : {
		"windSpeed" : 3.1,
		"windDir" : 289,
		"rain" : 0,
		"cloudbase" : 1108.48704,
		"flyability" : 100,
		"reason" : "",
		"timestamp" :1554498000
		},
	"2019-04-05T21:00:00-03:00" : {
		"windSpeed" : 3,
		"windDir" : 294,
		"rain" : 1,
		"cloudbase" : 892.49280000004,
		"flyability" : 0,
		"reason" : "rain",
		"timestamp" :1554508800
		},
	"2019-04-06T00:00:00-03:00" : {
		"windSpeed" : 3.2,
		"windDir" : 302,
		"rain" : 0,
		"cloudbase" : 1057.27232,
		"flyability" : 100,
		"reason" : "",
		"timestamp" :1554519600
		},
	"2019-04-06T03:00:00-03:00" : {
		"windSpeed" : 3.4,
		"windDir" : 288,
		"rain" : 1,
		"cloudbase" : 395.58720000003,
		"flyability" : 0,
		"reason" : "rain, cloudbase",
		"timestamp" :1554530400
		},
	"2019-04-06T06:00:00-03:00" : {
		"windSpeed" : 3.1,
		"windDir" : 300,
		"rain" : 1,
		"cloudbase" : 221.98080000003,
		"flyability" : 0,
		"reason" : "rain, cloudbase",
		"timestamp" :1554541200
		},
	"2019-04-06T09:00:00-03:00" : {
		"windSpeed" : 2.2,
		"windDir" : 315,
		"rain" : 1,
		"cloudbase" : 228.55808000003,
		"flyability" : 0,
		"reason" : "rain, cloudbase",
		"timestamp" :1554552000
		},
	"2019-04-06T12:00:00-03:00" : {
		"windSpeed" : 2.5,
		"windDir" : 291,
		"rain" : 1,
		"cloudbase" : 301.74912000001,
		"flyability" : 0,
		"reason" : "rain, cloudbase",
		"timestamp" :1554562800
		},
	"2019-04-06T15:00:00-03:00" : {
		"windSpeed" : 1.1,
		"windDir" : 279,
		"rain" : 1,
		"cloudbase" : 228.40896000002,
		"flyability" : 0,
		"reason" : "rain, cloudbase",
		"timestamp" :1554573600
		},
	"2019-04-06T18:00:00-03:00" : {
		"windSpeed" : 1.9,
		"windDir" : 191,
		"rain" : 1,
		"cloudbase" : 327.46816000008,
		"flyability" : 0,
		"reason" : "rain, cloudbase",
		"timestamp" :1554584400
		},
	"2019-04-06T21:00:00-03:00" : {
		"windSpeed" : 1.2,
		"windDir" : 155,
		"rain" : 1,
		"cloudbase" : 572.18688000019,
		"flyability" : 0,
		"reason" : "rain, cloudbase",
		"timestamp" :1554595200
		},
	"2019-04-07T00:00:00-03:00" : {
		"windSpeed" : 1.1,
		"windDir" : 231,
		"rain" : 1,
		"cloudbase" : 65.003520000012,
		"flyability" : 0,
		"reason" : "rain, cloudbase",
		"timestamp" :1554606000
		},
	"2019-04-07T03:00:00-03:00" : {
		"windSpeed" : 1.1,
		"windDir" : 172,
		"rain" : 1,
		"cloudbase" : 31.422720000001,
		"flyability" : 0,
		"reason" : "rain, cloudbase",
		"timestamp" :1554616800
		},
	"2019-04-07T06:00:00-03:00" : {
		"windSpeed" : 1.2,
		"windDir" : 163,
		"rain" : 1,
		"cloudbase" : 34.405440000002,
		"flyability" : 0,
		"reason" : "rain, cloudbase",
		"timestamp" :1554627600
		},
	"2019-04-07T09:00:00-03:00" : {
		"windSpeed" : 1.2,
		"windDir" : 164,
		"rain" : 1,
		"cloudbase" : 176.36000000001,
		"flyability" : 0,
		"reason" : "rain, cloudbase",
		"timestamp" :1554638400
		},
	"2019-04-07T12:00:00-03:00" : {
		"windSpeed" : 2.6,
		"windDir" : 161,
		"rain" : 1,
		"cloudbase" : 361.56288000008,
		"flyability" : 0,
		"reason" : "rain, cloudbase",
		"timestamp" :1554649200
		},
	"2019-04-07T15:00:00-03:00" : {
		"windSpeed" : 2.6,
		"windDir" : 144,
		"rain" : 1,
		"cloudbase" : 474.09472000015,
		"flyability" : 0,
		"reason" : "rain, cloudbase",
		"timestamp" :1554660000
		},
	"2019-04-07T18:00:00-03:00" : {
		"windSpeed" : 1.8,
		"windDir" : 131,
		"rain" : 0,
		"cloudbase" : 975.90912000005,
		"flyability" : 100,
		"reason" : "",
		"timestamp" :1554670800
		},
	"2019-04-07T21:00:00-03:00" : {
		"windSpeed" : 1.1,
		"windDir" : 127,
		"rain" : 0,
		"cloudbase" : 1029.0720000001,
		"flyability" : 100,
		"reason" : "",
		"timestamp" :1554681600
		},
	"2019-04-08T00:00:00-03:00" : {
		"windSpeed" : 0.9,
		"windDir" : 100,
		"rain" : 0,
		"cloudbase" : 1354.8819200002,
		"flyability" : 100,
		"reason" : "",
		"timestamp" :1554692400
		},
	"2019-04-08T03:00:00-03:00" : {
		"windSpeed" : 0.8,
		"windDir" : 150,
		"rain" : 0,
		"cloudbase" : null,
		"flyability" : 100,
		"reason" : "",
		"timestamp" :1554703200
		},
	"2019-04-08T06:00:00-03:00" : {
		"windSpeed" : 0.8,
		"windDir" : 152,
		"rain" : 0,
		"cloudbase" : 210,
		"flyability" : 0,
		"reason" : "cloudbase",
		"timestamp" :1554714000
		},
	"2019-04-08T09:00:00-03:00" : {
		"windSpeed" : 2.1,
		"windDir" : 134,
		"rain" : 0,
		"cloudbase" : 1137.29664,
		"flyability" : 100,
		"reason" : "",
		"timestamp" :1554724800
		},
	"2019-04-08T12:00:00-03:00" : {
		"windSpeed" : 3,
		"windDir" : 127,
		"rain" : 0,
		"cloudbase" : 1124.7180800001,
		"flyability" : 100,
		"reason" : "",
		"timestamp" :1554735600
		},
	"2019-04-08T15:00:00-03:00" : {
		"windSpeed" : 3.3,
		"windDir" : 131,
		"rain" : 1,
		"cloudbase" : null,
		"flyability" : 0,
		"reason" : "rain",
		"timestamp" :1554746400
		},
	"2019-04-08T18:00:00-03:00" : {
		"windSpeed" : 2.1,
		"windDir" : 117,
		"rain" : 1,
		"cloudbase" : 1409.2096,
		"flyability" : 0,
		"reason" : "rain",
		"timestamp" :1554757200
		},
	"2019-04-08T21:00:00-03:00" : {
		"windSpeed" : 1.5,
		"windDir" : 114,
		"rain" : 0,
		"cloudbase" : 740,
		"flyability" : 0,
		"reason" : "cloudbase",
		"timestamp" :1554768000
		}
	}
}