{
"site" : "Todorka",
"id" : 12669,
"orientations" : "22210001",
"forecasts" : { 
	"2019-04-17T06:00:00+03:00" : {
		"windSpeed" : 0.9,
		"windDir" : 316,
		"rain" : 0,
		"cloudbase" : null,
		"flyability" : 100,
		"reason" : "",
		"timestamp" :1555470000
		},
	"2019-04-17T09:00:00+03:00" : {
		"windSpeed" : 1.1,
		"windDir" : 331,
		"rain" : 0,
		"cloudbase" : null,
		"flyability" : 100,
		"reason" : "",
		"timestamp" :1555480800
		},
	"2019-04-17T12:00:00+03:00" : {
		"windSpeed" : 1.3,
		"windDir" : 350,
		"rain" : 0,
		"cloudbase" : null,
		"flyability" : 100,
		"reason" : "",
		"timestamp" :1555491600
		},
	"2019-04-17T15:00:00+03:00" : {
		"windSpeed" : 1.7,
		"windDir" : 314,
		"rain" : 0,
		"cloudbase" : null,
		"flyability" : 100,
		"reason" : "",
		"timestamp" :1555502400
		},
	"2019-04-17T18:00:00+03:00" : {
		"windSpeed" : 1.7,
		"windDir" : 334,
		"rain" : 0,
		"cloudbase" : 1950,
		"flyability" : 0,
		"reason" : "cloudbase",
		"timestamp" :1555513200
		},
	"2019-04-17T21:00:00+03:00" : {
		"windSpeed" : 1.2,
		"windDir" : 71,
		"rain" : 0,
		"cloudbase" : null,
		"flyability" : 100,
		"reason" : "",
		"timestamp" :1555524000
		},
	"2019-04-18T00:00:00+03:00" : {
		"windSpeed" : 0.4,
		"windDir" : 73,
		"rain" : 0,
		"cloudbase" : 1150,
		"flyability" : 0,
		"reason" : "cloudbase",
		"timestamp" :1555534800
		},
	"2019-04-18T03:00:00+03:00" : {
		"windSpeed" : 0.4,
		"windDir" : 248,
		"rain" : 0,
		"cloudbase" : 1110.4536,
		"flyability" : 0,
		"reason" : "windDir, cloudbase",
		"timestamp" :1555545600
		},
	"2019-04-18T06:00:00+03:00" : {
		"windSpeed" : 0.3,
		"windDir" : 238,
		"rain" : 0,
		"cloudbase" : null,
		"flyability" : 0,
		"reason" : "windDir",
		"timestamp" :1555556400
		},
	"2019-04-18T09:00:00+03:00" : {
		"windSpeed" : 0.6,
		"windDir" : 24,
		"rain" : 0,
		"cloudbase" : null,
		"flyability" : 100,
		"reason" : "",
		"timestamp" :1555567200
		},
	"2019-04-18T12:00:00+03:00" : {
		"windSpeed" : 1.4,
		"windDir" : 28,
		"rain" : 0,
		"cloudbase" : 620,
		"flyability" : 0,
		"reason" : "cloudbase",
		"timestamp" :1555578000
		},
	"2019-04-18T15:00:00+03:00" : {
		"windSpeed" : 2,
		"windDir" : 53,
		"rain" : 0,
		"cloudbase" : 760,
		"flyability" : 0,
		"reason" : "cloudbase",
		"timestamp" :1555588800
		},
	"2019-04-18T18:00:00+03:00" : {
		"windSpeed" : 2.1,
		"windDir" : 55,
		"rain" : 0,
		"cloudbase" : 4498.2576000002,
		"flyability" : 100,
		"reason" : "",
		"timestamp" :1555599600
		},
	"2019-04-18T21:00:00+03:00" : {
		"windSpeed" : 1,
		"windDir" : 60,
		"rain" : 0,
		"cloudbase" : 30,
		"flyability" : 0,
		"reason" : "cloudbase",
		"timestamp" :1555610400
		},
	"2019-04-19T00:00:00+03:00" : {
		"windSpeed" : 0.4,
		"windDir" : 73,
		"rain" : 0,
		"cloudbase" : 30,
		"flyability" : 0,
		"reason" : "cloudbase",
		"timestamp" :1555621200
		},
	"2019-04-19T03:00:00+03:00" : {
		"windSpeed" : 0.4,
		"windDir" : 74,
		"rain" : 0,
		"cloudbase" : null,
		"flyability" : 100,
		"reason" : "",
		"timestamp" :1555632000
		},
	"2019-04-19T06:00:00+03:00" : {
		"windSpeed" : 0.9,
		"windDir" : 65,
		"rain" : 0,
		"cloudbase" : 500,
		"flyability" : 0,
		"reason" : "cloudbase",
		"timestamp" :1555642800
		},
	"2019-04-19T09:00:00+03:00" : {
		"windSpeed" : 0.9,
		"windDir" : 5,
		"rain" : 0,
		"cloudbase" : null,
		"flyability" : 100,
		"reason" : "",
		"timestamp" :1555653600
		},
	"2019-04-19T12:00:00+03:00" : {
		"windSpeed" : 1.7,
		"windDir" : 360,
		"rain" : 0,
		"cloudbase" : 1100,
		"flyability" : 0,
		"reason" : "cloudbase",
		"timestamp" :1555664400
		},
	"2019-04-19T15:00:00+03:00" : {
		"windSpeed" : 3.1,
		"windDir" : 315,
		"rain" : 1,
		"cloudbase" : 1450,
		"flyability" : 0,
		"reason" : "rain, cloudbase",
		"timestamp" :1555675200
		},
	"2019-04-19T18:00:00+03:00" : {
		"windSpeed" : 2.8,
		"windDir" : 338,
		"rain" : 1,
		"cloudbase" : 1263.3536,
		"flyability" : 0,
		"reason" : "rain, cloudbase",
		"timestamp" :1555686000
		},
	"2019-04-19T21:00:00+03:00" : {
		"windSpeed" : 1.2,
		"windDir" : 340,
		"rain" : 1,
		"cloudbase" : 1270.86352,
		"flyability" : 0,
		"reason" : "rain, cloudbase",
		"timestamp" :1555696800
		},
	"2019-04-20T00:00:00+03:00" : {
		"windSpeed" : 0.6,
		"windDir" : 308,
		"rain" : 0,
		"cloudbase" : 684.12575999999,
		"flyability" : 0,
		"reason" : "cloudbase",
		"timestamp" :1555707600
		},
	"2019-04-20T03:00:00+03:00" : {
		"windSpeed" : 0.3,
		"windDir" : 268,
		"rain" : 0,
		"cloudbase" : null,
		"flyability" : 0,
		"reason" : "windDir",
		"timestamp" :1555718400
		},
	"2019-04-20T06:00:00+03:00" : {
		"windSpeed" : 0.1,
		"windDir" : 16,
		"rain" : 0,
		"cloudbase" : 390.55439999999,
		"flyability" : 0,
		"reason" : "cloudbase",
		"timestamp" :1555729200
		},
	"2019-04-20T09:00:00+03:00" : {
		"windSpeed" : 1.3,
		"windDir" : 27,
		"rain" : 0,
		"cloudbase" : null,
		"flyability" : 100,
		"reason" : "",
		"timestamp" :1555740000
		},
	"2019-04-20T12:00:00+03:00" : {
		"windSpeed" : 1.9,
		"windDir" : 21,
		"rain" : 0,
		"cloudbase" : 1050,
		"flyability" : 0,
		"reason" : "cloudbase",
		"timestamp" :1555750800
		},
	"2019-04-20T15:00:00+03:00" : {
		"windSpeed" : 1.1,
		"windDir" : 351,
		"rain" : 0,
		"cloudbase" : 1120.44432,
		"flyability" : 0,
		"reason" : "cloudbase",
		"timestamp" :1555761600
		},
	"2019-04-20T18:00:00+03:00" : {
		"windSpeed" : 1.6,
		"windDir" : 13,
		"rain" : 0,
		"cloudbase" : 1150,
		"flyability" : 0,
		"reason" : "cloudbase",
		"timestamp" :1555772400
		},
	"2019-04-20T21:00:00+03:00" : {
		"windSpeed" : 0.6,
		"windDir" : 67,
		"rain" : 0,
		"cloudbase" : null,
		"flyability" : 100,
		"reason" : "",
		"timestamp" :1555783200
		},
	"2019-04-21T00:00:00+03:00" : {
		"windSpeed" : 0.1,
		"windDir" : 105,
		"rain" : 0,
		"cloudbase" : 600,
		"flyability" : 0,
		"reason" : "cloudbase",
		"timestamp" :1555794000
		},
	"2019-04-21T03:00:00+03:00" : {
		"windSpeed" : 0.4,
		"windDir" : 235,
		"rain" : 0,
		"cloudbase" : 144.92976,
		"flyability" : 0,
		"reason" : "windDir, cloudbase",
		"timestamp" :1555804800
		},
	"2019-04-21T06:00:00+03:00" : {
		"windSpeed" : 0.4,
		"windDir" : 224,
		"rain" : 0,
		"cloudbase" : 70.988960000002,
		"flyability" : 0,
		"reason" : "windDir, cloudbase",
		"timestamp" :1555815600
		},
	"2019-04-21T09:00:00+03:00" : {
		"windSpeed" : 0.9,
		"windDir" : 300,
		"rain" : 0,
		"cloudbase" : 340,
		"flyability" : 0,
		"reason" : "cloudbase",
		"timestamp" :1555826400
		},
	"2019-04-21T12:00:00+03:00" : {
		"windSpeed" : 1.9,
		"windDir" : 301,
		"rain" : 0,
		"cloudbase" : 801.99424,
		"flyability" : 0,
		"reason" : "cloudbase",
		"timestamp" :1555837200
		},
	"2019-04-21T15:00:00+03:00" : {
		"windSpeed" : 2.5,
		"windDir" : 311,
		"rain" : 1,
		"cloudbase" : 1166.6928,
		"flyability" : 0,
		"reason" : "rain, cloudbase",
		"timestamp" :1555848000
		},
	"2019-04-21T18:00:00+03:00" : {
		"windSpeed" : 1.6,
		"windDir" : 324,
		"rain" : 0,
		"cloudbase" : 1259.2464,
		"flyability" : 0,
		"reason" : "cloudbase",
		"timestamp" :1555858800
		},
	"2019-04-21T21:00:00+03:00" : {
		"windSpeed" : 0.1,
		"windDir" : 324,
		"rain" : 0,
		"cloudbase" : null,
		"flyability" : 100,
		"reason" : "",
		"timestamp" :1555869600
		},
	"2019-04-22T00:00:00+03:00" : {
		"windSpeed" : 0.7,
		"windDir" : 208,
		"rain" : 0,
		"cloudbase" : null,
		"flyability" : 0,
		"reason" : "windDir",
		"timestamp" :1555880400
		},
	"2019-04-22T03:00:00+03:00" : {
		"windSpeed" : 0.9,
		"windDir" : 242,
		"rain" : 0,
		"cloudbase" : null,
		"flyability" : 0,
		"reason" : "windDir",
		"timestamp" :1555891200
		},
	"2019-04-22T06:00:00+03:00" : {
		"windSpeed" : 1.1,
		"windDir" : 249,
		"rain" : 0,
		"cloudbase" : null,
		"flyability" : 0,
		"reason" : "windDir",
		"timestamp" :1555902000
		},
	"2019-04-22T09:00:00+03:00" : {
		"windSpeed" : 0.9,
		"windDir" : 288,
		"rain" : 0,
		"cloudbase" : null,
		"flyability" : 0,
		"reason" : "windDir",
		"timestamp" :1555912800
		},
	"2019-04-22T12:00:00+03:00" : {
		"windSpeed" : 1.4,
		"windDir" : 300,
		"rain" : 0,
		"cloudbase" : 780,
		"flyability" : 0,
		"reason" : "cloudbase",
		"timestamp" :1555923600
		},
	"2019-04-22T15:00:00+03:00" : {
		"windSpeed" : 1.3,
		"windDir" : 254,
		"rain" : 1,
		"cloudbase" : 1819.02528,
		"flyability" : 0,
		"reason" : "windDir, rain, cloudbase",
		"timestamp" :1555934400
		},
	"2019-04-22T18:00:00+03:00" : {
		"windSpeed" : 0.8,
		"windDir" : 168,
		"rain" : 1,
		"cloudbase" : 435.39840000003,
		"flyability" : 0,
		"reason" : "windDir, rain, cloudbase",
		"timestamp" :1555945200
		},
	"2019-04-22T21:00:00+03:00" : {
		"windSpeed" : 1,
		"windDir" : 144,
		"rain" : 1,
		"cloudbase" : 120.63280000001,
		"flyability" : 0,
		"reason" : "rain, cloudbase",
		"timestamp" :1555956000
		},
	"2019-04-23T00:00:00+03:00" : {
		"windSpeed" : 1,
		"windDir" : 137,
		"rain" : 0,
		"cloudbase" : 47.879280000001,
		"flyability" : 0,
		"reason" : "cloudbase",
		"timestamp" :1555966800
		},
	"2019-04-23T03:00:00+03:00" : {
		"windSpeed" : 1.4,
		"windDir" : 168,
		"rain" : 0,
		"cloudbase" : 85.345760000002,
		"flyability" : 0,
		"reason" : "windDir, cloudbase",
		"timestamp" :1555977600
		}
	}
}