{
"site" : "KoJyae BongSan",
"id" : 13033,
"orientations" : "10000012",
"forecasts" : { 
	"2019-04-03T12:00:00+09:00" : {
		"windSpeed" : 1.6,
		"windDir" : 264,
		"rain" : 0,
		"cloudbase" : null,
		"flyability" : 100,
		"reason" : "",
		"timestamp" :1554260400
		},
	"2019-04-03T15:00:00+09:00" : {
		"windSpeed" : 3.9,
		"windDir" : 295,
		"rain" : 0,
		"cloudbase" : null,
		"flyability" : 100,
		"reason" : "",
		"timestamp" :1554271200
		},
	"2019-04-03T18:00:00+09:00" : {
		"windSpeed" : 3.2,
		"windDir" : 294,
		"rain" : 0,
		"cloudbase" : null,
		"flyability" : 100,
		"reason" : "",
		"timestamp" :1554282000
		},
	"2019-04-03T21:00:00+09:00" : {
		"windSpeed" : 3,
		"windDir" : 297,
		"rain" : 0,
		"cloudbase" : null,
		"flyability" : 100,
		"reason" : "",
		"timestamp" :1554292800
		},
	"2019-04-04T00:00:00+09:00" : {
		"windSpeed" : 2.8,
		"windDir" : 318,
		"rain" : 0,
		"cloudbase" : null,
		"flyability" : 100,
		"reason" : "",
		"timestamp" :1554303600
		},
	"2019-04-04T03:00:00+09:00" : {
		"windSpeed" : 1.2,
		"windDir" : 334,
		"rain" : 0,
		"cloudbase" : null,
		"flyability" : 100,
		"reason" : "",
		"timestamp" :1554314400
		},
	"2019-04-04T06:00:00+09:00" : {
		"windSpeed" : 1.9,
		"windDir" : 320,
		"rain" : 0,
		"cloudbase" : null,
		"flyability" : 100,
		"reason" : "",
		"timestamp" :1554325200
		},
	"2019-04-04T09:00:00+09:00" : {
		"windSpeed" : 1.2,
		"windDir" : 286,
		"rain" : 0,
		"cloudbase" : null,
		"flyability" : 100,
		"reason" : "",
		"timestamp" :1554336000
		},
	"2019-04-04T12:00:00+09:00" : {
		"windSpeed" : 3.7,
		"windDir" : 287,
		"rain" : 0,
		"cloudbase" : null,
		"flyability" : 100,
		"reason" : "",
		"timestamp" :1554346800
		},
	"2019-04-04T15:00:00+09:00" : {
		"windSpeed" : 4.1,
		"windDir" : 276,
		"rain" : 0,
		"cloudbase" : null,
		"flyability" : 100,
		"reason" : "",
		"timestamp" :1554357600
		},
	"2019-04-04T18:00:00+09:00" : {
		"windSpeed" : 3,
		"windDir" : 267,
		"rain" : 0,
		"cloudbase" : 9656.9999999999,
		"flyability" : 100,
		"reason" : "",
		"timestamp" :1554368400
		},
	"2019-04-04T21:00:00+09:00" : {
		"windSpeed" : 2.5,
		"windDir" : 278,
		"rain" : 0,
		"cloudbase" : 9062.0999999999,
		"flyability" : 100,
		"reason" : "",
		"timestamp" :1554379200
		},
	"2019-04-05T00:00:00+09:00" : {
		"windSpeed" : 3,
		"windDir" : 276,
		"rain" : 0,
		"cloudbase" : 8492.0999999999,
		"flyability" : 100,
		"reason" : "",
		"timestamp" :1554390000
		},
	"2019-04-05T03:00:00+09:00" : {
		"windSpeed" : 3.2,
		"windDir" : 274,
		"rain" : 0,
		"cloudbase" : 9062.0999999999,
		"flyability" : 100,
		"reason" : "",
		"timestamp" :1554400800
		},
	"2019-04-05T06:00:00+09:00" : {
		"windSpeed" : 3.2,
		"windDir" : 277,
		"rain" : 0,
		"cloudbase" : 7823.9999999999,
		"flyability" : 100,
		"reason" : "",
		"timestamp" :1554411600
		},
	"2019-04-05T09:00:00+09:00" : {
		"windSpeed" : 3.1,
		"windDir" : 262,
		"rain" : 0,
		"cloudbase" : 6515.8999999999,
		"flyability" : 100,
		"reason" : "",
		"timestamp" :1554422400
		},
	"2019-04-05T12:00:00+09:00" : {
		"windSpeed" : 5.7,
		"windDir" : 282,
		"rain" : 0,
		"cloudbase" : 1200,
		"flyability" : 0,
		"reason" : "windSpeed",
		"timestamp" :1554433200
		},
	"2019-04-05T15:00:00+09:00" : {
		"windSpeed" : 4.6,
		"windDir" : 290,
		"rain" : 0,
		"cloudbase" : null,
		"flyability" : 100,
		"reason" : "",
		"timestamp" :1554444000
		},
	"2019-04-05T18:00:00+09:00" : {
		"windSpeed" : 3.3,
		"windDir" : 286,
		"rain" : 0,
		"cloudbase" : null,
		"flyability" : 100,
		"reason" : "",
		"timestamp" :1554454800
		},
	"2019-04-05T21:00:00+09:00" : {
		"windSpeed" : 2.6,
		"windDir" : 313,
		"rain" : 0,
		"cloudbase" : null,
		"flyability" : 100,
		"reason" : "",
		"timestamp" :1554465600
		},
	"2019-04-06T00:00:00+09:00" : {
		"windSpeed" : 1.8,
		"windDir" : 327,
		"rain" : 0,
		"cloudbase" : null,
		"flyability" : 100,
		"reason" : "",
		"timestamp" :1554476400
		},
	"2019-04-06T03:00:00+09:00" : {
		"windSpeed" : 0.7,
		"windDir" : 314,
		"rain" : 0,
		"cloudbase" : null,
		"flyability" : 100,
		"reason" : "",
		"timestamp" :1554487200
		},
	"2019-04-06T06:00:00+09:00" : {
		"windSpeed" : 1.1,
		"windDir" : 7,
		"rain" : 0,
		"cloudbase" : null,
		"flyability" : 100,
		"reason" : "",
		"timestamp" :1554498000
		},
	"2019-04-06T09:00:00+09:00" : {
		"windSpeed" : 0.9,
		"windDir" : 188,
		"rain" : 0,
		"cloudbase" : null,
		"flyability" : 0,
		"reason" : "windDir",
		"timestamp" :1554508800
		},
	"2019-04-06T12:00:00+09:00" : {
		"windSpeed" : 3.1,
		"windDir" : 203,
		"rain" : 0,
		"cloudbase" : null,
		"flyability" : 0,
		"reason" : "windDir",
		"timestamp" :1554519600
		},
	"2019-04-06T15:00:00+09:00" : {
		"windSpeed" : 3.4,
		"windDir" : 221,
		"rain" : 0,
		"cloudbase" : null,
		"flyability" : 0,
		"reason" : "windDir",
		"timestamp" :1554530400
		},
	"2019-04-06T18:00:00+09:00" : {
		"windSpeed" : 2.1,
		"windDir" : 218,
		"rain" : 0,
		"cloudbase" : null,
		"flyability" : 0,
		"reason" : "windDir",
		"timestamp" :1554541200
		},
	"2019-04-06T21:00:00+09:00" : {
		"windSpeed" : 1.8,
		"windDir" : 274,
		"rain" : 0,
		"cloudbase" : null,
		"flyability" : 100,
		"reason" : "",
		"timestamp" :1554552000
		},
	"2019-04-07T00:00:00+09:00" : {
		"windSpeed" : 2.3,
		"windDir" : 275,
		"rain" : 0,
		"cloudbase" : null,
		"flyability" : 100,
		"reason" : "",
		"timestamp" :1554562800
		},
	"2019-04-07T03:00:00+09:00" : {
		"windSpeed" : 2.6,
		"windDir" : 276,
		"rain" : 0,
		"cloudbase" : 6779.6999999998,
		"flyability" : 100,
		"reason" : "",
		"timestamp" :1554573600
		},
	"2019-04-07T06:00:00+09:00" : {
		"windSpeed" : 2.9,
		"windDir" : 271,
		"rain" : 1,
		"cloudbase" : null,
		"flyability" : 0,
		"reason" : "rain",
		"timestamp" :1554584400
		},
	"2019-04-07T09:00:00+09:00" : {
		"windSpeed" : 3.3,
		"windDir" : 300,
		"rain" : 1,
		"cloudbase" : null,
		"flyability" : 0,
		"reason" : "rain",
		"timestamp" :1554595200
		},
	"2019-04-07T12:00:00+09:00" : {
		"windSpeed" : 2.2,
		"windDir" : 306,
		"rain" : 0,
		"cloudbase" : null,
		"flyability" : 100,
		"reason" : "",
		"timestamp" :1554606000
		},
	"2019-04-07T15:00:00+09:00" : {
		"windSpeed" : 2.6,
		"windDir" : 319,
		"rain" : 0,
		"cloudbase" : null,
		"flyability" : 100,
		"reason" : "",
		"timestamp" :1554616800
		},
	"2019-04-07T18:00:00+09:00" : {
		"windSpeed" : 2.4,
		"windDir" : 297,
		"rain" : 0,
		"cloudbase" : null,
		"flyability" : 100,
		"reason" : "",
		"timestamp" :1554627600
		},
	"2019-04-07T21:00:00+09:00" : {
		"windSpeed" : 2.2,
		"windDir" : 300,
		"rain" : 0,
		"cloudbase" : null,
		"flyability" : 100,
		"reason" : "",
		"timestamp" :1554638400
		},
	"2019-04-08T00:00:00+09:00" : {
		"windSpeed" : 2.7,
		"windDir" : 306,
		"rain" : 0,
		"cloudbase" : null,
		"flyability" : 100,
		"reason" : "",
		"timestamp" :1554649200
		},
	"2019-04-08T03:00:00+09:00" : {
		"windSpeed" : 2.4,
		"windDir" : 312,
		"rain" : 0,
		"cloudbase" : null,
		"flyability" : 100,
		"reason" : "",
		"timestamp" :1554660000
		},
	"2019-04-08T06:00:00+09:00" : {
		"windSpeed" : 1.3,
		"windDir" : 320,
		"rain" : 0,
		"cloudbase" : null,
		"flyability" : 100,
		"reason" : "",
		"timestamp" :1554670800
		},
	"2019-04-08T09:00:00+09:00" : {
		"windSpeed" : 0.6,
		"windDir" : 172,
		"rain" : 0,
		"cloudbase" : null,
		"flyability" : 0,
		"reason" : "windDir",
		"timestamp" :1554681600
		},
	"2019-04-08T12:00:00+09:00" : {
		"windSpeed" : 1,
		"windDir" : 202,
		"rain" : 0,
		"cloudbase" : null,
		"flyability" : 0,
		"reason" : "windDir",
		"timestamp" :1554692400
		},
	"2019-04-08T15:00:00+09:00" : {
		"windSpeed" : 3.3,
		"windDir" : 278,
		"rain" : 0,
		"cloudbase" : 5057.55,
		"flyability" : 100,
		"reason" : "",
		"timestamp" :1554703200
		},
	"2019-04-08T18:00:00+09:00" : {
		"windSpeed" : 2.6,
		"windDir" : 297,
		"rain" : 0,
		"cloudbase" : null,
		"flyability" : 100,
		"reason" : "",
		"timestamp" :1554714000
		},
	"2019-04-08T21:00:00+09:00" : {
		"windSpeed" : 1.8,
		"windDir" : 304,
		"rain" : 0,
		"cloudbase" : null,
		"flyability" : 100,
		"reason" : "",
		"timestamp" :1554724800
		},
	"2019-04-09T00:00:00+09:00" : {
		"windSpeed" : 2.4,
		"windDir" : 324,
		"rain" : 0,
		"cloudbase" : 10350,
		"flyability" : 100,
		"reason" : "",
		"timestamp" :1554735600
		},
	"2019-04-09T03:00:00+09:00" : {
		"windSpeed" : 0.7,
		"windDir" : 358,
		"rain" : 0,
		"cloudbase" : 9590,
		"flyability" : 100,
		"reason" : "",
		"timestamp" :1554746400
		},
	"2019-04-09T06:00:00+09:00" : {
		"windSpeed" : 1.8,
		"windDir" : 30,
		"rain" : 0,
		"cloudbase" : 8862.0999999999,
		"flyability" : 0,
		"reason" : "windDir",
		"timestamp" :1554757200
		},
	"2019-04-09T09:00:00+09:00" : {
		"windSpeed" : 4.9,
		"windDir" : 59,
		"rain" : 0,
		"cloudbase" : 8287,
		"flyability" : 0,
		"reason" : "windDir",
		"timestamp" :1554768000
		}
	}
}