{
"site" : "Hinchcliffe Launch",
"id" : 13383,
"orientations" : "00022000",
"forecasts" : { 
	"2019-04-21T13:00:00+10:00" : {
		"windSpeed" : 5,
		"windDir" : 112,
		"rain" : 1,
		"cloudbase" : null,
		"flyability" : 0,
		"reason" : "windDir, rain",
		"timestamp" :1555812000
		},
	"2019-04-21T16:00:00+10:00" : {
		"windSpeed" : 4.9,
		"windDir" : 112,
		"rain" : 1,
		"cloudbase" : null,
		"flyability" : 0,
		"reason" : "windDir, rain",
		"timestamp" :1555822800
		},
	"2019-04-21T19:00:00+10:00" : {
		"windSpeed" : 2.9,
		"windDir" : 136,
		"rain" : 1,
		"cloudbase" : null,
		"flyability" : 0,
		"reason" : "rain",
		"timestamp" :1555833600
		},
	"2019-04-21T22:00:00+10:00" : {
		"windSpeed" : 2.7,
		"windDir" : 141,
		"rain" : 0,
		"cloudbase" : null,
		"flyability" : 100,
		"reason" : "",
		"timestamp" :1555844400
		},
	"2019-04-22T01:00:00+10:00" : {
		"windSpeed" : 2.9,
		"windDir" : 137,
		"rain" : 1,
		"cloudbase" : 11500,
		"flyability" : 0,
		"reason" : "rain",
		"timestamp" :1555855200
		},
	"2019-04-22T04:00:00+10:00" : {
		"windSpeed" : 2.7,
		"windDir" : 130,
		"rain" : 0,
		"cloudbase" : 9781.3700000004,
		"flyability" : 100,
		"reason" : "",
		"timestamp" :1555866000
		},
	"2019-04-22T07:00:00+10:00" : {
		"windSpeed" : 2.8,
		"windDir" : 143,
		"rain" : 1,
		"cloudbase" : 10500,
		"flyability" : 0,
		"reason" : "rain",
		"timestamp" :1555876800
		},
	"2019-04-22T10:00:00+10:00" : {
		"windSpeed" : 4.4,
		"windDir" : 120,
		"rain" : 0,
		"cloudbase" : 9315.82,
		"flyability" : 100,
		"reason" : "",
		"timestamp" :1555887600
		},
	"2019-04-22T13:00:00+10:00" : {
		"windSpeed" : 4.1,
		"windDir" : 116,
		"rain" : 1,
		"cloudbase" : 7313.8775000006,
		"flyability" : 0,
		"reason" : "rain",
		"timestamp" :1555898400
		},
	"2019-04-22T16:00:00+10:00" : {
		"windSpeed" : 3.7,
		"windDir" : 118,
		"rain" : 0,
		"cloudbase" : 7176.3550000004,
		"flyability" : 100,
		"reason" : "",
		"timestamp" :1555909200
		},
	"2019-04-22T19:00:00+10:00" : {
		"windSpeed" : 2.7,
		"windDir" : 138,
		"rain" : 0,
		"cloudbase" : 8861,
		"flyability" : 100,
		"reason" : "",
		"timestamp" :1555920000
		},
	"2019-04-22T22:00:00+10:00" : {
		"windSpeed" : 2.8,
		"windDir" : 142,
		"rain" : 0,
		"cloudbase" : 11428.325,
		"flyability" : 100,
		"reason" : "",
		"timestamp" :1555930800
		},
	"2019-04-23T01:00:00+10:00" : {
		"windSpeed" : 2.7,
		"windDir" : 142,
		"rain" : 0,
		"cloudbase" : 11500,
		"flyability" : 100,
		"reason" : "",
		"timestamp" :1555941600
		},
	"2019-04-23T04:00:00+10:00" : {
		"windSpeed" : 2.7,
		"windDir" : 145,
		"rain" : 0,
		"cloudbase" : 10000,
		"flyability" : 100,
		"reason" : "",
		"timestamp" :1555952400
		},
	"2019-04-23T07:00:00+10:00" : {
		"windSpeed" : 2.7,
		"windDir" : 147,
		"rain" : 0,
		"cloudbase" : 8793.83,
		"flyability" : 100,
		"reason" : "",
		"timestamp" :1555963200
		},
	"2019-04-23T10:00:00+10:00" : {
		"windSpeed" : 3.8,
		"windDir" : 124,
		"rain" : 1,
		"cloudbase" : 8942.315,
		"flyability" : 0,
		"reason" : "rain",
		"timestamp" :1555974000
		},
	"2019-04-23T13:00:00+10:00" : {
		"windSpeed" : 3.8,
		"windDir" : 109,
		"rain" : 1,
		"cloudbase" : 8936.835,
		"flyability" : 0,
		"reason" : "windDir, rain",
		"timestamp" :1555984800
		},
	"2019-04-23T16:00:00+10:00" : {
		"windSpeed" : 3,
		"windDir" : 125,
		"rain" : 1,
		"cloudbase" : 8604.17,
		"flyability" : 0,
		"reason" : "rain",
		"timestamp" :1555995600
		},
	"2019-04-23T19:00:00+10:00" : {
		"windSpeed" : 2.9,
		"windDir" : 141,
		"rain" : 1,
		"cloudbase" : 7942.5300000003,
		"flyability" : 0,
		"reason" : "rain",
		"timestamp" :1556006400
		},
	"2019-04-23T22:00:00+10:00" : {
		"windSpeed" : 2.2,
		"windDir" : 154,
		"rain" : 1,
		"cloudbase" : null,
		"flyability" : 0,
		"reason" : "rain",
		"timestamp" :1556017200
		},
	"2019-04-24T01:00:00+10:00" : {
		"windSpeed" : 2.4,
		"windDir" : 157,
		"rain" : 0,
		"cloudbase" : null,
		"flyability" : 100,
		"reason" : "",
		"timestamp" :1556028000
		},
	"2019-04-24T04:00:00+10:00" : {
		"windSpeed" : 2.3,
		"windDir" : 159,
		"rain" : 0,
		"cloudbase" : null,
		"flyability" : 100,
		"reason" : "",
		"timestamp" :1556038800
		},
	"2019-04-24T07:00:00+10:00" : {
		"windSpeed" : 2.3,
		"windDir" : 172,
		"rain" : 0,
		"cloudbase" : null,
		"flyability" : 100,
		"reason" : "",
		"timestamp" :1556049600
		},
	"2019-04-24T10:00:00+10:00" : {
		"windSpeed" : 2.9,
		"windDir" : 135,
		"rain" : 1,
		"cloudbase" : null,
		"flyability" : 0,
		"reason" : "rain",
		"timestamp" :1556060400
		},
	"2019-04-24T13:00:00+10:00" : {
		"windSpeed" : 2.6,
		"windDir" : 114,
		"rain" : 1,
		"cloudbase" : 2700,
		"flyability" : 0,
		"reason" : "rain",
		"timestamp" :1556071200
		},
	"2019-04-24T16:00:00+10:00" : {
		"windSpeed" : 2.6,
		"windDir" : 123,
		"rain" : 1,
		"cloudbase" : 2850,
		"flyability" : 0,
		"reason" : "rain",
		"timestamp" :1556082000
		},
	"2019-04-24T19:00:00+10:00" : {
		"windSpeed" : 2.2,
		"windDir" : 146,
		"rain" : 0,
		"cloudbase" : null,
		"flyability" : 100,
		"reason" : "",
		"timestamp" :1556092800
		},
	"2019-04-24T22:00:00+10:00" : {
		"windSpeed" : 2.2,
		"windDir" : 149,
		"rain" : 0,
		"cloudbase" : null,
		"flyability" : 100,
		"reason" : "",
		"timestamp" :1556103600
		},
	"2019-04-25T01:00:00+10:00" : {
		"windSpeed" : 2,
		"windDir" : 168,
		"rain" : 0,
		"cloudbase" : null,
		"flyability" : 100,
		"reason" : "",
		"timestamp" :1556114400
		},
	"2019-04-25T04:00:00+10:00" : {
		"windSpeed" : 1.9,
		"windDir" : 175,
		"rain" : 0,
		"cloudbase" : null,
		"flyability" : 100,
		"reason" : "",
		"timestamp" :1556125200
		},
	"2019-04-25T07:00:00+10:00" : {
		"windSpeed" : 1.9,
		"windDir" : 174,
		"rain" : 0,
		"cloudbase" : null,
		"flyability" : 100,
		"reason" : "",
		"timestamp" :1556136000
		},
	"2019-04-25T10:00:00+10:00" : {
		"windSpeed" : 1.1,
		"windDir" : 132,
		"rain" : 0,
		"cloudbase" : null,
		"flyability" : 100,
		"reason" : "",
		"timestamp" :1556146800
		},
	"2019-04-25T13:00:00+10:00" : {
		"windSpeed" : 2,
		"windDir" : 92,
		"rain" : 1,
		"cloudbase" : 2047.0925,
		"flyability" : 0,
		"reason" : "windDir, rain",
		"timestamp" :1556157600
		},
	"2019-04-25T16:00:00+10:00" : {
		"windSpeed" : 3,
		"windDir" : 101,
		"rain" : 1,
		"cloudbase" : null,
		"flyability" : 0,
		"reason" : "windDir, rain",
		"timestamp" :1556168400
		},
	"2019-04-25T19:00:00+10:00" : {
		"windSpeed" : 2.4,
		"windDir" : 120,
		"rain" : 0,
		"cloudbase" : null,
		"flyability" : 100,
		"reason" : "",
		"timestamp" :1556179200
		},
	"2019-04-25T22:00:00+10:00" : {
		"windSpeed" : 1.9,
		"windDir" : 164,
		"rain" : 0,
		"cloudbase" : null,
		"flyability" : 100,
		"reason" : "",
		"timestamp" :1556190000
		},
	"2019-04-26T01:00:00+10:00" : {
		"windSpeed" : 1,
		"windDir" : 165,
		"rain" : 0,
		"cloudbase" : null,
		"flyability" : 100,
		"reason" : "",
		"timestamp" :1556200800
		},
	"2019-04-26T04:00:00+10:00" : {
		"windSpeed" : 0.9,
		"windDir" : 169,
		"rain" : 0,
		"cloudbase" : null,
		"flyability" : 100,
		"reason" : "",
		"timestamp" :1556211600
		},
	"2019-04-26T07:00:00+10:00" : {
		"windSpeed" : 0.6,
		"windDir" : 162,
		"rain" : 0,
		"cloudbase" : 10000,
		"flyability" : 100,
		"reason" : "",
		"timestamp" :1556222400
		},
	"2019-04-26T10:00:00+10:00" : {
		"windSpeed" : 0.6,
		"windDir" : 314,
		"rain" : 0,
		"cloudbase" : 10000,
		"flyability" : 0,
		"reason" : "windDir",
		"timestamp" :1556233200
		},
	"2019-04-26T13:00:00+10:00" : {
		"windSpeed" : 0.3,
		"windDir" : 21,
		"rain" : 0,
		"cloudbase" : 9967.335,
		"flyability" : 0,
		"reason" : "windDir",
		"timestamp" :1556244000
		},
	"2019-04-26T16:00:00+10:00" : {
		"windSpeed" : 2.9,
		"windDir" : 67,
		"rain" : 0,
		"cloudbase" : 9758.835,
		"flyability" : 0,
		"reason" : "windDir",
		"timestamp" :1556254800
		},
	"2019-04-26T19:00:00+10:00" : {
		"windSpeed" : 1.2,
		"windDir" : 83,
		"rain" : 0,
		"cloudbase" : null,
		"flyability" : 0,
		"reason" : "windDir",
		"timestamp" :1556265600
		},
	"2019-04-26T22:00:00+10:00" : {
		"windSpeed" : 0.9,
		"windDir" : 248,
		"rain" : 0,
		"cloudbase" : null,
		"flyability" : 0,
		"reason" : "windDir",
		"timestamp" :1556276400
		},
	"2019-04-27T01:00:00+10:00" : {
		"windSpeed" : 1.3,
		"windDir" : 230,
		"rain" : 0,
		"cloudbase" : null,
		"flyability" : 0,
		"reason" : "windDir",
		"timestamp" :1556287200
		},
	"2019-04-27T04:00:00+10:00" : {
		"windSpeed" : 1.2,
		"windDir" : 230,
		"rain" : 0,
		"cloudbase" : null,
		"flyability" : 0,
		"reason" : "windDir",
		"timestamp" :1556298000
		},
	"2019-04-27T07:00:00+10:00" : {
		"windSpeed" : 1.5,
		"windDir" : 173,
		"rain" : 0,
		"cloudbase" : null,
		"flyability" : 100,
		"reason" : "",
		"timestamp" :1556308800
		},
	"2019-04-27T10:00:00+10:00" : {
		"windSpeed" : 2.5,
		"windDir" : 139,
		"rain" : 1,
		"cloudbase" : null,
		"flyability" : 0,
		"reason" : "rain",
		"timestamp" :1556319600
		}
	}
}