{
"site" : "Cari\u00f1o, O Limo",
"id" : 13481,
"orientations" : "02100000",
"forecasts" : { 
	"2019-04-05T05:00:00+02:00" : {
		"windSpeed" : 7.2,
		"windDir" : 216,
		"rain" : 1,
		"cloudbase" : null,
		"flyability" : 0,
		"reason" : "windSpeed, windDir, rain",
		"timestamp" :1554436800
		},
	"2019-04-05T08:00:00+02:00" : {
		"windSpeed" : 7.5,
		"windDir" : 212,
		"rain" : 0,
		"cloudbase" : null,
		"flyability" : 0,
		"reason" : "windSpeed, windDir",
		"timestamp" :1554447600
		},
	"2019-04-05T11:00:00+02:00" : {
		"windSpeed" : 8.6,
		"windDir" : 210,
		"rain" : 1,
		"cloudbase" : 4949.495,
		"flyability" : 0,
		"reason" : "windSpeed, windDir, rain",
		"timestamp" :1554458400
		},
	"2019-04-05T14:00:00+02:00" : {
		"windSpeed" : 8.5,
		"windDir" : 234,
		"rain" : 1,
		"cloudbase" : 2570.8344659999,
		"flyability" : 0,
		"reason" : "windSpeed, windDir, rain",
		"timestamp" :1554469200
		},
	"2019-04-05T17:00:00+02:00" : {
		"windSpeed" : 7.9,
		"windDir" : 242,
		"rain" : 1,
		"cloudbase" : 6173.93844,
		"flyability" : 0,
		"reason" : "windSpeed, windDir, rain",
		"timestamp" :1554480000
		},
	"2019-04-05T20:00:00+02:00" : {
		"windSpeed" : 6.8,
		"windDir" : 237,
		"rain" : 1,
		"cloudbase" : null,
		"flyability" : 0,
		"reason" : "windSpeed, windDir, rain",
		"timestamp" :1554490800
		},
	"2019-04-05T23:00:00+02:00" : {
		"windSpeed" : 7.4,
		"windDir" : 219,
		"rain" : 1,
		"cloudbase" : 4119.5298599997,
		"flyability" : 0,
		"reason" : "windSpeed, windDir, rain",
		"timestamp" :1554501600
		},
	"2019-04-06T02:00:00+02:00" : {
		"windSpeed" : 8.6,
		"windDir" : 213,
		"rain" : 1,
		"cloudbase" : 5198.0778549998,
		"flyability" : 0,
		"reason" : "windSpeed, windDir, rain",
		"timestamp" :1554512400
		},
	"2019-04-06T05:00:00+02:00" : {
		"windSpeed" : 6.7,
		"windDir" : 195,
		"rain" : 1,
		"cloudbase" : 5835.3092199999,
		"flyability" : 0,
		"reason" : "windSpeed, windDir, rain",
		"timestamp" :1554523200
		},
	"2019-04-06T08:00:00+02:00" : {
		"windSpeed" : 4.5,
		"windDir" : 186,
		"rain" : 1,
		"cloudbase" : 4288.3509900002,
		"flyability" : 0,
		"reason" : "windDir, rain",
		"timestamp" :1554534000
		},
	"2019-04-06T11:00:00+02:00" : {
		"windSpeed" : 3.6,
		"windDir" : 245,
		"rain" : 0,
		"cloudbase" : 3413.8661279999,
		"flyability" : 0,
		"reason" : "windDir",
		"timestamp" :1554544800
		},
	"2019-04-06T14:00:00+02:00" : {
		"windSpeed" : 5.4,
		"windDir" : 316,
		"rain" : 0,
		"cloudbase" : 6360.88961,
		"flyability" : 0,
		"reason" : "windSpeed, windDir",
		"timestamp" :1554555600
		},
	"2019-04-06T17:00:00+02:00" : {
		"windSpeed" : 7,
		"windDir" : 305,
		"rain" : 1,
		"cloudbase" : null,
		"flyability" : 0,
		"reason" : "windSpeed, windDir, rain",
		"timestamp" :1554566400
		},
	"2019-04-06T20:00:00+02:00" : {
		"windSpeed" : 6,
		"windDir" : 289,
		"rain" : 1,
		"cloudbase" : null,
		"flyability" : 0,
		"reason" : "windSpeed, windDir, rain",
		"timestamp" :1554577200
		},
	"2019-04-06T23:00:00+02:00" : {
		"windSpeed" : 4.4,
		"windDir" : 243,
		"rain" : 1,
		"cloudbase" : null,
		"flyability" : 0,
		"reason" : "windDir, rain",
		"timestamp" :1554588000
		},
	"2019-04-07T02:00:00+02:00" : {
		"windSpeed" : 3.7,
		"windDir" : 216,
		"rain" : 1,
		"cloudbase" : null,
		"flyability" : 0,
		"reason" : "windDir, rain",
		"timestamp" :1554598800
		},
	"2019-04-07T05:00:00+02:00" : {
		"windSpeed" : 5.7,
		"windDir" : 236,
		"rain" : 1,
		"cloudbase" : 8700,
		"flyability" : 0,
		"reason" : "windSpeed, windDir, rain",
		"timestamp" :1554609600
		},
	"2019-04-07T08:00:00+02:00" : {
		"windSpeed" : 5.3,
		"windDir" : 208,
		"rain" : 0,
		"cloudbase" : null,
		"flyability" : 0,
		"reason" : "windSpeed, windDir",
		"timestamp" :1554620400
		},
	"2019-04-07T11:00:00+02:00" : {
		"windSpeed" : 5.7,
		"windDir" : 218,
		"rain" : 0,
		"cloudbase" : 6300.07039,
		"flyability" : 0,
		"reason" : "windSpeed, windDir",
		"timestamp" :1554631200
		},
	"2019-04-07T14:00:00+02:00" : {
		"windSpeed" : 6,
		"windDir" : 218,
		"rain" : 0,
		"cloudbase" : 2108.98305,
		"flyability" : 0,
		"reason" : "windSpeed, windDir",
		"timestamp" :1554642000
		},
	"2019-04-07T17:00:00+02:00" : {
		"windSpeed" : 3,
		"windDir" : 170,
		"rain" : 1,
		"cloudbase" : 1454.25961,
		"flyability" : 0,
		"reason" : "windDir, rain",
		"timestamp" :1554652800
		},
	"2019-04-07T20:00:00+02:00" : {
		"windSpeed" : 3.6,
		"windDir" : 185,
		"rain" : 1,
		"cloudbase" : 1040.246507,
		"flyability" : 0,
		"reason" : "windDir, rain",
		"timestamp" :1554663600
		},
	"2019-04-07T23:00:00+02:00" : {
		"windSpeed" : 8.2,
		"windDir" : 245,
		"rain" : 1,
		"cloudbase" : 469.83911700001,
		"flyability" : 0,
		"reason" : "windSpeed, windDir, rain",
		"timestamp" :1554674400
		},
	"2019-04-08T02:00:00+02:00" : {
		"windSpeed" : 9,
		"windDir" : 238,
		"rain" : 0,
		"cloudbase" : null,
		"flyability" : 0,
		"reason" : "windSpeed, windDir",
		"timestamp" :1554685200
		},
	"2019-04-08T05:00:00+02:00" : {
		"windSpeed" : 8.2,
		"windDir" : 224,
		"rain" : 1,
		"cloudbase" : null,
		"flyability" : 0,
		"reason" : "windSpeed, windDir, rain",
		"timestamp" :1554696000
		},
	"2019-04-08T08:00:00+02:00" : {
		"windSpeed" : 8.5,
		"windDir" : 226,
		"rain" : 1,
		"cloudbase" : null,
		"flyability" : 0,
		"reason" : "windSpeed, windDir, rain",
		"timestamp" :1554706800
		},
	"2019-04-08T11:00:00+02:00" : {
		"windSpeed" : 9.5,
		"windDir" : 216,
		"rain" : 0,
		"cloudbase" : null,
		"flyability" : 0,
		"reason" : "windSpeed, windDir",
		"timestamp" :1554717600
		},
	"2019-04-08T14:00:00+02:00" : {
		"windSpeed" : 10.6,
		"windDir" : 219,
		"rain" : 1,
		"cloudbase" : null,
		"flyability" : 0,
		"reason" : "windSpeed, windDir, rain",
		"timestamp" :1554728400
		},
	"2019-04-08T17:00:00+02:00" : {
		"windSpeed" : 10,
		"windDir" : 217,
		"rain" : 0,
		"cloudbase" : 6642.3715600001,
		"flyability" : 0,
		"reason" : "windSpeed, windDir",
		"timestamp" :1554739200
		},
	"2019-04-08T20:00:00+02:00" : {
		"windSpeed" : 9.6,
		"windDir" : 214,
		"rain" : 1,
		"cloudbase" : 2911.5617550001,
		"flyability" : 0,
		"reason" : "windSpeed, windDir, rain",
		"timestamp" :1554750000
		},
	"2019-04-08T23:00:00+02:00" : {
		"windSpeed" : 8.7,
		"windDir" : 220,
		"rain" : 1,
		"cloudbase" : 4130.1894849998,
		"flyability" : 0,
		"reason" : "windSpeed, windDir, rain",
		"timestamp" :1554760800
		},
	"2019-04-09T02:00:00+02:00" : {
		"windSpeed" : 8.2,
		"windDir" : 213,
		"rain" : 0,
		"cloudbase" : null,
		"flyability" : 0,
		"reason" : "windSpeed, windDir",
		"timestamp" :1554771600
		},
	"2019-04-09T05:00:00+02:00" : {
		"windSpeed" : 8.7,
		"windDir" : 204,
		"rain" : 0,
		"cloudbase" : null,
		"flyability" : 0,
		"reason" : "windSpeed, windDir",
		"timestamp" :1554782400
		},
	"2019-04-09T08:00:00+02:00" : {
		"windSpeed" : 7.2,
		"windDir" : 196,
		"rain" : 0,
		"cloudbase" : 1406.3849999999,
		"flyability" : 0,
		"reason" : "windSpeed, windDir",
		"timestamp" :1554793200
		},
	"2019-04-09T11:00:00+02:00" : {
		"windSpeed" : 9.2,
		"windDir" : 262,
		"rain" : 1,
		"cloudbase" : 1500,
		"flyability" : 0,
		"reason" : "windSpeed, windDir, rain",
		"timestamp" :1554804000
		},
	"2019-04-09T14:00:00+02:00" : {
		"windSpeed" : 10.8,
		"windDir" : 250,
		"rain" : 1,
		"cloudbase" : 961.35854600001,
		"flyability" : 0,
		"reason" : "windSpeed, windDir, rain",
		"timestamp" :1554814800
		},
	"2019-04-09T17:00:00+02:00" : {
		"windSpeed" : 9.6,
		"windDir" : 244,
		"rain" : 1,
		"cloudbase" : 310,
		"flyability" : 0,
		"reason" : "windSpeed, windDir, rain, cloudbase",
		"timestamp" :1554825600
		},
	"2019-04-09T20:00:00+02:00" : {
		"windSpeed" : 8.8,
		"windDir" : 258,
		"rain" : 1,
		"cloudbase" : 903.00888300005,
		"flyability" : 0,
		"reason" : "windSpeed, windDir, rain",
		"timestamp" :1554836400
		},
	"2019-04-09T23:00:00+02:00" : {
		"windSpeed" : 8.3,
		"windDir" : 263,
		"rain" : 1,
		"cloudbase" : 260,
		"flyability" : 0,
		"reason" : "windSpeed, windDir, rain, cloudbase",
		"timestamp" :1554847200
		},
	"2019-04-10T02:00:00+02:00" : {
		"windSpeed" : 8.2,
		"windDir" : 268,
		"rain" : 1,
		"cloudbase" : 360,
		"flyability" : 0,
		"reason" : "windSpeed, windDir, rain, cloudbase",
		"timestamp" :1554858000
		},
	"2019-04-10T05:00:00+02:00" : {
		"windSpeed" : 8,
		"windDir" : 265,
		"rain" : 0,
		"cloudbase" : 8195.32961,
		"flyability" : 0,
		"reason" : "windSpeed, windDir",
		"timestamp" :1554868800
		},
	"2019-04-10T08:00:00+02:00" : {
		"windSpeed" : 6.9,
		"windDir" : 270,
		"rain" : 1,
		"cloudbase" : null,
		"flyability" : 0,
		"reason" : "windSpeed, windDir, rain",
		"timestamp" :1554879600
		},
	"2019-04-10T11:00:00+02:00" : {
		"windSpeed" : 6.2,
		"windDir" : 272,
		"rain" : 1,
		"cloudbase" : 2859.2798050001,
		"flyability" : 0,
		"reason" : "windSpeed, windDir, rain",
		"timestamp" :1554890400
		},
	"2019-04-10T14:00:00+02:00" : {
		"windSpeed" : 5.7,
		"windDir" : 267,
		"rain" : 1,
		"cloudbase" : 2004.7724270003,
		"flyability" : 0,
		"reason" : "windSpeed, windDir, rain",
		"timestamp" :1554901200
		},
	"2019-04-10T17:00:00+02:00" : {
		"windSpeed" : 6,
		"windDir" : 265,
		"rain" : 1,
		"cloudbase" : 3042.7636880002,
		"flyability" : 0,
		"reason" : "windSpeed, windDir, rain",
		"timestamp" :1554912000
		},
	"2019-04-10T20:00:00+02:00" : {
		"windSpeed" : 5.4,
		"windDir" : 246,
		"rain" : 1,
		"cloudbase" : 4180.309805,
		"flyability" : 0,
		"reason" : "windSpeed, windDir, rain",
		"timestamp" :1554922800
		},
	"2019-04-10T23:00:00+02:00" : {
		"windSpeed" : 4.2,
		"windDir" : 225,
		"rain" : 0,
		"cloudbase" : 7482.3123400003,
		"flyability" : 0,
		"reason" : "windDir",
		"timestamp" :1554933600
		},
	"2019-04-11T02:00:00+02:00" : {
		"windSpeed" : 5.4,
		"windDir" : 204,
		"rain" : 0,
		"cloudbase" : 4690.36032,
		"flyability" : 0,
		"reason" : "windSpeed, windDir",
		"timestamp" :1554944400
		}
	}
}