{
"site" : "Abtenau",
"id" : 13574,
"orientations" : "10000122",
"forecasts" : { 
	"2019-04-22T05:00:00+02:00" : {
		"windSpeed" : 1.5,
		"windDir" : 165,
		"rain" : 0,
		"cloudbase" : null,
		"flyability" : 0,
		"reason" : "windDir",
		"timestamp" :1555905600
		},
	"2019-04-22T08:00:00+02:00" : {
		"windSpeed" : 1.5,
		"windDir" : 175,
		"rain" : 0,
		"cloudbase" : null,
		"flyability" : 0,
		"reason" : "windDir",
		"timestamp" :1555916400
		},
	"2019-04-22T11:00:00+02:00" : {
		"windSpeed" : 0.7,
		"windDir" : 175,
		"rain" : 0,
		"cloudbase" : null,
		"flyability" : 0,
		"reason" : "windDir",
		"timestamp" :1555927200
		},
	"2019-04-22T14:00:00+02:00" : {
		"windSpeed" : 1.2,
		"windDir" : 64,
		"rain" : 0,
		"cloudbase" : 8561.4196,
		"flyability" : 0,
		"reason" : "windDir",
		"timestamp" :1555938000
		},
	"2019-04-22T17:00:00+02:00" : {
		"windSpeed" : 1.3,
		"windDir" : 90,
		"rain" : 0,
		"cloudbase" : null,
		"flyability" : 0,
		"reason" : "windDir",
		"timestamp" :1555948800
		},
	"2019-04-22T20:00:00+02:00" : {
		"windSpeed" : 2.3,
		"windDir" : 140,
		"rain" : 0,
		"cloudbase" : null,
		"flyability" : 0,
		"reason" : "windDir",
		"timestamp" :1555959600
		},
	"2019-04-22T23:00:00+02:00" : {
		"windSpeed" : 1.9,
		"windDir" : 153,
		"rain" : 0,
		"cloudbase" : null,
		"flyability" : 0,
		"reason" : "windDir",
		"timestamp" :1555970400
		},
	"2019-04-23T02:00:00+02:00" : {
		"windSpeed" : 2.4,
		"windDir" : 165,
		"rain" : 0,
		"cloudbase" : 8007.5804,
		"flyability" : 0,
		"reason" : "windDir",
		"timestamp" :1555981200
		},
	"2019-04-23T05:00:00+02:00" : {
		"windSpeed" : 2.8,
		"windDir" : 164,
		"rain" : 0,
		"cloudbase" : 7893.8392,
		"flyability" : 0,
		"reason" : "windDir",
		"timestamp" :1555992000
		},
	"2019-04-23T08:00:00+02:00" : {
		"windSpeed" : 2.4,
		"windDir" : 165,
		"rain" : 1,
		"cloudbase" : 4358.4969999999,
		"flyability" : 0,
		"reason" : "windDir, rain",
		"timestamp" :1556002800
		},
	"2019-04-23T11:00:00+02:00" : {
		"windSpeed" : 3.3,
		"windDir" : 156,
		"rain" : 1,
		"cloudbase" : 3942.0196,
		"flyability" : 0,
		"reason" : "windDir, rain",
		"timestamp" :1556013600
		},
	"2019-04-23T14:00:00+02:00" : {
		"windSpeed" : 3.1,
		"windDir" : 158,
		"rain" : 0,
		"cloudbase" : 3722.45,
		"flyability" : 0,
		"reason" : "windDir",
		"timestamp" :1556024400
		},
	"2019-04-23T17:00:00+02:00" : {
		"windSpeed" : 2.5,
		"windDir" : 156,
		"rain" : 1,
		"cloudbase" : 4157.7196,
		"flyability" : 0,
		"reason" : "windDir, rain",
		"timestamp" :1556035200
		},
	"2019-04-23T20:00:00+02:00" : {
		"windSpeed" : 2.8,
		"windDir" : 159,
		"rain" : 0,
		"cloudbase" : 5696.4588,
		"flyability" : 0,
		"reason" : "windDir",
		"timestamp" :1556046000
		},
	"2019-04-23T23:00:00+02:00" : {
		"windSpeed" : 3.1,
		"windDir" : 163,
		"rain" : 0,
		"cloudbase" : null,
		"flyability" : 0,
		"reason" : "windDir",
		"timestamp" :1556056800
		},
	"2019-04-24T02:00:00+02:00" : {
		"windSpeed" : 2.7,
		"windDir" : 172,
		"rain" : 0,
		"cloudbase" : null,
		"flyability" : 0,
		"reason" : "windDir",
		"timestamp" :1556067600
		},
	"2019-04-24T05:00:00+02:00" : {
		"windSpeed" : 2.7,
		"windDir" : 172,
		"rain" : 0,
		"cloudbase" : null,
		"flyability" : 0,
		"reason" : "windDir",
		"timestamp" :1556078400
		},
	"2019-04-24T08:00:00+02:00" : {
		"windSpeed" : 2.1,
		"windDir" : 174,
		"rain" : 0,
		"cloudbase" : null,
		"flyability" : 0,
		"reason" : "windDir",
		"timestamp" :1556089200
		},
	"2019-04-24T11:00:00+02:00" : {
		"windSpeed" : 2.5,
		"windDir" : 180,
		"rain" : 0,
		"cloudbase" : null,
		"flyability" : 0,
		"reason" : "windDir",
		"timestamp" :1556100000
		},
	"2019-04-24T14:00:00+02:00" : {
		"windSpeed" : 2.8,
		"windDir" : 188,
		"rain" : 0,
		"cloudbase" : null,
		"flyability" : 0,
		"reason" : "windDir",
		"timestamp" :1556110800
		},
	"2019-04-24T17:00:00+02:00" : {
		"windSpeed" : 2.6,
		"windDir" : 180,
		"rain" : 0,
		"cloudbase" : null,
		"flyability" : 0,
		"reason" : "windDir",
		"timestamp" :1556121600
		},
	"2019-04-24T20:00:00+02:00" : {
		"windSpeed" : 2.4,
		"windDir" : 161,
		"rain" : 0,
		"cloudbase" : null,
		"flyability" : 0,
		"reason" : "windDir",
		"timestamp" :1556132400
		},
	"2019-04-24T23:00:00+02:00" : {
		"windSpeed" : 2.5,
		"windDir" : 164,
		"rain" : 0,
		"cloudbase" : null,
		"flyability" : 0,
		"reason" : "windDir",
		"timestamp" :1556143200
		},
	"2019-04-25T02:00:00+02:00" : {
		"windSpeed" : 2.3,
		"windDir" : 170,
		"rain" : 0,
		"cloudbase" : 6500,
		"flyability" : 0,
		"reason" : "windDir",
		"timestamp" :1556154000
		},
	"2019-04-25T05:00:00+02:00" : {
		"windSpeed" : 2.1,
		"windDir" : 172,
		"rain" : 0,
		"cloudbase" : 3765.0169199994,
		"flyability" : 0,
		"reason" : "windDir",
		"timestamp" :1556164800
		},
	"2019-04-25T08:00:00+02:00" : {
		"windSpeed" : 1.8,
		"windDir" : 176,
		"rain" : 0,
		"cloudbase" : 7979.2,
		"flyability" : 0,
		"reason" : "windDir",
		"timestamp" :1556175600
		},
	"2019-04-25T11:00:00+02:00" : {
		"windSpeed" : 2.3,
		"windDir" : 174,
		"rain" : 0,
		"cloudbase" : null,
		"flyability" : 0,
		"reason" : "windDir",
		"timestamp" :1556186400
		},
	"2019-04-25T14:00:00+02:00" : {
		"windSpeed" : 2.9,
		"windDir" : 180,
		"rain" : 0,
		"cloudbase" : null,
		"flyability" : 0,
		"reason" : "windDir",
		"timestamp" :1556197200
		},
	"2019-04-25T17:00:00+02:00" : {
		"windSpeed" : 2.7,
		"windDir" : 189,
		"rain" : 0,
		"cloudbase" : null,
		"flyability" : 0,
		"reason" : "windDir",
		"timestamp" :1556208000
		},
	"2019-04-25T20:00:00+02:00" : {
		"windSpeed" : 2.4,
		"windDir" : 166,
		"rain" : 0,
		"cloudbase" : 6923.6392,
		"flyability" : 0,
		"reason" : "windDir",
		"timestamp" :1556218800
		},
	"2019-04-25T23:00:00+02:00" : {
		"windSpeed" : 2.4,
		"windDir" : 158,
		"rain" : 0,
		"cloudbase" : 5822.2196,
		"flyability" : 0,
		"reason" : "windDir",
		"timestamp" :1556229600
		},
	"2019-04-26T02:00:00+02:00" : {
		"windSpeed" : 2.1,
		"windDir" : 169,
		"rain" : 0,
		"cloudbase" : 5886.1608,
		"flyability" : 0,
		"reason" : "windDir",
		"timestamp" :1556240400
		},
	"2019-04-26T05:00:00+02:00" : {
		"windSpeed" : 2,
		"windDir" : 168,
		"rain" : 0,
		"cloudbase" : 5706.3196,
		"flyability" : 0,
		"reason" : "windDir",
		"timestamp" :1556251200
		},
	"2019-04-26T08:00:00+02:00" : {
		"windSpeed" : 1.4,
		"windDir" : 173,
		"rain" : 0,
		"cloudbase" : 7843.5196000002,
		"flyability" : 0,
		"reason" : "windDir",
		"timestamp" :1556262000
		},
	"2019-04-26T11:00:00+02:00" : {
		"windSpeed" : 1.5,
		"windDir" : 189,
		"rain" : 0,
		"cloudbase" : 6016.0685999999,
		"flyability" : 0,
		"reason" : "windDir",
		"timestamp" :1556272800
		},
	"2019-04-26T14:00:00+02:00" : {
		"windSpeed" : 1.9,
		"windDir" : 164,
		"rain" : 1,
		"cloudbase" : 6517.7804,
		"flyability" : 0,
		"reason" : "windDir, rain",
		"timestamp" :1556283600
		},
	"2019-04-26T17:00:00+02:00" : {
		"windSpeed" : 1.2,
		"windDir" : 317,
		"rain" : 0,
		"cloudbase" : 3871.6727599998,
		"flyability" : 100,
		"reason" : "",
		"timestamp" :1556294400
		},
	"2019-04-26T20:00:00+02:00" : {
		"windSpeed" : 1.3,
		"windDir" : 357,
		"rain" : 1,
		"cloudbase" : 344.37628000002,
		"flyability" : 0,
		"reason" : "rain, cloudbase",
		"timestamp" :1556305200
		},
	"2019-04-26T23:00:00+02:00" : {
		"windSpeed" : 0.5,
		"windDir" : 313,
		"rain" : 1,
		"cloudbase" : 1221.9176,
		"flyability" : 0,
		"reason" : "rain",
		"timestamp" :1556316000
		},
	"2019-04-27T02:00:00+02:00" : {
		"windSpeed" : 0.4,
		"windDir" : 184,
		"rain" : 1,
		"cloudbase" : 862.82648000002,
		"flyability" : 0,
		"reason" : "windDir, rain, cloudbase",
		"timestamp" :1556326800
		},
	"2019-04-27T05:00:00+02:00" : {
		"windSpeed" : 1.3,
		"windDir" : 164,
		"rain" : 0,
		"cloudbase" : 30,
		"flyability" : 0,
		"reason" : "windDir, cloudbase",
		"timestamp" :1556337600
		},
	"2019-04-27T08:00:00+02:00" : {
		"windSpeed" : 0.9,
		"windDir" : 189,
		"rain" : 0,
		"cloudbase" : 155.78512000003,
		"flyability" : 0,
		"reason" : "windDir, cloudbase",
		"timestamp" :1556348400
		},
	"2019-04-27T11:00:00+02:00" : {
		"windSpeed" : 1.5,
		"windDir" : 302,
		"rain" : 1,
		"cloudbase" : 5200,
		"flyability" : 0,
		"reason" : "rain",
		"timestamp" :1556359200
		},
	"2019-04-27T14:00:00+02:00" : {
		"windSpeed" : 2,
		"windDir" : 320,
		"rain" : 1,
		"cloudbase" : 6917.7804,
		"flyability" : 0,
		"reason" : "rain",
		"timestamp" :1556370000
		},
	"2019-04-27T17:00:00+02:00" : {
		"windSpeed" : 2.5,
		"windDir" : 319,
		"rain" : 1,
		"cloudbase" : null,
		"flyability" : 0,
		"reason" : "rain",
		"timestamp" :1556380800
		},
	"2019-04-27T20:00:00+02:00" : {
		"windSpeed" : 0.6,
		"windDir" : 338,
		"rain" : 1,
		"cloudbase" : null,
		"flyability" : 0,
		"reason" : "rain",
		"timestamp" :1556391600
		},
	"2019-04-27T23:00:00+02:00" : {
		"windSpeed" : 0.7,
		"windDir" : 251,
		"rain" : 1,
		"cloudbase" : 2250,
		"flyability" : 0,
		"reason" : "rain",
		"timestamp" :1556402400
		},
	"2019-04-28T02:00:00+02:00" : {
		"windSpeed" : 0.5,
		"windDir" : 277,
		"rain" : 1,
		"cloudbase" : 2150,
		"flyability" : 0,
		"reason" : "rain",
		"timestamp" :1556413200
		}
	}
}