{
"site" : "Villanders Samberger Hof",
"id" : 13886,
"orientations" : "00000000",
"forecasts" : { 
	"2019-04-22T05:00:00+02:00" : {
		"windSpeed" : 0.2,
		"windDir" : 207,
		"rain" : 0,
		"cloudbase" : null,
		"flyability" : -50,
		"reason" : "orientationsUnknown",
		"timestamp" :1555905600
		},
	"2019-04-22T08:00:00+02:00" : {
		"windSpeed" : 0.7,
		"windDir" : 42,
		"rain" : 0,
		"cloudbase" : null,
		"flyability" : -50,
		"reason" : "orientationsUnknown",
		"timestamp" :1555916400
		},
	"2019-04-22T11:00:00+02:00" : {
		"windSpeed" : 1,
		"windDir" : 232,
		"rain" : 0,
		"cloudbase" : null,
		"flyability" : -50,
		"reason" : "orientationsUnknown",
		"timestamp" :1555927200
		},
	"2019-04-22T14:00:00+02:00" : {
		"windSpeed" : 2,
		"windDir" : 233,
		"rain" : 0,
		"cloudbase" : 6682.1512,
		"flyability" : -50,
		"reason" : "orientationsUnknown",
		"timestamp" :1555938000
		},
	"2019-04-22T17:00:00+02:00" : {
		"windSpeed" : 2,
		"windDir" : 219,
		"rain" : 0,
		"cloudbase" : null,
		"flyability" : -50,
		"reason" : "orientationsUnknown",
		"timestamp" :1555948800
		},
	"2019-04-22T20:00:00+02:00" : {
		"windSpeed" : 1.5,
		"windDir" : 193,
		"rain" : 0,
		"cloudbase" : 7411.7512,
		"flyability" : -50,
		"reason" : "orientationsUnknown",
		"timestamp" :1555959600
		},
	"2019-04-22T23:00:00+02:00" : {
		"windSpeed" : 1.3,
		"windDir" : 175,
		"rain" : 0,
		"cloudbase" : 5000.9218000002,
		"flyability" : -50,
		"reason" : "orientationsUnknown",
		"timestamp" :1555970400
		},
	"2019-04-23T02:00:00+02:00" : {
		"windSpeed" : 0.7,
		"windDir" : 40,
		"rain" : 0,
		"cloudbase" : 921.13655999999,
		"flyability" : -0,
		"reason" : "orientationsUnknown, cloudbase",
		"timestamp" :1555981200
		},
	"2019-04-23T05:00:00+02:00" : {
		"windSpeed" : 0.9,
		"windDir" : 26,
		"rain" : 1,
		"cloudbase" : 841.99703999999,
		"flyability" : -0,
		"reason" : "orientationsUnknown, rain, cloudbase",
		"timestamp" :1555992000
		},
	"2019-04-23T08:00:00+02:00" : {
		"windSpeed" : 1.1,
		"windDir" : 39,
		"rain" : 1,
		"cloudbase" : 937.13412000001,
		"flyability" : -0,
		"reason" : "orientationsUnknown, rain, cloudbase",
		"timestamp" :1556002800
		},
	"2019-04-23T11:00:00+02:00" : {
		"windSpeed" : 0.1,
		"windDir" : 161,
		"rain" : 1,
		"cloudbase" : 635.16875999999,
		"flyability" : -0,
		"reason" : "orientationsUnknown, rain, cloudbase",
		"timestamp" :1556013600
		},
	"2019-04-23T14:00:00+02:00" : {
		"windSpeed" : 1.2,
		"windDir" : 189,
		"rain" : 1,
		"cloudbase" : 735.28191999998,
		"flyability" : -0,
		"reason" : "orientationsUnknown, rain, cloudbase",
		"timestamp" :1556024400
		},
	"2019-04-23T17:00:00+02:00" : {
		"windSpeed" : 0.9,
		"windDir" : 213,
		"rain" : 1,
		"cloudbase" : 716.64192,
		"flyability" : -0,
		"reason" : "orientationsUnknown, rain, cloudbase",
		"timestamp" :1556035200
		},
	"2019-04-23T20:00:00+02:00" : {
		"windSpeed" : 0.7,
		"windDir" : 176,
		"rain" : 1,
		"cloudbase" : 1700.1658399999,
		"flyability" : -0,
		"reason" : "orientationsUnknown, rain",
		"timestamp" :1556046000
		},
	"2019-04-23T23:00:00+02:00" : {
		"windSpeed" : 0.5,
		"windDir" : 110,
		"rain" : 1,
		"cloudbase" : 1741.1409999998,
		"flyability" : -0,
		"reason" : "orientationsUnknown, rain",
		"timestamp" :1556056800
		},
	"2019-04-24T02:00:00+02:00" : {
		"windSpeed" : 0.6,
		"windDir" : 130,
		"rain" : 1,
		"cloudbase" : 573.78435999996,
		"flyability" : -0,
		"reason" : "orientationsUnknown, rain, cloudbase",
		"timestamp" :1556067600
		},
	"2019-04-24T05:00:00+02:00" : {
		"windSpeed" : 0.7,
		"windDir" : 90,
		"rain" : 1,
		"cloudbase" : 725.20387999996,
		"flyability" : -0,
		"reason" : "orientationsUnknown, rain, cloudbase",
		"timestamp" :1556078400
		},
	"2019-04-24T08:00:00+02:00" : {
		"windSpeed" : 0.5,
		"windDir" : 90,
		"rain" : 1,
		"cloudbase" : null,
		"flyability" : -0,
		"reason" : "orientationsUnknown, rain",
		"timestamp" :1556089200
		},
	"2019-04-24T11:00:00+02:00" : {
		"windSpeed" : 1.8,
		"windDir" : 218,
		"rain" : 1,
		"cloudbase" : null,
		"flyability" : -0,
		"reason" : "orientationsUnknown, rain",
		"timestamp" :1556100000
		},
	"2019-04-24T14:00:00+02:00" : {
		"windSpeed" : 2.2,
		"windDir" : 218,
		"rain" : 1,
		"cloudbase" : 4215.4230800003,
		"flyability" : -0,
		"reason" : "orientationsUnknown, rain",
		"timestamp" :1556110800
		},
	"2019-04-24T17:00:00+02:00" : {
		"windSpeed" : 2.4,
		"windDir" : 212,
		"rain" : 1,
		"cloudbase" : 3000,
		"flyability" : -0,
		"reason" : "orientationsUnknown, rain",
		"timestamp" :1556121600
		},
	"2019-04-24T20:00:00+02:00" : {
		"windSpeed" : 1.6,
		"windDir" : 200,
		"rain" : 1,
		"cloudbase" : null,
		"flyability" : -0,
		"reason" : "orientationsUnknown, rain",
		"timestamp" :1556132400
		},
	"2019-04-24T23:00:00+02:00" : {
		"windSpeed" : 1,
		"windDir" : 116,
		"rain" : 1,
		"cloudbase" : 737.76139999994,
		"flyability" : -0,
		"reason" : "orientationsUnknown, rain, cloudbase",
		"timestamp" :1556143200
		},
	"2019-04-25T02:00:00+02:00" : {
		"windSpeed" : 0.7,
		"windDir" : 175,
		"rain" : 1,
		"cloudbase" : 4750,
		"flyability" : -0,
		"reason" : "orientationsUnknown, rain",
		"timestamp" :1556154000
		},
	"2019-04-25T05:00:00+02:00" : {
		"windSpeed" : 1.3,
		"windDir" : 167,
		"rain" : 1,
		"cloudbase" : null,
		"flyability" : -0,
		"reason" : "orientationsUnknown, rain",
		"timestamp" :1556164800
		},
	"2019-04-25T08:00:00+02:00" : {
		"windSpeed" : 0.7,
		"windDir" : 157,
		"rain" : 1,
		"cloudbase" : null,
		"flyability" : -0,
		"reason" : "orientationsUnknown, rain",
		"timestamp" :1556175600
		},
	"2019-04-25T11:00:00+02:00" : {
		"windSpeed" : 2.4,
		"windDir" : 201,
		"rain" : 0,
		"cloudbase" : null,
		"flyability" : -50,
		"reason" : "orientationsUnknown",
		"timestamp" :1556186400
		},
	"2019-04-25T14:00:00+02:00" : {
		"windSpeed" : 2.5,
		"windDir" : 214,
		"rain" : 1,
		"cloudbase" : null,
		"flyability" : -0,
		"reason" : "orientationsUnknown, rain",
		"timestamp" :1556197200
		},
	"2019-04-25T17:00:00+02:00" : {
		"windSpeed" : 2.9,
		"windDir" : 205,
		"rain" : 1,
		"cloudbase" : null,
		"flyability" : -0,
		"reason" : "orientationsUnknown, rain",
		"timestamp" :1556208000
		},
	"2019-04-25T20:00:00+02:00" : {
		"windSpeed" : 1.1,
		"windDir" : 207,
		"rain" : 1,
		"cloudbase" : 4367.3727999996,
		"flyability" : -0,
		"reason" : "orientationsUnknown, rain",
		"timestamp" :1556218800
		},
	"2019-04-25T23:00:00+02:00" : {
		"windSpeed" : 1,
		"windDir" : 170,
		"rain" : 1,
		"cloudbase" : 403.40875999995,
		"flyability" : -0,
		"reason" : "orientationsUnknown, rain, cloudbase",
		"timestamp" :1556229600
		},
	"2019-04-26T02:00:00+02:00" : {
		"windSpeed" : 1.3,
		"windDir" : 157,
		"rain" : 1,
		"cloudbase" : 380,
		"flyability" : -0,
		"reason" : "orientationsUnknown, rain, cloudbase",
		"timestamp" :1556240400
		},
	"2019-04-26T05:00:00+02:00" : {
		"windSpeed" : 1,
		"windDir" : 153,
		"rain" : 1,
		"cloudbase" : null,
		"flyability" : -0,
		"reason" : "orientationsUnknown, rain",
		"timestamp" :1556251200
		},
	"2019-04-26T08:00:00+02:00" : {
		"windSpeed" : 0.7,
		"windDir" : 205,
		"rain" : 0,
		"cloudbase" : null,
		"flyability" : -50,
		"reason" : "orientationsUnknown",
		"timestamp" :1556262000
		},
	"2019-04-26T11:00:00+02:00" : {
		"windSpeed" : 1,
		"windDir" : 218,
		"rain" : 1,
		"cloudbase" : 30,
		"flyability" : -0,
		"reason" : "orientationsUnknown, rain, cloudbase",
		"timestamp" :1556272800
		},
	"2019-04-26T14:00:00+02:00" : {
		"windSpeed" : 1.4,
		"windDir" : 218,
		"rain" : 1,
		"cloudbase" : 869.03935999987,
		"flyability" : -0,
		"reason" : "orientationsUnknown, rain, cloudbase",
		"timestamp" :1556283600
		},
	"2019-04-26T17:00:00+02:00" : {
		"windSpeed" : 1.5,
		"windDir" : 218,
		"rain" : 1,
		"cloudbase" : 30,
		"flyability" : -0,
		"reason" : "orientationsUnknown, rain, cloudbase",
		"timestamp" :1556294400
		},
	"2019-04-26T20:00:00+02:00" : {
		"windSpeed" : 0.3,
		"windDir" : 273,
		"rain" : 0,
		"cloudbase" : null,
		"flyability" : -50,
		"reason" : "orientationsUnknown",
		"timestamp" :1556305200
		},
	"2019-04-26T23:00:00+02:00" : {
		"windSpeed" : 1.6,
		"windDir" : 355,
		"rain" : 1,
		"cloudbase" : 729.28780000003,
		"flyability" : -0,
		"reason" : "orientationsUnknown, rain, cloudbase",
		"timestamp" :1556316000
		},
	"2019-04-27T02:00:00+02:00" : {
		"windSpeed" : 1.5,
		"windDir" : 21,
		"rain" : 1,
		"cloudbase" : 1955.0146,
		"flyability" : -0,
		"reason" : "orientationsUnknown, rain",
		"timestamp" :1556326800
		},
	"2019-04-27T05:00:00+02:00" : {
		"windSpeed" : 1,
		"windDir" : 31,
		"rain" : 1,
		"cloudbase" : 2823.5292,
		"flyability" : -0,
		"reason" : "orientationsUnknown, rain",
		"timestamp" :1556337600
		},
	"2019-04-27T08:00:00+02:00" : {
		"windSpeed" : 1.1,
		"windDir" : 31,
		"rain" : 0,
		"cloudbase" : null,
		"flyability" : -50,
		"reason" : "orientationsUnknown",
		"timestamp" :1556348400
		},
	"2019-04-27T11:00:00+02:00" : {
		"windSpeed" : 0.7,
		"windDir" : 321,
		"rain" : 1,
		"cloudbase" : null,
		"flyability" : -0,
		"reason" : "orientationsUnknown, rain",
		"timestamp" :1556359200
		},
	"2019-04-27T14:00:00+02:00" : {
		"windSpeed" : 1.7,
		"windDir" : 252,
		"rain" : 1,
		"cloudbase" : null,
		"flyability" : -0,
		"reason" : "orientationsUnknown, rain",
		"timestamp" :1556370000
		},
	"2019-04-27T17:00:00+02:00" : {
		"windSpeed" : 1.6,
		"windDir" : 253,
		"rain" : 0,
		"cloudbase" : null,
		"flyability" : -50,
		"reason" : "orientationsUnknown",
		"timestamp" :1556380800
		},
	"2019-04-27T20:00:00+02:00" : {
		"windSpeed" : 0.7,
		"windDir" : 5,
		"rain" : 1,
		"cloudbase" : null,
		"flyability" : -0,
		"reason" : "orientationsUnknown, rain",
		"timestamp" :1556391600
		},
	"2019-04-27T23:00:00+02:00" : {
		"windSpeed" : 0.6,
		"windDir" : 12,
		"rain" : 0,
		"cloudbase" : 1300,
		"flyability" : -0,
		"reason" : "orientationsUnknown, cloudbase",
		"timestamp" :1556402400
		},
	"2019-04-28T02:00:00+02:00" : {
		"windSpeed" : 1.1,
		"windDir" : 7,
		"rain" : 1,
		"cloudbase" : null,
		"flyability" : -0,
		"reason" : "orientationsUnknown, rain",
		"timestamp" :1556413200
		}
	}
}