{
"site" : "Jungfrauenwald-Sassenroth (160m)",
"id" : 13884,
"orientations" : "00000000",
"forecasts" : { 
	"2019-04-22T05:00:00+02:00" : {
		"windSpeed" : 4.4,
		"windDir" : 99,
		"rain" : 0,
		"cloudbase" : null,
		"flyability" : -50,
		"reason" : "orientationsUnknown",
		"timestamp" :1555905600
		},
	"2019-04-22T08:00:00+02:00" : {
		"windSpeed" : 4,
		"windDir" : 97,
		"rain" : 0,
		"cloudbase" : null,
		"flyability" : -50,
		"reason" : "orientationsUnknown",
		"timestamp" :1555916400
		},
	"2019-04-22T11:00:00+02:00" : {
		"windSpeed" : 4.6,
		"windDir" : 103,
		"rain" : 0,
		"cloudbase" : null,
		"flyability" : -50,
		"reason" : "orientationsUnknown",
		"timestamp" :1555927200
		},
	"2019-04-22T14:00:00+02:00" : {
		"windSpeed" : 5.4,
		"windDir" : 108,
		"rain" : 0,
		"cloudbase" : null,
		"flyability" : -0,
		"reason" : "windSpeed, orientationsUnknown",
		"timestamp" :1555938000
		},
	"2019-04-22T17:00:00+02:00" : {
		"windSpeed" : 5.9,
		"windDir" : 85,
		"rain" : 0,
		"cloudbase" : 9723.44,
		"flyability" : -0,
		"reason" : "windSpeed, orientationsUnknown",
		"timestamp" :1555948800
		},
	"2019-04-22T20:00:00+02:00" : {
		"windSpeed" : 6.1,
		"windDir" : 81,
		"rain" : 0,
		"cloudbase" : 10000,
		"flyability" : -0,
		"reason" : "windSpeed, orientationsUnknown",
		"timestamp" :1555959600
		},
	"2019-04-22T23:00:00+02:00" : {
		"windSpeed" : 6.6,
		"windDir" : 90,
		"rain" : 0,
		"cloudbase" : 9054.47863,
		"flyability" : -0,
		"reason" : "windSpeed, orientationsUnknown",
		"timestamp" :1555970400
		},
	"2019-04-23T02:00:00+02:00" : {
		"windSpeed" : 6,
		"windDir" : 92,
		"rain" : 0,
		"cloudbase" : 9054.47863,
		"flyability" : -0,
		"reason" : "windSpeed, orientationsUnknown",
		"timestamp" :1555981200
		},
	"2019-04-23T05:00:00+02:00" : {
		"windSpeed" : 6,
		"windDir" : 91,
		"rain" : 0,
		"cloudbase" : 8900,
		"flyability" : -0,
		"reason" : "windSpeed, orientationsUnknown",
		"timestamp" :1555992000
		},
	"2019-04-23T08:00:00+02:00" : {
		"windSpeed" : 6,
		"windDir" : 86,
		"rain" : 0,
		"cloudbase" : null,
		"flyability" : -0,
		"reason" : "windSpeed, orientationsUnknown",
		"timestamp" :1556002800
		},
	"2019-04-23T11:00:00+02:00" : {
		"windSpeed" : 7,
		"windDir" : 100,
		"rain" : 0,
		"cloudbase" : null,
		"flyability" : -0,
		"reason" : "windSpeed, orientationsUnknown",
		"timestamp" :1556013600
		},
	"2019-04-23T14:00:00+02:00" : {
		"windSpeed" : 6.8,
		"windDir" : 104,
		"rain" : 0,
		"cloudbase" : null,
		"flyability" : -0,
		"reason" : "windSpeed, orientationsUnknown",
		"timestamp" :1556024400
		},
	"2019-04-23T17:00:00+02:00" : {
		"windSpeed" : 5.8,
		"windDir" : 117,
		"rain" : 0,
		"cloudbase" : null,
		"flyability" : -0,
		"reason" : "windSpeed, orientationsUnknown",
		"timestamp" :1556035200
		},
	"2019-04-23T20:00:00+02:00" : {
		"windSpeed" : 2.7,
		"windDir" : 106,
		"rain" : 0,
		"cloudbase" : null,
		"flyability" : -50,
		"reason" : "orientationsUnknown",
		"timestamp" :1556046000
		},
	"2019-04-23T23:00:00+02:00" : {
		"windSpeed" : 3.4,
		"windDir" : 117,
		"rain" : 0,
		"cloudbase" : 6400,
		"flyability" : -50,
		"reason" : "orientationsUnknown",
		"timestamp" :1556056800
		},
	"2019-04-24T02:00:00+02:00" : {
		"windSpeed" : 4.5,
		"windDir" : 127,
		"rain" : 0,
		"cloudbase" : 6282.51274,
		"flyability" : -50,
		"reason" : "orientationsUnknown",
		"timestamp" :1556067600
		},
	"2019-04-24T05:00:00+02:00" : {
		"windSpeed" : 4.1,
		"windDir" : 123,
		"rain" : 0,
		"cloudbase" : 4580.895685,
		"flyability" : -50,
		"reason" : "orientationsUnknown",
		"timestamp" :1556078400
		},
	"2019-04-24T08:00:00+02:00" : {
		"windSpeed" : 3.8,
		"windDir" : 125,
		"rain" : 0,
		"cloudbase" : null,
		"flyability" : -50,
		"reason" : "orientationsUnknown",
		"timestamp" :1556089200
		},
	"2019-04-24T11:00:00+02:00" : {
		"windSpeed" : 4.4,
		"windDir" : 207,
		"rain" : 0,
		"cloudbase" : null,
		"flyability" : -50,
		"reason" : "orientationsUnknown",
		"timestamp" :1556100000
		},
	"2019-04-24T14:00:00+02:00" : {
		"windSpeed" : 4.3,
		"windDir" : 202,
		"rain" : 0,
		"cloudbase" : null,
		"flyability" : -50,
		"reason" : "orientationsUnknown",
		"timestamp" :1556110800
		},
	"2019-04-24T17:00:00+02:00" : {
		"windSpeed" : 2.9,
		"windDir" : 154,
		"rain" : 0,
		"cloudbase" : null,
		"flyability" : -50,
		"reason" : "orientationsUnknown",
		"timestamp" :1556121600
		},
	"2019-04-24T20:00:00+02:00" : {
		"windSpeed" : 3,
		"windDir" : 123,
		"rain" : 0,
		"cloudbase" : 7706.74274,
		"flyability" : -50,
		"reason" : "orientationsUnknown",
		"timestamp" :1556132400
		},
	"2019-04-24T23:00:00+02:00" : {
		"windSpeed" : 2.6,
		"windDir" : 259,
		"rain" : 0,
		"cloudbase" : 6049.39137,
		"flyability" : -50,
		"reason" : "orientationsUnknown",
		"timestamp" :1556143200
		},
	"2019-04-25T02:00:00+02:00" : {
		"windSpeed" : 2.1,
		"windDir" : 232,
		"rain" : 0,
		"cloudbase" : 1625.77,
		"flyability" : -50,
		"reason" : "orientationsUnknown",
		"timestamp" :1556154000
		},
	"2019-04-25T05:00:00+02:00" : {
		"windSpeed" : 3.1,
		"windDir" : 152,
		"rain" : 0,
		"cloudbase" : 2296.19589,
		"flyability" : -50,
		"reason" : "orientationsUnknown",
		"timestamp" :1556164800
		},
	"2019-04-25T08:00:00+02:00" : {
		"windSpeed" : 3.8,
		"windDir" : 165,
		"rain" : 0,
		"cloudbase" : 7210.67863,
		"flyability" : -50,
		"reason" : "orientationsUnknown",
		"timestamp" :1556175600
		},
	"2019-04-25T11:00:00+02:00" : {
		"windSpeed" : 3.1,
		"windDir" : 168,
		"rain" : 1,
		"cloudbase" : null,
		"flyability" : -0,
		"reason" : "orientationsUnknown, rain",
		"timestamp" :1556186400
		},
	"2019-04-25T14:00:00+02:00" : {
		"windSpeed" : 5.4,
		"windDir" : 155,
		"rain" : 0,
		"cloudbase" : null,
		"flyability" : -0,
		"reason" : "windSpeed, orientationsUnknown",
		"timestamp" :1556197200
		},
	"2019-04-25T17:00:00+02:00" : {
		"windSpeed" : 3.4,
		"windDir" : 129,
		"rain" : 1,
		"cloudbase" : 8734.90863,
		"flyability" : -0,
		"reason" : "orientationsUnknown, rain",
		"timestamp" :1556208000
		},
	"2019-04-25T20:00:00+02:00" : {
		"windSpeed" : 2,
		"windDir" : 79,
		"rain" : 0,
		"cloudbase" : 2600,
		"flyability" : -50,
		"reason" : "orientationsUnknown",
		"timestamp" :1556218800
		},
	"2019-04-25T23:00:00+02:00" : {
		"windSpeed" : 1.5,
		"windDir" : 279,
		"rain" : 0,
		"cloudbase" : null,
		"flyability" : -50,
		"reason" : "orientationsUnknown",
		"timestamp" :1556229600
		},
	"2019-04-26T02:00:00+02:00" : {
		"windSpeed" : 4,
		"windDir" : 272,
		"rain" : 1,
		"cloudbase" : null,
		"flyability" : -0,
		"reason" : "orientationsUnknown, rain",
		"timestamp" :1556240400
		},
	"2019-04-26T05:00:00+02:00" : {
		"windSpeed" : 4.2,
		"windDir" : 285,
		"rain" : 0,
		"cloudbase" : 339.23396550004,
		"flyability" : -50,
		"reason" : "orientationsUnknown",
		"timestamp" :1556251200
		},
	"2019-04-26T08:00:00+02:00" : {
		"windSpeed" : 3.6,
		"windDir" : 264,
		"rain" : 1,
		"cloudbase" : 1921.757055,
		"flyability" : -0,
		"reason" : "orientationsUnknown, rain",
		"timestamp" :1556262000
		},
	"2019-04-26T11:00:00+02:00" : {
		"windSpeed" : 4,
		"windDir" : 281,
		"rain" : 1,
		"cloudbase" : 1124.463123,
		"flyability" : -0,
		"reason" : "orientationsUnknown, rain",
		"timestamp" :1556272800
		},
	"2019-04-26T14:00:00+02:00" : {
		"windSpeed" : 4,
		"windDir" : 270,
		"rain" : 1,
		"cloudbase" : 1707.5154100001,
		"flyability" : -0,
		"reason" : "orientationsUnknown, rain",
		"timestamp" :1556283600
		},
	"2019-04-26T17:00:00+02:00" : {
		"windSpeed" : 3.5,
		"windDir" : 257,
		"rain" : 1,
		"cloudbase" : 3787.49,
		"flyability" : -0,
		"reason" : "orientationsUnknown, rain",
		"timestamp" :1556294400
		},
	"2019-04-26T20:00:00+02:00" : {
		"windSpeed" : 2.5,
		"windDir" : 239,
		"rain" : 0,
		"cloudbase" : 4205.772055,
		"flyability" : -50,
		"reason" : "orientationsUnknown",
		"timestamp" :1556305200
		},
	"2019-04-26T23:00:00+02:00" : {
		"windSpeed" : 3,
		"windDir" : 217,
		"rain" : 0,
		"cloudbase" : 5617.2799999999,
		"flyability" : -50,
		"reason" : "orientationsUnknown",
		"timestamp" :1556316000
		},
	"2019-04-27T02:00:00+02:00" : {
		"windSpeed" : 2.8,
		"windDir" : 207,
		"rain" : 0,
		"cloudbase" : 5623.44,
		"flyability" : -50,
		"reason" : "orientationsUnknown",
		"timestamp" :1556326800
		},
	"2019-04-27T05:00:00+02:00" : {
		"windSpeed" : 2.8,
		"windDir" : 203,
		"rain" : 0,
		"cloudbase" : 5965.15726,
		"flyability" : -50,
		"reason" : "orientationsUnknown",
		"timestamp" :1556337600
		},
	"2019-04-27T08:00:00+02:00" : {
		"windSpeed" : 3,
		"windDir" : 208,
		"rain" : 0,
		"cloudbase" : null,
		"flyability" : -50,
		"reason" : "orientationsUnknown",
		"timestamp" :1556348400
		},
	"2019-04-27T11:00:00+02:00" : {
		"windSpeed" : 3.8,
		"windDir" : 214,
		"rain" : 1,
		"cloudbase" : 584.23741100001,
		"flyability" : -0,
		"reason" : "orientationsUnknown, rain",
		"timestamp" :1556359200
		},
	"2019-04-27T14:00:00+02:00" : {
		"windSpeed" : 5.3,
		"windDir" : 227,
		"rain" : 1,
		"cloudbase" : 1880.40185,
		"flyability" : -0,
		"reason" : "windSpeed, orientationsUnknown, rain",
		"timestamp" :1556370000
		},
	"2019-04-27T17:00:00+02:00" : {
		"windSpeed" : 6,
		"windDir" : 214,
		"rain" : 1,
		"cloudbase" : null,
		"flyability" : -0,
		"reason" : "windSpeed, orientationsUnknown, rain",
		"timestamp" :1556380800
		},
	"2019-04-27T20:00:00+02:00" : {
		"windSpeed" : 4.9,
		"windDir" : 213,
		"rain" : 1,
		"cloudbase" : null,
		"flyability" : -0,
		"reason" : "orientationsUnknown, rain",
		"timestamp" :1556391600
		},
	"2019-04-27T23:00:00+02:00" : {
		"windSpeed" : 4,
		"windDir" : 191,
		"rain" : 0,
		"cloudbase" : 430.93186300001,
		"flyability" : -50,
		"reason" : "orientationsUnknown",
		"timestamp" :1556402400
		},
	"2019-04-28T02:00:00+02:00" : {
		"windSpeed" : 1.4,
		"windDir" : 245,
		"rain" : 1,
		"cloudbase" : 305.119,
		"flyability" : -0,
		"reason" : "orientationsUnknown, rain",
		"timestamp" :1556413200
		}
	}
}