{
"site" : "Wonogiri",
"id" : 14053,
"orientations" : "00012210",
"forecasts" : { 
	"2019-04-07T10:00:00+07:00" : {
		"windSpeed" : 2.3,
		"windDir" : 194,
		"rain" : 1,
		"cloudbase" : null,
		"flyability" : 0,
		"reason" : "rain",
		"timestamp" :1554602400
		},
	"2019-04-07T13:00:00+07:00" : {
		"windSpeed" : 3.1,
		"windDir" : 194,
		"rain" : 0,
		"cloudbase" : 880,
		"flyability" : 100,
		"reason" : "",
		"timestamp" :1554613200
		},
	"2019-04-07T16:00:00+07:00" : {
		"windSpeed" : 3,
		"windDir" : 175,
		"rain" : 0,
		"cloudbase" : 12519,
		"flyability" : 100,
		"reason" : "",
		"timestamp" :1554624000
		},
	"2019-04-07T19:00:00+07:00" : {
		"windSpeed" : 1,
		"windDir" : 166,
		"rain" : 1,
		"cloudbase" : 16500,
		"flyability" : 0,
		"reason" : "rain",
		"timestamp" :1554634800
		},
	"2019-04-07T22:00:00+07:00" : {
		"windSpeed" : 1,
		"windDir" : 181,
		"rain" : 0,
		"cloudbase" : 15672,
		"flyability" : 100,
		"reason" : "",
		"timestamp" :1554645600
		},
	"2019-04-08T01:00:00+07:00" : {
		"windSpeed" : 1,
		"windDir" : 168,
		"rain" : 0,
		"cloudbase" : 12089,
		"flyability" : 100,
		"reason" : "",
		"timestamp" :1554656400
		},
	"2019-04-08T04:00:00+07:00" : {
		"windSpeed" : 0.8,
		"windDir" : 163,
		"rain" : 0,
		"cloudbase" : 14775,
		"flyability" : 100,
		"reason" : "",
		"timestamp" :1554667200
		},
	"2019-04-08T07:00:00+07:00" : {
		"windSpeed" : 0.6,
		"windDir" : 154,
		"rain" : 0,
		"cloudbase" : null,
		"flyability" : 100,
		"reason" : "",
		"timestamp" :1554678000
		},
	"2019-04-08T10:00:00+07:00" : {
		"windSpeed" : 0.5,
		"windDir" : 264,
		"rain" : 0,
		"cloudbase" : 883.04,
		"flyability" : 100,
		"reason" : "",
		"timestamp" :1554688800
		},
	"2019-04-08T13:00:00+07:00" : {
		"windSpeed" : 0.6,
		"windDir" : 335,
		"rain" : 1,
		"cloudbase" : 13806.7,
		"flyability" : 0,
		"reason" : "windDir, rain",
		"timestamp" :1554699600
		},
	"2019-04-08T16:00:00+07:00" : {
		"windSpeed" : 0.9,
		"windDir" : 299,
		"rain" : 0,
		"cloudbase" : 7649.4000000005,
		"flyability" : 0,
		"reason" : "windDir",
		"timestamp" :1554710400
		},
	"2019-04-08T19:00:00+07:00" : {
		"windSpeed" : 0.8,
		"windDir" : 161,
		"rain" : 1,
		"cloudbase" : 8069.5999999996,
		"flyability" : 0,
		"reason" : "rain",
		"timestamp" :1554721200
		},
	"2019-04-08T22:00:00+07:00" : {
		"windSpeed" : 0.7,
		"windDir" : 135,
		"rain" : 0,
		"cloudbase" : 1488.7999999997,
		"flyability" : 100,
		"reason" : "",
		"timestamp" :1554732000
		},
	"2019-04-09T01:00:00+07:00" : {
		"windSpeed" : 0.8,
		"windDir" : 162,
		"rain" : 0,
		"cloudbase" : 13991,
		"flyability" : 100,
		"reason" : "",
		"timestamp" :1554742800
		},
	"2019-04-09T04:00:00+07:00" : {
		"windSpeed" : 0.7,
		"windDir" : 135,
		"rain" : 0,
		"cloudbase" : 14384,
		"flyability" : 100,
		"reason" : "",
		"timestamp" :1554753600
		},
	"2019-04-09T07:00:00+07:00" : {
		"windSpeed" : 0.8,
		"windDir" : 111,
		"rain" : 1,
		"cloudbase" : 12500,
		"flyability" : 0,
		"reason" : "windDir, rain",
		"timestamp" :1554764400
		},
	"2019-04-09T10:00:00+07:00" : {
		"windSpeed" : 1.5,
		"windDir" : 270,
		"rain" : 1,
		"cloudbase" : 11686.16,
		"flyability" : 0,
		"reason" : "rain",
		"timestamp" :1554775200
		},
	"2019-04-09T13:00:00+07:00" : {
		"windSpeed" : 2,
		"windDir" : 299,
		"rain" : 1,
		"cloudbase" : 13500,
		"flyability" : 0,
		"reason" : "windDir, rain",
		"timestamp" :1554786000
		},
	"2019-04-09T16:00:00+07:00" : {
		"windSpeed" : 1.3,
		"windDir" : 260,
		"rain" : 1,
		"cloudbase" : 13000,
		"flyability" : 0,
		"reason" : "rain",
		"timestamp" :1554796800
		},
	"2019-04-09T19:00:00+07:00" : {
		"windSpeed" : 1,
		"windDir" : 194,
		"rain" : 0,
		"cloudbase" : 12000,
		"flyability" : 100,
		"reason" : "",
		"timestamp" :1554807600
		},
	"2019-04-09T22:00:00+07:00" : {
		"windSpeed" : 0.6,
		"windDir" : 155,
		"rain" : 0,
		"cloudbase" : 11980,
		"flyability" : 100,
		"reason" : "",
		"timestamp" :1554818400
		},
	"2019-04-10T01:00:00+07:00" : {
		"windSpeed" : 0.4,
		"windDir" : 142,
		"rain" : 1,
		"cloudbase" : 8129.4000000005,
		"flyability" : 0,
		"reason" : "rain",
		"timestamp" :1554829200
		},
	"2019-04-10T04:00:00+07:00" : {
		"windSpeed" : 0.6,
		"windDir" : 156,
		"rain" : 0,
		"cloudbase" : 677.63999999965,
		"flyability" : 100,
		"reason" : "",
		"timestamp" :1554840000
		},
	"2019-04-10T07:00:00+07:00" : {
		"windSpeed" : 0.8,
		"windDir" : 76,
		"rain" : 1,
		"cloudbase" : 5389.8000000001,
		"flyability" : 0,
		"reason" : "windDir, rain",
		"timestamp" :1554850800
		},
	"2019-04-10T10:00:00+07:00" : {
		"windSpeed" : 1.3,
		"windDir" : 233,
		"rain" : 1,
		"cloudbase" : 13500,
		"flyability" : 0,
		"reason" : "rain",
		"timestamp" :1554861600
		},
	"2019-04-10T13:00:00+07:00" : {
		"windSpeed" : 2.5,
		"windDir" : 225,
		"rain" : 1,
		"cloudbase" : 12000,
		"flyability" : 0,
		"reason" : "rain",
		"timestamp" :1554872400
		},
	"2019-04-10T16:00:00+07:00" : {
		"windSpeed" : 1.9,
		"windDir" : 220,
		"rain" : 0,
		"cloudbase" : 13736,
		"flyability" : 100,
		"reason" : "",
		"timestamp" :1554883200
		},
	"2019-04-10T19:00:00+07:00" : {
		"windSpeed" : 1.2,
		"windDir" : 191,
		"rain" : 1,
		"cloudbase" : 12737,
		"flyability" : 0,
		"reason" : "rain",
		"timestamp" :1554894000
		},
	"2019-04-10T22:00:00+07:00" : {
		"windSpeed" : 0.6,
		"windDir" : 113,
		"rain" : 0,
		"cloudbase" : 9998.2,
		"flyability" : 100,
		"reason" : "",
		"timestamp" :1554904800
		},
	"2019-04-11T01:00:00+07:00" : {
		"windSpeed" : 0.3,
		"windDir" : 39,
		"rain" : 1,
		"cloudbase" : 10736,
		"flyability" : 0,
		"reason" : "windDir, rain",
		"timestamp" :1554915600
		},
	"2019-04-11T04:00:00+07:00" : {
		"windSpeed" : 0.6,
		"windDir" : 330,
		"rain" : 0,
		"cloudbase" : 3813.5600000002,
		"flyability" : 0,
		"reason" : "windDir",
		"timestamp" :1554926400
		},
	"2019-04-11T07:00:00+07:00" : {
		"windSpeed" : 1.2,
		"windDir" : 359,
		"rain" : 0,
		"cloudbase" : 6460.1400000006,
		"flyability" : 0,
		"reason" : "windDir",
		"timestamp" :1554937200
		},
	"2019-04-11T10:00:00+07:00" : {
		"windSpeed" : 1.2,
		"windDir" : 359,
		"rain" : 1,
		"cloudbase" : 7856.0999999998,
		"flyability" : 0,
		"reason" : "windDir, rain",
		"timestamp" :1554948000
		},
	"2019-04-11T13:00:00+07:00" : {
		"windSpeed" : 1.3,
		"windDir" : 22,
		"rain" : 0,
		"cloudbase" : 12363.2,
		"flyability" : 0,
		"reason" : "windDir",
		"timestamp" :1554958800
		},
	"2019-04-11T16:00:00+07:00" : {
		"windSpeed" : 1,
		"windDir" : 272,
		"rain" : 0,
		"cloudbase" : 7365.5999999996,
		"flyability" : 100,
		"reason" : "",
		"timestamp" :1554969600
		},
	"2019-04-11T19:00:00+07:00" : {
		"windSpeed" : 0.6,
		"windDir" : 297,
		"rain" : 1,
		"cloudbase" : 10253.8,
		"flyability" : 0,
		"reason" : "windDir, rain",
		"timestamp" :1554980400
		},
	"2019-04-11T22:00:00+07:00" : {
		"windSpeed" : 0.7,
		"windDir" : 2,
		"rain" : 1,
		"cloudbase" : 10236,
		"flyability" : 0,
		"reason" : "windDir, rain",
		"timestamp" :1554991200
		},
	"2019-04-12T01:00:00+07:00" : {
		"windSpeed" : 0.7,
		"windDir" : 317,
		"rain" : 1,
		"cloudbase" : 8554.0000000001,
		"flyability" : 0,
		"reason" : "windDir, rain",
		"timestamp" :1555002000
		},
	"2019-04-12T04:00:00+07:00" : {
		"windSpeed" : 0.5,
		"windDir" : 96,
		"rain" : 0,
		"cloudbase" : 13275,
		"flyability" : 0,
		"reason" : "windDir",
		"timestamp" :1555012800
		},
	"2019-04-12T07:00:00+07:00" : {
		"windSpeed" : 0.8,
		"windDir" : 342,
		"rain" : 0,
		"cloudbase" : 300,
		"flyability" : 0,
		"reason" : "windDir, cloudbase",
		"timestamp" :1555023600
		},
	"2019-04-12T10:00:00+07:00" : {
		"windSpeed" : 0.4,
		"windDir" : 226,
		"rain" : 0,
		"cloudbase" : null,
		"flyability" : 100,
		"reason" : "",
		"timestamp" :1555034400
		},
	"2019-04-12T13:00:00+07:00" : {
		"windSpeed" : 2,
		"windDir" : 38,
		"rain" : 0,
		"cloudbase" : 11069.5,
		"flyability" : 0,
		"reason" : "windDir",
		"timestamp" :1555045200
		},
	"2019-04-12T16:00:00+07:00" : {
		"windSpeed" : 1.2,
		"windDir" : 190,
		"rain" : 0,
		"cloudbase" : 9689.8000000001,
		"flyability" : 100,
		"reason" : "",
		"timestamp" :1555056000
		},
	"2019-04-12T19:00:00+07:00" : {
		"windSpeed" : 1.2,
		"windDir" : 170,
		"rain" : 0,
		"cloudbase" : 10275,
		"flyability" : 100,
		"reason" : "",
		"timestamp" :1555066800
		},
	"2019-04-12T22:00:00+07:00" : {
		"windSpeed" : 1.2,
		"windDir" : 182,
		"rain" : 1,
		"cloudbase" : 10775,
		"flyability" : 0,
		"reason" : "rain",
		"timestamp" :1555077600
		},
	"2019-04-13T01:00:00+07:00" : {
		"windSpeed" : 0.7,
		"windDir" : 184,
		"rain" : 0,
		"cloudbase" : 11000,
		"flyability" : 100,
		"reason" : "",
		"timestamp" :1555088400
		},
	"2019-04-13T04:00:00+07:00" : {
		"windSpeed" : 0.7,
		"windDir" : 136,
		"rain" : 0,
		"cloudbase" : 11950,
		"flyability" : 100,
		"reason" : "",
		"timestamp" :1555099200
		},
	"2019-04-13T07:00:00+07:00" : {
		"windSpeed" : 1.2,
		"windDir" : 181,
		"rain" : 1,
		"cloudbase" : 11775,
		"flyability" : 0,
		"reason" : "rain",
		"timestamp" :1555110000
		}
	}
}