{
"site" : "Hermonville",
"id" : 14224,
"orientations" : "00020000",
"forecasts" : { 
	"2019-04-22T05:00:00+02:00" : {
		"windSpeed" : 2,
		"windDir" : 85,
		"rain" : 1,
		"cloudbase" : 7948.1,
		"flyability" : 0,
		"reason" : "windDir, rain",
		"timestamp" :1555905600
		},
	"2019-04-22T08:00:00+02:00" : {
		"windSpeed" : 2.7,
		"windDir" : 100,
		"rain" : 0,
		"cloudbase" : null,
		"flyability" : 0,
		"reason" : "windDir",
		"timestamp" :1555916400
		},
	"2019-04-22T11:00:00+02:00" : {
		"windSpeed" : 2.2,
		"windDir" : 68,
		"rain" : 0,
		"cloudbase" : null,
		"flyability" : 0,
		"reason" : "windDir",
		"timestamp" :1555927200
		},
	"2019-04-22T14:00:00+02:00" : {
		"windSpeed" : 3.1,
		"windDir" : 75,
		"rain" : 0,
		"cloudbase" : 10000,
		"flyability" : 0,
		"reason" : "windDir",
		"timestamp" :1555938000
		},
	"2019-04-22T17:00:00+02:00" : {
		"windSpeed" : 3.9,
		"windDir" : 63,
		"rain" : 0,
		"cloudbase" : null,
		"flyability" : 0,
		"reason" : "windDir",
		"timestamp" :1555948800
		},
	"2019-04-22T20:00:00+02:00" : {
		"windSpeed" : 3.5,
		"windDir" : 59,
		"rain" : 0,
		"cloudbase" : 8035.316,
		"flyability" : 0,
		"reason" : "windDir",
		"timestamp" :1555959600
		},
	"2019-04-22T23:00:00+02:00" : {
		"windSpeed" : 3.8,
		"windDir" : 67,
		"rain" : 0,
		"cloudbase" : null,
		"flyability" : 0,
		"reason" : "windDir",
		"timestamp" :1555970400
		},
	"2019-04-23T02:00:00+02:00" : {
		"windSpeed" : 2,
		"windDir" : 90,
		"rain" : 0,
		"cloudbase" : null,
		"flyability" : 0,
		"reason" : "windDir",
		"timestamp" :1555981200
		},
	"2019-04-23T05:00:00+02:00" : {
		"windSpeed" : 2.6,
		"windDir" : 79,
		"rain" : 0,
		"cloudbase" : 9248.076,
		"flyability" : 0,
		"reason" : "windDir",
		"timestamp" :1555992000
		},
	"2019-04-23T08:00:00+02:00" : {
		"windSpeed" : 3.5,
		"windDir" : 98,
		"rain" : 0,
		"cloudbase" : null,
		"flyability" : 0,
		"reason" : "windDir",
		"timestamp" :1556002800
		},
	"2019-04-23T11:00:00+02:00" : {
		"windSpeed" : 3.2,
		"windDir" : 99,
		"rain" : 0,
		"cloudbase" : 9144.308,
		"flyability" : 0,
		"reason" : "windDir",
		"timestamp" :1556013600
		},
	"2019-04-23T14:00:00+02:00" : {
		"windSpeed" : 2.6,
		"windDir" : 106,
		"rain" : 0,
		"cloudbase" : 8589.752,
		"flyability" : 0,
		"reason" : "windDir",
		"timestamp" :1556024400
		},
	"2019-04-23T17:00:00+02:00" : {
		"windSpeed" : 2.2,
		"windDir" : 116,
		"rain" : 0,
		"cloudbase" : 5321.5,
		"flyability" : 100,
		"reason" : "",
		"timestamp" :1556035200
		},
	"2019-04-23T20:00:00+02:00" : {
		"windSpeed" : 1.8,
		"windDir" : 146,
		"rain" : 0,
		"cloudbase" : 8307.616,
		"flyability" : 100,
		"reason" : "",
		"timestamp" :1556046000
		},
	"2019-04-23T23:00:00+02:00" : {
		"windSpeed" : 2.8,
		"windDir" : 176,
		"rain" : 0,
		"cloudbase" : 8562.092,
		"flyability" : 0,
		"reason" : "windDir",
		"timestamp" :1556056800
		},
	"2019-04-24T02:00:00+02:00" : {
		"windSpeed" : 3.3,
		"windDir" : 180,
		"rain" : 0,
		"cloudbase" : null,
		"flyability" : 0,
		"reason" : "windDir",
		"timestamp" :1556067600
		},
	"2019-04-24T05:00:00+02:00" : {
		"windSpeed" : 4.2,
		"windDir" : 162,
		"rain" : 0,
		"cloudbase" : 8796.4359999999,
		"flyability" : 0,
		"reason" : "windDir",
		"timestamp" :1556078400
		},
	"2019-04-24T08:00:00+02:00" : {
		"windSpeed" : 5.1,
		"windDir" : 160,
		"rain" : 0,
		"cloudbase" : null,
		"flyability" : 0,
		"reason" : "windSpeed, windDir",
		"timestamp" :1556089200
		},
	"2019-04-24T11:00:00+02:00" : {
		"windSpeed" : 6.4,
		"windDir" : 171,
		"rain" : 0,
		"cloudbase" : null,
		"flyability" : 0,
		"reason" : "windSpeed, windDir",
		"timestamp" :1556100000
		},
	"2019-04-24T14:00:00+02:00" : {
		"windSpeed" : 7,
		"windDir" : 176,
		"rain" : 1,
		"cloudbase" : null,
		"flyability" : 0,
		"reason" : "windSpeed, windDir, rain",
		"timestamp" :1556110800
		},
	"2019-04-24T17:00:00+02:00" : {
		"windSpeed" : 5.9,
		"windDir" : 200,
		"rain" : 1,
		"cloudbase" : null,
		"flyability" : 0,
		"reason" : "windSpeed, windDir, rain",
		"timestamp" :1556121600
		},
	"2019-04-24T20:00:00+02:00" : {
		"windSpeed" : 4.8,
		"windDir" : 180,
		"rain" : 0,
		"cloudbase" : 4508.304,
		"flyability" : 0,
		"reason" : "windDir",
		"timestamp" :1556132400
		},
	"2019-04-24T23:00:00+02:00" : {
		"windSpeed" : 4,
		"windDir" : 146,
		"rain" : 0,
		"cloudbase" : 6165.9,
		"flyability" : 100,
		"reason" : "",
		"timestamp" :1556143200
		},
	"2019-04-25T02:00:00+02:00" : {
		"windSpeed" : 5.4,
		"windDir" : 152,
		"rain" : 0,
		"cloudbase" : null,
		"flyability" : 0,
		"reason" : "windSpeed",
		"timestamp" :1556154000
		},
	"2019-04-25T05:00:00+02:00" : {
		"windSpeed" : 5.2,
		"windDir" : 145,
		"rain" : 0,
		"cloudbase" : 7096.192,
		"flyability" : 0,
		"reason" : "windSpeed",
		"timestamp" :1556164800
		},
	"2019-04-25T08:00:00+02:00" : {
		"windSpeed" : 5.5,
		"windDir" : 151,
		"rain" : 1,
		"cloudbase" : 3944.652,
		"flyability" : 0,
		"reason" : "windSpeed, rain",
		"timestamp" :1556175600
		},
	"2019-04-25T11:00:00+02:00" : {
		"windSpeed" : 6.7,
		"windDir" : 167,
		"rain" : 0,
		"cloudbase" : 2144.85,
		"flyability" : 0,
		"reason" : "windSpeed, windDir",
		"timestamp" :1556186400
		},
	"2019-04-25T14:00:00+02:00" : {
		"windSpeed" : 4.7,
		"windDir" : 205,
		"rain" : 1,
		"cloudbase" : 2322.762,
		"flyability" : 0,
		"reason" : "windDir, rain",
		"timestamp" :1556197200
		},
	"2019-04-25T17:00:00+02:00" : {
		"windSpeed" : 4.4,
		"windDir" : 205,
		"rain" : 1,
		"cloudbase" : 1418.954,
		"flyability" : 0,
		"reason" : "windDir, rain",
		"timestamp" :1556208000
		},
	"2019-04-25T20:00:00+02:00" : {
		"windSpeed" : 3.6,
		"windDir" : 196,
		"rain" : 1,
		"cloudbase" : 3679.162,
		"flyability" : 0,
		"reason" : "windDir, rain",
		"timestamp" :1556218800
		},
	"2019-04-25T23:00:00+02:00" : {
		"windSpeed" : 4.1,
		"windDir" : 202,
		"rain" : 1,
		"cloudbase" : 4753.2,
		"flyability" : 0,
		"reason" : "windDir, rain",
		"timestamp" :1556229600
		},
	"2019-04-26T02:00:00+02:00" : {
		"windSpeed" : 3.9,
		"windDir" : 195,
		"rain" : 0,
		"cloudbase" : 6072.3,
		"flyability" : 0,
		"reason" : "windDir",
		"timestamp" :1556240400
		},
	"2019-04-26T05:00:00+02:00" : {
		"windSpeed" : 3.3,
		"windDir" : 203,
		"rain" : 0,
		"cloudbase" : 6782.216,
		"flyability" : 0,
		"reason" : "windDir",
		"timestamp" :1556251200
		},
	"2019-04-26T08:00:00+02:00" : {
		"windSpeed" : 3.8,
		"windDir" : 176,
		"rain" : 0,
		"cloudbase" : null,
		"flyability" : 0,
		"reason" : "windDir",
		"timestamp" :1556262000
		},
	"2019-04-26T11:00:00+02:00" : {
		"windSpeed" : 5,
		"windDir" : 198,
		"rain" : 1,
		"cloudbase" : null,
		"flyability" : 0,
		"reason" : "windDir, rain",
		"timestamp" :1556272800
		},
	"2019-04-26T14:00:00+02:00" : {
		"windSpeed" : 5.7,
		"windDir" : 218,
		"rain" : 1,
		"cloudbase" : null,
		"flyability" : 0,
		"reason" : "windSpeed, windDir, rain",
		"timestamp" :1556283600
		},
	"2019-04-26T17:00:00+02:00" : {
		"windSpeed" : 5.3,
		"windDir" : 215,
		"rain" : 1,
		"cloudbase" : null,
		"flyability" : 0,
		"reason" : "windSpeed, windDir, rain",
		"timestamp" :1556294400
		},
	"2019-04-26T20:00:00+02:00" : {
		"windSpeed" : 2.1,
		"windDir" : 210,
		"rain" : 1,
		"cloudbase" : null,
		"flyability" : 0,
		"reason" : "windDir, rain",
		"timestamp" :1556305200
		},
	"2019-04-26T23:00:00+02:00" : {
		"windSpeed" : 3.4,
		"windDir" : 191,
		"rain" : 0,
		"cloudbase" : null,
		"flyability" : 0,
		"reason" : "windDir",
		"timestamp" :1556316000
		},
	"2019-04-27T02:00:00+02:00" : {
		"windSpeed" : 3.9,
		"windDir" : 239,
		"rain" : 1,
		"cloudbase" : 6140.4739999999,
		"flyability" : 0,
		"reason" : "windDir, rain",
		"timestamp" :1556326800
		},
	"2019-04-27T05:00:00+02:00" : {
		"windSpeed" : 4.1,
		"windDir" : 263,
		"rain" : 1,
		"cloudbase" : 1138.008,
		"flyability" : 0,
		"reason" : "windDir, rain",
		"timestamp" :1556337600
		},
	"2019-04-27T08:00:00+02:00" : {
		"windSpeed" : 4.7,
		"windDir" : 212,
		"rain" : 1,
		"cloudbase" : 2591.696,
		"flyability" : 0,
		"reason" : "windDir, rain",
		"timestamp" :1556348400
		},
	"2019-04-27T11:00:00+02:00" : {
		"windSpeed" : 6.8,
		"windDir" : 197,
		"rain" : 1,
		"cloudbase" : 2463.332,
		"flyability" : 0,
		"reason" : "windSpeed, windDir, rain",
		"timestamp" :1556359200
		},
	"2019-04-27T14:00:00+02:00" : {
		"windSpeed" : 8.9,
		"windDir" : 235,
		"rain" : 1,
		"cloudbase" : 2240.558,
		"flyability" : 0,
		"reason" : "windSpeed, windDir, rain",
		"timestamp" :1556370000
		},
	"2019-04-27T17:00:00+02:00" : {
		"windSpeed" : 9.4,
		"windDir" : 253,
		"rain" : 1,
		"cloudbase" : 1538.496,
		"flyability" : 0,
		"reason" : "windSpeed, windDir, rain",
		"timestamp" :1556380800
		},
	"2019-04-27T20:00:00+02:00" : {
		"windSpeed" : 10,
		"windDir" : 272,
		"rain" : 1,
		"cloudbase" : 939.60720000003,
		"flyability" : 0,
		"reason" : "windSpeed, windDir, rain",
		"timestamp" :1556391600
		},
	"2019-04-27T23:00:00+02:00" : {
		"windSpeed" : 7.8,
		"windDir" : 274,
		"rain" : 1,
		"cloudbase" : 1703.0708,
		"flyability" : 0,
		"reason" : "windSpeed, windDir, rain",
		"timestamp" :1556402400
		},
	"2019-04-28T02:00:00+02:00" : {
		"windSpeed" : 6.3,
		"windDir" : 270,
		"rain" : 0,
		"cloudbase" : null,
		"flyability" : 0,
		"reason" : "windSpeed, windDir",
		"timestamp" :1556413200
		}
	}
}