{
"site" : "Uroi",
"id" : 14317,
"orientations" : "02222222",
"forecasts" : { 
	"2019-04-17T06:00:00+03:00" : {
		"windSpeed" : 0.8,
		"windDir" : 284,
		"rain" : 0,
		"cloudbase" : 2249.38,
		"flyability" : 100,
		"reason" : "",
		"timestamp" :1555470000
		},
	"2019-04-17T09:00:00+03:00" : {
		"windSpeed" : 1,
		"windDir" : 313,
		"rain" : 0,
		"cloudbase" : null,
		"flyability" : 100,
		"reason" : "",
		"timestamp" :1555480800
		},
	"2019-04-17T12:00:00+03:00" : {
		"windSpeed" : 0.2,
		"windDir" : 297,
		"rain" : 1,
		"cloudbase" : 2277.6700000001,
		"flyability" : 0,
		"reason" : "rain",
		"timestamp" :1555491600
		},
	"2019-04-17T15:00:00+03:00" : {
		"windSpeed" : 0.5,
		"windDir" : 259,
		"rain" : 1,
		"cloudbase" : 1259.88,
		"flyability" : 0,
		"reason" : "rain",
		"timestamp" :1555502400
		},
	"2019-04-17T18:00:00+03:00" : {
		"windSpeed" : 2.5,
		"windDir" : 48,
		"rain" : 1,
		"cloudbase" : 1378.69,
		"flyability" : 0,
		"reason" : "rain",
		"timestamp" :1555513200
		},
	"2019-04-17T21:00:00+03:00" : {
		"windSpeed" : 1.4,
		"windDir" : 50,
		"rain" : 0,
		"cloudbase" : null,
		"flyability" : 100,
		"reason" : "",
		"timestamp" :1555524000
		},
	"2019-04-18T00:00:00+03:00" : {
		"windSpeed" : 2,
		"windDir" : 52,
		"rain" : 1,
		"cloudbase" : null,
		"flyability" : 0,
		"reason" : "rain",
		"timestamp" :1555534800
		},
	"2019-04-18T03:00:00+03:00" : {
		"windSpeed" : 2.1,
		"windDir" : 67,
		"rain" : 0,
		"cloudbase" : null,
		"flyability" : 100,
		"reason" : "",
		"timestamp" :1555545600
		},
	"2019-04-18T06:00:00+03:00" : {
		"windSpeed" : 1.4,
		"windDir" : 114,
		"rain" : 0,
		"cloudbase" : null,
		"flyability" : 100,
		"reason" : "",
		"timestamp" :1555556400
		},
	"2019-04-18T09:00:00+03:00" : {
		"windSpeed" : 1.7,
		"windDir" : 80,
		"rain" : 0,
		"cloudbase" : null,
		"flyability" : 100,
		"reason" : "",
		"timestamp" :1555567200
		},
	"2019-04-18T12:00:00+03:00" : {
		"windSpeed" : 5.6,
		"windDir" : 69,
		"rain" : 0,
		"cloudbase" : 1406.69,
		"flyability" : 0,
		"reason" : "windSpeed",
		"timestamp" :1555578000
		},
	"2019-04-18T15:00:00+03:00" : {
		"windSpeed" : 5,
		"windDir" : 68,
		"rain" : 0,
		"cloudbase" : 1350,
		"flyability" : 100,
		"reason" : "",
		"timestamp" :1555588800
		},
	"2019-04-18T18:00:00+03:00" : {
		"windSpeed" : 5,
		"windDir" : 69,
		"rain" : 0,
		"cloudbase" : 1550,
		"flyability" : 100,
		"reason" : "",
		"timestamp" :1555599600
		},
	"2019-04-18T21:00:00+03:00" : {
		"windSpeed" : 1.6,
		"windDir" : 69,
		"rain" : 0,
		"cloudbase" : null,
		"flyability" : 100,
		"reason" : "",
		"timestamp" :1555610400
		},
	"2019-04-19T00:00:00+03:00" : {
		"windSpeed" : 0.9,
		"windDir" : 53,
		"rain" : 0,
		"cloudbase" : null,
		"flyability" : 100,
		"reason" : "",
		"timestamp" :1555621200
		},
	"2019-04-19T03:00:00+03:00" : {
		"windSpeed" : 0.4,
		"windDir" : 259,
		"rain" : 0,
		"cloudbase" : null,
		"flyability" : 100,
		"reason" : "",
		"timestamp" :1555632000
		},
	"2019-04-19T06:00:00+03:00" : {
		"windSpeed" : 0.8,
		"windDir" : 257,
		"rain" : 0,
		"cloudbase" : null,
		"flyability" : 100,
		"reason" : "",
		"timestamp" :1555642800
		},
	"2019-04-19T09:00:00+03:00" : {
		"windSpeed" : 0.7,
		"windDir" : 232,
		"rain" : 0,
		"cloudbase" : null,
		"flyability" : 100,
		"reason" : "",
		"timestamp" :1555653600
		},
	"2019-04-19T12:00:00+03:00" : {
		"windSpeed" : 1.1,
		"windDir" : 89,
		"rain" : 0,
		"cloudbase" : 2150,
		"flyability" : 100,
		"reason" : "",
		"timestamp" :1555664400
		},
	"2019-04-19T15:00:00+03:00" : {
		"windSpeed" : 1.4,
		"windDir" : 105,
		"rain" : 0,
		"cloudbase" : 2754.43,
		"flyability" : 100,
		"reason" : "",
		"timestamp" :1555675200
		},
	"2019-04-19T18:00:00+03:00" : {
		"windSpeed" : 3.8,
		"windDir" : 50,
		"rain" : 0,
		"cloudbase" : 2700,
		"flyability" : 100,
		"reason" : "",
		"timestamp" :1555686000
		},
	"2019-04-19T21:00:00+03:00" : {
		"windSpeed" : 2.7,
		"windDir" : 33,
		"rain" : 0,
		"cloudbase" : null,
		"flyability" : 100,
		"reason" : "",
		"timestamp" :1555696800
		},
	"2019-04-20T00:00:00+03:00" : {
		"windSpeed" : 1.9,
		"windDir" : 50,
		"rain" : 0,
		"cloudbase" : null,
		"flyability" : 100,
		"reason" : "",
		"timestamp" :1555707600
		},
	"2019-04-20T03:00:00+03:00" : {
		"windSpeed" : 1.2,
		"windDir" : 40,
		"rain" : 0,
		"cloudbase" : null,
		"flyability" : 100,
		"reason" : "",
		"timestamp" :1555718400
		},
	"2019-04-20T06:00:00+03:00" : {
		"windSpeed" : 1.9,
		"windDir" : 42,
		"rain" : 0,
		"cloudbase" : null,
		"flyability" : 100,
		"reason" : "",
		"timestamp" :1555729200
		},
	"2019-04-20T09:00:00+03:00" : {
		"windSpeed" : 3.1,
		"windDir" : 69,
		"rain" : 0,
		"cloudbase" : null,
		"flyability" : 100,
		"reason" : "",
		"timestamp" :1555740000
		},
	"2019-04-20T12:00:00+03:00" : {
		"windSpeed" : 3.9,
		"windDir" : 59,
		"rain" : 0,
		"cloudbase" : null,
		"flyability" : 100,
		"reason" : "",
		"timestamp" :1555750800
		},
	"2019-04-20T15:00:00+03:00" : {
		"windSpeed" : 4,
		"windDir" : 63,
		"rain" : 0,
		"cloudbase" : 2313.38,
		"flyability" : 100,
		"reason" : "",
		"timestamp" :1555761600
		},
	"2019-04-20T18:00:00+03:00" : {
		"windSpeed" : 3.5,
		"windDir" : 97,
		"rain" : 0,
		"cloudbase" : 2400,
		"flyability" : 100,
		"reason" : "",
		"timestamp" :1555772400
		},
	"2019-04-20T21:00:00+03:00" : {
		"windSpeed" : 2,
		"windDir" : 87,
		"rain" : 0,
		"cloudbase" : 2408.31,
		"flyability" : 100,
		"reason" : "",
		"timestamp" :1555783200
		},
	"2019-04-21T00:00:00+03:00" : {
		"windSpeed" : 0.8,
		"windDir" : 118,
		"rain" : 0,
		"cloudbase" : null,
		"flyability" : 100,
		"reason" : "",
		"timestamp" :1555794000
		},
	"2019-04-21T03:00:00+03:00" : {
		"windSpeed" : 0.8,
		"windDir" : 185,
		"rain" : 0,
		"cloudbase" : null,
		"flyability" : 100,
		"reason" : "",
		"timestamp" :1555804800
		},
	"2019-04-21T06:00:00+03:00" : {
		"windSpeed" : 0.7,
		"windDir" : 232,
		"rain" : 0,
		"cloudbase" : null,
		"flyability" : 100,
		"reason" : "",
		"timestamp" :1555815600
		},
	"2019-04-21T09:00:00+03:00" : {
		"windSpeed" : 0.7,
		"windDir" : 197,
		"rain" : 0,
		"cloudbase" : null,
		"flyability" : 100,
		"reason" : "",
		"timestamp" :1555826400
		},
	"2019-04-21T12:00:00+03:00" : {
		"windSpeed" : 2.1,
		"windDir" : 288,
		"rain" : 0,
		"cloudbase" : null,
		"flyability" : 100,
		"reason" : "",
		"timestamp" :1555837200
		},
	"2019-04-21T15:00:00+03:00" : {
		"windSpeed" : 2.8,
		"windDir" : 322,
		"rain" : 0,
		"cloudbase" : 2388.5,
		"flyability" : 100,
		"reason" : "",
		"timestamp" :1555848000
		},
	"2019-04-21T18:00:00+03:00" : {
		"windSpeed" : 2.1,
		"windDir" : 48,
		"rain" : 0,
		"cloudbase" : 2809.93,
		"flyability" : 100,
		"reason" : "",
		"timestamp" :1555858800
		},
	"2019-04-21T21:00:00+03:00" : {
		"windSpeed" : 1.8,
		"windDir" : 106,
		"rain" : 0,
		"cloudbase" : 2800,
		"flyability" : 100,
		"reason" : "",
		"timestamp" :1555869600
		},
	"2019-04-22T00:00:00+03:00" : {
		"windSpeed" : 0.6,
		"windDir" : 191,
		"rain" : 0,
		"cloudbase" : null,
		"flyability" : 100,
		"reason" : "",
		"timestamp" :1555880400
		},
	"2019-04-22T03:00:00+03:00" : {
		"windSpeed" : 1,
		"windDir" : 136,
		"rain" : 0,
		"cloudbase" : 6026.24,
		"flyability" : 100,
		"reason" : "",
		"timestamp" :1555891200
		},
	"2019-04-22T06:00:00+03:00" : {
		"windSpeed" : 0.8,
		"windDir" : 89,
		"rain" : 0,
		"cloudbase" : 5600,
		"flyability" : 100,
		"reason" : "",
		"timestamp" :1555902000
		},
	"2019-04-22T09:00:00+03:00" : {
		"windSpeed" : 1.7,
		"windDir" : 70,
		"rain" : 1,
		"cloudbase" : 3079.4699999999,
		"flyability" : 0,
		"reason" : "rain",
		"timestamp" :1555912800
		},
	"2019-04-22T12:00:00+03:00" : {
		"windSpeed" : 2,
		"windDir" : 69,
		"rain" : 1,
		"cloudbase" : 2513.62,
		"flyability" : 0,
		"reason" : "rain",
		"timestamp" :1555923600
		},
	"2019-04-22T15:00:00+03:00" : {
		"windSpeed" : 2.1,
		"windDir" : 149,
		"rain" : 1,
		"cloudbase" : 4347.8600000001,
		"flyability" : 0,
		"reason" : "rain",
		"timestamp" :1555934400
		},
	"2019-04-22T18:00:00+03:00" : {
		"windSpeed" : 3,
		"windDir" : 148,
		"rain" : 1,
		"cloudbase" : 3679.8300000002,
		"flyability" : 0,
		"reason" : "rain",
		"timestamp" :1555945200
		},
	"2019-04-22T21:00:00+03:00" : {
		"windSpeed" : 1.6,
		"windDir" : 150,
		"rain" : 0,
		"cloudbase" : 2266.69,
		"flyability" : 100,
		"reason" : "",
		"timestamp" :1555956000
		},
	"2019-04-23T00:00:00+03:00" : {
		"windSpeed" : 1,
		"windDir" : 139,
		"rain" : 0,
		"cloudbase" : 2287.24,
		"flyability" : 100,
		"reason" : "",
		"timestamp" :1555966800
		},
	"2019-04-23T03:00:00+03:00" : {
		"windSpeed" : 1.2,
		"windDir" : 72,
		"rain" : 0,
		"cloudbase" : 2350,
		"flyability" : 100,
		"reason" : "",
		"timestamp" :1555977600
		}
	}
}