{
"site" : "Nor Ughi",
"id" : 14321,
"orientations" : "00022200",
"forecasts" : { 
	"2019-04-05T06:00:00+03:00" : {
		"windSpeed" : 1.6,
		"windDir" : 108,
		"rain" : 0,
		"cloudbase" : 3300,
		"flyability" : 0,
		"reason" : "windDir",
		"timestamp" :1554433200
		},
	"2019-04-05T09:00:00+03:00" : {
		"windSpeed" : 0.7,
		"windDir" : 135,
		"rain" : 0,
		"cloudbase" : 2900,
		"flyability" : 100,
		"reason" : "",
		"timestamp" :1554444000
		},
	"2019-04-05T12:00:00+03:00" : {
		"windSpeed" : 1.6,
		"windDir" : 162,
		"rain" : 1,
		"cloudbase" : 4950,
		"flyability" : 0,
		"reason" : "rain",
		"timestamp" :1554454800
		},
	"2019-04-05T15:00:00+03:00" : {
		"windSpeed" : 1.1,
		"windDir" : 207,
		"rain" : 1,
		"cloudbase" : 2500,
		"flyability" : 0,
		"reason" : "rain",
		"timestamp" :1554465600
		},
	"2019-04-05T18:00:00+03:00" : {
		"windSpeed" : 1.8,
		"windDir" : 34,
		"rain" : 1,
		"cloudbase" : 6400,
		"flyability" : 0,
		"reason" : "windDir, rain",
		"timestamp" :1554476400
		},
	"2019-04-05T21:00:00+03:00" : {
		"windSpeed" : 2.1,
		"windDir" : 104,
		"rain" : 0,
		"cloudbase" : 5200,
		"flyability" : 0,
		"reason" : "windDir",
		"timestamp" :1554487200
		},
	"2019-04-06T00:00:00+03:00" : {
		"windSpeed" : 2,
		"windDir" : 90,
		"rain" : 0,
		"cloudbase" : 1200,
		"flyability" : 0,
		"reason" : "windDir, cloudbase",
		"timestamp" :1554498000
		},
	"2019-04-06T03:00:00+03:00" : {
		"windSpeed" : 1.8,
		"windDir" : 56,
		"rain" : 0,
		"cloudbase" : 1000,
		"flyability" : 0,
		"reason" : "windDir, cloudbase",
		"timestamp" :1554508800
		},
	"2019-04-06T06:00:00+03:00" : {
		"windSpeed" : 1,
		"windDir" : 90,
		"rain" : 0,
		"cloudbase" : 270,
		"flyability" : 0,
		"reason" : "windDir, cloudbase",
		"timestamp" :1554519600
		},
	"2019-04-06T09:00:00+03:00" : {
		"windSpeed" : 2.1,
		"windDir" : 135,
		"rain" : 0,
		"cloudbase" : 660,
		"flyability" : 0,
		"reason" : "cloudbase",
		"timestamp" :1554530400
		},
	"2019-04-06T12:00:00+03:00" : {
		"windSpeed" : 1.1,
		"windDir" : 207,
		"rain" : 1,
		"cloudbase" : 580,
		"flyability" : 0,
		"reason" : "rain, cloudbase",
		"timestamp" :1554541200
		},
	"2019-04-06T15:00:00+03:00" : {
		"windSpeed" : 2.5,
		"windDir" : 259,
		"rain" : 1,
		"cloudbase" : null,
		"flyability" : 0,
		"reason" : "windDir, rain",
		"timestamp" :1554552000
		},
	"2019-04-06T18:00:00+03:00" : {
		"windSpeed" : 1.5,
		"windDir" : 270,
		"rain" : 0,
		"cloudbase" : 220,
		"flyability" : 0,
		"reason" : "windDir, cloudbase",
		"timestamp" :1554562800
		},
	"2019-04-06T21:00:00+03:00" : {
		"windSpeed" : 1.8,
		"windDir" : 214,
		"rain" : 0,
		"cloudbase" : 30,
		"flyability" : 0,
		"reason" : "cloudbase",
		"timestamp" :1554573600
		},
	"2019-04-07T00:00:00+03:00" : {
		"windSpeed" : 1.1,
		"windDir" : 153,
		"rain" : 0,
		"cloudbase" : 30,
		"flyability" : 0,
		"reason" : "cloudbase",
		"timestamp" :1554584400
		},
	"2019-04-07T03:00:00+03:00" : {
		"windSpeed" : 0.5,
		"windDir" : 180,
		"rain" : 0,
		"cloudbase" : 30,
		"flyability" : 0,
		"reason" : "cloudbase",
		"timestamp" :1554595200
		},
	"2019-04-07T06:00:00+03:00" : {
		"windSpeed" : 0.7,
		"windDir" : 135,
		"rain" : 0,
		"cloudbase" : 30,
		"flyability" : 0,
		"reason" : "cloudbase",
		"timestamp" :1554606000
		},
	"2019-04-07T09:00:00+03:00" : {
		"windSpeed" : 1.5,
		"windDir" : 270,
		"rain" : 0,
		"cloudbase" : 640,
		"flyability" : 0,
		"reason" : "windDir, cloudbase",
		"timestamp" :1554616800
		},
	"2019-04-07T12:00:00+03:00" : {
		"windSpeed" : 1.1,
		"windDir" : 297,
		"rain" : 0,
		"cloudbase" : 1000,
		"flyability" : 0,
		"reason" : "windDir, cloudbase",
		"timestamp" :1554627600
		},
	"2019-04-07T15:00:00+03:00" : {
		"windSpeed" : 1.6,
		"windDir" : 252,
		"rain" : 0,
		"cloudbase" : 1250,
		"flyability" : 0,
		"reason" : "windDir, cloudbase",
		"timestamp" :1554638400
		},
	"2019-04-07T18:00:00+03:00" : {
		"windSpeed" : 1.8,
		"windDir" : 304,
		"rain" : 0,
		"cloudbase" : null,
		"flyability" : 0,
		"reason" : "windDir",
		"timestamp" :1554649200
		},
	"2019-04-07T21:00:00+03:00" : {
		"windSpeed" : 0.5,
		"windDir" : 90,
		"rain" : 0,
		"cloudbase" : null,
		"flyability" : 0,
		"reason" : "windDir",
		"timestamp" :1554660000
		},
	"2019-04-08T00:00:00+03:00" : {
		"windSpeed" : 2.1,
		"windDir" : 135,
		"rain" : 0,
		"cloudbase" : null,
		"flyability" : 100,
		"reason" : "",
		"timestamp" :1554670800
		},
	"2019-04-08T03:00:00+03:00" : {
		"windSpeed" : 1.8,
		"windDir" : 124,
		"rain" : 0,
		"cloudbase" : null,
		"flyability" : 100,
		"reason" : "",
		"timestamp" :1554681600
		},
	"2019-04-08T06:00:00+03:00" : {
		"windSpeed" : 1.8,
		"windDir" : 124,
		"rain" : 0,
		"cloudbase" : null,
		"flyability" : 100,
		"reason" : "",
		"timestamp" :1554692400
		},
	"2019-04-08T09:00:00+03:00" : {
		"windSpeed" : 0.5,
		"windDir" : 180,
		"rain" : 0,
		"cloudbase" : null,
		"flyability" : 100,
		"reason" : "",
		"timestamp" :1554703200
		},
	"2019-04-08T12:00:00+03:00" : {
		"windSpeed" : 1.1,
		"windDir" : 243,
		"rain" : 0,
		"cloudbase" : 1750,
		"flyability" : 0,
		"reason" : "cloudbase",
		"timestamp" :1554714000
		},
	"2019-04-08T15:00:00+03:00" : {
		"windSpeed" : 2.1,
		"windDir" : 284,
		"rain" : 0,
		"cloudbase" : 2050,
		"flyability" : 0,
		"reason" : "windDir, cloudbase",
		"timestamp" :1554724800
		},
	"2019-04-08T18:00:00+03:00" : {
		"windSpeed" : 0,
		"windDir" : 180,
		"rain" : 0,
		"cloudbase" : null,
		"flyability" : 100,
		"reason" : "",
		"timestamp" :1554735600
		},
	"2019-04-08T21:00:00+03:00" : {
		"windSpeed" : 1,
		"windDir" : 90,
		"rain" : 0,
		"cloudbase" : null,
		"flyability" : 0,
		"reason" : "windDir",
		"timestamp" :1554746400
		},
	"2019-04-09T00:00:00+03:00" : {
		"windSpeed" : 1.8,
		"windDir" : 124,
		"rain" : 0,
		"cloudbase" : null,
		"flyability" : 100,
		"reason" : "",
		"timestamp" :1554757200
		},
	"2019-04-09T03:00:00+03:00" : {
		"windSpeed" : 2.1,
		"windDir" : 135,
		"rain" : 0,
		"cloudbase" : null,
		"flyability" : 100,
		"reason" : "",
		"timestamp" :1554768000
		},
	"2019-04-09T06:00:00+03:00" : {
		"windSpeed" : 2.5,
		"windDir" : 143,
		"rain" : 0,
		"cloudbase" : null,
		"flyability" : 100,
		"reason" : "",
		"timestamp" :1554778800
		},
	"2019-04-09T09:00:00+03:00" : {
		"windSpeed" : 1.1,
		"windDir" : 243,
		"rain" : 0,
		"cloudbase" : null,
		"flyability" : 100,
		"reason" : "",
		"timestamp" :1554789600
		},
	"2019-04-09T12:00:00+03:00" : {
		"windSpeed" : 3.2,
		"windDir" : 252,
		"rain" : 0,
		"cloudbase" : null,
		"flyability" : 0,
		"reason" : "windDir",
		"timestamp" :1554800400
		},
	"2019-04-09T15:00:00+03:00" : {
		"windSpeed" : 3,
		"windDir" : 261,
		"rain" : 0,
		"cloudbase" : null,
		"flyability" : 0,
		"reason" : "windDir",
		"timestamp" :1554811200
		},
	"2019-04-09T18:00:00+03:00" : {
		"windSpeed" : 1.6,
		"windDir" : 288,
		"rain" : 0,
		"cloudbase" : null,
		"flyability" : 0,
		"reason" : "windDir",
		"timestamp" :1554822000
		},
	"2019-04-09T21:00:00+03:00" : {
		"windSpeed" : 1,
		"windDir" : 180,
		"rain" : 0,
		"cloudbase" : null,
		"flyability" : 100,
		"reason" : "",
		"timestamp" :1554832800
		},
	"2019-04-10T00:00:00+03:00" : {
		"windSpeed" : 2.1,
		"windDir" : 135,
		"rain" : 0,
		"cloudbase" : 5200,
		"flyability" : 100,
		"reason" : "",
		"timestamp" :1554843600
		},
	"2019-04-10T03:00:00+03:00" : {
		"windSpeed" : 2.1,
		"windDir" : 135,
		"rain" : 0,
		"cloudbase" : 7000,
		"flyability" : 100,
		"reason" : "",
		"timestamp" :1554854400
		},
	"2019-04-10T06:00:00+03:00" : {
		"windSpeed" : 1.8,
		"windDir" : 124,
		"rain" : 0,
		"cloudbase" : 7100,
		"flyability" : 100,
		"reason" : "",
		"timestamp" :1554865200
		},
	"2019-04-10T09:00:00+03:00" : {
		"windSpeed" : 2.1,
		"windDir" : 166,
		"rain" : 0,
		"cloudbase" : 3800,
		"flyability" : 100,
		"reason" : "",
		"timestamp" :1554876000
		},
	"2019-04-10T12:00:00+03:00" : {
		"windSpeed" : 1.1,
		"windDir" : 243,
		"rain" : 1,
		"cloudbase" : 2500,
		"flyability" : 0,
		"reason" : "rain",
		"timestamp" :1554886800
		},
	"2019-04-10T15:00:00+03:00" : {
		"windSpeed" : 1.1,
		"windDir" : 207,
		"rain" : 1,
		"cloudbase" : 4950,
		"flyability" : 0,
		"reason" : "rain",
		"timestamp" :1554897600
		},
	"2019-04-10T18:00:00+03:00" : {
		"windSpeed" : 4,
		"windDir" : 150,
		"rain" : 1,
		"cloudbase" : 3750,
		"flyability" : 0,
		"reason" : "rain",
		"timestamp" :1554908400
		},
	"2019-04-10T21:00:00+03:00" : {
		"windSpeed" : 2.9,
		"windDir" : 149,
		"rain" : 0,
		"cloudbase" : 5600,
		"flyability" : 100,
		"reason" : "",
		"timestamp" :1554919200
		},
	"2019-04-11T00:00:00+03:00" : {
		"windSpeed" : 1.8,
		"windDir" : 146,
		"rain" : 0,
		"cloudbase" : 5900,
		"flyability" : 100,
		"reason" : "",
		"timestamp" :1554930000
		},
	"2019-04-11T03:00:00+03:00" : {
		"windSpeed" : 1.8,
		"windDir" : 146,
		"rain" : 0,
		"cloudbase" : null,
		"flyability" : 100,
		"reason" : "",
		"timestamp" :1554940800
		}
	}
}