{
"site" : "Long Pool",
"id" : 14334,
"orientations" : "10000012",
"forecasts" : { 
	"2019-04-18T10:00:00-05:00" : {
		"windSpeed" : 1.4,
		"windDir" : 230,
		"rain" : 1,
		"cloudbase" : 6181.8,
		"flyability" : 0,
		"reason" : "windDir, rain",
		"timestamp" :1555596000
		},
	"2019-04-18T13:00:00-05:00" : {
		"windSpeed" : 2.8,
		"windDir" : 307,
		"rain" : 1,
		"cloudbase" : 6240.9099999999,
		"flyability" : 0,
		"reason" : "rain",
		"timestamp" :1555606800
		},
	"2019-04-18T16:00:00-05:00" : {
		"windSpeed" : 6.1,
		"windDir" : 359,
		"rain" : 1,
		"cloudbase" : 2155.54,
		"flyability" : 0,
		"reason" : "windSpeed, rain",
		"timestamp" :1555617600
		},
	"2019-04-18T19:00:00-05:00" : {
		"windSpeed" : 4.8,
		"windDir" : 350,
		"rain" : 1,
		"cloudbase" : 4100,
		"flyability" : 0,
		"reason" : "rain",
		"timestamp" :1555628400
		},
	"2019-04-18T22:00:00-05:00" : {
		"windSpeed" : 3,
		"windDir" : 341,
		"rain" : 0,
		"cloudbase" : null,
		"flyability" : 100,
		"reason" : "",
		"timestamp" :1555639200
		},
	"2019-04-19T01:00:00-05:00" : {
		"windSpeed" : 2.9,
		"windDir" : 304,
		"rain" : 1,
		"cloudbase" : null,
		"flyability" : 0,
		"reason" : "rain",
		"timestamp" :1555650000
		},
	"2019-04-19T04:00:00-05:00" : {
		"windSpeed" : 3.2,
		"windDir" : 310,
		"rain" : 0,
		"cloudbase" : null,
		"flyability" : 100,
		"reason" : "",
		"timestamp" :1555660800
		},
	"2019-04-19T07:00:00-05:00" : {
		"windSpeed" : 3.1,
		"windDir" : 321,
		"rain" : 1,
		"cloudbase" : null,
		"flyability" : 0,
		"reason" : "rain",
		"timestamp" :1555671600
		},
	"2019-04-19T10:00:00-05:00" : {
		"windSpeed" : 6.9,
		"windDir" : 348,
		"rain" : 1,
		"cloudbase" : 1473.27,
		"flyability" : 0,
		"reason" : "windSpeed, rain",
		"timestamp" :1555682400
		},
	"2019-04-19T13:00:00-05:00" : {
		"windSpeed" : 6.9,
		"windDir" : 339,
		"rain" : 0,
		"cloudbase" : 1650,
		"flyability" : 0,
		"reason" : "windSpeed",
		"timestamp" :1555693200
		},
	"2019-04-19T16:00:00-05:00" : {
		"windSpeed" : 5.7,
		"windDir" : 339,
		"rain" : 1,
		"cloudbase" : null,
		"flyability" : 0,
		"reason" : "windSpeed, rain",
		"timestamp" :1555704000
		},
	"2019-04-19T19:00:00-05:00" : {
		"windSpeed" : 4.1,
		"windDir" : 331,
		"rain" : 0,
		"cloudbase" : null,
		"flyability" : 100,
		"reason" : "",
		"timestamp" :1555714800
		},
	"2019-04-19T22:00:00-05:00" : {
		"windSpeed" : 2.6,
		"windDir" : 326,
		"rain" : 1,
		"cloudbase" : null,
		"flyability" : 0,
		"reason" : "rain",
		"timestamp" :1555725600
		},
	"2019-04-20T01:00:00-05:00" : {
		"windSpeed" : 2.7,
		"windDir" : 314,
		"rain" : 0,
		"cloudbase" : null,
		"flyability" : 100,
		"reason" : "",
		"timestamp" :1555736400
		},
	"2019-04-20T04:00:00-05:00" : {
		"windSpeed" : 2.8,
		"windDir" : 332,
		"rain" : 0,
		"cloudbase" : null,
		"flyability" : 100,
		"reason" : "",
		"timestamp" :1555747200
		},
	"2019-04-20T07:00:00-05:00" : {
		"windSpeed" : 2.8,
		"windDir" : 349,
		"rain" : 0,
		"cloudbase" : null,
		"flyability" : 100,
		"reason" : "",
		"timestamp" :1555758000
		},
	"2019-04-20T10:00:00-05:00" : {
		"windSpeed" : 1.5,
		"windDir" : 309,
		"rain" : 0,
		"cloudbase" : null,
		"flyability" : 100,
		"reason" : "",
		"timestamp" :1555768800
		},
	"2019-04-20T13:00:00-05:00" : {
		"windSpeed" : 2.2,
		"windDir" : 244,
		"rain" : 0,
		"cloudbase" : null,
		"flyability" : 0,
		"reason" : "windDir",
		"timestamp" :1555779600
		},
	"2019-04-20T16:00:00-05:00" : {
		"windSpeed" : 2.7,
		"windDir" : 235,
		"rain" : 0,
		"cloudbase" : null,
		"flyability" : 0,
		"reason" : "windDir",
		"timestamp" :1555790400
		},
	"2019-04-20T19:00:00-05:00" : {
		"windSpeed" : 1.3,
		"windDir" : 231,
		"rain" : 0,
		"cloudbase" : null,
		"flyability" : 0,
		"reason" : "windDir",
		"timestamp" :1555801200
		},
	"2019-04-20T22:00:00-05:00" : {
		"windSpeed" : 1,
		"windDir" : 59,
		"rain" : 0,
		"cloudbase" : null,
		"flyability" : 0,
		"reason" : "windDir",
		"timestamp" :1555812000
		},
	"2019-04-21T01:00:00-05:00" : {
		"windSpeed" : 1,
		"windDir" : 161,
		"rain" : 0,
		"cloudbase" : null,
		"flyability" : 0,
		"reason" : "windDir",
		"timestamp" :1555822800
		},
	"2019-04-21T04:00:00-05:00" : {
		"windSpeed" : 1,
		"windDir" : 78,
		"rain" : 0,
		"cloudbase" : null,
		"flyability" : 0,
		"reason" : "windDir",
		"timestamp" :1555833600
		},
	"2019-04-21T07:00:00-05:00" : {
		"windSpeed" : 1.3,
		"windDir" : 105,
		"rain" : 0,
		"cloudbase" : null,
		"flyability" : 0,
		"reason" : "windDir",
		"timestamp" :1555844400
		},
	"2019-04-21T10:00:00-05:00" : {
		"windSpeed" : 2.1,
		"windDir" : 181,
		"rain" : 0,
		"cloudbase" : 8700,
		"flyability" : 0,
		"reason" : "windDir",
		"timestamp" :1555855200
		},
	"2019-04-21T13:00:00-05:00" : {
		"windSpeed" : 3.3,
		"windDir" : 185,
		"rain" : 1,
		"cloudbase" : null,
		"flyability" : 0,
		"reason" : "windDir, rain",
		"timestamp" :1555866000
		},
	"2019-04-21T16:00:00-05:00" : {
		"windSpeed" : 4.6,
		"windDir" : 177,
		"rain" : 0,
		"cloudbase" : null,
		"flyability" : 0,
		"reason" : "windDir",
		"timestamp" :1555876800
		},
	"2019-04-21T19:00:00-05:00" : {
		"windSpeed" : 3.2,
		"windDir" : 163,
		"rain" : 0,
		"cloudbase" : 8500,
		"flyability" : 0,
		"reason" : "windDir",
		"timestamp" :1555887600
		},
	"2019-04-21T22:00:00-05:00" : {
		"windSpeed" : 3.5,
		"windDir" : 146,
		"rain" : 0,
		"cloudbase" : 9400,
		"flyability" : 0,
		"reason" : "windDir",
		"timestamp" :1555898400
		},
	"2019-04-22T01:00:00-05:00" : {
		"windSpeed" : 2.5,
		"windDir" : 145,
		"rain" : 0,
		"cloudbase" : 6536.23,
		"flyability" : 0,
		"reason" : "windDir",
		"timestamp" :1555909200
		},
	"2019-04-22T04:00:00-05:00" : {
		"windSpeed" : 2.5,
		"windDir" : 130,
		"rain" : 0,
		"cloudbase" : null,
		"flyability" : 0,
		"reason" : "windDir",
		"timestamp" :1555920000
		},
	"2019-04-22T07:00:00-05:00" : {
		"windSpeed" : 2.6,
		"windDir" : 133,
		"rain" : 0,
		"cloudbase" : null,
		"flyability" : 0,
		"reason" : "windDir",
		"timestamp" :1555930800
		},
	"2019-04-22T10:00:00-05:00" : {
		"windSpeed" : 2.5,
		"windDir" : 175,
		"rain" : 0,
		"cloudbase" : null,
		"flyability" : 0,
		"reason" : "windDir",
		"timestamp" :1555941600
		},
	"2019-04-22T13:00:00-05:00" : {
		"windSpeed" : 3,
		"windDir" : 176,
		"rain" : 0,
		"cloudbase" : null,
		"flyability" : 0,
		"reason" : "windDir",
		"timestamp" :1555952400
		},
	"2019-04-22T16:00:00-05:00" : {
		"windSpeed" : 3.5,
		"windDir" : 177,
		"rain" : 0,
		"cloudbase" : null,
		"flyability" : 0,
		"reason" : "windDir",
		"timestamp" :1555963200
		},
	"2019-04-22T19:00:00-05:00" : {
		"windSpeed" : 2.7,
		"windDir" : 176,
		"rain" : 0,
		"cloudbase" : null,
		"flyability" : 0,
		"reason" : "windDir",
		"timestamp" :1555974000
		},
	"2019-04-22T22:00:00-05:00" : {
		"windSpeed" : 2.6,
		"windDir" : 164,
		"rain" : 0,
		"cloudbase" : null,
		"flyability" : 0,
		"reason" : "windDir",
		"timestamp" :1555984800
		},
	"2019-04-23T01:00:00-05:00" : {
		"windSpeed" : 1.3,
		"windDir" : 110,
		"rain" : 0,
		"cloudbase" : null,
		"flyability" : 0,
		"reason" : "windDir",
		"timestamp" :1555995600
		},
	"2019-04-23T04:00:00-05:00" : {
		"windSpeed" : 1.1,
		"windDir" : 60,
		"rain" : 0,
		"cloudbase" : null,
		"flyability" : 0,
		"reason" : "windDir",
		"timestamp" :1556006400
		},
	"2019-04-23T07:00:00-05:00" : {
		"windSpeed" : 1.6,
		"windDir" : 131,
		"rain" : 0,
		"cloudbase" : 11500,
		"flyability" : 0,
		"reason" : "windDir",
		"timestamp" :1556017200
		},
	"2019-04-23T10:00:00-05:00" : {
		"windSpeed" : 1.1,
		"windDir" : 207,
		"rain" : 0,
		"cloudbase" : 9958.77,
		"flyability" : 0,
		"reason" : "windDir",
		"timestamp" :1556028000
		},
	"2019-04-23T13:00:00-05:00" : {
		"windSpeed" : 2.5,
		"windDir" : 191,
		"rain" : 0,
		"cloudbase" : 2100,
		"flyability" : 0,
		"reason" : "windDir",
		"timestamp" :1556038800
		},
	"2019-04-23T16:00:00-05:00" : {
		"windSpeed" : 2.5,
		"windDir" : 193,
		"rain" : 0,
		"cloudbase" : 1700,
		"flyability" : 0,
		"reason" : "windDir",
		"timestamp" :1556049600
		},
	"2019-04-23T19:00:00-05:00" : {
		"windSpeed" : 1.4,
		"windDir" : 149,
		"rain" : 1,
		"cloudbase" : null,
		"flyability" : 0,
		"reason" : "windDir, rain",
		"timestamp" :1556060400
		},
	"2019-04-23T22:00:00-05:00" : {
		"windSpeed" : 1.9,
		"windDir" : 140,
		"rain" : 0,
		"cloudbase" : 11500,
		"flyability" : 0,
		"reason" : "windDir",
		"timestamp" :1556071200
		},
	"2019-04-24T01:00:00-05:00" : {
		"windSpeed" : 1,
		"windDir" : 77,
		"rain" : 0,
		"cloudbase" : null,
		"flyability" : 0,
		"reason" : "windDir",
		"timestamp" :1556082000
		},
	"2019-04-24T04:00:00-05:00" : {
		"windSpeed" : 1.4,
		"windDir" : 29,
		"rain" : 0,
		"cloudbase" : 7300,
		"flyability" : 0,
		"reason" : "windDir",
		"timestamp" :1556092800
		},
	"2019-04-24T07:00:00-05:00" : {
		"windSpeed" : 0.7,
		"windDir" : 41,
		"rain" : 0,
		"cloudbase" : 4400,
		"flyability" : 0,
		"reason" : "windDir",
		"timestamp" :1556103600
		}
	}
}