{
"site" : "Croagh Patrick",
"id" : 14350,
"orientations" : "22012212",
"forecasts" : { 
	"2019-04-14T04:00:00+01:00" : {
		"windSpeed" : 8.6,
		"windDir" : 119,
		"rain" : 1,
		"cloudbase" : 203.8,
		"flyability" : 0,
		"reason" : "windSpeed, rain, cloudbase",
		"timestamp" :1555207200
		},
	"2019-04-14T07:00:00+01:00" : {
		"windSpeed" : 8,
		"windDir" : 117,
		"rain" : 1,
		"cloudbase" : 87.089999999997,
		"flyability" : 0,
		"reason" : "windSpeed, rain, cloudbase",
		"timestamp" :1555218000
		},
	"2019-04-14T10:00:00+01:00" : {
		"windSpeed" : 9.1,
		"windDir" : 124,
		"rain" : 1,
		"cloudbase" : 269.5,
		"flyability" : 0,
		"reason" : "windSpeed, rain, cloudbase",
		"timestamp" :1555228800
		},
	"2019-04-14T13:00:00+01:00" : {
		"windSpeed" : 8.2,
		"windDir" : 134,
		"rain" : 1,
		"cloudbase" : 366.32,
		"flyability" : 0,
		"reason" : "windSpeed, rain, cloudbase",
		"timestamp" :1555239600
		},
	"2019-04-14T16:00:00+01:00" : {
		"windSpeed" : 7.2,
		"windDir" : 125,
		"rain" : 1,
		"cloudbase" : 471.4,
		"flyability" : 0,
		"reason" : "windSpeed, rain, cloudbase",
		"timestamp" :1555250400
		},
	"2019-04-14T19:00:00+01:00" : {
		"windSpeed" : 6.6,
		"windDir" : 118,
		"rain" : 1,
		"cloudbase" : 479.8,
		"flyability" : 0,
		"reason" : "windSpeed, rain, cloudbase",
		"timestamp" :1555261200
		},
	"2019-04-14T22:00:00+01:00" : {
		"windSpeed" : 6.8,
		"windDir" : 114,
		"rain" : 1,
		"cloudbase" : 438.06,
		"flyability" : 0,
		"reason" : "windSpeed, rain, cloudbase",
		"timestamp" :1555272000
		},
	"2019-04-15T01:00:00+01:00" : {
		"windSpeed" : 7.1,
		"windDir" : 113,
		"rain" : 1,
		"cloudbase" : 1435.72,
		"flyability" : 0,
		"reason" : "windSpeed, rain",
		"timestamp" :1555282800
		},
	"2019-04-15T04:00:00+01:00" : {
		"windSpeed" : 8.3,
		"windDir" : 109,
		"rain" : 1,
		"cloudbase" : 754.88,
		"flyability" : 0,
		"reason" : "windSpeed, windDir, rain",
		"timestamp" :1555293600
		},
	"2019-04-15T07:00:00+01:00" : {
		"windSpeed" : 10.3,
		"windDir" : 112,
		"rain" : 1,
		"cloudbase" : 2793.5999999999,
		"flyability" : 0,
		"reason" : "windSpeed, windDir, rain",
		"timestamp" :1555304400
		},
	"2019-04-15T10:00:00+01:00" : {
		"windSpeed" : 10.5,
		"windDir" : 115,
		"rain" : 1,
		"cloudbase" : 2969.4399999999,
		"flyability" : 0,
		"reason" : "windSpeed, rain",
		"timestamp" :1555315200
		},
	"2019-04-15T13:00:00+01:00" : {
		"windSpeed" : 10.3,
		"windDir" : 117,
		"rain" : 1,
		"cloudbase" : 2940.1,
		"flyability" : 0,
		"reason" : "windSpeed, rain",
		"timestamp" :1555326000
		},
	"2019-04-15T16:00:00+01:00" : {
		"windSpeed" : 10.1,
		"windDir" : 120,
		"rain" : 1,
		"cloudbase" : 2876.2,
		"flyability" : 0,
		"reason" : "windSpeed, rain",
		"timestamp" :1555336800
		},
	"2019-04-15T19:00:00+01:00" : {
		"windSpeed" : 8.8,
		"windDir" : 136,
		"rain" : 0,
		"cloudbase" : 527.6,
		"flyability" : 0,
		"reason" : "windSpeed, cloudbase",
		"timestamp" :1555347600
		},
	"2019-04-15T22:00:00+01:00" : {
		"windSpeed" : 5.5,
		"windDir" : 134,
		"rain" : 1,
		"cloudbase" : 837.69999999998,
		"flyability" : 0,
		"reason" : "windSpeed, rain",
		"timestamp" :1555358400
		},
	"2019-04-16T01:00:00+01:00" : {
		"windSpeed" : 3.7,
		"windDir" : 139,
		"rain" : 0,
		"cloudbase" : 4144.9599999998,
		"flyability" : 100,
		"reason" : "",
		"timestamp" :1555369200
		},
	"2019-04-16T04:00:00+01:00" : {
		"windSpeed" : 3.2,
		"windDir" : 125,
		"rain" : 1,
		"cloudbase" : 4393.3999999997,
		"flyability" : 0,
		"reason" : "rain",
		"timestamp" :1555380000
		},
	"2019-04-16T07:00:00+01:00" : {
		"windSpeed" : 3,
		"windDir" : 116,
		"rain" : 0,
		"cloudbase" : 30,
		"flyability" : 0,
		"reason" : "cloudbase",
		"timestamp" :1555390800
		},
	"2019-04-16T10:00:00+01:00" : {
		"windSpeed" : 3.3,
		"windDir" : 136,
		"rain" : 1,
		"cloudbase" : 210,
		"flyability" : 0,
		"reason" : "rain, cloudbase",
		"timestamp" :1555401600
		},
	"2019-04-16T13:00:00+01:00" : {
		"windSpeed" : 4,
		"windDir" : 132,
		"rain" : 0,
		"cloudbase" : 954.88,
		"flyability" : 100,
		"reason" : "",
		"timestamp" :1555412400
		},
	"2019-04-16T16:00:00+01:00" : {
		"windSpeed" : 3,
		"windDir" : 133,
		"rain" : 0,
		"cloudbase" : 1700,
		"flyability" : 100,
		"reason" : "",
		"timestamp" :1555423200
		},
	"2019-04-16T19:00:00+01:00" : {
		"windSpeed" : 2.1,
		"windDir" : 101,
		"rain" : 1,
		"cloudbase" : 5618.0000000001,
		"flyability" : 0,
		"reason" : "windDir, rain",
		"timestamp" :1555434000
		},
	"2019-04-16T22:00:00+01:00" : {
		"windSpeed" : 4.9,
		"windDir" : 108,
		"rain" : 1,
		"cloudbase" : 6047.2,
		"flyability" : 0,
		"reason" : "windDir, rain",
		"timestamp" :1555444800
		},
	"2019-04-17T01:00:00+01:00" : {
		"windSpeed" : 3.5,
		"windDir" : 119,
		"rain" : 0,
		"cloudbase" : 9200,
		"flyability" : 100,
		"reason" : "",
		"timestamp" :1555455600
		},
	"2019-04-17T04:00:00+01:00" : {
		"windSpeed" : 3.7,
		"windDir" : 114,
		"rain" : 1,
		"cloudbase" : 2785.3999999998,
		"flyability" : 0,
		"reason" : "rain",
		"timestamp" :1555466400
		},
	"2019-04-17T07:00:00+01:00" : {
		"windSpeed" : 4.4,
		"windDir" : 117,
		"rain" : 0,
		"cloudbase" : 86.059999999998,
		"flyability" : 0,
		"reason" : "cloudbase",
		"timestamp" :1555477200
		},
	"2019-04-17T10:00:00+01:00" : {
		"windSpeed" : 4.9,
		"windDir" : 128,
		"rain" : 1,
		"cloudbase" : 4750,
		"flyability" : 0,
		"reason" : "rain",
		"timestamp" :1555488000
		},
	"2019-04-17T13:00:00+01:00" : {
		"windSpeed" : 5,
		"windDir" : 123,
		"rain" : 0,
		"cloudbase" : 3329.7,
		"flyability" : 100,
		"reason" : "",
		"timestamp" :1555498800
		},
	"2019-04-17T16:00:00+01:00" : {
		"windSpeed" : 5,
		"windDir" : 130,
		"rain" : 1,
		"cloudbase" : 6497.5999999999,
		"flyability" : 0,
		"reason" : "rain",
		"timestamp" :1555509600
		},
	"2019-04-17T19:00:00+01:00" : {
		"windSpeed" : 3.8,
		"windDir" : 120,
		"rain" : 0,
		"cloudbase" : 6190.8,
		"flyability" : 100,
		"reason" : "",
		"timestamp" :1555520400
		},
	"2019-04-17T22:00:00+01:00" : {
		"windSpeed" : 3.6,
		"windDir" : 115,
		"rain" : 0,
		"cloudbase" : 8371.1999999999,
		"flyability" : 100,
		"reason" : "",
		"timestamp" :1555531200
		},
	"2019-04-18T01:00:00+01:00" : {
		"windSpeed" : 4.3,
		"windDir" : 111,
		"rain" : 0,
		"cloudbase" : 8660,
		"flyability" : 0,
		"reason" : "windDir",
		"timestamp" :1555542000
		},
	"2019-04-18T04:00:00+01:00" : {
		"windSpeed" : 4.1,
		"windDir" : 100,
		"rain" : 0,
		"cloudbase" : 6980,
		"flyability" : 0,
		"reason" : "windDir",
		"timestamp" :1555552800
		},
	"2019-04-18T07:00:00+01:00" : {
		"windSpeed" : 4.4,
		"windDir" : 106,
		"rain" : 0,
		"cloudbase" : 5921.4,
		"flyability" : 0,
		"reason" : "windDir",
		"timestamp" :1555563600
		},
	"2019-04-18T10:00:00+01:00" : {
		"windSpeed" : 4.8,
		"windDir" : 110,
		"rain" : 0,
		"cloudbase" : 7781.7999999999,
		"flyability" : 0,
		"reason" : "windDir",
		"timestamp" :1555574400
		},
	"2019-04-18T13:00:00+01:00" : {
		"windSpeed" : 4.5,
		"windDir" : 125,
		"rain" : 0,
		"cloudbase" : 3716.7,
		"flyability" : 100,
		"reason" : "",
		"timestamp" :1555585200
		},
	"2019-04-18T16:00:00+01:00" : {
		"windSpeed" : 4.7,
		"windDir" : 136,
		"rain" : 1,
		"cloudbase" : null,
		"flyability" : 0,
		"reason" : "rain",
		"timestamp" :1555596000
		},
	"2019-04-18T19:00:00+01:00" : {
		"windSpeed" : 3.3,
		"windDir" : 135,
		"rain" : 1,
		"cloudbase" : 9203.6,
		"flyability" : 0,
		"reason" : "rain",
		"timestamp" :1555606800
		},
	"2019-04-18T22:00:00+01:00" : {
		"windSpeed" : 3.1,
		"windDir" : 126,
		"rain" : 1,
		"cloudbase" : 3350,
		"flyability" : 0,
		"reason" : "rain",
		"timestamp" :1555617600
		},
	"2019-04-19T01:00:00+01:00" : {
		"windSpeed" : 3.1,
		"windDir" : 131,
		"rain" : 1,
		"cloudbase" : 9496.4,
		"flyability" : 0,
		"reason" : "rain",
		"timestamp" :1555628400
		},
	"2019-04-19T04:00:00+01:00" : {
		"windSpeed" : 2.9,
		"windDir" : 119,
		"rain" : 0,
		"cloudbase" : 7811.8,
		"flyability" : 100,
		"reason" : "",
		"timestamp" :1555639200
		},
	"2019-04-19T07:00:00+01:00" : {
		"windSpeed" : 3,
		"windDir" : 122,
		"rain" : 0,
		"cloudbase" : null,
		"flyability" : 100,
		"reason" : "",
		"timestamp" :1555650000
		},
	"2019-04-19T10:00:00+01:00" : {
		"windSpeed" : 3.3,
		"windDir" : 128,
		"rain" : 0,
		"cloudbase" : null,
		"flyability" : 100,
		"reason" : "",
		"timestamp" :1555660800
		},
	"2019-04-19T13:00:00+01:00" : {
		"windSpeed" : 3.4,
		"windDir" : 161,
		"rain" : 0,
		"cloudbase" : 12300,
		"flyability" : 100,
		"reason" : "",
		"timestamp" :1555671600
		},
	"2019-04-19T16:00:00+01:00" : {
		"windSpeed" : 2.8,
		"windDir" : 202,
		"rain" : 0,
		"cloudbase" : 9960,
		"flyability" : 100,
		"reason" : "",
		"timestamp" :1555682400
		},
	"2019-04-19T19:00:00+01:00" : {
		"windSpeed" : 1.6,
		"windDir" : 282,
		"rain" : 0,
		"cloudbase" : 11500,
		"flyability" : 100,
		"reason" : "",
		"timestamp" :1555693200
		},
	"2019-04-19T22:00:00+01:00" : {
		"windSpeed" : 0.9,
		"windDir" : 257,
		"rain" : 0,
		"cloudbase" : 10300,
		"flyability" : 100,
		"reason" : "",
		"timestamp" :1555704000
		},
	"2019-04-20T01:00:00+01:00" : {
		"windSpeed" : 1.2,
		"windDir" : 196,
		"rain" : 0,
		"cloudbase" : 9660,
		"flyability" : 100,
		"reason" : "",
		"timestamp" :1555714800
		}
	}
}