{
"site" : "Dunran Hill",
"id" : 14373,
"orientations" : "00000000",
"forecasts" : { 
	"2019-04-20T04:00:00+01:00" : {
		"windSpeed" : 2.2,
		"windDir" : 271,
		"rain" : 0,
		"cloudbase" : 9400.14416,
		"flyability" : -50,
		"reason" : "orientationsUnknown",
		"timestamp" :1555725600
		},
	"2019-04-20T07:00:00+01:00" : {
		"windSpeed" : 1.1,
		"windDir" : 294,
		"rain" : 0,
		"cloudbase" : 8743.25208,
		"flyability" : -50,
		"reason" : "orientationsUnknown",
		"timestamp" :1555736400
		},
	"2019-04-20T10:00:00+01:00" : {
		"windSpeed" : 1,
		"windDir" : 84,
		"rain" : 0,
		"cloudbase" : 8764.36,
		"flyability" : -50,
		"reason" : "orientationsUnknown",
		"timestamp" :1555747200
		},
	"2019-04-20T13:00:00+01:00" : {
		"windSpeed" : 2,
		"windDir" : 135,
		"rain" : 0,
		"cloudbase" : null,
		"flyability" : -50,
		"reason" : "orientationsUnknown",
		"timestamp" :1555758000
		},
	"2019-04-20T16:00:00+01:00" : {
		"windSpeed" : 3.1,
		"windDir" : 153,
		"rain" : 0,
		"cloudbase" : null,
		"flyability" : -50,
		"reason" : "orientationsUnknown",
		"timestamp" :1555768800
		},
	"2019-04-20T19:00:00+01:00" : {
		"windSpeed" : 2.6,
		"windDir" : 181,
		"rain" : 0,
		"cloudbase" : 7554.45208,
		"flyability" : -50,
		"reason" : "orientationsUnknown",
		"timestamp" :1555779600
		},
	"2019-04-20T22:00:00+01:00" : {
		"windSpeed" : 2.3,
		"windDir" : 239,
		"rain" : 0,
		"cloudbase" : 6508.76,
		"flyability" : -50,
		"reason" : "orientationsUnknown",
		"timestamp" :1555790400
		},
	"2019-04-21T01:00:00+01:00" : {
		"windSpeed" : 2.3,
		"windDir" : 233,
		"rain" : 0,
		"cloudbase" : 6253.16,
		"flyability" : -50,
		"reason" : "orientationsUnknown",
		"timestamp" :1555801200
		},
	"2019-04-21T04:00:00+01:00" : {
		"windSpeed" : 2.6,
		"windDir" : 231,
		"rain" : 0,
		"cloudbase" : 8879.5612,
		"flyability" : -50,
		"reason" : "orientationsUnknown",
		"timestamp" :1555812000
		},
	"2019-04-21T07:00:00+01:00" : {
		"windSpeed" : 2.9,
		"windDir" : 241,
		"rain" : 0,
		"cloudbase" : 9862.36416,
		"flyability" : -50,
		"reason" : "orientationsUnknown",
		"timestamp" :1555822800
		},
	"2019-04-21T10:00:00+01:00" : {
		"windSpeed" : 3.3,
		"windDir" : 191,
		"rain" : 0,
		"cloudbase" : 9582.18,
		"flyability" : -50,
		"reason" : "orientationsUnknown",
		"timestamp" :1555833600
		},
	"2019-04-21T13:00:00+01:00" : {
		"windSpeed" : 4.6,
		"windDir" : 177,
		"rain" : 0,
		"cloudbase" : 9617.82,
		"flyability" : -50,
		"reason" : "orientationsUnknown",
		"timestamp" :1555844400
		},
	"2019-04-21T16:00:00+01:00" : {
		"windSpeed" : 5.3,
		"windDir" : 182,
		"rain" : 0,
		"cloudbase" : null,
		"flyability" : -0,
		"reason" : "windSpeed, orientationsUnknown",
		"timestamp" :1555855200
		},
	"2019-04-21T19:00:00+01:00" : {
		"windSpeed" : 5.2,
		"windDir" : 190,
		"rain" : 0,
		"cloudbase" : null,
		"flyability" : -0,
		"reason" : "windSpeed, orientationsUnknown",
		"timestamp" :1555866000
		},
	"2019-04-21T22:00:00+01:00" : {
		"windSpeed" : 4.4,
		"windDir" : 201,
		"rain" : 0,
		"cloudbase" : null,
		"flyability" : -50,
		"reason" : "orientationsUnknown",
		"timestamp" :1555876800
		},
	"2019-04-22T01:00:00+01:00" : {
		"windSpeed" : 4.5,
		"windDir" : 200,
		"rain" : 0,
		"cloudbase" : null,
		"flyability" : -50,
		"reason" : "orientationsUnknown",
		"timestamp" :1555887600
		},
	"2019-04-22T04:00:00+01:00" : {
		"windSpeed" : 4.4,
		"windDir" : 199,
		"rain" : 0,
		"cloudbase" : null,
		"flyability" : -50,
		"reason" : "orientationsUnknown",
		"timestamp" :1555898400
		},
	"2019-04-22T07:00:00+01:00" : {
		"windSpeed" : 4.1,
		"windDir" : 189,
		"rain" : 0,
		"cloudbase" : null,
		"flyability" : -50,
		"reason" : "orientationsUnknown",
		"timestamp" :1555909200
		},
	"2019-04-22T10:00:00+01:00" : {
		"windSpeed" : 4.7,
		"windDir" : 175,
		"rain" : 0,
		"cloudbase" : null,
		"flyability" : -50,
		"reason" : "orientationsUnknown",
		"timestamp" :1555920000
		},
	"2019-04-22T13:00:00+01:00" : {
		"windSpeed" : 5,
		"windDir" : 167,
		"rain" : 0,
		"cloudbase" : null,
		"flyability" : -50,
		"reason" : "orientationsUnknown",
		"timestamp" :1555930800
		},
	"2019-04-22T16:00:00+01:00" : {
		"windSpeed" : 4,
		"windDir" : 164,
		"rain" : 0,
		"cloudbase" : null,
		"flyability" : -50,
		"reason" : "orientationsUnknown",
		"timestamp" :1555941600
		},
	"2019-04-22T19:00:00+01:00" : {
		"windSpeed" : 1.8,
		"windDir" : 172,
		"rain" : 0,
		"cloudbase" : null,
		"flyability" : -50,
		"reason" : "orientationsUnknown",
		"timestamp" :1555952400
		},
	"2019-04-22T22:00:00+01:00" : {
		"windSpeed" : 0.7,
		"windDir" : 285,
		"rain" : 1,
		"cloudbase" : null,
		"flyability" : -0,
		"reason" : "orientationsUnknown, rain",
		"timestamp" :1555963200
		},
	"2019-04-23T01:00:00+01:00" : {
		"windSpeed" : 0.3,
		"windDir" : 15,
		"rain" : 1,
		"cloudbase" : null,
		"flyability" : -0,
		"reason" : "orientationsUnknown, rain",
		"timestamp" :1555974000
		},
	"2019-04-23T04:00:00+01:00" : {
		"windSpeed" : 1.7,
		"windDir" : 186,
		"rain" : 0,
		"cloudbase" : 2672.62396,
		"flyability" : -50,
		"reason" : "orientationsUnknown",
		"timestamp" :1555984800
		},
	"2019-04-23T07:00:00+01:00" : {
		"windSpeed" : 1.5,
		"windDir" : 207,
		"rain" : 1,
		"cloudbase" : null,
		"flyability" : -0,
		"reason" : "orientationsUnknown, rain",
		"timestamp" :1555995600
		},
	"2019-04-23T10:00:00+01:00" : {
		"windSpeed" : 1.7,
		"windDir" : 197,
		"rain" : 1,
		"cloudbase" : 2288.00208,
		"flyability" : -0,
		"reason" : "orientationsUnknown, rain",
		"timestamp" :1556006400
		},
	"2019-04-23T13:00:00+01:00" : {
		"windSpeed" : 2.1,
		"windDir" : 103,
		"rain" : 0,
		"cloudbase" : null,
		"flyability" : -50,
		"reason" : "orientationsUnknown",
		"timestamp" :1556017200
		},
	"2019-04-23T16:00:00+01:00" : {
		"windSpeed" : 2.1,
		"windDir" : 77,
		"rain" : 1,
		"cloudbase" : 9519.11208,
		"flyability" : -0,
		"reason" : "orientationsUnknown, rain",
		"timestamp" :1556028000
		},
	"2019-04-23T19:00:00+01:00" : {
		"windSpeed" : 2,
		"windDir" : 2,
		"rain" : 0,
		"cloudbase" : null,
		"flyability" : -50,
		"reason" : "orientationsUnknown",
		"timestamp" :1556038800
		},
	"2019-04-23T22:00:00+01:00" : {
		"windSpeed" : 1.8,
		"windDir" : 356,
		"rain" : 0,
		"cloudbase" : 4159.60792,
		"flyability" : -50,
		"reason" : "orientationsUnknown",
		"timestamp" :1556049600
		},
	"2019-04-24T01:00:00+01:00" : {
		"windSpeed" : 0.6,
		"windDir" : 261,
		"rain" : 1,
		"cloudbase" : 7303.0592,
		"flyability" : -0,
		"reason" : "orientationsUnknown, rain",
		"timestamp" :1556060400
		},
	"2019-04-24T04:00:00+01:00" : {
		"windSpeed" : 1.4,
		"windDir" : 195,
		"rain" : 1,
		"cloudbase" : 4403.36,
		"flyability" : -0,
		"reason" : "orientationsUnknown, rain",
		"timestamp" :1556071200
		},
	"2019-04-24T07:00:00+01:00" : {
		"windSpeed" : 2.2,
		"windDir" : 165,
		"rain" : 1,
		"cloudbase" : null,
		"flyability" : -0,
		"reason" : "orientationsUnknown, rain",
		"timestamp" :1556082000
		},
	"2019-04-24T10:00:00+01:00" : {
		"windSpeed" : 3.8,
		"windDir" : 171,
		"rain" : 1,
		"cloudbase" : 30,
		"flyability" : -0,
		"reason" : "orientationsUnknown, rain, cloudbase",
		"timestamp" :1556092800
		},
	"2019-04-24T13:00:00+01:00" : {
		"windSpeed" : 3.5,
		"windDir" : 157,
		"rain" : 1,
		"cloudbase" : 168.59063199999,
		"flyability" : -0,
		"reason" : "orientationsUnknown, rain, cloudbase",
		"timestamp" :1556103600
		},
	"2019-04-24T16:00:00+01:00" : {
		"windSpeed" : 3.6,
		"windDir" : 146,
		"rain" : 1,
		"cloudbase" : 177.352376,
		"flyability" : -0,
		"reason" : "orientationsUnknown, rain, cloudbase",
		"timestamp" :1556114400
		},
	"2019-04-24T19:00:00+01:00" : {
		"windSpeed" : 3.7,
		"windDir" : 143,
		"rain" : 1,
		"cloudbase" : 140.968188,
		"flyability" : -0,
		"reason" : "orientationsUnknown, rain, cloudbase",
		"timestamp" :1556125200
		},
	"2019-04-24T22:00:00+01:00" : {
		"windSpeed" : 6.6,
		"windDir" : 157,
		"rain" : 1,
		"cloudbase" : 1489.979896,
		"flyability" : -0,
		"reason" : "windSpeed, orientationsUnknown, rain",
		"timestamp" :1556136000
		},
	"2019-04-25T01:00:00+01:00" : {
		"windSpeed" : 5.8,
		"windDir" : 154,
		"rain" : 1,
		"cloudbase" : 7500,
		"flyability" : -0,
		"reason" : "windSpeed, orientationsUnknown, rain",
		"timestamp" :1556146800
		},
	"2019-04-25T04:00:00+01:00" : {
		"windSpeed" : 7.9,
		"windDir" : 144,
		"rain" : 1,
		"cloudbase" : 744.91449599999,
		"flyability" : -0,
		"reason" : "windSpeed, orientationsUnknown, rain",
		"timestamp" :1556157600
		},
	"2019-04-25T07:00:00+01:00" : {
		"windSpeed" : 9.5,
		"windDir" : 148,
		"rain" : 1,
		"cloudbase" : 1050,
		"flyability" : -0,
		"reason" : "windSpeed, orientationsUnknown, rain",
		"timestamp" :1556168400
		},
	"2019-04-25T10:00:00+01:00" : {
		"windSpeed" : 8.1,
		"windDir" : 171,
		"rain" : 1,
		"cloudbase" : null,
		"flyability" : -0,
		"reason" : "windSpeed, orientationsUnknown, rain",
		"timestamp" :1556179200
		},
	"2019-04-25T13:00:00+01:00" : {
		"windSpeed" : 6.9,
		"windDir" : 171,
		"rain" : 1,
		"cloudbase" : 5252.31208,
		"flyability" : -0,
		"reason" : "windSpeed, orientationsUnknown, rain",
		"timestamp" :1556190000
		},
	"2019-04-25T16:00:00+01:00" : {
		"windSpeed" : 7.6,
		"windDir" : 178,
		"rain" : 0,
		"cloudbase" : null,
		"flyability" : -0,
		"reason" : "windSpeed, orientationsUnknown",
		"timestamp" :1556200800
		},
	"2019-04-25T19:00:00+01:00" : {
		"windSpeed" : 5.4,
		"windDir" : 180,
		"rain" : 1,
		"cloudbase" : null,
		"flyability" : -0,
		"reason" : "windSpeed, orientationsUnknown, rain",
		"timestamp" :1556211600
		},
	"2019-04-25T22:00:00+01:00" : {
		"windSpeed" : 3,
		"windDir" : 199,
		"rain" : 1,
		"cloudbase" : null,
		"flyability" : -0,
		"reason" : "orientationsUnknown, rain",
		"timestamp" :1556222400
		},
	"2019-04-26T01:00:00+01:00" : {
		"windSpeed" : 2.5,
		"windDir" : 235,
		"rain" : 0,
		"cloudbase" : null,
		"flyability" : -50,
		"reason" : "orientationsUnknown",
		"timestamp" :1556233200
		}
	}
}