{
"site" : "Slieve Elva",
"id" : 14380,
"orientations" : "00000022",
"forecasts" : { 
	"2019-04-14T04:00:00+01:00" : {
		"windSpeed" : 9.5,
		"windDir" : 119,
		"rain" : 1,
		"cloudbase" : 1034.0715,
		"flyability" : 0,
		"reason" : "windSpeed, windDir, rain",
		"timestamp" :1555207200
		},
	"2019-04-14T07:00:00+01:00" : {
		"windSpeed" : 9.2,
		"windDir" : 125,
		"rain" : 1,
		"cloudbase" : 286.871,
		"flyability" : 0,
		"reason" : "windSpeed, windDir, rain, cloudbase",
		"timestamp" :1555218000
		},
	"2019-04-14T10:00:00+01:00" : {
		"windSpeed" : 11.1,
		"windDir" : 137,
		"rain" : 1,
		"cloudbase" : 509.358,
		"flyability" : 0,
		"reason" : "windSpeed, windDir, rain",
		"timestamp" :1555228800
		},
	"2019-04-14T13:00:00+01:00" : {
		"windSpeed" : 10.2,
		"windDir" : 137,
		"rain" : 0,
		"cloudbase" : 597.51674999998,
		"flyability" : 0,
		"reason" : "windSpeed, windDir",
		"timestamp" :1555239600
		},
	"2019-04-14T16:00:00+01:00" : {
		"windSpeed" : 7.7,
		"windDir" : 129,
		"rain" : 0,
		"cloudbase" : 611.3185,
		"flyability" : 0,
		"reason" : "windSpeed, windDir",
		"timestamp" :1555250400
		},
	"2019-04-14T19:00:00+01:00" : {
		"windSpeed" : 7.2,
		"windDir" : 112,
		"rain" : 0,
		"cloudbase" : 898.76849999997,
		"flyability" : 0,
		"reason" : "windSpeed, windDir",
		"timestamp" :1555261200
		},
	"2019-04-14T22:00:00+01:00" : {
		"windSpeed" : 7.5,
		"windDir" : 114,
		"rain" : 1,
		"cloudbase" : 2041.95375,
		"flyability" : 0,
		"reason" : "windSpeed, windDir, rain",
		"timestamp" :1555272000
		},
	"2019-04-15T01:00:00+01:00" : {
		"windSpeed" : 7.9,
		"windDir" : 113,
		"rain" : 1,
		"cloudbase" : 2761.01875,
		"flyability" : 0,
		"reason" : "windSpeed, windDir, rain",
		"timestamp" :1555282800
		},
	"2019-04-15T04:00:00+01:00" : {
		"windSpeed" : 9,
		"windDir" : 107,
		"rain" : 1,
		"cloudbase" : 2560.355,
		"flyability" : 0,
		"reason" : "windSpeed, windDir, rain",
		"timestamp" :1555293600
		},
	"2019-04-15T07:00:00+01:00" : {
		"windSpeed" : 10.1,
		"windDir" : 113,
		"rain" : 1,
		"cloudbase" : 8729.6675,
		"flyability" : 0,
		"reason" : "windSpeed, windDir, rain",
		"timestamp" :1555304400
		},
	"2019-04-15T10:00:00+01:00" : {
		"windSpeed" : 10.4,
		"windDir" : 119,
		"rain" : 1,
		"cloudbase" : 4886.84,
		"flyability" : 0,
		"reason" : "windSpeed, windDir, rain",
		"timestamp" :1555315200
		},
	"2019-04-15T13:00:00+01:00" : {
		"windSpeed" : 10.5,
		"windDir" : 117,
		"rain" : 1,
		"cloudbase" : 2853.3337499998,
		"flyability" : 0,
		"reason" : "windSpeed, windDir, rain",
		"timestamp" :1555326000
		},
	"2019-04-15T16:00:00+01:00" : {
		"windSpeed" : 10.4,
		"windDir" : 125,
		"rain" : 1,
		"cloudbase" : 2961.7914999999,
		"flyability" : 0,
		"reason" : "windSpeed, windDir, rain",
		"timestamp" :1555336800
		},
	"2019-04-15T19:00:00+01:00" : {
		"windSpeed" : 7.4,
		"windDir" : 139,
		"rain" : 1,
		"cloudbase" : 512.95675,
		"flyability" : 0,
		"reason" : "windSpeed, windDir, rain",
		"timestamp" :1555347600
		},
	"2019-04-15T22:00:00+01:00" : {
		"windSpeed" : 5.8,
		"windDir" : 145,
		"rain" : 0,
		"cloudbase" : 7564.865,
		"flyability" : 0,
		"reason" : "windSpeed, windDir",
		"timestamp" :1555358400
		},
	"2019-04-16T01:00:00+01:00" : {
		"windSpeed" : 4.1,
		"windDir" : 143,
		"rain" : 0,
		"cloudbase" : 7259.69875,
		"flyability" : 0,
		"reason" : "windDir",
		"timestamp" :1555369200
		},
	"2019-04-16T04:00:00+01:00" : {
		"windSpeed" : 3.4,
		"windDir" : 136,
		"rain" : 1,
		"cloudbase" : 7727.60625,
		"flyability" : 0,
		"reason" : "windDir, rain",
		"timestamp" :1555380000
		},
	"2019-04-16T07:00:00+01:00" : {
		"windSpeed" : 3.3,
		"windDir" : 134,
		"rain" : 1,
		"cloudbase" : 30,
		"flyability" : 0,
		"reason" : "windDir, rain, cloudbase",
		"timestamp" :1555390800
		},
	"2019-04-16T10:00:00+01:00" : {
		"windSpeed" : 3.5,
		"windDir" : 138,
		"rain" : 0,
		"cloudbase" : 130,
		"flyability" : 0,
		"reason" : "windDir, cloudbase",
		"timestamp" :1555401600
		},
	"2019-04-16T13:00:00+01:00" : {
		"windSpeed" : 3.4,
		"windDir" : 156,
		"rain" : 0,
		"cloudbase" : 1200,
		"flyability" : 0,
		"reason" : "windDir",
		"timestamp" :1555412400
		},
	"2019-04-16T16:00:00+01:00" : {
		"windSpeed" : 3.2,
		"windDir" : 138,
		"rain" : 1,
		"cloudbase" : 1657.65125,
		"flyability" : 0,
		"reason" : "windDir, rain",
		"timestamp" :1555423200
		},
	"2019-04-16T19:00:00+01:00" : {
		"windSpeed" : 3.4,
		"windDir" : 107,
		"rain" : 1,
		"cloudbase" : null,
		"flyability" : 0,
		"reason" : "windDir, rain",
		"timestamp" :1555434000
		},
	"2019-04-16T22:00:00+01:00" : {
		"windSpeed" : 4.8,
		"windDir" : 129,
		"rain" : 0,
		"cloudbase" : 8625.895,
		"flyability" : 0,
		"reason" : "windDir",
		"timestamp" :1555444800
		},
	"2019-04-17T01:00:00+01:00" : {
		"windSpeed" : 4.5,
		"windDir" : 132,
		"rain" : 0,
		"cloudbase" : null,
		"flyability" : 0,
		"reason" : "windDir",
		"timestamp" :1555455600
		},
	"2019-04-17T04:00:00+01:00" : {
		"windSpeed" : 4.7,
		"windDir" : 126,
		"rain" : 1,
		"cloudbase" : 132.85,
		"flyability" : 0,
		"reason" : "windDir, rain, cloudbase",
		"timestamp" :1555466400
		},
	"2019-04-17T07:00:00+01:00" : {
		"windSpeed" : 4.8,
		"windDir" : 115,
		"rain" : 0,
		"cloudbase" : 250,
		"flyability" : 0,
		"reason" : "windDir, cloudbase",
		"timestamp" :1555477200
		},
	"2019-04-17T10:00:00+01:00" : {
		"windSpeed" : 5.6,
		"windDir" : 129,
		"rain" : 0,
		"cloudbase" : 3849.63,
		"flyability" : 0,
		"reason" : "windSpeed, windDir",
		"timestamp" :1555488000
		},
	"2019-04-17T13:00:00+01:00" : {
		"windSpeed" : 5.7,
		"windDir" : 128,
		"rain" : 1,
		"cloudbase" : 3483.15125,
		"flyability" : 0,
		"reason" : "windSpeed, windDir, rain",
		"timestamp" :1555498800
		},
	"2019-04-17T16:00:00+01:00" : {
		"windSpeed" : 5.3,
		"windDir" : 121,
		"rain" : 0,
		"cloudbase" : 6256.605,
		"flyability" : 0,
		"reason" : "windSpeed, windDir",
		"timestamp" :1555509600
		},
	"2019-04-17T19:00:00+01:00" : {
		"windSpeed" : 4.1,
		"windDir" : 105,
		"rain" : 1,
		"cloudbase" : 7625.6975000001,
		"flyability" : 0,
		"reason" : "windDir, rain",
		"timestamp" :1555520400
		},
	"2019-04-17T22:00:00+01:00" : {
		"windSpeed" : 3.6,
		"windDir" : 101,
		"rain" : 0,
		"cloudbase" : 8537,
		"flyability" : 0,
		"reason" : "windDir",
		"timestamp" :1555531200
		},
	"2019-04-18T01:00:00+01:00" : {
		"windSpeed" : 4.4,
		"windDir" : 85,
		"rain" : 0,
		"cloudbase" : 7909.1975,
		"flyability" : 0,
		"reason" : "windDir",
		"timestamp" :1555542000
		},
	"2019-04-18T04:00:00+01:00" : {
		"windSpeed" : 4.8,
		"windDir" : 91,
		"rain" : 0,
		"cloudbase" : 9104.605,
		"flyability" : 0,
		"reason" : "windDir",
		"timestamp" :1555552800
		},
	"2019-04-18T07:00:00+01:00" : {
		"windSpeed" : 4.9,
		"windDir" : 103,
		"rain" : 0,
		"cloudbase" : 5800,
		"flyability" : 0,
		"reason" : "windDir",
		"timestamp" :1555563600
		},
	"2019-04-18T10:00:00+01:00" : {
		"windSpeed" : 5.8,
		"windDir" : 108,
		"rain" : 0,
		"cloudbase" : 5200,
		"flyability" : 0,
		"reason" : "windSpeed, windDir",
		"timestamp" :1555574400
		},
	"2019-04-18T13:00:00+01:00" : {
		"windSpeed" : 4.6,
		"windDir" : 120,
		"rain" : 0,
		"cloudbase" : 3100,
		"flyability" : 0,
		"reason" : "windDir",
		"timestamp" :1555585200
		},
	"2019-04-18T16:00:00+01:00" : {
		"windSpeed" : 5.4,
		"windDir" : 133,
		"rain" : 0,
		"cloudbase" : 10500,
		"flyability" : 0,
		"reason" : "windSpeed, windDir",
		"timestamp" :1555596000
		},
	"2019-04-18T19:00:00+01:00" : {
		"windSpeed" : 3.4,
		"windDir" : 133,
		"rain" : 1,
		"cloudbase" : 9241.0125,
		"flyability" : 0,
		"reason" : "windDir, rain",
		"timestamp" :1555606800
		},
	"2019-04-18T22:00:00+01:00" : {
		"windSpeed" : 3.8,
		"windDir" : 131,
		"rain" : 1,
		"cloudbase" : 9352,
		"flyability" : 0,
		"reason" : "windDir, rain",
		"timestamp" :1555617600
		},
	"2019-04-19T01:00:00+01:00" : {
		"windSpeed" : 3.2,
		"windDir" : 114,
		"rain" : 1,
		"cloudbase" : 9774.3025,
		"flyability" : 0,
		"reason" : "windDir, rain",
		"timestamp" :1555628400
		},
	"2019-04-19T04:00:00+01:00" : {
		"windSpeed" : 2.8,
		"windDir" : 124,
		"rain" : 0,
		"cloudbase" : 9094.8025,
		"flyability" : 0,
		"reason" : "windDir",
		"timestamp" :1555639200
		},
	"2019-04-19T07:00:00+01:00" : {
		"windSpeed" : 3.4,
		"windDir" : 125,
		"rain" : 0,
		"cloudbase" : 8074.3025,
		"flyability" : 0,
		"reason" : "windDir",
		"timestamp" :1555650000
		},
	"2019-04-19T10:00:00+01:00" : {
		"windSpeed" : 3.5,
		"windDir" : 126,
		"rain" : 0,
		"cloudbase" : null,
		"flyability" : 0,
		"reason" : "windDir",
		"timestamp" :1555660800
		},
	"2019-04-19T13:00:00+01:00" : {
		"windSpeed" : 3.7,
		"windDir" : 144,
		"rain" : 0,
		"cloudbase" : 12000,
		"flyability" : 0,
		"reason" : "windDir",
		"timestamp" :1555671600
		},
	"2019-04-19T16:00:00+01:00" : {
		"windSpeed" : 1.8,
		"windDir" : 195,
		"rain" : 0,
		"cloudbase" : 10214.0125,
		"flyability" : 0,
		"reason" : "windDir",
		"timestamp" :1555682400
		},
	"2019-04-19T19:00:00+01:00" : {
		"windSpeed" : 1.6,
		"windDir" : 164,
		"rain" : 0,
		"cloudbase" : 11760,
		"flyability" : 0,
		"reason" : "windDir",
		"timestamp" :1555693200
		},
	"2019-04-19T22:00:00+01:00" : {
		"windSpeed" : 2.9,
		"windDir" : 164,
		"rain" : 0,
		"cloudbase" : 10500,
		"flyability" : 0,
		"reason" : "windDir",
		"timestamp" :1555704000
		},
	"2019-04-20T01:00:00+01:00" : {
		"windSpeed" : 2.3,
		"windDir" : 181,
		"rain" : 0,
		"cloudbase" : 10000,
		"flyability" : 0,
		"reason" : "windDir",
		"timestamp" :1555714800
		}
	}
}