{
"site" : "Castle (Castlegoat) Rock",
"id" : 14390,
"orientations" : "00020022",
"forecasts" : { 
	"2019-04-20T04:00:00+01:00" : {
		"windSpeed" : 0.5,
		"windDir" : 360,
		"rain" : 0,
		"cloudbase" : 7046.6736000001,
		"flyability" : 0,
		"reason" : "windDir",
		"timestamp" :1555725600
		},
	"2019-04-20T07:00:00+01:00" : {
		"windSpeed" : 1.1,
		"windDir" : 27,
		"rain" : 0,
		"cloudbase" : 1723.0367999996,
		"flyability" : 0,
		"reason" : "windDir",
		"timestamp" :1555736400
		},
	"2019-04-20T10:00:00+01:00" : {
		"windSpeed" : 0.7,
		"windDir" : 326,
		"rain" : 0,
		"cloudbase" : 9381.6,
		"flyability" : 100,
		"reason" : "",
		"timestamp" :1555747200
		},
	"2019-04-20T13:00:00+01:00" : {
		"windSpeed" : 0.5,
		"windDir" : 168,
		"rain" : 0,
		"cloudbase" : 6498.3072,
		"flyability" : 0,
		"reason" : "windDir",
		"timestamp" :1555758000
		},
	"2019-04-20T16:00:00+01:00" : {
		"windSpeed" : 2.2,
		"windDir" : 218,
		"rain" : 0,
		"cloudbase" : 5123.8464,
		"flyability" : 0,
		"reason" : "windDir",
		"timestamp" :1555768800
		},
	"2019-04-20T19:00:00+01:00" : {
		"windSpeed" : 1.8,
		"windDir" : 232,
		"rain" : 0,
		"cloudbase" : 10416.464,
		"flyability" : 0,
		"reason" : "windDir",
		"timestamp" :1555779600
		},
	"2019-04-20T22:00:00+01:00" : {
		"windSpeed" : 1.1,
		"windDir" : 307,
		"rain" : 0,
		"cloudbase" : 9900,
		"flyability" : 100,
		"reason" : "",
		"timestamp" :1555790400
		},
	"2019-04-21T01:00:00+01:00" : {
		"windSpeed" : 1.4,
		"windDir" : 4,
		"rain" : 0,
		"cloudbase" : 11416.464,
		"flyability" : 0,
		"reason" : "windDir",
		"timestamp" :1555801200
		},
	"2019-04-21T04:00:00+01:00" : {
		"windSpeed" : 1,
		"windDir" : 329,
		"rain" : 0,
		"cloudbase" : 30,
		"flyability" : 0,
		"reason" : "cloudbase",
		"timestamp" :1555812000
		},
	"2019-04-21T07:00:00+01:00" : {
		"windSpeed" : 1.2,
		"windDir" : 237,
		"rain" : 0,
		"cloudbase" : 30,
		"flyability" : 0,
		"reason" : "windDir, cloudbase",
		"timestamp" :1555822800
		},
	"2019-04-21T10:00:00+01:00" : {
		"windSpeed" : 2.4,
		"windDir" : 208,
		"rain" : 1,
		"cloudbase" : 42.40928,
		"flyability" : 0,
		"reason" : "windDir, rain, cloudbase",
		"timestamp" :1555833600
		},
	"2019-04-21T13:00:00+01:00" : {
		"windSpeed" : 3.7,
		"windDir" : 196,
		"rain" : 1,
		"cloudbase" : 129.17568,
		"flyability" : 0,
		"reason" : "windDir, rain, cloudbase",
		"timestamp" :1555844400
		},
	"2019-04-21T16:00:00+01:00" : {
		"windSpeed" : 4.1,
		"windDir" : 194,
		"rain" : 1,
		"cloudbase" : 107.49392,
		"flyability" : 0,
		"reason" : "windDir, rain, cloudbase",
		"timestamp" :1555855200
		},
	"2019-04-21T19:00:00+01:00" : {
		"windSpeed" : 4.1,
		"windDir" : 187,
		"rain" : 1,
		"cloudbase" : 58.62,
		"flyability" : 0,
		"reason" : "windDir, rain, cloudbase",
		"timestamp" :1555866000
		},
	"2019-04-21T22:00:00+01:00" : {
		"windSpeed" : 4.8,
		"windDir" : 163,
		"rain" : 1,
		"cloudbase" : 30,
		"flyability" : 0,
		"reason" : "windDir, rain, cloudbase",
		"timestamp" :1555876800
		},
	"2019-04-22T01:00:00+01:00" : {
		"windSpeed" : 6,
		"windDir" : 156,
		"rain" : 1,
		"cloudbase" : 30,
		"flyability" : 0,
		"reason" : "windSpeed, windDir, rain, cloudbase",
		"timestamp" :1555887600
		},
	"2019-04-22T04:00:00+01:00" : {
		"windSpeed" : 5,
		"windDir" : 158,
		"rain" : 1,
		"cloudbase" : 92.893920000004,
		"flyability" : 0,
		"reason" : "windDir, rain, cloudbase",
		"timestamp" :1555898400
		},
	"2019-04-22T07:00:00+01:00" : {
		"windSpeed" : 4.4,
		"windDir" : 146,
		"rain" : 0,
		"cloudbase" : 9095.664,
		"flyability" : 100,
		"reason" : "",
		"timestamp" :1555909200
		},
	"2019-04-22T10:00:00+01:00" : {
		"windSpeed" : 6.2,
		"windDir" : 152,
		"rain" : 0,
		"cloudbase" : 7674.0928,
		"flyability" : 0,
		"reason" : "windSpeed",
		"timestamp" :1555920000
		},
	"2019-04-22T13:00:00+01:00" : {
		"windSpeed" : 6.5,
		"windDir" : 158,
		"rain" : 0,
		"cloudbase" : 7592.4928,
		"flyability" : 0,
		"reason" : "windSpeed, windDir",
		"timestamp" :1555930800
		},
	"2019-04-22T16:00:00+01:00" : {
		"windSpeed" : 6.3,
		"windDir" : 162,
		"rain" : 0,
		"cloudbase" : 6446.9567999999,
		"flyability" : 0,
		"reason" : "windSpeed, windDir",
		"timestamp" :1555941600
		},
	"2019-04-22T19:00:00+01:00" : {
		"windSpeed" : 4.6,
		"windDir" : 149,
		"rain" : 0,
		"cloudbase" : 2523.5353600002,
		"flyability" : 100,
		"reason" : "",
		"timestamp" :1555952400
		},
	"2019-04-22T22:00:00+01:00" : {
		"windSpeed" : 3.9,
		"windDir" : 131,
		"rain" : 0,
		"cloudbase" : 114.73392,
		"flyability" : 0,
		"reason" : "cloudbase",
		"timestamp" :1555963200
		},
	"2019-04-23T01:00:00+01:00" : {
		"windSpeed" : 3.4,
		"windDir" : 153,
		"rain" : 1,
		"cloudbase" : 48.329280000002,
		"flyability" : 0,
		"reason" : "rain, cloudbase",
		"timestamp" :1555974000
		},
	"2019-04-23T04:00:00+01:00" : {
		"windSpeed" : 1.1,
		"windDir" : 185,
		"rain" : 1,
		"cloudbase" : null,
		"flyability" : 0,
		"reason" : "windDir, rain",
		"timestamp" :1555984800
		},
	"2019-04-23T07:00:00+01:00" : {
		"windSpeed" : 0.9,
		"windDir" : 360,
		"rain" : 0,
		"cloudbase" : 3306.5392,
		"flyability" : 0,
		"reason" : "windDir",
		"timestamp" :1555995600
		},
	"2019-04-23T10:00:00+01:00" : {
		"windSpeed" : 2,
		"windDir" : 14,
		"rain" : 0,
		"cloudbase" : 3064.0608,
		"flyability" : 0,
		"reason" : "windDir",
		"timestamp" :1556006400
		},
	"2019-04-23T13:00:00+01:00" : {
		"windSpeed" : 1.9,
		"windDir" : 34,
		"rain" : 1,
		"cloudbase" : 737.92,
		"flyability" : 0,
		"reason" : "windDir, rain",
		"timestamp" :1556017200
		},
	"2019-04-23T16:00:00+01:00" : {
		"windSpeed" : 2.4,
		"windDir" : 22,
		"rain" : 1,
		"cloudbase" : 636.90432,
		"flyability" : 0,
		"reason" : "windDir, rain",
		"timestamp" :1556028000
		},
	"2019-04-23T19:00:00+01:00" : {
		"windSpeed" : 2.6,
		"windDir" : 10,
		"rain" : 1,
		"cloudbase" : 580,
		"flyability" : 0,
		"reason" : "windDir, rain",
		"timestamp" :1556038800
		},
	"2019-04-23T22:00:00+01:00" : {
		"windSpeed" : 1.1,
		"windDir" : 110,
		"rain" : 0,
		"cloudbase" : 295.28000000001,
		"flyability" : 0,
		"reason" : "windDir, cloudbase",
		"timestamp" :1556049600
		},
	"2019-04-24T01:00:00+01:00" : {
		"windSpeed" : 2.2,
		"windDir" : 137,
		"rain" : 1,
		"cloudbase" : 50.000000000002,
		"flyability" : 0,
		"reason" : "rain, cloudbase",
		"timestamp" :1556060400
		},
	"2019-04-24T04:00:00+01:00" : {
		"windSpeed" : 2.1,
		"windDir" : 165,
		"rain" : 1,
		"cloudbase" : 114.28640000001,
		"flyability" : 0,
		"reason" : "windDir, rain, cloudbase",
		"timestamp" :1556071200
		},
	"2019-04-24T07:00:00+01:00" : {
		"windSpeed" : 1.5,
		"windDir" : 182,
		"rain" : 1,
		"cloudbase" : 116.24784000001,
		"flyability" : 0,
		"reason" : "windDir, rain, cloudbase",
		"timestamp" :1556082000
		},
	"2019-04-24T10:00:00+01:00" : {
		"windSpeed" : 2,
		"windDir" : 168,
		"rain" : 0,
		"cloudbase" : 313.75712000001,
		"flyability" : 0,
		"reason" : "windDir, cloudbase",
		"timestamp" :1556092800
		},
	"2019-04-24T13:00:00+01:00" : {
		"windSpeed" : 4.5,
		"windDir" : 153,
		"rain" : 1,
		"cloudbase" : 570.8,
		"flyability" : 0,
		"reason" : "rain",
		"timestamp" :1556103600
		},
	"2019-04-24T16:00:00+01:00" : {
		"windSpeed" : 3.6,
		"windDir" : 165,
		"rain" : 1,
		"cloudbase" : 569.00864,
		"flyability" : 0,
		"reason" : "windDir, rain",
		"timestamp" :1556114400
		},
	"2019-04-24T19:00:00+01:00" : {
		"windSpeed" : 1.6,
		"windDir" : 167,
		"rain" : 1,
		"cloudbase" : 1318.6464,
		"flyability" : 0,
		"reason" : "windDir, rain",
		"timestamp" :1556125200
		},
	"2019-04-24T22:00:00+01:00" : {
		"windSpeed" : 0.4,
		"windDir" : 104,
		"rain" : 1,
		"cloudbase" : 1645.8928,
		"flyability" : 0,
		"reason" : "windDir, rain",
		"timestamp" :1556136000
		},
	"2019-04-25T01:00:00+01:00" : {
		"windSpeed" : 1.1,
		"windDir" : 112,
		"rain" : 1,
		"cloudbase" : 992.66208000007,
		"flyability" : 0,
		"reason" : "windDir, rain",
		"timestamp" :1556146800
		},
	"2019-04-25T04:00:00+01:00" : {
		"windSpeed" : 1.9,
		"windDir" : 259,
		"rain" : 1,
		"cloudbase" : 676.37568000003,
		"flyability" : 0,
		"reason" : "rain",
		"timestamp" :1556157600
		},
	"2019-04-25T07:00:00+01:00" : {
		"windSpeed" : 3.8,
		"windDir" : 160,
		"rain" : 1,
		"cloudbase" : 486.03072000001,
		"flyability" : 0,
		"reason" : "windDir, rain",
		"timestamp" :1556168400
		},
	"2019-04-25T10:00:00+01:00" : {
		"windSpeed" : 4.3,
		"windDir" : 200,
		"rain" : 1,
		"cloudbase" : 421.28576000001,
		"flyability" : 0,
		"reason" : "windDir, rain",
		"timestamp" :1556179200
		},
	"2019-04-25T13:00:00+01:00" : {
		"windSpeed" : 5.4,
		"windDir" : 213,
		"rain" : 1,
		"cloudbase" : 495.99487999989,
		"flyability" : 0,
		"reason" : "windSpeed, windDir, rain",
		"timestamp" :1556190000
		},
	"2019-04-25T16:00:00+01:00" : {
		"windSpeed" : 4.2,
		"windDir" : 232,
		"rain" : 1,
		"cloudbase" : 657.58144000001,
		"flyability" : 0,
		"reason" : "windDir, rain",
		"timestamp" :1556200800
		},
	"2019-04-25T19:00:00+01:00" : {
		"windSpeed" : 4,
		"windDir" : 253,
		"rain" : 1,
		"cloudbase" : 5990.8,
		"flyability" : 0,
		"reason" : "rain",
		"timestamp" :1556211600
		},
	"2019-04-25T22:00:00+01:00" : {
		"windSpeed" : 3.3,
		"windDir" : 242,
		"rain" : 1,
		"cloudbase" : 5318.4,
		"flyability" : 0,
		"reason" : "windDir, rain",
		"timestamp" :1556222400
		},
	"2019-04-26T01:00:00+01:00" : {
		"windSpeed" : 3.7,
		"windDir" : 275,
		"rain" : 1,
		"cloudbase" : 5989.1072,
		"flyability" : 0,
		"reason" : "rain",
		"timestamp" :1556233200
		}
	}
}