{
"site" : "Kolb Field PPG",
"id" : 14830,
"orientations" : "22210122",
"forecasts" : { 
	"2019-04-16T23:00:00-04:00" : {
		"windSpeed" : 1.4,
		"windDir" : 48,
		"rain" : 0,
		"cloudbase" : 2532.96,
		"flyability" : 100,
		"reason" : "",
		"timestamp" :1555473600
		},
	"2019-04-17T02:00:00-04:00" : {
		"windSpeed" : 2.2,
		"windDir" : 75,
		"rain" : 0,
		"cloudbase" : 2310.06,
		"flyability" : 100,
		"reason" : "",
		"timestamp" :1555484400
		},
	"2019-04-17T05:00:00-04:00" : {
		"windSpeed" : 2.7,
		"windDir" : 67,
		"rain" : 0,
		"cloudbase" : 2300,
		"flyability" : 100,
		"reason" : "",
		"timestamp" :1555495200
		},
	"2019-04-17T08:00:00-04:00" : {
		"windSpeed" : 2.5,
		"windDir" : 68,
		"rain" : 0,
		"cloudbase" : 2710.06,
		"flyability" : 100,
		"reason" : "",
		"timestamp" :1555506000
		},
	"2019-04-17T11:00:00-04:00" : {
		"windSpeed" : 2.5,
		"windDir" : 90,
		"rain" : 0,
		"cloudbase" : null,
		"flyability" : 100,
		"reason" : "",
		"timestamp" :1555516800
		},
	"2019-04-17T14:00:00-04:00" : {
		"windSpeed" : 1.6,
		"windDir" : 108,
		"rain" : 0,
		"cloudbase" : 2567.04,
		"flyability" : 100,
		"reason" : "",
		"timestamp" :1555527600
		},
	"2019-04-17T17:00:00-04:00" : {
		"windSpeed" : 2.3,
		"windDir" : 155,
		"rain" : 0,
		"cloudbase" : 2192.96,
		"flyability" : 100,
		"reason" : "",
		"timestamp" :1555538400
		},
	"2019-04-17T20:00:00-04:00" : {
		"windSpeed" : 3.8,
		"windDir" : 131,
		"rain" : 0,
		"cloudbase" : 8057.08,
		"flyability" : 100,
		"reason" : "",
		"timestamp" :1555549200
		},
	"2019-04-17T23:00:00-04:00" : {
		"windSpeed" : 3,
		"windDir" : 123,
		"rain" : 0,
		"cloudbase" : 6262.0799999999,
		"flyability" : 100,
		"reason" : "",
		"timestamp" :1555560000
		},
	"2019-04-18T02:00:00-04:00" : {
		"windSpeed" : 3,
		"windDir" : 123,
		"rain" : 1,
		"cloudbase" : 2944.92,
		"flyability" : 0,
		"reason" : "rain",
		"timestamp" :1555570800
		},
	"2019-04-18T05:00:00-04:00" : {
		"windSpeed" : 3.7,
		"windDir" : 107,
		"rain" : 1,
		"cloudbase" : 701.384,
		"flyability" : 0,
		"reason" : "rain",
		"timestamp" :1555581600
		},
	"2019-04-18T08:00:00-04:00" : {
		"windSpeed" : 3.4,
		"windDir" : 116,
		"rain" : 0,
		"cloudbase" : 438.52,
		"flyability" : 100,
		"reason" : "",
		"timestamp" :1555592400
		},
	"2019-04-18T11:00:00-04:00" : {
		"windSpeed" : 3.9,
		"windDir" : 151,
		"rain" : 1,
		"cloudbase" : 404.004,
		"flyability" : 0,
		"reason" : "rain",
		"timestamp" :1555603200
		},
	"2019-04-18T14:00:00-04:00" : {
		"windSpeed" : 4.2,
		"windDir" : 173,
		"rain" : 1,
		"cloudbase" : 1161.32,
		"flyability" : 0,
		"reason" : "windDir, rain",
		"timestamp" :1555614000
		},
	"2019-04-18T17:00:00-04:00" : {
		"windSpeed" : 4.5,
		"windDir" : 177,
		"rain" : 0,
		"cloudbase" : 12885,
		"flyability" : 0,
		"reason" : "windDir",
		"timestamp" :1555624800
		},
	"2019-04-18T20:00:00-04:00" : {
		"windSpeed" : 3.8,
		"windDir" : 158,
		"rain" : 0,
		"cloudbase" : 13000,
		"flyability" : 0,
		"reason" : "windDir",
		"timestamp" :1555635600
		},
	"2019-04-18T23:00:00-04:00" : {
		"windSpeed" : 4.9,
		"windDir" : 184,
		"rain" : 0,
		"cloudbase" : 13000,
		"flyability" : 0,
		"reason" : "windDir",
		"timestamp" :1555646400
		},
	"2019-04-19T02:00:00-04:00" : {
		"windSpeed" : 4.8,
		"windDir" : 187,
		"rain" : 0,
		"cloudbase" : 13555.2,
		"flyability" : 0,
		"reason" : "windDir",
		"timestamp" :1555657200
		},
	"2019-04-19T05:00:00-04:00" : {
		"windSpeed" : 5,
		"windDir" : 186,
		"rain" : 0,
		"cloudbase" : 6398.96,
		"flyability" : 0,
		"reason" : "windDir",
		"timestamp" :1555668000
		},
	"2019-04-19T08:00:00-04:00" : {
		"windSpeed" : 4.3,
		"windDir" : 187,
		"rain" : 0,
		"cloudbase" : 721.384,
		"flyability" : 0,
		"reason" : "windDir",
		"timestamp" :1555678800
		},
	"2019-04-19T11:00:00-04:00" : {
		"windSpeed" : 7.9,
		"windDir" : 196,
		"rain" : 0,
		"cloudbase" : 627.584,
		"flyability" : 0,
		"reason" : "windSpeed, windDir",
		"timestamp" :1555689600
		},
	"2019-04-19T14:00:00-04:00" : {
		"windSpeed" : 4.8,
		"windDir" : 189,
		"rain" : 1,
		"cloudbase" : 6487.52,
		"flyability" : 0,
		"reason" : "windDir, rain",
		"timestamp" :1555700400
		},
	"2019-04-19T17:00:00-04:00" : {
		"windSpeed" : 3.7,
		"windDir" : 141,
		"rain" : 0,
		"cloudbase" : 457.87999999999,
		"flyability" : 100,
		"reason" : "",
		"timestamp" :1555711200
		},
	"2019-04-19T20:00:00-04:00" : {
		"windSpeed" : 5.6,
		"windDir" : 182,
		"rain" : 0,
		"cloudbase" : 472.688,
		"flyability" : 0,
		"reason" : "windSpeed, windDir",
		"timestamp" :1555722000
		},
	"2019-04-19T23:00:00-04:00" : {
		"windSpeed" : 5.7,
		"windDir" : 170,
		"rain" : 1,
		"cloudbase" : 563.13600000001,
		"flyability" : 0,
		"reason" : "windSpeed, windDir, rain",
		"timestamp" :1555732800
		},
	"2019-04-20T02:00:00-04:00" : {
		"windSpeed" : 6.3,
		"windDir" : 166,
		"rain" : 1,
		"cloudbase" : 4708,
		"flyability" : 0,
		"reason" : "windSpeed, windDir, rain",
		"timestamp" :1555743600
		},
	"2019-04-20T05:00:00-04:00" : {
		"windSpeed" : 6,
		"windDir" : 155,
		"rain" : 1,
		"cloudbase" : 4566.7599999999,
		"flyability" : 0,
		"reason" : "windSpeed, rain",
		"timestamp" :1555754400
		},
	"2019-04-20T08:00:00-04:00" : {
		"windSpeed" : 4.2,
		"windDir" : 155,
		"rain" : 1,
		"cloudbase" : 600.184,
		"flyability" : 0,
		"reason" : "rain",
		"timestamp" :1555765200
		},
	"2019-04-20T11:00:00-04:00" : {
		"windSpeed" : 6.2,
		"windDir" : 172,
		"rain" : 0,
		"cloudbase" : 8511.96,
		"flyability" : 0,
		"reason" : "windSpeed, windDir",
		"timestamp" :1555776000
		},
	"2019-04-20T14:00:00-04:00" : {
		"windSpeed" : 6.6,
		"windDir" : 172,
		"rain" : 0,
		"cloudbase" : 7171.6000000001,
		"flyability" : 0,
		"reason" : "windSpeed, windDir",
		"timestamp" :1555786800
		},
	"2019-04-20T17:00:00-04:00" : {
		"windSpeed" : 6,
		"windDir" : 176,
		"rain" : 0,
		"cloudbase" : 8619.92,
		"flyability" : 0,
		"reason" : "windSpeed, windDir",
		"timestamp" :1555797600
		},
	"2019-04-20T20:00:00-04:00" : {
		"windSpeed" : 3.5,
		"windDir" : 173,
		"rain" : 0,
		"cloudbase" : null,
		"flyability" : 0,
		"reason" : "windDir",
		"timestamp" :1555808400
		},
	"2019-04-20T23:00:00-04:00" : {
		"windSpeed" : 2.7,
		"windDir" : 161,
		"rain" : 0,
		"cloudbase" : null,
		"flyability" : 0,
		"reason" : "windDir",
		"timestamp" :1555819200
		},
	"2019-04-21T02:00:00-04:00" : {
		"windSpeed" : 2.7,
		"windDir" : 166,
		"rain" : 1,
		"cloudbase" : null,
		"flyability" : 0,
		"reason" : "windDir, rain",
		"timestamp" :1555830000
		},
	"2019-04-21T05:00:00-04:00" : {
		"windSpeed" : 2.6,
		"windDir" : 181,
		"rain" : 1,
		"cloudbase" : 5900,
		"flyability" : 0,
		"reason" : "windDir, rain",
		"timestamp" :1555840800
		},
	"2019-04-21T08:00:00-04:00" : {
		"windSpeed" : 2.6,
		"windDir" : 181,
		"rain" : 1,
		"cloudbase" : 2754.72,
		"flyability" : 0,
		"reason" : "windDir, rain",
		"timestamp" :1555851600
		},
	"2019-04-21T11:00:00-04:00" : {
		"windSpeed" : 2.8,
		"windDir" : 230,
		"rain" : 1,
		"cloudbase" : 1165.5,
		"flyability" : 0,
		"reason" : "rain",
		"timestamp" :1555862400
		},
	"2019-04-21T14:00:00-04:00" : {
		"windSpeed" : 4.4,
		"windDir" : 258,
		"rain" : 1,
		"cloudbase" : 1250,
		"flyability" : 0,
		"reason" : "rain",
		"timestamp" :1555873200
		},
	"2019-04-21T17:00:00-04:00" : {
		"windSpeed" : 4.7,
		"windDir" : 252,
		"rain" : 0,
		"cloudbase" : 1499.54,
		"flyability" : 100,
		"reason" : "",
		"timestamp" :1555884000
		},
	"2019-04-21T20:00:00-04:00" : {
		"windSpeed" : 1.4,
		"windDir" : 198,
		"rain" : 0,
		"cloudbase" : null,
		"flyability" : 0,
		"reason" : "windDir",
		"timestamp" :1555894800
		},
	"2019-04-21T23:00:00-04:00" : {
		"windSpeed" : 2.9,
		"windDir" : 251,
		"rain" : 1,
		"cloudbase" : null,
		"flyability" : 0,
		"reason" : "rain",
		"timestamp" :1555905600
		},
	"2019-04-22T02:00:00-04:00" : {
		"windSpeed" : 2.1,
		"windDir" : 204,
		"rain" : 0,
		"cloudbase" : 2416.5,
		"flyability" : 100,
		"reason" : "",
		"timestamp" :1555916400
		},
	"2019-04-22T05:00:00-04:00" : {
		"windSpeed" : 2.8,
		"windDir" : 187,
		"rain" : 0,
		"cloudbase" : null,
		"flyability" : 0,
		"reason" : "windDir",
		"timestamp" :1555927200
		},
	"2019-04-22T08:00:00-04:00" : {
		"windSpeed" : 1.7,
		"windDir" : 224,
		"rain" : 0,
		"cloudbase" : null,
		"flyability" : 100,
		"reason" : "",
		"timestamp" :1555938000
		},
	"2019-04-22T11:00:00-04:00" : {
		"windSpeed" : 2.5,
		"windDir" : 259,
		"rain" : 0,
		"cloudbase" : null,
		"flyability" : 100,
		"reason" : "",
		"timestamp" :1555948800
		},
	"2019-04-22T14:00:00-04:00" : {
		"windSpeed" : 4.3,
		"windDir" : 275,
		"rain" : 0,
		"cloudbase" : 1541.4,
		"flyability" : 100,
		"reason" : "",
		"timestamp" :1555959600
		},
	"2019-04-22T17:00:00-04:00" : {
		"windSpeed" : 2.8,
		"windDir" : 270,
		"rain" : 0,
		"cloudbase" : null,
		"flyability" : 100,
		"reason" : "",
		"timestamp" :1555970400
		},
	"2019-04-22T20:00:00-04:00" : {
		"windSpeed" : 1.5,
		"windDir" : 266,
		"rain" : 0,
		"cloudbase" : 8136.04,
		"flyability" : 100,
		"reason" : "",
		"timestamp" :1555981200
		}
	}
}