{
"site" : "The 'V' (at Bountiful)",
"id" : 14994,
"orientations" : "10001222",
"forecasts" : { 
	"2019-04-22T09:00:00-06:00" : {
		"windSpeed" : 2.1,
		"windDir" : 64,
		"rain" : 0,
		"cloudbase" : 3045.6500000001,
		"flyability" : 0,
		"reason" : "windDir",
		"timestamp" :1555945200
		},
	"2019-04-22T12:00:00-06:00" : {
		"windSpeed" : 1.6,
		"windDir" : 55,
		"rain" : 1,
		"cloudbase" : 4892.3500000002,
		"flyability" : 0,
		"reason" : "windDir, rain",
		"timestamp" :1555956000
		},
	"2019-04-22T15:00:00-06:00" : {
		"windSpeed" : 1.4,
		"windDir" : 325,
		"rain" : 1,
		"cloudbase" : 5734.8500000001,
		"flyability" : 0,
		"reason" : "rain",
		"timestamp" :1555966800
		},
	"2019-04-22T18:00:00-06:00" : {
		"windSpeed" : 2,
		"windDir" : 326,
		"rain" : 1,
		"cloudbase" : 5849.1000000001,
		"flyability" : 0,
		"reason" : "rain",
		"timestamp" :1555977600
		},
	"2019-04-22T21:00:00-06:00" : {
		"windSpeed" : 1.5,
		"windDir" : 73,
		"rain" : 0,
		"cloudbase" : null,
		"flyability" : 0,
		"reason" : "windDir",
		"timestamp" :1555988400
		},
	"2019-04-23T00:00:00-06:00" : {
		"windSpeed" : 1.8,
		"windDir" : 75,
		"rain" : 0,
		"cloudbase" : null,
		"flyability" : 0,
		"reason" : "windDir",
		"timestamp" :1555999200
		},
	"2019-04-23T03:00:00-06:00" : {
		"windSpeed" : 1.8,
		"windDir" : 67,
		"rain" : 0,
		"cloudbase" : null,
		"flyability" : 0,
		"reason" : "windDir",
		"timestamp" :1556010000
		},
	"2019-04-23T06:00:00-06:00" : {
		"windSpeed" : 1.5,
		"windDir" : 81,
		"rain" : 0,
		"cloudbase" : null,
		"flyability" : 0,
		"reason" : "windDir",
		"timestamp" :1556020800
		},
	"2019-04-23T09:00:00-06:00" : {
		"windSpeed" : 0.8,
		"windDir" : 73,
		"rain" : 0,
		"cloudbase" : null,
		"flyability" : 0,
		"reason" : "windDir",
		"timestamp" :1556031600
		},
	"2019-04-23T12:00:00-06:00" : {
		"windSpeed" : 1.2,
		"windDir" : 304,
		"rain" : 0,
		"cloudbase" : null,
		"flyability" : 100,
		"reason" : "",
		"timestamp" :1556042400
		},
	"2019-04-23T15:00:00-06:00" : {
		"windSpeed" : 2.2,
		"windDir" : 301,
		"rain" : 0,
		"cloudbase" : 7800,
		"flyability" : 100,
		"reason" : "",
		"timestamp" :1556053200
		},
	"2019-04-23T18:00:00-06:00" : {
		"windSpeed" : 1.6,
		"windDir" : 294,
		"rain" : 0,
		"cloudbase" : null,
		"flyability" : 100,
		"reason" : "",
		"timestamp" :1556064000
		},
	"2019-04-23T21:00:00-06:00" : {
		"windSpeed" : 1.5,
		"windDir" : 92,
		"rain" : 0,
		"cloudbase" : null,
		"flyability" : 0,
		"reason" : "windDir",
		"timestamp" :1556074800
		},
	"2019-04-24T00:00:00-06:00" : {
		"windSpeed" : 0.7,
		"windDir" : 92,
		"rain" : 0,
		"cloudbase" : null,
		"flyability" : 0,
		"reason" : "windDir",
		"timestamp" :1556085600
		},
	"2019-04-24T03:00:00-06:00" : {
		"windSpeed" : 0.5,
		"windDir" : 59,
		"rain" : 0,
		"cloudbase" : null,
		"flyability" : 0,
		"reason" : "windDir",
		"timestamp" :1556096400
		},
	"2019-04-24T06:00:00-06:00" : {
		"windSpeed" : 1,
		"windDir" : 137,
		"rain" : 0,
		"cloudbase" : 10500,
		"flyability" : 0,
		"reason" : "windDir",
		"timestamp" :1556107200
		},
	"2019-04-24T09:00:00-06:00" : {
		"windSpeed" : 1.4,
		"windDir" : 190,
		"rain" : 0,
		"cloudbase" : null,
		"flyability" : 100,
		"reason" : "",
		"timestamp" :1556118000
		},
	"2019-04-24T12:00:00-06:00" : {
		"windSpeed" : 1.7,
		"windDir" : 237,
		"rain" : 0,
		"cloudbase" : null,
		"flyability" : 100,
		"reason" : "",
		"timestamp" :1556128800
		},
	"2019-04-24T15:00:00-06:00" : {
		"windSpeed" : 1.7,
		"windDir" : 275,
		"rain" : 0,
		"cloudbase" : null,
		"flyability" : 100,
		"reason" : "",
		"timestamp" :1556139600
		},
	"2019-04-24T18:00:00-06:00" : {
		"windSpeed" : 0.9,
		"windDir" : 252,
		"rain" : 0,
		"cloudbase" : null,
		"flyability" : 100,
		"reason" : "",
		"timestamp" :1556150400
		},
	"2019-04-24T21:00:00-06:00" : {
		"windSpeed" : 1.2,
		"windDir" : 93,
		"rain" : 0,
		"cloudbase" : null,
		"flyability" : 0,
		"reason" : "windDir",
		"timestamp" :1556161200
		},
	"2019-04-25T00:00:00-06:00" : {
		"windSpeed" : 1,
		"windDir" : 110,
		"rain" : 0,
		"cloudbase" : null,
		"flyability" : 0,
		"reason" : "windDir",
		"timestamp" :1556172000
		},
	"2019-04-25T03:00:00-06:00" : {
		"windSpeed" : 0.3,
		"windDir" : 148,
		"rain" : 0,
		"cloudbase" : null,
		"flyability" : 0,
		"reason" : "windDir",
		"timestamp" :1556182800
		},
	"2019-04-25T06:00:00-06:00" : {
		"windSpeed" : 0.7,
		"windDir" : 137,
		"rain" : 0,
		"cloudbase" : null,
		"flyability" : 0,
		"reason" : "windDir",
		"timestamp" :1556193600
		},
	"2019-04-25T09:00:00-06:00" : {
		"windSpeed" : 1.2,
		"windDir" : 199,
		"rain" : 0,
		"cloudbase" : null,
		"flyability" : 100,
		"reason" : "",
		"timestamp" :1556204400
		},
	"2019-04-25T12:00:00-06:00" : {
		"windSpeed" : 1.6,
		"windDir" : 245,
		"rain" : 1,
		"cloudbase" : null,
		"flyability" : 0,
		"reason" : "rain",
		"timestamp" :1556215200
		},
	"2019-04-25T15:00:00-06:00" : {
		"windSpeed" : 1.5,
		"windDir" : 259,
		"rain" : 1,
		"cloudbase" : 7890,
		"flyability" : 0,
		"reason" : "rain",
		"timestamp" :1556226000
		},
	"2019-04-25T18:00:00-06:00" : {
		"windSpeed" : 1.6,
		"windDir" : 218,
		"rain" : 1,
		"cloudbase" : null,
		"flyability" : 0,
		"reason" : "rain",
		"timestamp" :1556236800
		},
	"2019-04-25T21:00:00-06:00" : {
		"windSpeed" : 1.5,
		"windDir" : 111,
		"rain" : 0,
		"cloudbase" : 8202.1,
		"flyability" : 0,
		"reason" : "windDir",
		"timestamp" :1556247600
		},
	"2019-04-26T00:00:00-06:00" : {
		"windSpeed" : 1.8,
		"windDir" : 147,
		"rain" : 0,
		"cloudbase" : null,
		"flyability" : 0,
		"reason" : "windDir",
		"timestamp" :1556258400
		},
	"2019-04-26T03:00:00-06:00" : {
		"windSpeed" : 1.9,
		"windDir" : 140,
		"rain" : 0,
		"cloudbase" : null,
		"flyability" : 0,
		"reason" : "windDir",
		"timestamp" :1556269200
		},
	"2019-04-26T06:00:00-06:00" : {
		"windSpeed" : 2.1,
		"windDir" : 143,
		"rain" : 0,
		"cloudbase" : null,
		"flyability" : 0,
		"reason" : "windDir",
		"timestamp" :1556280000
		},
	"2019-04-26T09:00:00-06:00" : {
		"windSpeed" : 2.6,
		"windDir" : 174,
		"rain" : 0,
		"cloudbase" : null,
		"flyability" : 100,
		"reason" : "",
		"timestamp" :1556290800
		},
	"2019-04-26T12:00:00-06:00" : {
		"windSpeed" : 3.1,
		"windDir" : 186,
		"rain" : 0,
		"cloudbase" : null,
		"flyability" : 100,
		"reason" : "",
		"timestamp" :1556301600
		},
	"2019-04-26T15:00:00-06:00" : {
		"windSpeed" : 4.3,
		"windDir" : 225,
		"rain" : 0,
		"cloudbase" : 2350,
		"flyability" : 100,
		"reason" : "",
		"timestamp" :1556312400
		},
	"2019-04-26T18:00:00-06:00" : {
		"windSpeed" : 1.3,
		"windDir" : 103,
		"rain" : 0,
		"cloudbase" : 8200,
		"flyability" : 0,
		"reason" : "windDir",
		"timestamp" :1556323200
		},
	"2019-04-26T21:00:00-06:00" : {
		"windSpeed" : 2.1,
		"windDir" : 159,
		"rain" : 1,
		"cloudbase" : 6812,
		"flyability" : 0,
		"reason" : "rain",
		"timestamp" :1556334000
		},
	"2019-04-27T00:00:00-06:00" : {
		"windSpeed" : 1.3,
		"windDir" : 66,
		"rain" : 1,
		"cloudbase" : null,
		"flyability" : 0,
		"reason" : "windDir, rain",
		"timestamp" :1556344800
		},
	"2019-04-27T03:00:00-06:00" : {
		"windSpeed" : 0.9,
		"windDir" : 169,
		"rain" : 1,
		"cloudbase" : null,
		"flyability" : 0,
		"reason" : "rain",
		"timestamp" :1556355600
		},
	"2019-04-27T06:00:00-06:00" : {
		"windSpeed" : 0.3,
		"windDir" : 193,
		"rain" : 0,
		"cloudbase" : null,
		"flyability" : 100,
		"reason" : "",
		"timestamp" :1556366400
		},
	"2019-04-27T09:00:00-06:00" : {
		"windSpeed" : 1.4,
		"windDir" : 183,
		"rain" : 0,
		"cloudbase" : null,
		"flyability" : 100,
		"reason" : "",
		"timestamp" :1556377200
		},
	"2019-04-27T12:00:00-06:00" : {
		"windSpeed" : 2.1,
		"windDir" : 218,
		"rain" : 0,
		"cloudbase" : null,
		"flyability" : 100,
		"reason" : "",
		"timestamp" :1556388000
		},
	"2019-04-27T15:00:00-06:00" : {
		"windSpeed" : 2,
		"windDir" : 241,
		"rain" : 1,
		"cloudbase" : null,
		"flyability" : 0,
		"reason" : "rain",
		"timestamp" :1556398800
		},
	"2019-04-27T18:00:00-06:00" : {
		"windSpeed" : 1.4,
		"windDir" : 273,
		"rain" : 0,
		"cloudbase" : 7721.05,
		"flyability" : 100,
		"reason" : "",
		"timestamp" :1556409600
		},
	"2019-04-27T21:00:00-06:00" : {
		"windSpeed" : 2.1,
		"windDir" : 119,
		"rain" : 0,
		"cloudbase" : 7590,
		"flyability" : 0,
		"reason" : "windDir",
		"timestamp" :1556420400
		},
	"2019-04-28T00:00:00-06:00" : {
		"windSpeed" : 2,
		"windDir" : 122,
		"rain" : 1,
		"cloudbase" : 6686.05,
		"flyability" : 0,
		"reason" : "windDir, rain",
		"timestamp" :1556431200
		},
	"2019-04-28T03:00:00-06:00" : {
		"windSpeed" : 2.2,
		"windDir" : 164,
		"rain" : 0,
		"cloudbase" : 6297.05,
		"flyability" : 100,
		"reason" : "",
		"timestamp" :1556442000
		},
	"2019-04-28T06:00:00-06:00" : {
		"windSpeed" : 2.1,
		"windDir" : 186,
		"rain" : 0,
		"cloudbase" : 6124,
		"flyability" : 100,
		"reason" : "",
		"timestamp" :1556452800
		}
	}
}