{
"site" : "Alpe Quaggione",
"id" : 15091,
"orientations" : "00122100",
"forecasts" : { 
	"2019-04-18T05:00:00+02:00" : {
		"windSpeed" : 1.2,
		"windDir" : 300,
		"rain" : 0,
		"cloudbase" : 9400,
		"flyability" : 0,
		"reason" : "windDir",
		"timestamp" :1555560000
		},
	"2019-04-18T08:00:00+02:00" : {
		"windSpeed" : 1.1,
		"windDir" : 299,
		"rain" : 0,
		"cloudbase" : null,
		"flyability" : 0,
		"reason" : "windDir",
		"timestamp" :1555570800
		},
	"2019-04-18T11:00:00+02:00" : {
		"windSpeed" : 1.3,
		"windDir" : 121,
		"rain" : 1,
		"cloudbase" : null,
		"flyability" : 0,
		"reason" : "rain",
		"timestamp" :1555581600
		},
	"2019-04-18T14:00:00+02:00" : {
		"windSpeed" : 1.5,
		"windDir" : 112,
		"rain" : 1,
		"cloudbase" : 2915.94,
		"flyability" : 0,
		"reason" : "rain",
		"timestamp" :1555592400
		},
	"2019-04-18T17:00:00+02:00" : {
		"windSpeed" : 1.6,
		"windDir" : 129,
		"rain" : 1,
		"cloudbase" : null,
		"flyability" : 0,
		"reason" : "rain",
		"timestamp" :1555603200
		},
	"2019-04-18T20:00:00+02:00" : {
		"windSpeed" : 0.1,
		"windDir" : 322,
		"rain" : 0,
		"cloudbase" : null,
		"flyability" : 0,
		"reason" : "windDir",
		"timestamp" :1555614000
		},
	"2019-04-18T23:00:00+02:00" : {
		"windSpeed" : 1,
		"windDir" : 291,
		"rain" : 0,
		"cloudbase" : null,
		"flyability" : 0,
		"reason" : "windDir",
		"timestamp" :1555624800
		},
	"2019-04-19T02:00:00+02:00" : {
		"windSpeed" : 1,
		"windDir" : 291,
		"rain" : 1,
		"cloudbase" : 1134.92,
		"flyability" : 0,
		"reason" : "windDir, rain, cloudbase",
		"timestamp" :1555635600
		},
	"2019-04-19T05:00:00+02:00" : {
		"windSpeed" : 1.2,
		"windDir" : 294,
		"rain" : 1,
		"cloudbase" : 1464.78,
		"flyability" : 0,
		"reason" : "windDir, rain",
		"timestamp" :1555646400
		},
	"2019-04-19T08:00:00+02:00" : {
		"windSpeed" : 1.1,
		"windDir" : 297,
		"rain" : 1,
		"cloudbase" : 1660.0719999999,
		"flyability" : 0,
		"reason" : "windDir, rain",
		"timestamp" :1555657200
		},
	"2019-04-19T11:00:00+02:00" : {
		"windSpeed" : 0.9,
		"windDir" : 122,
		"rain" : 1,
		"cloudbase" : 1050,
		"flyability" : 0,
		"reason" : "rain, cloudbase",
		"timestamp" :1555668000
		},
	"2019-04-19T14:00:00+02:00" : {
		"windSpeed" : 1.4,
		"windDir" : 141,
		"rain" : 1,
		"cloudbase" : 1845.6400000001,
		"flyability" : 0,
		"reason" : "rain",
		"timestamp" :1555678800
		},
	"2019-04-19T17:00:00+02:00" : {
		"windSpeed" : 1.1,
		"windDir" : 137,
		"rain" : 0,
		"cloudbase" : 3924.2999999999,
		"flyability" : 100,
		"reason" : "",
		"timestamp" :1555689600
		},
	"2019-04-19T20:00:00+02:00" : {
		"windSpeed" : 0.6,
		"windDir" : 245,
		"rain" : 0,
		"cloudbase" : null,
		"flyability" : 100,
		"reason" : "",
		"timestamp" :1555700400
		},
	"2019-04-19T23:00:00+02:00" : {
		"windSpeed" : 1.6,
		"windDir" : 304,
		"rain" : 0,
		"cloudbase" : null,
		"flyability" : 0,
		"reason" : "windDir",
		"timestamp" :1555711200
		},
	"2019-04-20T02:00:00+02:00" : {
		"windSpeed" : 1.7,
		"windDir" : 308,
		"rain" : 0,
		"cloudbase" : null,
		"flyability" : 0,
		"reason" : "windDir",
		"timestamp" :1555722000
		},
	"2019-04-20T05:00:00+02:00" : {
		"windSpeed" : 2,
		"windDir" : 315,
		"rain" : 0,
		"cloudbase" : null,
		"flyability" : 0,
		"reason" : "windDir",
		"timestamp" :1555732800
		},
	"2019-04-20T08:00:00+02:00" : {
		"windSpeed" : 2,
		"windDir" : 313,
		"rain" : 0,
		"cloudbase" : null,
		"flyability" : 0,
		"reason" : "windDir",
		"timestamp" :1555743600
		},
	"2019-04-20T11:00:00+02:00" : {
		"windSpeed" : 1,
		"windDir" : 119,
		"rain" : 0,
		"cloudbase" : 4850,
		"flyability" : 100,
		"reason" : "",
		"timestamp" :1555754400
		},
	"2019-04-20T14:00:00+02:00" : {
		"windSpeed" : 2.9,
		"windDir" : 123,
		"rain" : 0,
		"cloudbase" : 4599.4799999999,
		"flyability" : 100,
		"reason" : "",
		"timestamp" :1555765200
		},
	"2019-04-20T17:00:00+02:00" : {
		"windSpeed" : 1.8,
		"windDir" : 126,
		"rain" : 0,
		"cloudbase" : null,
		"flyability" : 100,
		"reason" : "",
		"timestamp" :1555776000
		},
	"2019-04-20T20:00:00+02:00" : {
		"windSpeed" : 1.3,
		"windDir" : 140,
		"rain" : 0,
		"cloudbase" : null,
		"flyability" : 100,
		"reason" : "",
		"timestamp" :1555786800
		},
	"2019-04-20T23:00:00+02:00" : {
		"windSpeed" : 0.7,
		"windDir" : 308,
		"rain" : 0,
		"cloudbase" : null,
		"flyability" : 0,
		"reason" : "windDir",
		"timestamp" :1555797600
		},
	"2019-04-21T02:00:00+02:00" : {
		"windSpeed" : 1.2,
		"windDir" : 299,
		"rain" : 0,
		"cloudbase" : 9100,
		"flyability" : 0,
		"reason" : "windDir",
		"timestamp" :1555808400
		},
	"2019-04-21T05:00:00+02:00" : {
		"windSpeed" : 1.2,
		"windDir" : 299,
		"rain" : 0,
		"cloudbase" : 7839.56,
		"flyability" : 0,
		"reason" : "windDir",
		"timestamp" :1555819200
		},
	"2019-04-21T08:00:00+02:00" : {
		"windSpeed" : 1.2,
		"windDir" : 300,
		"rain" : 0,
		"cloudbase" : null,
		"flyability" : 0,
		"reason" : "windDir",
		"timestamp" :1555830000
		},
	"2019-04-21T11:00:00+02:00" : {
		"windSpeed" : 1.3,
		"windDir" : 135,
		"rain" : 0,
		"cloudbase" : null,
		"flyability" : 100,
		"reason" : "",
		"timestamp" :1555840800
		},
	"2019-04-21T14:00:00+02:00" : {
		"windSpeed" : 2.8,
		"windDir" : 125,
		"rain" : 0,
		"cloudbase" : 7233.6399999998,
		"flyability" : 100,
		"reason" : "",
		"timestamp" :1555851600
		},
	"2019-04-21T17:00:00+02:00" : {
		"windSpeed" : 2.5,
		"windDir" : 129,
		"rain" : 0,
		"cloudbase" : 5465.4199999998,
		"flyability" : 100,
		"reason" : "",
		"timestamp" :1555862400
		},
	"2019-04-21T20:00:00+02:00" : {
		"windSpeed" : 0.5,
		"windDir" : 99,
		"rain" : 0,
		"cloudbase" : null,
		"flyability" : 100,
		"reason" : "",
		"timestamp" :1555873200
		},
	"2019-04-21T23:00:00+02:00" : {
		"windSpeed" : 0.5,
		"windDir" : 350,
		"rain" : 0,
		"cloudbase" : null,
		"flyability" : 0,
		"reason" : "windDir",
		"timestamp" :1555884000
		},
	"2019-04-22T02:00:00+02:00" : {
		"windSpeed" : 0.8,
		"windDir" : 311,
		"rain" : 0,
		"cloudbase" : 8970.52,
		"flyability" : 0,
		"reason" : "windDir",
		"timestamp" :1555894800
		},
	"2019-04-22T05:00:00+02:00" : {
		"windSpeed" : 0.5,
		"windDir" : 287,
		"rain" : 0,
		"cloudbase" : 8170.52,
		"flyability" : 0,
		"reason" : "windDir",
		"timestamp" :1555905600
		},
	"2019-04-22T08:00:00+02:00" : {
		"windSpeed" : 0.7,
		"windDir" : 307,
		"rain" : 0,
		"cloudbase" : 6298.52,
		"flyability" : 0,
		"reason" : "windDir",
		"timestamp" :1555916400
		},
	"2019-04-22T11:00:00+02:00" : {
		"windSpeed" : 1.1,
		"windDir" : 150,
		"rain" : 0,
		"cloudbase" : 5783.04,
		"flyability" : 100,
		"reason" : "",
		"timestamp" :1555927200
		},
	"2019-04-22T14:00:00+02:00" : {
		"windSpeed" : 2.5,
		"windDir" : 145,
		"rain" : 0,
		"cloudbase" : 6230.96,
		"flyability" : 100,
		"reason" : "",
		"timestamp" :1555938000
		},
	"2019-04-22T17:00:00+02:00" : {
		"windSpeed" : 2.1,
		"windDir" : 136,
		"rain" : 0,
		"cloudbase" : 2223.04,
		"flyability" : 100,
		"reason" : "",
		"timestamp" :1555948800
		},
	"2019-04-22T20:00:00+02:00" : {
		"windSpeed" : 0.6,
		"windDir" : 173,
		"rain" : 0,
		"cloudbase" : null,
		"flyability" : 100,
		"reason" : "",
		"timestamp" :1555959600
		},
	"2019-04-22T23:00:00+02:00" : {
		"windSpeed" : 1.5,
		"windDir" : 161,
		"rain" : 1,
		"cloudbase" : 2016.78,
		"flyability" : 0,
		"reason" : "rain",
		"timestamp" :1555970400
		},
	"2019-04-23T02:00:00+02:00" : {
		"windSpeed" : 1,
		"windDir" : 269,
		"rain" : 1,
		"cloudbase" : 2219.04,
		"flyability" : 0,
		"reason" : "windDir, rain",
		"timestamp" :1555981200
		},
	"2019-04-23T05:00:00+02:00" : {
		"windSpeed" : 2,
		"windDir" : 332,
		"rain" : 1,
		"cloudbase" : 1131.26,
		"flyability" : 0,
		"reason" : "windDir, rain, cloudbase",
		"timestamp" :1555992000
		},
	"2019-04-23T08:00:00+02:00" : {
		"windSpeed" : 2.5,
		"windDir" : 315,
		"rain" : 1,
		"cloudbase" : 924.228,
		"flyability" : 0,
		"reason" : "windDir, rain, cloudbase",
		"timestamp" :1556002800
		},
	"2019-04-23T11:00:00+02:00" : {
		"windSpeed" : 2.6,
		"windDir" : 315,
		"rain" : 1,
		"cloudbase" : 895.23199999999,
		"flyability" : 0,
		"reason" : "windDir, rain, cloudbase",
		"timestamp" :1556013600
		},
	"2019-04-23T14:00:00+02:00" : {
		"windSpeed" : 1.7,
		"windDir" : 330,
		"rain" : 1,
		"cloudbase" : 686.712,
		"flyability" : 0,
		"reason" : "windDir, rain, cloudbase",
		"timestamp" :1556024400
		},
	"2019-04-23T17:00:00+02:00" : {
		"windSpeed" : 2,
		"windDir" : 333,
		"rain" : 1,
		"cloudbase" : 716.13599999999,
		"flyability" : 0,
		"reason" : "windDir, rain, cloudbase",
		"timestamp" :1556035200
		},
	"2019-04-23T20:00:00+02:00" : {
		"windSpeed" : 1.6,
		"windDir" : 304,
		"rain" : 1,
		"cloudbase" : 755.52799999999,
		"flyability" : 0,
		"reason" : "windDir, rain, cloudbase",
		"timestamp" :1556046000
		},
	"2019-04-23T23:00:00+02:00" : {
		"windSpeed" : 1.6,
		"windDir" : 328,
		"rain" : 1,
		"cloudbase" : 861.51199999999,
		"flyability" : 0,
		"reason" : "windDir, rain, cloudbase",
		"timestamp" :1556056800
		},
	"2019-04-24T02:00:00+02:00" : {
		"windSpeed" : 1,
		"windDir" : 300,
		"rain" : 1,
		"cloudbase" : 817.12799999999,
		"flyability" : 0,
		"reason" : "windDir, rain, cloudbase",
		"timestamp" :1556067600
		}
	}
}