{
"site" : "kithaironas",
"id" : 15222,
"orientations" : "00000000",
"forecasts" : { 
	"2019-04-14T06:00:00+03:00" : {
		"windSpeed" : 1.8,
		"windDir" : 233,
		"rain" : 0,
		"cloudbase" : null,
		"flyability" : -50,
		"reason" : "orientationsUnknown",
		"timestamp" :1555210800
		},
	"2019-04-14T09:00:00+03:00" : {
		"windSpeed" : 2.1,
		"windDir" : 256,
		"rain" : 0,
		"cloudbase" : null,
		"flyability" : -50,
		"reason" : "orientationsUnknown",
		"timestamp" :1555221600
		},
	"2019-04-14T12:00:00+03:00" : {
		"windSpeed" : 2.5,
		"windDir" : 257,
		"rain" : 0,
		"cloudbase" : null,
		"flyability" : -50,
		"reason" : "orientationsUnknown",
		"timestamp" :1555232400
		},
	"2019-04-14T15:00:00+03:00" : {
		"windSpeed" : 2,
		"windDir" : 239,
		"rain" : 1,
		"cloudbase" : null,
		"flyability" : -0,
		"reason" : "orientationsUnknown, rain",
		"timestamp" :1555243200
		},
	"2019-04-14T18:00:00+03:00" : {
		"windSpeed" : 1.1,
		"windDir" : 262,
		"rain" : 1,
		"cloudbase" : 6676.4949,
		"flyability" : -0,
		"reason" : "orientationsUnknown, rain",
		"timestamp" :1555254000
		},
	"2019-04-14T21:00:00+03:00" : {
		"windSpeed" : 0.8,
		"windDir" : 212,
		"rain" : 0,
		"cloudbase" : null,
		"flyability" : -50,
		"reason" : "orientationsUnknown",
		"timestamp" :1555264800
		},
	"2019-04-15T00:00:00+03:00" : {
		"windSpeed" : 1.2,
		"windDir" : 236,
		"rain" : 0,
		"cloudbase" : null,
		"flyability" : -50,
		"reason" : "orientationsUnknown",
		"timestamp" :1555275600
		},
	"2019-04-15T03:00:00+03:00" : {
		"windSpeed" : 1.4,
		"windDir" : 352,
		"rain" : 0,
		"cloudbase" : null,
		"flyability" : -50,
		"reason" : "orientationsUnknown",
		"timestamp" :1555286400
		},
	"2019-04-15T06:00:00+03:00" : {
		"windSpeed" : 1.1,
		"windDir" : 10,
		"rain" : 0,
		"cloudbase" : null,
		"flyability" : -50,
		"reason" : "orientationsUnknown",
		"timestamp" :1555297200
		},
	"2019-04-15T09:00:00+03:00" : {
		"windSpeed" : 1.5,
		"windDir" : 17,
		"rain" : 0,
		"cloudbase" : null,
		"flyability" : -50,
		"reason" : "orientationsUnknown",
		"timestamp" :1555308000
		},
	"2019-04-15T12:00:00+03:00" : {
		"windSpeed" : 1.3,
		"windDir" : 3,
		"rain" : 1,
		"cloudbase" : 370,
		"flyability" : -0,
		"reason" : "orientationsUnknown, rain, cloudbase",
		"timestamp" :1555318800
		},
	"2019-04-15T15:00:00+03:00" : {
		"windSpeed" : 1.1,
		"windDir" : 350,
		"rain" : 0,
		"cloudbase" : 931.27806999992,
		"flyability" : -0,
		"reason" : "orientationsUnknown, cloudbase",
		"timestamp" :1555329600
		},
	"2019-04-15T18:00:00+03:00" : {
		"windSpeed" : 0.2,
		"windDir" : 63,
		"rain" : 0,
		"cloudbase" : 3378.1448999997,
		"flyability" : -50,
		"reason" : "orientationsUnknown",
		"timestamp" :1555340400
		},
	"2019-04-15T21:00:00+03:00" : {
		"windSpeed" : 1.6,
		"windDir" : 16,
		"rain" : 1,
		"cloudbase" : 1472.4840399998,
		"flyability" : -0,
		"reason" : "orientationsUnknown, rain",
		"timestamp" :1555351200
		},
	"2019-04-16T00:00:00+03:00" : {
		"windSpeed" : 2.2,
		"windDir" : 7,
		"rain" : 1,
		"cloudbase" : 1039.6405599999,
		"flyability" : -0,
		"reason" : "orientationsUnknown, rain, cloudbase",
		"timestamp" :1555362000
		},
	"2019-04-16T03:00:00+03:00" : {
		"windSpeed" : 3.1,
		"windDir" : 3,
		"rain" : 1,
		"cloudbase" : 454.86923999979,
		"flyability" : -0,
		"reason" : "orientationsUnknown, rain, cloudbase",
		"timestamp" :1555372800
		},
	"2019-04-16T06:00:00+03:00" : {
		"windSpeed" : 3.7,
		"windDir" : 356,
		"rain" : 1,
		"cloudbase" : 30,
		"flyability" : -0,
		"reason" : "orientationsUnknown, rain, cloudbase",
		"timestamp" :1555383600
		},
	"2019-04-16T09:00:00+03:00" : {
		"windSpeed" : 5,
		"windDir" : 3,
		"rain" : 1,
		"cloudbase" : null,
		"flyability" : -0,
		"reason" : "orientationsUnknown, rain",
		"timestamp" :1555394400
		},
	"2019-04-16T12:00:00+03:00" : {
		"windSpeed" : 5,
		"windDir" : 9,
		"rain" : 1,
		"cloudbase" : null,
		"flyability" : -0,
		"reason" : "orientationsUnknown, rain",
		"timestamp" :1555405200
		},
	"2019-04-16T15:00:00+03:00" : {
		"windSpeed" : 3.9,
		"windDir" : 357,
		"rain" : 0,
		"cloudbase" : 1300,
		"flyability" : -0,
		"reason" : "orientationsUnknown, cloudbase",
		"timestamp" :1555416000
		},
	"2019-04-16T18:00:00+03:00" : {
		"windSpeed" : 1.7,
		"windDir" : 7,
		"rain" : 0,
		"cloudbase" : null,
		"flyability" : -50,
		"reason" : "orientationsUnknown",
		"timestamp" :1555426800
		},
	"2019-04-16T21:00:00+03:00" : {
		"windSpeed" : 0.6,
		"windDir" : 225,
		"rain" : 0,
		"cloudbase" : null,
		"flyability" : -50,
		"reason" : "orientationsUnknown",
		"timestamp" :1555437600
		},
	"2019-04-17T00:00:00+03:00" : {
		"windSpeed" : 1.3,
		"windDir" : 185,
		"rain" : 1,
		"cloudbase" : null,
		"flyability" : -0,
		"reason" : "orientationsUnknown, rain",
		"timestamp" :1555448400
		},
	"2019-04-17T03:00:00+03:00" : {
		"windSpeed" : 1.2,
		"windDir" : 239,
		"rain" : 0,
		"cloudbase" : null,
		"flyability" : -50,
		"reason" : "orientationsUnknown",
		"timestamp" :1555459200
		},
	"2019-04-17T06:00:00+03:00" : {
		"windSpeed" : 1.6,
		"windDir" : 247,
		"rain" : 0,
		"cloudbase" : null,
		"flyability" : -50,
		"reason" : "orientationsUnknown",
		"timestamp" :1555470000
		},
	"2019-04-17T09:00:00+03:00" : {
		"windSpeed" : 1.3,
		"windDir" : 317,
		"rain" : 0,
		"cloudbase" : null,
		"flyability" : -50,
		"reason" : "orientationsUnknown",
		"timestamp" :1555480800
		},
	"2019-04-17T12:00:00+03:00" : {
		"windSpeed" : 3.1,
		"windDir" : 18,
		"rain" : 0,
		"cloudbase" : null,
		"flyability" : -50,
		"reason" : "orientationsUnknown",
		"timestamp" :1555491600
		},
	"2019-04-17T15:00:00+03:00" : {
		"windSpeed" : 1.7,
		"windDir" : 358,
		"rain" : 0,
		"cloudbase" : 2200,
		"flyability" : -50,
		"reason" : "orientationsUnknown",
		"timestamp" :1555502400
		},
	"2019-04-17T18:00:00+03:00" : {
		"windSpeed" : 0.3,
		"windDir" : 341,
		"rain" : 0,
		"cloudbase" : 2000,
		"flyability" : -50,
		"reason" : "orientationsUnknown",
		"timestamp" :1555513200
		},
	"2019-04-17T21:00:00+03:00" : {
		"windSpeed" : 1,
		"windDir" : 57,
		"rain" : 0,
		"cloudbase" : null,
		"flyability" : -50,
		"reason" : "orientationsUnknown",
		"timestamp" :1555524000
		},
	"2019-04-18T00:00:00+03:00" : {
		"windSpeed" : 0.4,
		"windDir" : 137,
		"rain" : 1,
		"cloudbase" : null,
		"flyability" : -0,
		"reason" : "orientationsUnknown, rain",
		"timestamp" :1555534800
		},
	"2019-04-18T03:00:00+03:00" : {
		"windSpeed" : 1.5,
		"windDir" : 22,
		"rain" : 0,
		"cloudbase" : null,
		"flyability" : -50,
		"reason" : "orientationsUnknown",
		"timestamp" :1555545600
		},
	"2019-04-18T06:00:00+03:00" : {
		"windSpeed" : 1.4,
		"windDir" : 39,
		"rain" : 0,
		"cloudbase" : null,
		"flyability" : -50,
		"reason" : "orientationsUnknown",
		"timestamp" :1555556400
		},
	"2019-04-18T09:00:00+03:00" : {
		"windSpeed" : 1.5,
		"windDir" : 14,
		"rain" : 0,
		"cloudbase" : null,
		"flyability" : -50,
		"reason" : "orientationsUnknown",
		"timestamp" :1555567200
		},
	"2019-04-18T12:00:00+03:00" : {
		"windSpeed" : 3,
		"windDir" : 3,
		"rain" : 0,
		"cloudbase" : null,
		"flyability" : -50,
		"reason" : "orientationsUnknown",
		"timestamp" :1555578000
		},
	"2019-04-18T15:00:00+03:00" : {
		"windSpeed" : 3.6,
		"windDir" : 18,
		"rain" : 1,
		"cloudbase" : 780,
		"flyability" : -0,
		"reason" : "orientationsUnknown, rain, cloudbase",
		"timestamp" :1555588800
		},
	"2019-04-18T18:00:00+03:00" : {
		"windSpeed" : 3.6,
		"windDir" : 3,
		"rain" : 1,
		"cloudbase" : null,
		"flyability" : -0,
		"reason" : "orientationsUnknown, rain",
		"timestamp" :1555599600
		},
	"2019-04-18T21:00:00+03:00" : {
		"windSpeed" : 2.1,
		"windDir" : 5,
		"rain" : 0,
		"cloudbase" : null,
		"flyability" : -50,
		"reason" : "orientationsUnknown",
		"timestamp" :1555610400
		},
	"2019-04-19T00:00:00+03:00" : {
		"windSpeed" : 2,
		"windDir" : 353,
		"rain" : 1,
		"cloudbase" : null,
		"flyability" : -0,
		"reason" : "orientationsUnknown, rain",
		"timestamp" :1555621200
		},
	"2019-04-19T03:00:00+03:00" : {
		"windSpeed" : 2,
		"windDir" : 359,
		"rain" : 1,
		"cloudbase" : null,
		"flyability" : -0,
		"reason" : "orientationsUnknown, rain",
		"timestamp" :1555632000
		},
	"2019-04-19T06:00:00+03:00" : {
		"windSpeed" : 3.5,
		"windDir" : 354,
		"rain" : 0,
		"cloudbase" : 250,
		"flyability" : -0,
		"reason" : "orientationsUnknown, cloudbase",
		"timestamp" :1555642800
		},
	"2019-04-19T09:00:00+03:00" : {
		"windSpeed" : 5.1,
		"windDir" : 7,
		"rain" : 1,
		"cloudbase" : null,
		"flyability" : -0,
		"reason" : "windSpeed, orientationsUnknown, rain",
		"timestamp" :1555653600
		},
	"2019-04-19T12:00:00+03:00" : {
		"windSpeed" : 5.2,
		"windDir" : 12,
		"rain" : 0,
		"cloudbase" : 1384.35255,
		"flyability" : -0,
		"reason" : "windSpeed, orientationsUnknown",
		"timestamp" :1555664400
		},
	"2019-04-19T15:00:00+03:00" : {
		"windSpeed" : 3.9,
		"windDir" : 359,
		"rain" : 0,
		"cloudbase" : 1258.3949,
		"flyability" : -0,
		"reason" : "orientationsUnknown, cloudbase",
		"timestamp" :1555675200
		},
	"2019-04-19T18:00:00+03:00" : {
		"windSpeed" : 1.4,
		"windDir" : 343,
		"rain" : 0,
		"cloudbase" : null,
		"flyability" : -50,
		"reason" : "orientationsUnknown",
		"timestamp" :1555686000
		},
	"2019-04-19T21:00:00+03:00" : {
		"windSpeed" : 0.2,
		"windDir" : 257,
		"rain" : 0,
		"cloudbase" : null,
		"flyability" : -50,
		"reason" : "orientationsUnknown",
		"timestamp" :1555696800
		},
	"2019-04-20T00:00:00+03:00" : {
		"windSpeed" : 0.9,
		"windDir" : 200,
		"rain" : 0,
		"cloudbase" : null,
		"flyability" : -50,
		"reason" : "orientationsUnknown",
		"timestamp" :1555707600
		},
	"2019-04-20T03:00:00+03:00" : {
		"windSpeed" : 1.5,
		"windDir" : 34,
		"rain" : 0,
		"cloudbase" : null,
		"flyability" : -50,
		"reason" : "orientationsUnknown",
		"timestamp" :1555718400
		}
	}
}