{
"site" : "Skepasto",
"id" : 15246,
"orientations" : "00000000",
"forecasts" : { 
	"2019-04-20T06:00:00+03:00" : {
		"windSpeed" : 0.7,
		"windDir" : 37,
		"rain" : 0,
		"cloudbase" : null,
		"flyability" : -50,
		"reason" : "orientationsUnknown",
		"timestamp" :1555729200
		},
	"2019-04-20T09:00:00+03:00" : {
		"windSpeed" : 0.5,
		"windDir" : 25,
		"rain" : 0,
		"cloudbase" : null,
		"flyability" : -50,
		"reason" : "orientationsUnknown",
		"timestamp" :1555740000
		},
	"2019-04-20T12:00:00+03:00" : {
		"windSpeed" : 2,
		"windDir" : 250,
		"rain" : 0,
		"cloudbase" : null,
		"flyability" : -50,
		"reason" : "orientationsUnknown",
		"timestamp" :1555750800
		},
	"2019-04-20T15:00:00+03:00" : {
		"windSpeed" : 2.9,
		"windDir" : 253,
		"rain" : 1,
		"cloudbase" : null,
		"flyability" : -0,
		"reason" : "orientationsUnknown, rain",
		"timestamp" :1555761600
		},
	"2019-04-20T18:00:00+03:00" : {
		"windSpeed" : 2.3,
		"windDir" : 254,
		"rain" : 1,
		"cloudbase" : null,
		"flyability" : -0,
		"reason" : "orientationsUnknown, rain",
		"timestamp" :1555772400
		},
	"2019-04-20T21:00:00+03:00" : {
		"windSpeed" : 1.4,
		"windDir" : 110,
		"rain" : 0,
		"cloudbase" : null,
		"flyability" : -50,
		"reason" : "orientationsUnknown",
		"timestamp" :1555783200
		},
	"2019-04-21T00:00:00+03:00" : {
		"windSpeed" : 1.7,
		"windDir" : 105,
		"rain" : 0,
		"cloudbase" : null,
		"flyability" : -50,
		"reason" : "orientationsUnknown",
		"timestamp" :1555794000
		},
	"2019-04-21T03:00:00+03:00" : {
		"windSpeed" : 2.3,
		"windDir" : 101,
		"rain" : 0,
		"cloudbase" : 8588.6805,
		"flyability" : -50,
		"reason" : "orientationsUnknown",
		"timestamp" :1555804800
		},
	"2019-04-21T06:00:00+03:00" : {
		"windSpeed" : 1.5,
		"windDir" : 74,
		"rain" : 0,
		"cloudbase" : 9700,
		"flyability" : -50,
		"reason" : "orientationsUnknown",
		"timestamp" :1555815600
		},
	"2019-04-21T09:00:00+03:00" : {
		"windSpeed" : 1.6,
		"windDir" : 106,
		"rain" : 0,
		"cloudbase" : 5581.3397500001,
		"flyability" : -50,
		"reason" : "orientationsUnknown",
		"timestamp" :1555826400
		},
	"2019-04-21T12:00:00+03:00" : {
		"windSpeed" : 1.8,
		"windDir" : 189,
		"rain" : 1,
		"cloudbase" : 1167.75975,
		"flyability" : -0,
		"reason" : "orientationsUnknown, rain",
		"timestamp" :1555837200
		},
	"2019-04-21T15:00:00+03:00" : {
		"windSpeed" : 2,
		"windDir" : 232,
		"rain" : 1,
		"cloudbase" : 1905.0240499999,
		"flyability" : -0,
		"reason" : "orientationsUnknown, rain",
		"timestamp" :1555848000
		},
	"2019-04-21T18:00:00+03:00" : {
		"windSpeed" : 2.1,
		"windDir" : 268,
		"rain" : 1,
		"cloudbase" : 698.05300000003,
		"flyability" : -0,
		"reason" : "orientationsUnknown, rain, cloudbase",
		"timestamp" :1555858800
		},
	"2019-04-21T21:00:00+03:00" : {
		"windSpeed" : 1,
		"windDir" : 283,
		"rain" : 0,
		"cloudbase" : 5078.9157500002,
		"flyability" : -50,
		"reason" : "orientationsUnknown",
		"timestamp" :1555869600
		},
	"2019-04-22T00:00:00+03:00" : {
		"windSpeed" : 0.9,
		"windDir" : 55,
		"rain" : 0,
		"cloudbase" : 7759.1805,
		"flyability" : -50,
		"reason" : "orientationsUnknown",
		"timestamp" :1555880400
		},
	"2019-04-22T03:00:00+03:00" : {
		"windSpeed" : 1.2,
		"windDir" : 43,
		"rain" : 0,
		"cloudbase" : 760,
		"flyability" : -50,
		"reason" : "orientationsUnknown",
		"timestamp" :1555891200
		},
	"2019-04-22T06:00:00+03:00" : {
		"windSpeed" : 1.7,
		"windDir" : 54,
		"rain" : 0,
		"cloudbase" : 4856.3,
		"flyability" : -50,
		"reason" : "orientationsUnknown",
		"timestamp" :1555902000
		},
	"2019-04-22T09:00:00+03:00" : {
		"windSpeed" : 1.5,
		"windDir" : 77,
		"rain" : 0,
		"cloudbase" : 3840.45125,
		"flyability" : -50,
		"reason" : "orientationsUnknown",
		"timestamp" :1555912800
		},
	"2019-04-22T12:00:00+03:00" : {
		"windSpeed" : 2.7,
		"windDir" : 108,
		"rain" : 1,
		"cloudbase" : 3999.1305,
		"flyability" : -0,
		"reason" : "orientationsUnknown, rain",
		"timestamp" :1555923600
		},
	"2019-04-22T15:00:00+03:00" : {
		"windSpeed" : 3.3,
		"windDir" : 128,
		"rain" : 0,
		"cloudbase" : 11148.4025,
		"flyability" : -50,
		"reason" : "orientationsUnknown",
		"timestamp" :1555934400
		},
	"2019-04-22T18:00:00+03:00" : {
		"windSpeed" : 2.8,
		"windDir" : 155,
		"rain" : 0,
		"cloudbase" : 8325.0195,
		"flyability" : -50,
		"reason" : "orientationsUnknown",
		"timestamp" :1555945200
		},
	"2019-04-22T21:00:00+03:00" : {
		"windSpeed" : 1.4,
		"windDir" : 114,
		"rain" : 1,
		"cloudbase" : 2812.3805,
		"flyability" : -0,
		"reason" : "orientationsUnknown, rain",
		"timestamp" :1555956000
		},
	"2019-04-23T00:00:00+03:00" : {
		"windSpeed" : 1.2,
		"windDir" : 67,
		"rain" : 1,
		"cloudbase" : 2331.3195,
		"flyability" : -0,
		"reason" : "orientationsUnknown, rain",
		"timestamp" :1555966800
		},
	"2019-04-23T03:00:00+03:00" : {
		"windSpeed" : 2.2,
		"windDir" : 68,
		"rain" : 1,
		"cloudbase" : 2600,
		"flyability" : -0,
		"reason" : "orientationsUnknown, rain",
		"timestamp" :1555977600
		},
	"2019-04-23T06:00:00+03:00" : {
		"windSpeed" : 2.8,
		"windDir" : 87,
		"rain" : 1,
		"cloudbase" : 4930.139,
		"flyability" : -0,
		"reason" : "orientationsUnknown, rain",
		"timestamp" :1555988400
		},
	"2019-04-23T09:00:00+03:00" : {
		"windSpeed" : 4.5,
		"windDir" : 97,
		"rain" : 1,
		"cloudbase" : 4217.20975,
		"flyability" : -0,
		"reason" : "orientationsUnknown, rain",
		"timestamp" :1555999200
		},
	"2019-04-23T12:00:00+03:00" : {
		"windSpeed" : 4.5,
		"windDir" : 100,
		"rain" : 1,
		"cloudbase" : null,
		"flyability" : -0,
		"reason" : "orientationsUnknown, rain",
		"timestamp" :1556010000
		},
	"2019-04-23T15:00:00+03:00" : {
		"windSpeed" : 4,
		"windDir" : 139,
		"rain" : 1,
		"cloudbase" : 7800,
		"flyability" : -0,
		"reason" : "orientationsUnknown, rain",
		"timestamp" :1556020800
		},
	"2019-04-23T18:00:00+03:00" : {
		"windSpeed" : 4,
		"windDir" : 137,
		"rain" : 1,
		"cloudbase" : 9128.4,
		"flyability" : -0,
		"reason" : "orientationsUnknown, rain",
		"timestamp" :1556031600
		},
	"2019-04-23T21:00:00+03:00" : {
		"windSpeed" : 3.3,
		"windDir" : 99,
		"rain" : 0,
		"cloudbase" : 6965.839,
		"flyability" : -50,
		"reason" : "orientationsUnknown",
		"timestamp" :1556042400
		},
	"2019-04-24T00:00:00+03:00" : {
		"windSpeed" : 2.7,
		"windDir" : 90,
		"rain" : 0,
		"cloudbase" : 4100,
		"flyability" : -50,
		"reason" : "orientationsUnknown",
		"timestamp" :1556053200
		},
	"2019-04-24T03:00:00+03:00" : {
		"windSpeed" : 1.8,
		"windDir" : 55,
		"rain" : 0,
		"cloudbase" : 4400,
		"flyability" : -50,
		"reason" : "orientationsUnknown",
		"timestamp" :1556064000
		},
	"2019-04-24T06:00:00+03:00" : {
		"windSpeed" : 1.9,
		"windDir" : 48,
		"rain" : 0,
		"cloudbase" : null,
		"flyability" : -50,
		"reason" : "orientationsUnknown",
		"timestamp" :1556074800
		},
	"2019-04-24T09:00:00+03:00" : {
		"windSpeed" : 3.1,
		"windDir" : 85,
		"rain" : 0,
		"cloudbase" : null,
		"flyability" : -50,
		"reason" : "orientationsUnknown",
		"timestamp" :1556085600
		},
	"2019-04-24T12:00:00+03:00" : {
		"windSpeed" : 4.4,
		"windDir" : 124,
		"rain" : 0,
		"cloudbase" : 4575.65975,
		"flyability" : -50,
		"reason" : "orientationsUnknown",
		"timestamp" :1556096400
		},
	"2019-04-24T15:00:00+03:00" : {
		"windSpeed" : 5.2,
		"windDir" : 111,
		"rain" : 1,
		"cloudbase" : 4804.95675,
		"flyability" : -0,
		"reason" : "windSpeed, orientationsUnknown, rain",
		"timestamp" :1556107200
		},
	"2019-04-24T18:00:00+03:00" : {
		"windSpeed" : 4.2,
		"windDir" : 106,
		"rain" : 1,
		"cloudbase" : 9500,
		"flyability" : -0,
		"reason" : "orientationsUnknown, rain",
		"timestamp" :1556118000
		},
	"2019-04-24T21:00:00+03:00" : {
		"windSpeed" : 3.8,
		"windDir" : 98,
		"rain" : 0,
		"cloudbase" : 9466.2,
		"flyability" : -50,
		"reason" : "orientationsUnknown",
		"timestamp" :1556128800
		},
	"2019-04-25T00:00:00+03:00" : {
		"windSpeed" : 2.5,
		"windDir" : 87,
		"rain" : 0,
		"cloudbase" : null,
		"flyability" : -50,
		"reason" : "orientationsUnknown",
		"timestamp" :1556139600
		},
	"2019-04-25T03:00:00+03:00" : {
		"windSpeed" : 2.4,
		"windDir" : 78,
		"rain" : 0,
		"cloudbase" : 7760.3364999999,
		"flyability" : -50,
		"reason" : "orientationsUnknown",
		"timestamp" :1556150400
		},
	"2019-04-25T06:00:00+03:00" : {
		"windSpeed" : 2.4,
		"windDir" : 71,
		"rain" : 0,
		"cloudbase" : 8214.3974999999,
		"flyability" : -50,
		"reason" : "orientationsUnknown",
		"timestamp" :1556161200
		},
	"2019-04-25T09:00:00+03:00" : {
		"windSpeed" : 2.9,
		"windDir" : 83,
		"rain" : 1,
		"cloudbase" : 8725.0195,
		"flyability" : -0,
		"reason" : "orientationsUnknown, rain",
		"timestamp" :1556172000
		},
	"2019-04-25T12:00:00+03:00" : {
		"windSpeed" : 4.6,
		"windDir" : 103,
		"rain" : 0,
		"cloudbase" : 8725.0195,
		"flyability" : -50,
		"reason" : "orientationsUnknown",
		"timestamp" :1556182800
		},
	"2019-04-25T15:00:00+03:00" : {
		"windSpeed" : 5.6,
		"windDir" : 133,
		"rain" : 0,
		"cloudbase" : null,
		"flyability" : -0,
		"reason" : "windSpeed, orientationsUnknown",
		"timestamp" :1556193600
		},
	"2019-04-25T18:00:00+03:00" : {
		"windSpeed" : 3.8,
		"windDir" : 142,
		"rain" : 0,
		"cloudbase" : null,
		"flyability" : -50,
		"reason" : "orientationsUnknown",
		"timestamp" :1556204400
		},
	"2019-04-25T21:00:00+03:00" : {
		"windSpeed" : 1.9,
		"windDir" : 153,
		"rain" : 1,
		"cloudbase" : null,
		"flyability" : -0,
		"reason" : "orientationsUnknown, rain",
		"timestamp" :1556215200
		},
	"2019-04-26T00:00:00+03:00" : {
		"windSpeed" : 2.3,
		"windDir" : 116,
		"rain" : 0,
		"cloudbase" : null,
		"flyability" : -50,
		"reason" : "orientationsUnknown",
		"timestamp" :1556226000
		},
	"2019-04-26T03:00:00+03:00" : {
		"windSpeed" : 1.7,
		"windDir" : 138,
		"rain" : 0,
		"cloudbase" : null,
		"flyability" : -50,
		"reason" : "orientationsUnknown",
		"timestamp" :1556236800
		}
	}
}