{
"site" : "Rogers Road",
"id" : 15308,
"orientations" : "20000000",
"forecasts" : { 
	"2019-04-03T16:00:00+13:00" : {
		"windSpeed" : 4.7,
		"windDir" : 127,
		"rain" : 0,
		"cloudbase" : null,
		"flyability" : 0,
		"reason" : "windDir",
		"timestamp" :1554256800
		},
	"2019-04-03T19:00:00+13:00" : {
		"windSpeed" : 5.2,
		"windDir" : 131,
		"rain" : 0,
		"cloudbase" : null,
		"flyability" : 0,
		"reason" : "windSpeed, windDir",
		"timestamp" :1554267600
		},
	"2019-04-03T22:00:00+13:00" : {
		"windSpeed" : 4.7,
		"windDir" : 147,
		"rain" : 0,
		"cloudbase" : null,
		"flyability" : 0,
		"reason" : "windDir",
		"timestamp" :1554278400
		},
	"2019-04-04T01:00:00+13:00" : {
		"windSpeed" : 3.4,
		"windDir" : 165,
		"rain" : 0,
		"cloudbase" : 10500,
		"flyability" : 0,
		"reason" : "windDir",
		"timestamp" :1554289200
		},
	"2019-04-04T04:00:00+13:00" : {
		"windSpeed" : 3.9,
		"windDir" : 178,
		"rain" : 0,
		"cloudbase" : 10500,
		"flyability" : 0,
		"reason" : "windDir",
		"timestamp" :1554300000
		},
	"2019-04-04T07:00:00+13:00" : {
		"windSpeed" : 4,
		"windDir" : 173,
		"rain" : 0,
		"cloudbase" : null,
		"flyability" : 0,
		"reason" : "windDir",
		"timestamp" :1554310800
		},
	"2019-04-04T10:00:00+13:00" : {
		"windSpeed" : 3.8,
		"windDir" : 160,
		"rain" : 0,
		"cloudbase" : null,
		"flyability" : 0,
		"reason" : "windDir",
		"timestamp" :1554321600
		},
	"2019-04-04T13:00:00+13:00" : {
		"windSpeed" : 1.5,
		"windDir" : 123,
		"rain" : 0,
		"cloudbase" : 1450,
		"flyability" : 0,
		"reason" : "windDir",
		"timestamp" :1554332400
		},
	"2019-04-04T16:00:00+13:00" : {
		"windSpeed" : 3.6,
		"windDir" : 5,
		"rain" : 0,
		"cloudbase" : 1900,
		"flyability" : 100,
		"reason" : "",
		"timestamp" :1554343200
		},
	"2019-04-04T19:00:00+13:00" : {
		"windSpeed" : 0.9,
		"windDir" : 218,
		"rain" : 0,
		"cloudbase" : null,
		"flyability" : 0,
		"reason" : "windDir",
		"timestamp" :1554354000
		},
	"2019-04-04T22:00:00+13:00" : {
		"windSpeed" : 2.7,
		"windDir" : 135,
		"rain" : 0,
		"cloudbase" : 2100,
		"flyability" : 0,
		"reason" : "windDir",
		"timestamp" :1554364800
		},
	"2019-04-05T01:00:00+13:00" : {
		"windSpeed" : 3.9,
		"windDir" : 129,
		"rain" : 0,
		"cloudbase" : null,
		"flyability" : 0,
		"reason" : "windDir",
		"timestamp" :1554375600
		},
	"2019-04-05T04:00:00+13:00" : {
		"windSpeed" : 3.4,
		"windDir" : 146,
		"rain" : 0,
		"cloudbase" : null,
		"flyability" : 0,
		"reason" : "windDir",
		"timestamp" :1554386400
		},
	"2019-04-05T07:00:00+13:00" : {
		"windSpeed" : 3.6,
		"windDir" : 149,
		"rain" : 0,
		"cloudbase" : null,
		"flyability" : 0,
		"reason" : "windDir",
		"timestamp" :1554397200
		},
	"2019-04-05T10:00:00+13:00" : {
		"windSpeed" : 3.9,
		"windDir" : 142,
		"rain" : 0,
		"cloudbase" : null,
		"flyability" : 0,
		"reason" : "windDir",
		"timestamp" :1554408000
		},
	"2019-04-05T13:00:00+13:00" : {
		"windSpeed" : 3.1,
		"windDir" : 127,
		"rain" : 0,
		"cloudbase" : null,
		"flyability" : 0,
		"reason" : "windDir",
		"timestamp" :1554418800
		},
	"2019-04-05T16:00:00+13:00" : {
		"windSpeed" : 1.8,
		"windDir" : 100,
		"rain" : 0,
		"cloudbase" : 10000,
		"flyability" : 0,
		"reason" : "windDir",
		"timestamp" :1554429600
		},
	"2019-04-05T19:00:00+13:00" : {
		"windSpeed" : 2.7,
		"windDir" : 83,
		"rain" : 0,
		"cloudbase" : 7943.6799999999,
		"flyability" : 0,
		"reason" : "windDir",
		"timestamp" :1554440400
		},
	"2019-04-05T22:00:00+13:00" : {
		"windSpeed" : 4.6,
		"windDir" : 131,
		"rain" : 1,
		"cloudbase" : 4529.4549999993,
		"flyability" : 0,
		"reason" : "windDir, rain",
		"timestamp" :1554451200
		},
	"2019-04-06T01:00:00+13:00" : {
		"windSpeed" : 4,
		"windDir" : 157,
		"rain" : 0,
		"cloudbase" : 6743.9600000003,
		"flyability" : 0,
		"reason" : "windDir",
		"timestamp" :1554462000
		},
	"2019-04-06T04:00:00+13:00" : {
		"windSpeed" : 5,
		"windDir" : 162,
		"rain" : 0,
		"cloudbase" : null,
		"flyability" : 0,
		"reason" : "windDir",
		"timestamp" :1554472800
		},
	"2019-04-06T07:00:00+13:00" : {
		"windSpeed" : 4.5,
		"windDir" : 162,
		"rain" : 0,
		"cloudbase" : 2900,
		"flyability" : 0,
		"reason" : "windDir",
		"timestamp" :1554483600
		},
	"2019-04-06T10:00:00+13:00" : {
		"windSpeed" : 5.3,
		"windDir" : 152,
		"rain" : 0,
		"cloudbase" : null,
		"flyability" : 0,
		"reason" : "windSpeed, windDir",
		"timestamp" :1554494400
		},
	"2019-04-06T13:00:00+13:00" : {
		"windSpeed" : 2.6,
		"windDir" : 122,
		"rain" : 0,
		"cloudbase" : 9000,
		"flyability" : 0,
		"reason" : "windDir",
		"timestamp" :1554505200
		},
	"2019-04-06T16:00:00+13:00" : {
		"windSpeed" : 1.8,
		"windDir" : 88,
		"rain" : 1,
		"cloudbase" : 1550,
		"flyability" : 0,
		"reason" : "windDir, rain",
		"timestamp" :1554516000
		},
	"2019-04-06T19:00:00+13:00" : {
		"windSpeed" : 3.1,
		"windDir" : 121,
		"rain" : 1,
		"cloudbase" : 1925.7200000001,
		"flyability" : 0,
		"reason" : "windDir, rain",
		"timestamp" :1554526800
		},
	"2019-04-06T22:00:00+13:00" : {
		"windSpeed" : 5.2,
		"windDir" : 161,
		"rain" : 1,
		"cloudbase" : 3395.3450000004,
		"flyability" : 0,
		"reason" : "windSpeed, windDir, rain",
		"timestamp" :1554537600
		},
	"2019-04-07T01:00:00+13:00" : {
		"windSpeed" : 5.1,
		"windDir" : 168,
		"rain" : 0,
		"cloudbase" : 4270.189999999,
		"flyability" : 0,
		"reason" : "windSpeed, windDir",
		"timestamp" :1554548400
		},
	"2019-04-07T04:00:00+13:00" : {
		"windSpeed" : 4.9,
		"windDir" : 167,
		"rain" : 1,
		"cloudbase" : 6919.8800000002,
		"flyability" : 0,
		"reason" : "windDir, rain",
		"timestamp" :1554559200
		},
	"2019-04-07T07:00:00+13:00" : {
		"windSpeed" : 4,
		"windDir" : 167,
		"rain" : 0,
		"cloudbase" : 6889.8,
		"flyability" : 0,
		"reason" : "windDir",
		"timestamp" :1554570000
		},
	"2019-04-07T10:00:00+13:00" : {
		"windSpeed" : 3.8,
		"windDir" : 163,
		"rain" : 0,
		"cloudbase" : 7778.0600000002,
		"flyability" : 0,
		"reason" : "windDir",
		"timestamp" :1554580800
		},
	"2019-04-07T13:00:00+13:00" : {
		"windSpeed" : 4.3,
		"windDir" : 127,
		"rain" : 1,
		"cloudbase" : 7608.0600000001,
		"flyability" : 0,
		"reason" : "windDir, rain",
		"timestamp" :1554591600
		},
	"2019-04-07T16:00:00+13:00" : {
		"windSpeed" : 3.8,
		"windDir" : 94,
		"rain" : 1,
		"cloudbase" : 3400,
		"flyability" : 0,
		"reason" : "windDir, rain",
		"timestamp" :1554602400
		},
	"2019-04-07T19:00:00+13:00" : {
		"windSpeed" : 3.1,
		"windDir" : 114,
		"rain" : 0,
		"cloudbase" : 3404.8100000002,
		"flyability" : 0,
		"reason" : "windDir",
		"timestamp" :1554613200
		},
	"2019-04-07T22:00:00+13:00" : {
		"windSpeed" : 3.5,
		"windDir" : 147,
		"rain" : 1,
		"cloudbase" : 4507.3450000001,
		"flyability" : 0,
		"reason" : "windDir, rain",
		"timestamp" :1554624000
		},
	"2019-04-08T01:00:00+13:00" : {
		"windSpeed" : 5.4,
		"windDir" : 173,
		"rain" : 1,
		"cloudbase" : 6196.025,
		"flyability" : 0,
		"reason" : "windSpeed, windDir, rain",
		"timestamp" :1554634800
		},
	"2019-04-08T04:00:00+13:00" : {
		"windSpeed" : 4.6,
		"windDir" : 172,
		"rain" : 1,
		"cloudbase" : 4475.5150000003,
		"flyability" : 0,
		"reason" : "windDir, rain",
		"timestamp" :1554645600
		},
	"2019-04-08T07:00:00+13:00" : {
		"windSpeed" : 3.8,
		"windDir" : 195,
		"rain" : 1,
		"cloudbase" : 4702.66,
		"flyability" : 0,
		"reason" : "windDir, rain",
		"timestamp" :1554656400
		},
	"2019-04-08T10:00:00+13:00" : {
		"windSpeed" : 3.3,
		"windDir" : 203,
		"rain" : 0,
		"cloudbase" : 7800,
		"flyability" : 0,
		"reason" : "windDir",
		"timestamp" :1554667200
		},
	"2019-04-08T13:00:00+13:00" : {
		"windSpeed" : 1.2,
		"windDir" : 328,
		"rain" : 1,
		"cloudbase" : null,
		"flyability" : 0,
		"reason" : "windDir, rain",
		"timestamp" :1554678000
		},
	"2019-04-08T16:00:00+13:00" : {
		"windSpeed" : 1.6,
		"windDir" : 316,
		"rain" : 1,
		"cloudbase" : 1050,
		"flyability" : 0,
		"reason" : "windDir, rain",
		"timestamp" :1554688800
		},
	"2019-04-08T19:00:00+13:00" : {
		"windSpeed" : 2.9,
		"windDir" : 161,
		"rain" : 1,
		"cloudbase" : 6000,
		"flyability" : 0,
		"reason" : "windDir, rain",
		"timestamp" :1554699600
		},
	"2019-04-08T22:00:00+13:00" : {
		"windSpeed" : 1.9,
		"windDir" : 166,
		"rain" : 0,
		"cloudbase" : 6900,
		"flyability" : 0,
		"reason" : "windDir",
		"timestamp" :1554710400
		},
	"2019-04-09T01:00:00+13:00" : {
		"windSpeed" : 1.6,
		"windDir" : 171,
		"rain" : 1,
		"cloudbase" : null,
		"flyability" : 0,
		"reason" : "windDir, rain",
		"timestamp" :1554721200
		},
	"2019-04-09T04:00:00+13:00" : {
		"windSpeed" : 2,
		"windDir" : 168,
		"rain" : 0,
		"cloudbase" : null,
		"flyability" : 0,
		"reason" : "windDir",
		"timestamp" :1554732000
		},
	"2019-04-09T07:00:00+13:00" : {
		"windSpeed" : 2.3,
		"windDir" : 189,
		"rain" : 0,
		"cloudbase" : null,
		"flyability" : 0,
		"reason" : "windDir",
		"timestamp" :1554742800
		},
	"2019-04-09T10:00:00+13:00" : {
		"windSpeed" : 2.4,
		"windDir" : 173,
		"rain" : 0,
		"cloudbase" : null,
		"flyability" : 0,
		"reason" : "windDir",
		"timestamp" :1554753600
		},
	"2019-04-09T13:00:00+13:00" : {
		"windSpeed" : 2.3,
		"windDir" : 155,
		"rain" : 0,
		"cloudbase" : null,
		"flyability" : 0,
		"reason" : "windDir",
		"timestamp" :1554764400
		}
	}
}