{
"site" : "Kuyalnik",
"id" : 15305,
"orientations" : "00000000",
"forecasts" : { 
	"2019-04-14T06:00:00+03:00" : {
		"windSpeed" : 4.8,
		"windDir" : 12,
		"rain" : 1,
		"cloudbase" : 570.84808,
		"flyability" : -0,
		"reason" : "orientationsUnknown, rain",
		"timestamp" :1555210800
		},
	"2019-04-14T09:00:00+03:00" : {
		"windSpeed" : 6.2,
		"windDir" : 9,
		"rain" : 1,
		"cloudbase" : 516.7249,
		"flyability" : -0,
		"reason" : "windSpeed, orientationsUnknown, rain",
		"timestamp" :1555221600
		},
	"2019-04-14T12:00:00+03:00" : {
		"windSpeed" : 6.4,
		"windDir" : 19,
		"rain" : 0,
		"cloudbase" : 445.32403999999,
		"flyability" : -0,
		"reason" : "windSpeed, orientationsUnknown",
		"timestamp" :1555232400
		},
	"2019-04-14T15:00:00+03:00" : {
		"windSpeed" : 6.7,
		"windDir" : 14,
		"rain" : 0,
		"cloudbase" : 694.26808,
		"flyability" : -0,
		"reason" : "windSpeed, orientationsUnknown",
		"timestamp" :1555243200
		},
	"2019-04-14T18:00:00+03:00" : {
		"windSpeed" : 6.7,
		"windDir" : 4,
		"rain" : 1,
		"cloudbase" : 843.44000000001,
		"flyability" : -0,
		"reason" : "windSpeed, orientationsUnknown, rain",
		"timestamp" :1555254000
		},
	"2019-04-14T21:00:00+03:00" : {
		"windSpeed" : 7.2,
		"windDir" : 1,
		"rain" : 1,
		"cloudbase" : 1399.6,
		"flyability" : -0,
		"reason" : "windSpeed, orientationsUnknown, rain",
		"timestamp" :1555264800
		},
	"2019-04-15T00:00:00+03:00" : {
		"windSpeed" : 6.8,
		"windDir" : 4,
		"rain" : 1,
		"cloudbase" : 1052.7702,
		"flyability" : -0,
		"reason" : "windSpeed, orientationsUnknown, rain",
		"timestamp" :1555275600
		},
	"2019-04-15T03:00:00+03:00" : {
		"windSpeed" : 7.3,
		"windDir" : 3,
		"rain" : 1,
		"cloudbase" : 1042.8351,
		"flyability" : -0,
		"reason" : "windSpeed, orientationsUnknown, rain",
		"timestamp" :1555286400
		},
	"2019-04-15T06:00:00+03:00" : {
		"windSpeed" : 7.4,
		"windDir" : 356,
		"rain" : 1,
		"cloudbase" : 1112.9798,
		"flyability" : -0,
		"reason" : "windSpeed, orientationsUnknown, rain",
		"timestamp" :1555297200
		},
	"2019-04-15T09:00:00+03:00" : {
		"windSpeed" : 8.3,
		"windDir" : 350,
		"rain" : 1,
		"cloudbase" : 1156.7149,
		"flyability" : -0,
		"reason" : "windSpeed, orientationsUnknown, rain",
		"timestamp" :1555308000
		},
	"2019-04-15T12:00:00+03:00" : {
		"windSpeed" : 7.7,
		"windDir" : 349,
		"rain" : 1,
		"cloudbase" : 1133.35,
		"flyability" : -0,
		"reason" : "windSpeed, orientationsUnknown, rain",
		"timestamp" :1555318800
		},
	"2019-04-15T15:00:00+03:00" : {
		"windSpeed" : 7.7,
		"windDir" : 349,
		"rain" : 1,
		"cloudbase" : 1050,
		"flyability" : -0,
		"reason" : "windSpeed, orientationsUnknown, rain",
		"timestamp" :1555329600
		},
	"2019-04-15T18:00:00+03:00" : {
		"windSpeed" : 6.4,
		"windDir" : 346,
		"rain" : 1,
		"cloudbase" : 1333.8,
		"flyability" : -0,
		"reason" : "windSpeed, orientationsUnknown, rain",
		"timestamp" :1555340400
		},
	"2019-04-15T21:00:00+03:00" : {
		"windSpeed" : 6.5,
		"windDir" : 332,
		"rain" : 1,
		"cloudbase" : 2314.9075999999,
		"flyability" : -0,
		"reason" : "windSpeed, orientationsUnknown, rain",
		"timestamp" :1555351200
		},
	"2019-04-16T00:00:00+03:00" : {
		"windSpeed" : 7.3,
		"windDir" : 315,
		"rain" : 1,
		"cloudbase" : 1050,
		"flyability" : -0,
		"reason" : "windSpeed, orientationsUnknown, rain",
		"timestamp" :1555362000
		},
	"2019-04-16T03:00:00+03:00" : {
		"windSpeed" : 7.7,
		"windDir" : 307,
		"rain" : 1,
		"cloudbase" : 860,
		"flyability" : -0,
		"reason" : "windSpeed, orientationsUnknown, rain",
		"timestamp" :1555372800
		},
	"2019-04-16T06:00:00+03:00" : {
		"windSpeed" : 7.8,
		"windDir" : 302,
		"rain" : 1,
		"cloudbase" : 636.73999999999,
		"flyability" : -0,
		"reason" : "windSpeed, orientationsUnknown, rain",
		"timestamp" :1555383600
		},
	"2019-04-16T09:00:00+03:00" : {
		"windSpeed" : 7.2,
		"windDir" : 308,
		"rain" : 1,
		"cloudbase" : 354.75596,
		"flyability" : -0,
		"reason" : "windSpeed, orientationsUnknown, rain",
		"timestamp" :1555394400
		},
	"2019-04-16T12:00:00+03:00" : {
		"windSpeed" : 4.7,
		"windDir" : 12,
		"rain" : 1,
		"cloudbase" : 424.14020000001,
		"flyability" : -0,
		"reason" : "orientationsUnknown, rain",
		"timestamp" :1555405200
		},
	"2019-04-16T15:00:00+03:00" : {
		"windSpeed" : 5.3,
		"windDir" : 59,
		"rain" : 1,
		"cloudbase" : 777.97788,
		"flyability" : -0,
		"reason" : "windSpeed, orientationsUnknown, rain",
		"timestamp" :1555416000
		},
	"2019-04-16T18:00:00+03:00" : {
		"windSpeed" : 3.5,
		"windDir" : 67,
		"rain" : 1,
		"cloudbase" : 699.76424000002,
		"flyability" : -0,
		"reason" : "orientationsUnknown, rain",
		"timestamp" :1555426800
		},
	"2019-04-16T21:00:00+03:00" : {
		"windSpeed" : 3,
		"windDir" : 72,
		"rain" : 1,
		"cloudbase" : 674.78807999999,
		"flyability" : -0,
		"reason" : "orientationsUnknown, rain",
		"timestamp" :1555437600
		},
	"2019-04-17T00:00:00+03:00" : {
		"windSpeed" : 3.5,
		"windDir" : 70,
		"rain" : 1,
		"cloudbase" : 657.74383999997,
		"flyability" : -0,
		"reason" : "orientationsUnknown, rain",
		"timestamp" :1555448400
		},
	"2019-04-17T03:00:00+03:00" : {
		"windSpeed" : 3.7,
		"windDir" : 65,
		"rain" : 0,
		"cloudbase" : 722.48595999998,
		"flyability" : -50,
		"reason" : "orientationsUnknown",
		"timestamp" :1555459200
		},
	"2019-04-17T06:00:00+03:00" : {
		"windSpeed" : 3.3,
		"windDir" : 41,
		"rain" : 1,
		"cloudbase" : 854.78596,
		"flyability" : -0,
		"reason" : "orientationsUnknown, rain",
		"timestamp" :1555470000
		},
	"2019-04-17T09:00:00+03:00" : {
		"windSpeed" : 2.3,
		"windDir" : 46,
		"rain" : 0,
		"cloudbase" : 1217.1,
		"flyability" : -50,
		"reason" : "orientationsUnknown",
		"timestamp" :1555480800
		},
	"2019-04-17T12:00:00+03:00" : {
		"windSpeed" : 1.5,
		"windDir" : 47,
		"rain" : 1,
		"cloudbase" : 714.58131999992,
		"flyability" : -0,
		"reason" : "orientationsUnknown, rain",
		"timestamp" :1555491600
		},
	"2019-04-17T15:00:00+03:00" : {
		"windSpeed" : 2,
		"windDir" : 78,
		"rain" : 1,
		"cloudbase" : 814.63707999989,
		"flyability" : -0,
		"reason" : "orientationsUnknown, rain",
		"timestamp" :1555502400
		},
	"2019-04-17T18:00:00+03:00" : {
		"windSpeed" : 4.4,
		"windDir" : 45,
		"rain" : 1,
		"cloudbase" : 745.06297999998,
		"flyability" : -0,
		"reason" : "orientationsUnknown, rain",
		"timestamp" :1555513200
		},
	"2019-04-17T21:00:00+03:00" : {
		"windSpeed" : 5.5,
		"windDir" : 49,
		"rain" : 0,
		"cloudbase" : 573.31999999999,
		"flyability" : -0,
		"reason" : "windSpeed, orientationsUnknown",
		"timestamp" :1555524000
		},
	"2019-04-18T00:00:00+03:00" : {
		"windSpeed" : 4.3,
		"windDir" : 45,
		"rain" : 1,
		"cloudbase" : 1450,
		"flyability" : -0,
		"reason" : "orientationsUnknown, rain",
		"timestamp" :1555534800
		},
	"2019-04-18T03:00:00+03:00" : {
		"windSpeed" : 4.4,
		"windDir" : 55,
		"rain" : 0,
		"cloudbase" : 2277.3947,
		"flyability" : -50,
		"reason" : "orientationsUnknown",
		"timestamp" :1555545600
		},
	"2019-04-18T06:00:00+03:00" : {
		"windSpeed" : 4.4,
		"windDir" : 34,
		"rain" : 0,
		"cloudbase" : null,
		"flyability" : -50,
		"reason" : "orientationsUnknown",
		"timestamp" :1555556400
		},
	"2019-04-18T09:00:00+03:00" : {
		"windSpeed" : 5.4,
		"windDir" : 48,
		"rain" : 0,
		"cloudbase" : null,
		"flyability" : -0,
		"reason" : "windSpeed, orientationsUnknown",
		"timestamp" :1555567200
		},
	"2019-04-18T12:00:00+03:00" : {
		"windSpeed" : 5.3,
		"windDir" : 43,
		"rain" : 0,
		"cloudbase" : 1510.3851,
		"flyability" : -0,
		"reason" : "windSpeed, orientationsUnknown",
		"timestamp" :1555578000
		},
	"2019-04-18T15:00:00+03:00" : {
		"windSpeed" : 5.3,
		"windDir" : 30,
		"rain" : 0,
		"cloudbase" : 1550,
		"flyability" : -0,
		"reason" : "windSpeed, orientationsUnknown",
		"timestamp" :1555588800
		},
	"2019-04-18T18:00:00+03:00" : {
		"windSpeed" : 4.5,
		"windDir" : 27,
		"rain" : 1,
		"cloudbase" : 1660.9202,
		"flyability" : -0,
		"reason" : "orientationsUnknown, rain",
		"timestamp" :1555599600
		},
	"2019-04-18T21:00:00+03:00" : {
		"windSpeed" : 2.8,
		"windDir" : 23,
		"rain" : 1,
		"cloudbase" : 1700,
		"flyability" : -0,
		"reason" : "orientationsUnknown, rain",
		"timestamp" :1555610400
		},
	"2019-04-19T00:00:00+03:00" : {
		"windSpeed" : 4.6,
		"windDir" : 25,
		"rain" : 0,
		"cloudbase" : 1731.9149,
		"flyability" : -50,
		"reason" : "orientationsUnknown",
		"timestamp" :1555621200
		},
	"2019-04-19T03:00:00+03:00" : {
		"windSpeed" : 3.6,
		"windDir" : 360,
		"rain" : 1,
		"cloudbase" : 1544.2202,
		"flyability" : -0,
		"reason" : "orientationsUnknown, rain",
		"timestamp" :1555632000
		},
	"2019-04-19T06:00:00+03:00" : {
		"windSpeed" : 4.1,
		"windDir" : 360,
		"rain" : 0,
		"cloudbase" : 1868.4851,
		"flyability" : -50,
		"reason" : "orientationsUnknown",
		"timestamp" :1555642800
		},
	"2019-04-19T09:00:00+03:00" : {
		"windSpeed" : 6.2,
		"windDir" : 15,
		"rain" : 0,
		"cloudbase" : 2263.2904000001,
		"flyability" : -0,
		"reason" : "windSpeed, orientationsUnknown",
		"timestamp" :1555653600
		},
	"2019-04-19T12:00:00+03:00" : {
		"windSpeed" : 5.7,
		"windDir" : 27,
		"rain" : 0,
		"cloudbase" : 3026.1244999998,
		"flyability" : -0,
		"reason" : "windSpeed, orientationsUnknown",
		"timestamp" :1555664400
		},
	"2019-04-19T15:00:00+03:00" : {
		"windSpeed" : 6.6,
		"windDir" : 31,
		"rain" : 1,
		"cloudbase" : 2805.5404,
		"flyability" : -0,
		"reason" : "windSpeed, orientationsUnknown, rain",
		"timestamp" :1555675200
		},
	"2019-04-19T18:00:00+03:00" : {
		"windSpeed" : 3.7,
		"windDir" : 53,
		"rain" : 0,
		"cloudbase" : 3603.3202000001,
		"flyability" : -50,
		"reason" : "orientationsUnknown",
		"timestamp" :1555686000
		},
	"2019-04-19T21:00:00+03:00" : {
		"windSpeed" : 3.8,
		"windDir" : 13,
		"rain" : 0,
		"cloudbase" : 2202.8202,
		"flyability" : -50,
		"reason" : "orientationsUnknown",
		"timestamp" :1555696800
		},
	"2019-04-20T00:00:00+03:00" : {
		"windSpeed" : 3.3,
		"windDir" : 10,
		"rain" : 0,
		"cloudbase" : 5748.3798000001,
		"flyability" : -50,
		"reason" : "orientationsUnknown",
		"timestamp" :1555707600
		},
	"2019-04-20T03:00:00+03:00" : {
		"windSpeed" : 4.2,
		"windDir" : 8,
		"rain" : 0,
		"cloudbase" : 4450,
		"flyability" : -50,
		"reason" : "orientationsUnknown",
		"timestamp" :1555718400
		}
	}
}