{
"site" : "Le Vieux Chaillol",
"id" : 15526,
"orientations" : "00122100",
"forecasts" : { 
	"2019-04-18T05:00:00+02:00" : {
		"windSpeed" : 1.6,
		"windDir" : 72,
		"rain" : 0,
		"cloudbase" : null,
		"flyability" : 100,
		"reason" : "",
		"timestamp" :1555560000
		},
	"2019-04-18T08:00:00+02:00" : {
		"windSpeed" : 1.5,
		"windDir" : 63,
		"rain" : 0,
		"cloudbase" : null,
		"flyability" : 0,
		"reason" : "windDir",
		"timestamp" :1555570800
		},
	"2019-04-18T11:00:00+02:00" : {
		"windSpeed" : 1,
		"windDir" : 113,
		"rain" : 0,
		"cloudbase" : null,
		"flyability" : 100,
		"reason" : "",
		"timestamp" :1555581600
		},
	"2019-04-18T14:00:00+02:00" : {
		"windSpeed" : 1.4,
		"windDir" : 121,
		"rain" : 0,
		"cloudbase" : 9285.9696,
		"flyability" : 100,
		"reason" : "",
		"timestamp" :1555592400
		},
	"2019-04-18T17:00:00+02:00" : {
		"windSpeed" : 1.5,
		"windDir" : 97,
		"rain" : 0,
		"cloudbase" : 7542.7343999999,
		"flyability" : 100,
		"reason" : "",
		"timestamp" :1555603200
		},
	"2019-04-18T20:00:00+02:00" : {
		"windSpeed" : 1.8,
		"windDir" : 65,
		"rain" : 0,
		"cloudbase" : null,
		"flyability" : 0,
		"reason" : "windDir",
		"timestamp" :1555614000
		},
	"2019-04-18T23:00:00+02:00" : {
		"windSpeed" : 1.8,
		"windDir" : 58,
		"rain" : 0,
		"cloudbase" : 6612.4320000001,
		"flyability" : 0,
		"reason" : "windDir",
		"timestamp" :1555624800
		},
	"2019-04-19T02:00:00+02:00" : {
		"windSpeed" : 1.9,
		"windDir" : 60,
		"rain" : 0,
		"cloudbase" : 5599.2224000002,
		"flyability" : 0,
		"reason" : "windDir",
		"timestamp" :1555635600
		},
	"2019-04-19T05:00:00+02:00" : {
		"windSpeed" : 1.9,
		"windDir" : 59,
		"rain" : 0,
		"cloudbase" : 4557.92544,
		"flyability" : 0,
		"reason" : "windDir",
		"timestamp" :1555646400
		},
	"2019-04-19T08:00:00+02:00" : {
		"windSpeed" : 2,
		"windDir" : 61,
		"rain" : 0,
		"cloudbase" : 2955.6026399999,
		"flyability" : 0,
		"reason" : "windDir, cloudbase",
		"timestamp" :1555657200
		},
	"2019-04-19T11:00:00+02:00" : {
		"windSpeed" : 1.3,
		"windDir" : 63,
		"rain" : 0,
		"cloudbase" : 8500,
		"flyability" : 0,
		"reason" : "windDir",
		"timestamp" :1555668000
		},
	"2019-04-19T14:00:00+02:00" : {
		"windSpeed" : 1.2,
		"windDir" : 87,
		"rain" : 0,
		"cloudbase" : null,
		"flyability" : 100,
		"reason" : "",
		"timestamp" :1555678800
		},
	"2019-04-19T17:00:00+02:00" : {
		"windSpeed" : 0.8,
		"windDir" : 118,
		"rain" : 0,
		"cloudbase" : 1488.7196,
		"flyability" : 0,
		"reason" : "cloudbase",
		"timestamp" :1555689600
		},
	"2019-04-19T20:00:00+02:00" : {
		"windSpeed" : 1.7,
		"windDir" : 58,
		"rain" : 0,
		"cloudbase" : 1277.1272,
		"flyability" : 0,
		"reason" : "windDir, cloudbase",
		"timestamp" :1555700400
		},
	"2019-04-19T23:00:00+02:00" : {
		"windSpeed" : 0.8,
		"windDir" : 53,
		"rain" : 0,
		"cloudbase" : null,
		"flyability" : 0,
		"reason" : "windDir",
		"timestamp" :1555711200
		},
	"2019-04-20T02:00:00+02:00" : {
		"windSpeed" : 0.8,
		"windDir" : 54,
		"rain" : 0,
		"cloudbase" : null,
		"flyability" : 0,
		"reason" : "windDir",
		"timestamp" :1555722000
		},
	"2019-04-20T05:00:00+02:00" : {
		"windSpeed" : 0.9,
		"windDir" : 58,
		"rain" : 0,
		"cloudbase" : null,
		"flyability" : 0,
		"reason" : "windDir",
		"timestamp" :1555732800
		},
	"2019-04-20T08:00:00+02:00" : {
		"windSpeed" : 0.8,
		"windDir" : 52,
		"rain" : 1,
		"cloudbase" : null,
		"flyability" : 0,
		"reason" : "windDir, rain",
		"timestamp" :1555743600
		},
	"2019-04-20T11:00:00+02:00" : {
		"windSpeed" : 0.8,
		"windDir" : 96,
		"rain" : 0,
		"cloudbase" : null,
		"flyability" : 100,
		"reason" : "",
		"timestamp" :1555754400
		},
	"2019-04-20T14:00:00+02:00" : {
		"windSpeed" : 1.4,
		"windDir" : 86,
		"rain" : 0,
		"cloudbase" : null,
		"flyability" : 100,
		"reason" : "",
		"timestamp" :1555765200
		},
	"2019-04-20T17:00:00+02:00" : {
		"windSpeed" : 1.5,
		"windDir" : 86,
		"rain" : 0,
		"cloudbase" : null,
		"flyability" : 100,
		"reason" : "",
		"timestamp" :1555776000
		},
	"2019-04-20T20:00:00+02:00" : {
		"windSpeed" : 2.2,
		"windDir" : 74,
		"rain" : 0,
		"cloudbase" : null,
		"flyability" : 100,
		"reason" : "",
		"timestamp" :1555786800
		},
	"2019-04-20T23:00:00+02:00" : {
		"windSpeed" : 1.7,
		"windDir" : 57,
		"rain" : 0,
		"cloudbase" : 7804.4000000001,
		"flyability" : 0,
		"reason" : "windDir",
		"timestamp" :1555797600
		},
	"2019-04-21T02:00:00+02:00" : {
		"windSpeed" : 1.6,
		"windDir" : 54,
		"rain" : 0,
		"cloudbase" : 6269.2000000001,
		"flyability" : 0,
		"reason" : "windDir",
		"timestamp" :1555808400
		},
	"2019-04-21T05:00:00+02:00" : {
		"windSpeed" : 1.5,
		"windDir" : 59,
		"rain" : 0,
		"cloudbase" : 4817.3272000001,
		"flyability" : 0,
		"reason" : "windDir",
		"timestamp" :1555819200
		},
	"2019-04-21T08:00:00+02:00" : {
		"windSpeed" : 1.4,
		"windDir" : 55,
		"rain" : 1,
		"cloudbase" : 3879.9772,
		"flyability" : 0,
		"reason" : "windDir, rain",
		"timestamp" :1555830000
		},
	"2019-04-21T11:00:00+02:00" : {
		"windSpeed" : 1.8,
		"windDir" : 70,
		"rain" : 1,
		"cloudbase" : 1882.6304000001,
		"flyability" : 0,
		"reason" : "rain, cloudbase",
		"timestamp" :1555840800
		},
	"2019-04-21T14:00:00+02:00" : {
		"windSpeed" : 1.8,
		"windDir" : 59,
		"rain" : 1,
		"cloudbase" : 2404.2544,
		"flyability" : 0,
		"reason" : "windDir, rain, cloudbase",
		"timestamp" :1555851600
		},
	"2019-04-21T17:00:00+02:00" : {
		"windSpeed" : 1.9,
		"windDir" : 59,
		"rain" : 1,
		"cloudbase" : 7288.0848,
		"flyability" : 0,
		"reason" : "windDir, rain",
		"timestamp" :1555862400
		},
	"2019-04-21T20:00:00+02:00" : {
		"windSpeed" : 1.8,
		"windDir" : 45,
		"rain" : 1,
		"cloudbase" : null,
		"flyability" : 0,
		"reason" : "windDir, rain",
		"timestamp" :1555873200
		},
	"2019-04-21T23:00:00+02:00" : {
		"windSpeed" : 1.8,
		"windDir" : 46,
		"rain" : 0,
		"cloudbase" : 8700,
		"flyability" : 0,
		"reason" : "windDir",
		"timestamp" :1555884000
		},
	"2019-04-22T02:00:00+02:00" : {
		"windSpeed" : 1.9,
		"windDir" : 55,
		"rain" : 0,
		"cloudbase" : 6778.2848000001,
		"flyability" : 0,
		"reason" : "windDir",
		"timestamp" :1555894800
		},
	"2019-04-22T05:00:00+02:00" : {
		"windSpeed" : 2.6,
		"windDir" : 52,
		"rain" : 1,
		"cloudbase" : 4624.3272,
		"flyability" : 0,
		"reason" : "windDir, rain",
		"timestamp" :1555905600
		},
	"2019-04-22T08:00:00+02:00" : {
		"windSpeed" : 2.6,
		"windDir" : 56,
		"rain" : 0,
		"cloudbase" : null,
		"flyability" : 0,
		"reason" : "windDir",
		"timestamp" :1555916400
		},
	"2019-04-22T11:00:00+02:00" : {
		"windSpeed" : 2.8,
		"windDir" : 52,
		"rain" : 0,
		"cloudbase" : null,
		"flyability" : 0,
		"reason" : "windDir",
		"timestamp" :1555927200
		},
	"2019-04-22T14:00:00+02:00" : {
		"windSpeed" : 2.5,
		"windDir" : 65,
		"rain" : 1,
		"cloudbase" : null,
		"flyability" : 0,
		"reason" : "windDir, rain",
		"timestamp" :1555938000
		},
	"2019-04-22T17:00:00+02:00" : {
		"windSpeed" : 2.6,
		"windDir" : 61,
		"rain" : 1,
		"cloudbase" : null,
		"flyability" : 0,
		"reason" : "windDir, rain",
		"timestamp" :1555948800
		},
	"2019-04-22T20:00:00+02:00" : {
		"windSpeed" : 2.6,
		"windDir" : 62,
		"rain" : 1,
		"cloudbase" : 5004.4000000001,
		"flyability" : 0,
		"reason" : "windDir, rain",
		"timestamp" :1555959600
		},
	"2019-04-22T23:00:00+02:00" : {
		"windSpeed" : 2.2,
		"windDir" : 50,
		"rain" : 1,
		"cloudbase" : 5714.9152,
		"flyability" : 0,
		"reason" : "windDir, rain",
		"timestamp" :1555970400
		},
	"2019-04-23T02:00:00+02:00" : {
		"windSpeed" : 2.8,
		"windDir" : 52,
		"rain" : 0,
		"cloudbase" : 6449.9920000002,
		"flyability" : 0,
		"reason" : "windDir",
		"timestamp" :1555981200
		},
	"2019-04-23T05:00:00+02:00" : {
		"windSpeed" : 2.9,
		"windDir" : 53,
		"rain" : 0,
		"cloudbase" : 5900,
		"flyability" : 0,
		"reason" : "windDir",
		"timestamp" :1555992000
		},
	"2019-04-23T08:00:00+02:00" : {
		"windSpeed" : 2.2,
		"windDir" : 51,
		"rain" : 0,
		"cloudbase" : null,
		"flyability" : 0,
		"reason" : "windDir",
		"timestamp" :1556002800
		},
	"2019-04-23T11:00:00+02:00" : {
		"windSpeed" : 1.8,
		"windDir" : 72,
		"rain" : 1,
		"cloudbase" : 3531.1068,
		"flyability" : 0,
		"reason" : "rain",
		"timestamp" :1556013600
		},
	"2019-04-23T14:00:00+02:00" : {
		"windSpeed" : 1.3,
		"windDir" : 80,
		"rain" : 1,
		"cloudbase" : 2020.8576,
		"flyability" : 0,
		"reason" : "rain, cloudbase",
		"timestamp" :1556024400
		},
	"2019-04-23T17:00:00+02:00" : {
		"windSpeed" : 1.8,
		"windDir" : 88,
		"rain" : 1,
		"cloudbase" : 4496.4992000001,
		"flyability" : 0,
		"reason" : "rain",
		"timestamp" :1556035200
		},
	"2019-04-23T20:00:00+02:00" : {
		"windSpeed" : 1.8,
		"windDir" : 78,
		"rain" : 1,
		"cloudbase" : null,
		"flyability" : 0,
		"reason" : "rain",
		"timestamp" :1556046000
		},
	"2019-04-23T23:00:00+02:00" : {
		"windSpeed" : 1.7,
		"windDir" : 77,
		"rain" : 1,
		"cloudbase" : 1950,
		"flyability" : 0,
		"reason" : "rain, cloudbase",
		"timestamp" :1556056800
		},
	"2019-04-24T02:00:00+02:00" : {
		"windSpeed" : 1.6,
		"windDir" : 92,
		"rain" : 1,
		"cloudbase" : 1328.8196,
		"flyability" : 0,
		"reason" : "rain, cloudbase",
		"timestamp" :1556067600
		}
	}
}