{
"site" : "Eagleville Airport",
"id" : 15549,
"orientations" : "00000000",
"forecasts" : { 
	"2019-04-20T22:00:00-05:00" : {
		"windSpeed" : 1.5,
		"windDir" : 178,
		"rain" : 0,
		"cloudbase" : null,
		"flyability" : -50,
		"reason" : "orientationsUnknown",
		"timestamp" :1555812000
		},
	"2019-04-21T01:00:00-05:00" : {
		"windSpeed" : 3.2,
		"windDir" : 291,
		"rain" : 0,
		"cloudbase" : null,
		"flyability" : -50,
		"reason" : "orientationsUnknown",
		"timestamp" :1555822800
		},
	"2019-04-21T04:00:00-05:00" : {
		"windSpeed" : 1.8,
		"windDir" : 311,
		"rain" : 0,
		"cloudbase" : null,
		"flyability" : -50,
		"reason" : "orientationsUnknown",
		"timestamp" :1555833600
		},
	"2019-04-21T07:00:00-05:00" : {
		"windSpeed" : 1.5,
		"windDir" : 211,
		"rain" : 0,
		"cloudbase" : null,
		"flyability" : -50,
		"reason" : "orientationsUnknown",
		"timestamp" :1555844400
		},
	"2019-04-21T10:00:00-05:00" : {
		"windSpeed" : 0.7,
		"windDir" : 222,
		"rain" : 0,
		"cloudbase" : null,
		"flyability" : -50,
		"reason" : "orientationsUnknown",
		"timestamp" :1555855200
		},
	"2019-04-21T13:00:00-05:00" : {
		"windSpeed" : 1,
		"windDir" : 270,
		"rain" : 0,
		"cloudbase" : null,
		"flyability" : -50,
		"reason" : "orientationsUnknown",
		"timestamp" :1555866000
		},
	"2019-04-21T16:00:00-05:00" : {
		"windSpeed" : 1.1,
		"windDir" : 246,
		"rain" : 0,
		"cloudbase" : null,
		"flyability" : -50,
		"reason" : "orientationsUnknown",
		"timestamp" :1555876800
		},
	"2019-04-21T19:00:00-05:00" : {
		"windSpeed" : 0.7,
		"windDir" : 94,
		"rain" : 0,
		"cloudbase" : null,
		"flyability" : -50,
		"reason" : "orientationsUnknown",
		"timestamp" :1555887600
		},
	"2019-04-21T22:00:00-05:00" : {
		"windSpeed" : 2.2,
		"windDir" : 117,
		"rain" : 0,
		"cloudbase" : null,
		"flyability" : -50,
		"reason" : "orientationsUnknown",
		"timestamp" :1555898400
		},
	"2019-04-22T01:00:00-05:00" : {
		"windSpeed" : 2.1,
		"windDir" : 134,
		"rain" : 0,
		"cloudbase" : null,
		"flyability" : -50,
		"reason" : "orientationsUnknown",
		"timestamp" :1555909200
		},
	"2019-04-22T04:00:00-05:00" : {
		"windSpeed" : 1.9,
		"windDir" : 158,
		"rain" : 0,
		"cloudbase" : null,
		"flyability" : -50,
		"reason" : "orientationsUnknown",
		"timestamp" :1555920000
		},
	"2019-04-22T07:00:00-05:00" : {
		"windSpeed" : 1.9,
		"windDir" : 158,
		"rain" : 0,
		"cloudbase" : null,
		"flyability" : -50,
		"reason" : "orientationsUnknown",
		"timestamp" :1555930800
		},
	"2019-04-22T10:00:00-05:00" : {
		"windSpeed" : 1.5,
		"windDir" : 178,
		"rain" : 0,
		"cloudbase" : 8733.465,
		"flyability" : -50,
		"reason" : "orientationsUnknown",
		"timestamp" :1555941600
		},
	"2019-04-22T13:00:00-05:00" : {
		"windSpeed" : 1.7,
		"windDir" : 180,
		"rain" : 0,
		"cloudbase" : null,
		"flyability" : -50,
		"reason" : "orientationsUnknown",
		"timestamp" :1555952400
		},
	"2019-04-22T16:00:00-05:00" : {
		"windSpeed" : 2,
		"windDir" : 196,
		"rain" : 0,
		"cloudbase" : 9476.93,
		"flyability" : -50,
		"reason" : "orientationsUnknown",
		"timestamp" :1555963200
		},
	"2019-04-22T19:00:00-05:00" : {
		"windSpeed" : 2.2,
		"windDir" : 192,
		"rain" : 0,
		"cloudbase" : null,
		"flyability" : -50,
		"reason" : "orientationsUnknown",
		"timestamp" :1555974000
		},
	"2019-04-22T22:00:00-05:00" : {
		"windSpeed" : 2.7,
		"windDir" : 179,
		"rain" : 0,
		"cloudbase" : null,
		"flyability" : -50,
		"reason" : "orientationsUnknown",
		"timestamp" :1555984800
		},
	"2019-04-23T01:00:00-05:00" : {
		"windSpeed" : 2.5,
		"windDir" : 216,
		"rain" : 0,
		"cloudbase" : null,
		"flyability" : -50,
		"reason" : "orientationsUnknown",
		"timestamp" :1555995600
		},
	"2019-04-23T04:00:00-05:00" : {
		"windSpeed" : 1.9,
		"windDir" : 179,
		"rain" : 0,
		"cloudbase" : 9878.365,
		"flyability" : -50,
		"reason" : "orientationsUnknown",
		"timestamp" :1556006400
		},
	"2019-04-23T07:00:00-05:00" : {
		"windSpeed" : 2.5,
		"windDir" : 179,
		"rain" : 0,
		"cloudbase" : 8800,
		"flyability" : -50,
		"reason" : "orientationsUnknown",
		"timestamp" :1556017200
		},
	"2019-04-23T10:00:00-05:00" : {
		"windSpeed" : 2.9,
		"windDir" : 211,
		"rain" : 0,
		"cloudbase" : 7576.735,
		"flyability" : -50,
		"reason" : "orientationsUnknown",
		"timestamp" :1556028000
		},
	"2019-04-23T13:00:00-05:00" : {
		"windSpeed" : 3.9,
		"windDir" : 224,
		"rain" : 0,
		"cloudbase" : 5600,
		"flyability" : -50,
		"reason" : "orientationsUnknown",
		"timestamp" :1556038800
		},
	"2019-04-23T16:00:00-05:00" : {
		"windSpeed" : 3.2,
		"windDir" : 231,
		"rain" : 0,
		"cloudbase" : 5034.0325,
		"flyability" : -50,
		"reason" : "orientationsUnknown",
		"timestamp" :1556049600
		},
	"2019-04-23T19:00:00-05:00" : {
		"windSpeed" : 2.1,
		"windDir" : 202,
		"rain" : 0,
		"cloudbase" : 5300,
		"flyability" : -50,
		"reason" : "orientationsUnknown",
		"timestamp" :1556060400
		},
	"2019-04-23T22:00:00-05:00" : {
		"windSpeed" : 2.1,
		"windDir" : 225,
		"rain" : 0,
		"cloudbase" : 4405.1975,
		"flyability" : -50,
		"reason" : "orientationsUnknown",
		"timestamp" :1556071200
		},
	"2019-04-24T01:00:00-05:00" : {
		"windSpeed" : 2.5,
		"windDir" : 233,
		"rain" : 0,
		"cloudbase" : null,
		"flyability" : -50,
		"reason" : "orientationsUnknown",
		"timestamp" :1556082000
		},
	"2019-04-24T04:00:00-05:00" : {
		"windSpeed" : 2.5,
		"windDir" : 216,
		"rain" : 0,
		"cloudbase" : 9009.9,
		"flyability" : -50,
		"reason" : "orientationsUnknown",
		"timestamp" :1556092800
		},
	"2019-04-24T07:00:00-05:00" : {
		"windSpeed" : 2.4,
		"windDir" : 213,
		"rain" : 0,
		"cloudbase" : 9629.36,
		"flyability" : -50,
		"reason" : "orientationsUnknown",
		"timestamp" :1556103600
		},
	"2019-04-24T10:00:00-05:00" : {
		"windSpeed" : 3.2,
		"windDir" : 231,
		"rain" : 0,
		"cloudbase" : null,
		"flyability" : -50,
		"reason" : "orientationsUnknown",
		"timestamp" :1556114400
		},
	"2019-04-24T13:00:00-05:00" : {
		"windSpeed" : 4.4,
		"windDir" : 243,
		"rain" : 1,
		"cloudbase" : null,
		"flyability" : -0,
		"reason" : "orientationsUnknown, rain",
		"timestamp" :1556125200
		},
	"2019-04-24T16:00:00-05:00" : {
		"windSpeed" : 3.7,
		"windDir" : 254,
		"rain" : 1,
		"cloudbase" : null,
		"flyability" : -0,
		"reason" : "orientationsUnknown, rain",
		"timestamp" :1556136000
		},
	"2019-04-24T19:00:00-05:00" : {
		"windSpeed" : 2.4,
		"windDir" : 233,
		"rain" : 1,
		"cloudbase" : null,
		"flyability" : -0,
		"reason" : "orientationsUnknown, rain",
		"timestamp" :1556146800
		},
	"2019-04-24T22:00:00-05:00" : {
		"windSpeed" : 2.5,
		"windDir" : 263,
		"rain" : 1,
		"cloudbase" : 5000,
		"flyability" : -0,
		"reason" : "orientationsUnknown, rain",
		"timestamp" :1556157600
		},
	"2019-04-25T01:00:00-05:00" : {
		"windSpeed" : 1.5,
		"windDir" : 358,
		"rain" : 1,
		"cloudbase" : 4338.9350000001,
		"flyability" : -0,
		"reason" : "orientationsUnknown, rain",
		"timestamp" :1556168400
		},
	"2019-04-25T04:00:00-05:00" : {
		"windSpeed" : 1,
		"windDir" : 12,
		"rain" : 1,
		"cloudbase" : 1857.6474999998,
		"flyability" : -0,
		"reason" : "orientationsUnknown, rain",
		"timestamp" :1556179200
		},
	"2019-04-25T07:00:00-05:00" : {
		"windSpeed" : 2.1,
		"windDir" : 161,
		"rain" : 1,
		"cloudbase" : 1742.2355000002,
		"flyability" : -0,
		"reason" : "orientationsUnknown, rain",
		"timestamp" :1556190000
		},
	"2019-04-25T10:00:00-05:00" : {
		"windSpeed" : 2.1,
		"windDir" : 195,
		"rain" : 1,
		"cloudbase" : 247.94999999999,
		"flyability" : -0,
		"reason" : "orientationsUnknown, rain",
		"timestamp" :1556200800
		},
	"2019-04-25T13:00:00-05:00" : {
		"windSpeed" : 1,
		"windDir" : 273,
		"rain" : 1,
		"cloudbase" : 4544.1325,
		"flyability" : -0,
		"reason" : "orientationsUnknown, rain",
		"timestamp" :1556211600
		},
	"2019-04-25T16:00:00-05:00" : {
		"windSpeed" : 0.8,
		"windDir" : 291,
		"rain" : 1,
		"cloudbase" : 4294.3125,
		"flyability" : -0,
		"reason" : "orientationsUnknown, rain",
		"timestamp" :1556222400
		},
	"2019-04-25T19:00:00-05:00" : {
		"windSpeed" : 1.4,
		"windDir" : 171,
		"rain" : 1,
		"cloudbase" : 391.43199999983,
		"flyability" : -0,
		"reason" : "orientationsUnknown, rain",
		"timestamp" :1556233200
		},
	"2019-04-25T22:00:00-05:00" : {
		"windSpeed" : 1.5,
		"windDir" : 167,
		"rain" : 1,
		"cloudbase" : 2239.7670000001,
		"flyability" : -0,
		"reason" : "orientationsUnknown, rain",
		"timestamp" :1556244000
		},
	"2019-04-26T01:00:00-05:00" : {
		"windSpeed" : 0.6,
		"windDir" : 74,
		"rain" : 1,
		"cloudbase" : 2321.3825,
		"flyability" : -0,
		"reason" : "orientationsUnknown, rain",
		"timestamp" :1556254800
		},
	"2019-04-26T04:00:00-05:00" : {
		"windSpeed" : 0.5,
		"windDir" : 4,
		"rain" : 1,
		"cloudbase" : 4667.9575000002,
		"flyability" : -0,
		"reason" : "orientationsUnknown, rain",
		"timestamp" :1556265600
		},
	"2019-04-26T07:00:00-05:00" : {
		"windSpeed" : 1.5,
		"windDir" : 19,
		"rain" : 1,
		"cloudbase" : 30,
		"flyability" : -0,
		"reason" : "orientationsUnknown, rain, cloudbase",
		"timestamp" :1556276400
		},
	"2019-04-26T10:00:00-05:00" : {
		"windSpeed" : 2.8,
		"windDir" : 26,
		"rain" : 0,
		"cloudbase" : 502.89999999999,
		"flyability" : -50,
		"reason" : "orientationsUnknown",
		"timestamp" :1556287200
		},
	"2019-04-26T13:00:00-05:00" : {
		"windSpeed" : 3.8,
		"windDir" : 23,
		"rain" : 1,
		"cloudbase" : null,
		"flyability" : -0,
		"reason" : "orientationsUnknown, rain",
		"timestamp" :1556298000
		},
	"2019-04-26T16:00:00-05:00" : {
		"windSpeed" : 3.8,
		"windDir" : 23,
		"rain" : 1,
		"cloudbase" : null,
		"flyability" : -0,
		"reason" : "orientationsUnknown, rain",
		"timestamp" :1556308800
		},
	"2019-04-26T19:00:00-05:00" : {
		"windSpeed" : 3.1,
		"windDir" : 12,
		"rain" : 1,
		"cloudbase" : null,
		"flyability" : -0,
		"reason" : "orientationsUnknown, rain",
		"timestamp" :1556319600
		}
	}
}