{
"site" : "Pumpkin Slinging\/Balloon Festival",
"id" : 15557,
"orientations" : "00000000",
"forecasts" : { 
	"2019-04-16T23:00:00-04:00" : {
		"windSpeed" : 2.4,
		"windDir" : 360,
		"rain" : 1,
		"cloudbase" : 2368.2094,
		"flyability" : -0,
		"reason" : "orientationsUnknown, rain",
		"timestamp" :1555473600
		},
	"2019-04-17T02:00:00-04:00" : {
		"windSpeed" : 3.2,
		"windDir" : 25,
		"rain" : 1,
		"cloudbase" : 2179.6188,
		"flyability" : -0,
		"reason" : "orientationsUnknown, rain",
		"timestamp" :1555484400
		},
	"2019-04-17T05:00:00-04:00" : {
		"windSpeed" : 1.8,
		"windDir" : 50,
		"rain" : 0,
		"cloudbase" : 1881.7812,
		"flyability" : -50,
		"reason" : "orientationsUnknown",
		"timestamp" :1555495200
		},
	"2019-04-17T08:00:00-04:00" : {
		"windSpeed" : 1.9,
		"windDir" : 54,
		"rain" : 0,
		"cloudbase" : 1581.7812,
		"flyability" : -50,
		"reason" : "orientationsUnknown",
		"timestamp" :1555506000
		},
	"2019-04-17T11:00:00-04:00" : {
		"windSpeed" : 2.5,
		"windDir" : 90,
		"rain" : 0,
		"cloudbase" : 3695.6128,
		"flyability" : -50,
		"reason" : "orientationsUnknown",
		"timestamp" :1555516800
		},
	"2019-04-17T14:00:00-04:00" : {
		"windSpeed" : 0.9,
		"windDir" : 155,
		"rain" : 0,
		"cloudbase" : null,
		"flyability" : -50,
		"reason" : "orientationsUnknown",
		"timestamp" :1555527600
		},
	"2019-04-17T17:00:00-04:00" : {
		"windSpeed" : 1.1,
		"windDir" : 168,
		"rain" : 0,
		"cloudbase" : null,
		"flyability" : -50,
		"reason" : "orientationsUnknown",
		"timestamp" :1555538400
		},
	"2019-04-17T20:00:00-04:00" : {
		"windSpeed" : 4.3,
		"windDir" : 147,
		"rain" : 0,
		"cloudbase" : 6965.2083999999,
		"flyability" : -50,
		"reason" : "orientationsUnknown",
		"timestamp" :1555549200
		},
	"2019-04-17T23:00:00-04:00" : {
		"windSpeed" : 2.8,
		"windDir" : 135,
		"rain" : 0,
		"cloudbase" : 1958,
		"flyability" : -50,
		"reason" : "orientationsUnknown",
		"timestamp" :1555560000
		},
	"2019-04-18T02:00:00-04:00" : {
		"windSpeed" : 2.5,
		"windDir" : 116,
		"rain" : 0,
		"cloudbase" : 4001.6094,
		"flyability" : -50,
		"reason" : "orientationsUnknown",
		"timestamp" :1555570800
		},
	"2019-04-18T05:00:00-04:00" : {
		"windSpeed" : 3.8,
		"windDir" : 123,
		"rain" : 1,
		"cloudbase" : 1059.833,
		"flyability" : -0,
		"reason" : "orientationsUnknown, rain",
		"timestamp" :1555581600
		},
	"2019-04-18T08:00:00-04:00" : {
		"windSpeed" : 3.6,
		"windDir" : 116,
		"rain" : 0,
		"cloudbase" : 620,
		"flyability" : -50,
		"reason" : "orientationsUnknown",
		"timestamp" :1555592400
		},
	"2019-04-18T11:00:00-04:00" : {
		"windSpeed" : 3.9,
		"windDir" : 110,
		"rain" : 1,
		"cloudbase" : 468.30564,
		"flyability" : -0,
		"reason" : "orientationsUnknown, rain",
		"timestamp" :1555603200
		},
	"2019-04-18T14:00:00-04:00" : {
		"windSpeed" : 4.3,
		"windDir" : 125,
		"rain" : 1,
		"cloudbase" : 800.53504,
		"flyability" : -0,
		"reason" : "orientationsUnknown, rain",
		"timestamp" :1555614000
		},
	"2019-04-18T17:00:00-04:00" : {
		"windSpeed" : 2.8,
		"windDir" : 183,
		"rain" : 1,
		"cloudbase" : 8648.8224,
		"flyability" : -0,
		"reason" : "orientationsUnknown, rain",
		"timestamp" :1555624800
		},
	"2019-04-18T20:00:00-04:00" : {
		"windSpeed" : 3.4,
		"windDir" : 144,
		"rain" : 0,
		"cloudbase" : 13000,
		"flyability" : -50,
		"reason" : "orientationsUnknown",
		"timestamp" :1555635600
		},
	"2019-04-18T23:00:00-04:00" : {
		"windSpeed" : 4,
		"windDir" : 173,
		"rain" : 0,
		"cloudbase" : 12925.906,
		"flyability" : -50,
		"reason" : "orientationsUnknown",
		"timestamp" :1555646400
		},
	"2019-04-19T02:00:00-04:00" : {
		"windSpeed" : 4,
		"windDir" : 172,
		"rain" : 0,
		"cloudbase" : 13000,
		"flyability" : -50,
		"reason" : "orientationsUnknown",
		"timestamp" :1555657200
		},
	"2019-04-19T05:00:00-04:00" : {
		"windSpeed" : 4.2,
		"windDir" : 180,
		"rain" : 0,
		"cloudbase" : 13500,
		"flyability" : -50,
		"reason" : "orientationsUnknown",
		"timestamp" :1555668000
		},
	"2019-04-19T08:00:00-04:00" : {
		"windSpeed" : 5,
		"windDir" : 186,
		"rain" : 0,
		"cloudbase" : 800,
		"flyability" : -50,
		"reason" : "orientationsUnknown",
		"timestamp" :1555678800
		},
	"2019-04-19T11:00:00-04:00" : {
		"windSpeed" : 6.4,
		"windDir" : 189,
		"rain" : 1,
		"cloudbase" : 577.85812,
		"flyability" : -0,
		"reason" : "windSpeed, orientationsUnknown, rain",
		"timestamp" :1555689600
		},
	"2019-04-19T14:00:00-04:00" : {
		"windSpeed" : 5.8,
		"windDir" : 192,
		"rain" : 1,
		"cloudbase" : 2572.3026,
		"flyability" : -0,
		"reason" : "windSpeed, orientationsUnknown, rain",
		"timestamp" :1555700400
		},
	"2019-04-19T17:00:00-04:00" : {
		"windSpeed" : 4.8,
		"windDir" : 183,
		"rain" : 1,
		"cloudbase" : 270.58376,
		"flyability" : -0,
		"reason" : "orientationsUnknown, rain, cloudbase",
		"timestamp" :1555711200
		},
	"2019-04-19T20:00:00-04:00" : {
		"windSpeed" : 4.2,
		"windDir" : 196,
		"rain" : 0,
		"cloudbase" : 151.26376,
		"flyability" : -0,
		"reason" : "orientationsUnknown, cloudbase",
		"timestamp" :1555722000
		},
	"2019-04-19T23:00:00-04:00" : {
		"windSpeed" : 6,
		"windDir" : 166,
		"rain" : 0,
		"cloudbase" : 236.26188,
		"flyability" : -0,
		"reason" : "windSpeed, orientationsUnknown, cloudbase",
		"timestamp" :1555732800
		},
	"2019-04-20T02:00:00-04:00" : {
		"windSpeed" : 6.3,
		"windDir" : 162,
		"rain" : 1,
		"cloudbase" : 339.89812,
		"flyability" : -0,
		"reason" : "windSpeed, orientationsUnknown, rain",
		"timestamp" :1555743600
		},
	"2019-04-20T05:00:00-04:00" : {
		"windSpeed" : 5.4,
		"windDir" : 153,
		"rain" : 1,
		"cloudbase" : 240.79436,
		"flyability" : -0,
		"reason" : "windSpeed, orientationsUnknown, rain, cloudbase",
		"timestamp" :1555754400
		},
	"2019-04-20T08:00:00-04:00" : {
		"windSpeed" : 4.1,
		"windDir" : 164,
		"rain" : 1,
		"cloudbase" : 6076.2,
		"flyability" : -0,
		"reason" : "orientationsUnknown, rain",
		"timestamp" :1555765200
		},
	"2019-04-20T11:00:00-04:00" : {
		"windSpeed" : 6,
		"windDir" : 153,
		"rain" : 0,
		"cloudbase" : 851.41128,
		"flyability" : -0,
		"reason" : "windSpeed, orientationsUnknown",
		"timestamp" :1555776000
		},
	"2019-04-20T14:00:00-04:00" : {
		"windSpeed" : 5.6,
		"windDir" : 159,
		"rain" : 0,
		"cloudbase" : 4796.1916,
		"flyability" : -0,
		"reason" : "windSpeed, orientationsUnknown",
		"timestamp" :1555786800
		},
	"2019-04-20T17:00:00-04:00" : {
		"windSpeed" : 5.8,
		"windDir" : 165,
		"rain" : 1,
		"cloudbase" : 8163.5624,
		"flyability" : -0,
		"reason" : "windSpeed, orientationsUnknown, rain",
		"timestamp" :1555797600
		},
	"2019-04-20T20:00:00-04:00" : {
		"windSpeed" : 3.8,
		"windDir" : 170,
		"rain" : 0,
		"cloudbase" : null,
		"flyability" : -50,
		"reason" : "orientationsUnknown",
		"timestamp" :1555808400
		},
	"2019-04-20T23:00:00-04:00" : {
		"windSpeed" : 2.7,
		"windDir" : 166,
		"rain" : 0,
		"cloudbase" : null,
		"flyability" : -50,
		"reason" : "orientationsUnknown",
		"timestamp" :1555819200
		},
	"2019-04-21T02:00:00-04:00" : {
		"windSpeed" : 2.4,
		"windDir" : 130,
		"rain" : 1,
		"cloudbase" : null,
		"flyability" : -0,
		"reason" : "orientationsUnknown, rain",
		"timestamp" :1555830000
		},
	"2019-04-21T05:00:00-04:00" : {
		"windSpeed" : 2.7,
		"windDir" : 157,
		"rain" : 1,
		"cloudbase" : null,
		"flyability" : -0,
		"reason" : "orientationsUnknown, rain",
		"timestamp" :1555840800
		},
	"2019-04-21T08:00:00-04:00" : {
		"windSpeed" : 2.5,
		"windDir" : 176,
		"rain" : 1,
		"cloudbase" : 3463.7752,
		"flyability" : -0,
		"reason" : "orientationsUnknown, rain",
		"timestamp" :1555851600
		},
	"2019-04-21T11:00:00-04:00" : {
		"windSpeed" : 2.5,
		"windDir" : 192,
		"rain" : 1,
		"cloudbase" : 2027.0342,
		"flyability" : -0,
		"reason" : "orientationsUnknown, rain",
		"timestamp" :1555862400
		},
	"2019-04-21T14:00:00-04:00" : {
		"windSpeed" : 2.4,
		"windDir" : 225,
		"rain" : 1,
		"cloudbase" : 760,
		"flyability" : -0,
		"reason" : "orientationsUnknown, rain",
		"timestamp" :1555873200
		},
	"2019-04-21T17:00:00-04:00" : {
		"windSpeed" : 3.7,
		"windDir" : 268,
		"rain" : 1,
		"cloudbase" : null,
		"flyability" : -0,
		"reason" : "orientationsUnknown, rain",
		"timestamp" :1555884000
		},
	"2019-04-21T20:00:00-04:00" : {
		"windSpeed" : 2.8,
		"windDir" : 225,
		"rain" : 1,
		"cloudbase" : null,
		"flyability" : -0,
		"reason" : "orientationsUnknown, rain",
		"timestamp" :1555894800
		},
	"2019-04-21T23:00:00-04:00" : {
		"windSpeed" : 2.3,
		"windDir" : 216,
		"rain" : 1,
		"cloudbase" : null,
		"flyability" : -0,
		"reason" : "orientationsUnknown, rain",
		"timestamp" :1555905600
		},
	"2019-04-22T02:00:00-04:00" : {
		"windSpeed" : 1.9,
		"windDir" : 215,
		"rain" : 0,
		"cloudbase" : null,
		"flyability" : -50,
		"reason" : "orientationsUnknown",
		"timestamp" :1555916400
		},
	"2019-04-22T05:00:00-04:00" : {
		"windSpeed" : 1.6,
		"windDir" : 211,
		"rain" : 0,
		"cloudbase" : null,
		"flyability" : -50,
		"reason" : "orientationsUnknown",
		"timestamp" :1555927200
		},
	"2019-04-22T08:00:00-04:00" : {
		"windSpeed" : 2.3,
		"windDir" : 206,
		"rain" : 0,
		"cloudbase" : null,
		"flyability" : -50,
		"reason" : "orientationsUnknown",
		"timestamp" :1555938000
		},
	"2019-04-22T11:00:00-04:00" : {
		"windSpeed" : 3,
		"windDir" : 239,
		"rain" : 0,
		"cloudbase" : null,
		"flyability" : -50,
		"reason" : "orientationsUnknown",
		"timestamp" :1555948800
		},
	"2019-04-22T14:00:00-04:00" : {
		"windSpeed" : 4.8,
		"windDir" : 274,
		"rain" : 0,
		"cloudbase" : 1576.7,
		"flyability" : -50,
		"reason" : "orientationsUnknown",
		"timestamp" :1555959600
		},
	"2019-04-22T17:00:00-04:00" : {
		"windSpeed" : 3.7,
		"windDir" : 252,
		"rain" : 0,
		"cloudbase" : null,
		"flyability" : -50,
		"reason" : "orientationsUnknown",
		"timestamp" :1555970400
		},
	"2019-04-22T20:00:00-04:00" : {
		"windSpeed" : 3.2,
		"windDir" : 315,
		"rain" : 0,
		"cloudbase" : 8110.2,
		"flyability" : -50,
		"reason" : "orientationsUnknown",
		"timestamp" :1555981200
		}
	}
}