{
"site" : "Fraserburgh Beach",
"id" : 15598,
"orientations" : "20000000",
"forecasts" : { 
	"2019-04-08T04:00:00+01:00" : {
		"windSpeed" : 3.7,
		"windDir" : 22,
		"rain" : 0,
		"cloudbase" : null,
		"flyability" : 100,
		"reason" : "",
		"timestamp" :1554688800
		},
	"2019-04-08T07:00:00+01:00" : {
		"windSpeed" : 4.1,
		"windDir" : 20,
		"rain" : 0,
		"cloudbase" : 718,
		"flyability" : 100,
		"reason" : "",
		"timestamp" :1554699600
		},
	"2019-04-08T10:00:00+01:00" : {
		"windSpeed" : 3.6,
		"windDir" : 33,
		"rain" : 0,
		"cloudbase" : 620,
		"flyability" : 0,
		"reason" : "windDir",
		"timestamp" :1554710400
		},
	"2019-04-08T13:00:00+01:00" : {
		"windSpeed" : 2.1,
		"windDir" : 45,
		"rain" : 0,
		"cloudbase" : 640,
		"flyability" : 0,
		"reason" : "windDir",
		"timestamp" :1554721200
		},
	"2019-04-08T16:00:00+01:00" : {
		"windSpeed" : 3,
		"windDir" : 81,
		"rain" : 0,
		"cloudbase" : null,
		"flyability" : 0,
		"reason" : "windDir",
		"timestamp" :1554732000
		},
	"2019-04-08T19:00:00+01:00" : {
		"windSpeed" : 4.5,
		"windDir" : 131,
		"rain" : 0,
		"cloudbase" : 484,
		"flyability" : 0,
		"reason" : "windDir",
		"timestamp" :1554742800
		},
	"2019-04-08T22:00:00+01:00" : {
		"windSpeed" : 5.9,
		"windDir" : 132,
		"rain" : 0,
		"cloudbase" : null,
		"flyability" : 0,
		"reason" : "windSpeed, windDir",
		"timestamp" :1554753600
		},
	"2019-04-09T01:00:00+01:00" : {
		"windSpeed" : 5.6,
		"windDir" : 128,
		"rain" : 0,
		"cloudbase" : 2050,
		"flyability" : 0,
		"reason" : "windSpeed, windDir",
		"timestamp" :1554764400
		},
	"2019-04-09T04:00:00+01:00" : {
		"windSpeed" : 4.9,
		"windDir" : 127,
		"rain" : 0,
		"cloudbase" : null,
		"flyability" : 0,
		"reason" : "windDir",
		"timestamp" :1554775200
		},
	"2019-04-09T07:00:00+01:00" : {
		"windSpeed" : 3.8,
		"windDir" : 140,
		"rain" : 0,
		"cloudbase" : null,
		"flyability" : 0,
		"reason" : "windDir",
		"timestamp" :1554786000
		},
	"2019-04-09T10:00:00+01:00" : {
		"windSpeed" : 3.7,
		"windDir" : 115,
		"rain" : 0,
		"cloudbase" : null,
		"flyability" : 0,
		"reason" : "windDir",
		"timestamp" :1554796800
		},
	"2019-04-09T13:00:00+01:00" : {
		"windSpeed" : 3.5,
		"windDir" : 99,
		"rain" : 0,
		"cloudbase" : null,
		"flyability" : 0,
		"reason" : "windDir",
		"timestamp" :1554807600
		},
	"2019-04-09T16:00:00+01:00" : {
		"windSpeed" : 3.5,
		"windDir" : 75,
		"rain" : 0,
		"cloudbase" : null,
		"flyability" : 0,
		"reason" : "windDir",
		"timestamp" :1554818400
		},
	"2019-04-09T19:00:00+01:00" : {
		"windSpeed" : 2.8,
		"windDir" : 59,
		"rain" : 0,
		"cloudbase" : null,
		"flyability" : 0,
		"reason" : "windDir",
		"timestamp" :1554829200
		},
	"2019-04-09T22:00:00+01:00" : {
		"windSpeed" : 2.2,
		"windDir" : 26,
		"rain" : 0,
		"cloudbase" : null,
		"flyability" : 0,
		"reason" : "windDir",
		"timestamp" :1554840000
		},
	"2019-04-10T01:00:00+01:00" : {
		"windSpeed" : 2.4,
		"windDir" : 358,
		"rain" : 0,
		"cloudbase" : null,
		"flyability" : 100,
		"reason" : "",
		"timestamp" :1554850800
		},
	"2019-04-10T04:00:00+01:00" : {
		"windSpeed" : 2.4,
		"windDir" : 356,
		"rain" : 0,
		"cloudbase" : null,
		"flyability" : 100,
		"reason" : "",
		"timestamp" :1554861600
		},
	"2019-04-10T07:00:00+01:00" : {
		"windSpeed" : 2,
		"windDir" : 357,
		"rain" : 0,
		"cloudbase" : 772,
		"flyability" : 100,
		"reason" : "",
		"timestamp" :1554872400
		},
	"2019-04-10T10:00:00+01:00" : {
		"windSpeed" : 2.5,
		"windDir" : 348,
		"rain" : 0,
		"cloudbase" : 778,
		"flyability" : 100,
		"reason" : "",
		"timestamp" :1554883200
		},
	"2019-04-10T13:00:00+01:00" : {
		"windSpeed" : 2,
		"windDir" : 347,
		"rain" : 0,
		"cloudbase" : 780,
		"flyability" : 100,
		"reason" : "",
		"timestamp" :1554894000
		},
	"2019-04-10T16:00:00+01:00" : {
		"windSpeed" : 2.9,
		"windDir" : 330,
		"rain" : 0,
		"cloudbase" : 842,
		"flyability" : 0,
		"reason" : "windDir",
		"timestamp" :1554904800
		},
	"2019-04-10T19:00:00+01:00" : {
		"windSpeed" : 3.1,
		"windDir" : 342,
		"rain" : 0,
		"cloudbase" : null,
		"flyability" : 100,
		"reason" : "",
		"timestamp" :1554915600
		},
	"2019-04-10T22:00:00+01:00" : {
		"windSpeed" : 1.3,
		"windDir" : 312,
		"rain" : 0,
		"cloudbase" : 1050,
		"flyability" : 0,
		"reason" : "windDir",
		"timestamp" :1554926400
		},
	"2019-04-11T01:00:00+01:00" : {
		"windSpeed" : 1.5,
		"windDir" : 268,
		"rain" : 0,
		"cloudbase" : 960,
		"flyability" : 0,
		"reason" : "windDir",
		"timestamp" :1554937200
		},
	"2019-04-11T04:00:00+01:00" : {
		"windSpeed" : 1.4,
		"windDir" : 314,
		"rain" : 0,
		"cloudbase" : 937.99999999999,
		"flyability" : 0,
		"reason" : "windDir",
		"timestamp" :1554948000
		},
	"2019-04-11T07:00:00+01:00" : {
		"windSpeed" : 2.4,
		"windDir" : 53,
		"rain" : 0,
		"cloudbase" : 957.99999999999,
		"flyability" : 0,
		"reason" : "windDir",
		"timestamp" :1554958800
		},
	"2019-04-11T10:00:00+01:00" : {
		"windSpeed" : 2.2,
		"windDir" : 65,
		"rain" : 0,
		"cloudbase" : 1025,
		"flyability" : 0,
		"reason" : "windDir",
		"timestamp" :1554969600
		},
	"2019-04-11T13:00:00+01:00" : {
		"windSpeed" : 2.4,
		"windDir" : 90,
		"rain" : 0,
		"cloudbase" : 1209,
		"flyability" : 0,
		"reason" : "windDir",
		"timestamp" :1554980400
		},
	"2019-04-11T16:00:00+01:00" : {
		"windSpeed" : 2.6,
		"windDir" : 111,
		"rain" : 0,
		"cloudbase" : 1029,
		"flyability" : 0,
		"reason" : "windDir",
		"timestamp" :1554991200
		},
	"2019-04-11T19:00:00+01:00" : {
		"windSpeed" : 2.8,
		"windDir" : 121,
		"rain" : 0,
		"cloudbase" : 1350,
		"flyability" : 0,
		"reason" : "windDir",
		"timestamp" :1555002000
		},
	"2019-04-11T22:00:00+01:00" : {
		"windSpeed" : 3.4,
		"windDir" : 134,
		"rain" : 0,
		"cloudbase" : 7700,
		"flyability" : 0,
		"reason" : "windDir",
		"timestamp" :1555012800
		},
	"2019-04-12T01:00:00+01:00" : {
		"windSpeed" : 3.7,
		"windDir" : 157,
		"rain" : 0,
		"cloudbase" : 7390,
		"flyability" : 0,
		"reason" : "windDir",
		"timestamp" :1555023600
		},
	"2019-04-12T04:00:00+01:00" : {
		"windSpeed" : 4.1,
		"windDir" : 167,
		"rain" : 0,
		"cloudbase" : 1760,
		"flyability" : 0,
		"reason" : "windDir",
		"timestamp" :1555034400
		},
	"2019-04-12T07:00:00+01:00" : {
		"windSpeed" : 5,
		"windDir" : 169,
		"rain" : 0,
		"cloudbase" : 1685,
		"flyability" : 0,
		"reason" : "windDir",
		"timestamp" :1555045200
		},
	"2019-04-12T10:00:00+01:00" : {
		"windSpeed" : 6.7,
		"windDir" : 163,
		"rain" : 0,
		"cloudbase" : null,
		"flyability" : 0,
		"reason" : "windSpeed, windDir",
		"timestamp" :1555056000
		},
	"2019-04-12T13:00:00+01:00" : {
		"windSpeed" : 8.4,
		"windDir" : 152,
		"rain" : 0,
		"cloudbase" : 1140,
		"flyability" : 0,
		"reason" : "windSpeed, windDir",
		"timestamp" :1555066800
		},
	"2019-04-12T16:00:00+01:00" : {
		"windSpeed" : 8,
		"windDir" : 150,
		"rain" : 0,
		"cloudbase" : null,
		"flyability" : 0,
		"reason" : "windSpeed, windDir",
		"timestamp" :1555077600
		},
	"2019-04-12T19:00:00+01:00" : {
		"windSpeed" : 7.6,
		"windDir" : 154,
		"rain" : 0,
		"cloudbase" : null,
		"flyability" : 0,
		"reason" : "windSpeed, windDir",
		"timestamp" :1555088400
		},
	"2019-04-12T22:00:00+01:00" : {
		"windSpeed" : 6.2,
		"windDir" : 151,
		"rain" : 0,
		"cloudbase" : 1005,
		"flyability" : 0,
		"reason" : "windSpeed, windDir",
		"timestamp" :1555099200
		},
	"2019-04-13T01:00:00+01:00" : {
		"windSpeed" : 6.6,
		"windDir" : 154,
		"rain" : 0,
		"cloudbase" : null,
		"flyability" : 0,
		"reason" : "windSpeed, windDir",
		"timestamp" :1555110000
		},
	"2019-04-13T04:00:00+01:00" : {
		"windSpeed" : 6.8,
		"windDir" : 159,
		"rain" : 0,
		"cloudbase" : null,
		"flyability" : 0,
		"reason" : "windSpeed, windDir",
		"timestamp" :1555120800
		},
	"2019-04-13T07:00:00+01:00" : {
		"windSpeed" : 5.9,
		"windDir" : 156,
		"rain" : 0,
		"cloudbase" : 1050,
		"flyability" : 0,
		"reason" : "windSpeed, windDir",
		"timestamp" :1555131600
		},
	"2019-04-13T10:00:00+01:00" : {
		"windSpeed" : 6.9,
		"windDir" : 150,
		"rain" : 0,
		"cloudbase" : null,
		"flyability" : 0,
		"reason" : "windSpeed, windDir",
		"timestamp" :1555142400
		},
	"2019-04-13T13:00:00+01:00" : {
		"windSpeed" : 6.9,
		"windDir" : 136,
		"rain" : 0,
		"cloudbase" : null,
		"flyability" : 0,
		"reason" : "windSpeed, windDir",
		"timestamp" :1555153200
		},
	"2019-04-13T16:00:00+01:00" : {
		"windSpeed" : 6.3,
		"windDir" : 129,
		"rain" : 0,
		"cloudbase" : null,
		"flyability" : 0,
		"reason" : "windSpeed, windDir",
		"timestamp" :1555164000
		},
	"2019-04-13T19:00:00+01:00" : {
		"windSpeed" : 6.5,
		"windDir" : 132,
		"rain" : 0,
		"cloudbase" : null,
		"flyability" : 0,
		"reason" : "windSpeed, windDir",
		"timestamp" :1555174800
		},
	"2019-04-13T22:00:00+01:00" : {
		"windSpeed" : 6.2,
		"windDir" : 129,
		"rain" : 0,
		"cloudbase" : null,
		"flyability" : 0,
		"reason" : "windSpeed, windDir",
		"timestamp" :1555185600
		},
	"2019-04-14T01:00:00+01:00" : {
		"windSpeed" : 6.5,
		"windDir" : 132,
		"rain" : 0,
		"cloudbase" : 1150,
		"flyability" : 0,
		"reason" : "windSpeed, windDir",
		"timestamp" :1555196400
		}
	}
}