{
"site" : "Safii Ranch",
"id" : 15628,
"orientations" : "02222200",
"forecasts" : { 
	"2019-04-13T23:00:00+08:00" : {
		"windSpeed" : 1.1,
		"windDir" : 18,
		"rain" : 1,
		"cloudbase" : 14479.26,
		"flyability" : 0,
		"reason" : "windDir, rain",
		"timestamp" :1555171200
		},
	"2019-04-14T02:00:00+08:00" : {
		"windSpeed" : 3,
		"windDir" : 359,
		"rain" : 0,
		"cloudbase" : 14830,
		"flyability" : 0,
		"reason" : "windDir",
		"timestamp" :1555182000
		},
	"2019-04-14T05:00:00+08:00" : {
		"windSpeed" : 4.1,
		"windDir" : 5,
		"rain" : 0,
		"cloudbase" : null,
		"flyability" : 0,
		"reason" : "windDir",
		"timestamp" :1555192800
		},
	"2019-04-14T08:00:00+08:00" : {
		"windSpeed" : 3.6,
		"windDir" : 30,
		"rain" : 0,
		"cloudbase" : 14289.74,
		"flyability" : 100,
		"reason" : "",
		"timestamp" :1555203600
		},
	"2019-04-14T11:00:00+08:00" : {
		"windSpeed" : 3.2,
		"windDir" : 56,
		"rain" : 0,
		"cloudbase" : null,
		"flyability" : 100,
		"reason" : "",
		"timestamp" :1555214400
		},
	"2019-04-14T14:00:00+08:00" : {
		"windSpeed" : 3.2,
		"windDir" : 207,
		"rain" : 0,
		"cloudbase" : 14000,
		"flyability" : 100,
		"reason" : "",
		"timestamp" :1555225200
		},
	"2019-04-14T17:00:00+08:00" : {
		"windSpeed" : 3.1,
		"windDir" : 239,
		"rain" : 0,
		"cloudbase" : null,
		"flyability" : 100,
		"reason" : "",
		"timestamp" :1555236000
		},
	"2019-04-14T20:00:00+08:00" : {
		"windSpeed" : 0.8,
		"windDir" : 265,
		"rain" : 0,
		"cloudbase" : null,
		"flyability" : 0,
		"reason" : "windDir",
		"timestamp" :1555246800
		},
	"2019-04-14T23:00:00+08:00" : {
		"windSpeed" : 0.7,
		"windDir" : 14,
		"rain" : 0,
		"cloudbase" : null,
		"flyability" : 0,
		"reason" : "windDir",
		"timestamp" :1555257600
		},
	"2019-04-15T02:00:00+08:00" : {
		"windSpeed" : 1.1,
		"windDir" : 353,
		"rain" : 0,
		"cloudbase" : 10145.712,
		"flyability" : 0,
		"reason" : "windDir",
		"timestamp" :1555268400
		},
	"2019-04-15T05:00:00+08:00" : {
		"windSpeed" : 1.4,
		"windDir" : 11,
		"rain" : 0,
		"cloudbase" : null,
		"flyability" : 0,
		"reason" : "windDir",
		"timestamp" :1555279200
		},
	"2019-04-15T08:00:00+08:00" : {
		"windSpeed" : 2.8,
		"windDir" : 33,
		"rain" : 0,
		"cloudbase" : 14830,
		"flyability" : 100,
		"reason" : "",
		"timestamp" :1555290000
		},
	"2019-04-15T11:00:00+08:00" : {
		"windSpeed" : 1.9,
		"windDir" : 124,
		"rain" : 0,
		"cloudbase" : 14769,
		"flyability" : 100,
		"reason" : "",
		"timestamp" :1555300800
		},
	"2019-04-15T14:00:00+08:00" : {
		"windSpeed" : 4.5,
		"windDir" : 219,
		"rain" : 1,
		"cloudbase" : 14306.62,
		"flyability" : 0,
		"reason" : "rain",
		"timestamp" :1555311600
		},
	"2019-04-15T17:00:00+08:00" : {
		"windSpeed" : 3.5,
		"windDir" : 248,
		"rain" : 0,
		"cloudbase" : 14830,
		"flyability" : 0,
		"reason" : "windDir",
		"timestamp" :1555322400
		},
	"2019-04-15T20:00:00+08:00" : {
		"windSpeed" : 1.5,
		"windDir" : 254,
		"rain" : 0,
		"cloudbase" : 14289.74,
		"flyability" : 0,
		"reason" : "windDir",
		"timestamp" :1555333200
		},
	"2019-04-15T23:00:00+08:00" : {
		"windSpeed" : 1.1,
		"windDir" : 355,
		"rain" : 0,
		"cloudbase" : 14289.74,
		"flyability" : 0,
		"reason" : "windDir",
		"timestamp" :1555344000
		},
	"2019-04-16T02:00:00+08:00" : {
		"windSpeed" : 1.5,
		"windDir" : 338,
		"rain" : 0,
		"cloudbase" : null,
		"flyability" : 0,
		"reason" : "windDir",
		"timestamp" :1555354800
		},
	"2019-04-16T05:00:00+08:00" : {
		"windSpeed" : 1.7,
		"windDir" : 9,
		"rain" : 0,
		"cloudbase" : null,
		"flyability" : 0,
		"reason" : "windDir",
		"timestamp" :1555365600
		},
	"2019-04-16T08:00:00+08:00" : {
		"windSpeed" : 4,
		"windDir" : 29,
		"rain" : 0,
		"cloudbase" : null,
		"flyability" : 100,
		"reason" : "",
		"timestamp" :1555376400
		},
	"2019-04-16T11:00:00+08:00" : {
		"windSpeed" : 1.8,
		"windDir" : 78,
		"rain" : 0,
		"cloudbase" : null,
		"flyability" : 100,
		"reason" : "",
		"timestamp" :1555387200
		},
	"2019-04-16T14:00:00+08:00" : {
		"windSpeed" : 3.2,
		"windDir" : 212,
		"rain" : 1,
		"cloudbase" : null,
		"flyability" : 0,
		"reason" : "rain",
		"timestamp" :1555398000
		},
	"2019-04-16T17:00:00+08:00" : {
		"windSpeed" : 1.9,
		"windDir" : 204,
		"rain" : 0,
		"cloudbase" : null,
		"flyability" : 100,
		"reason" : "",
		"timestamp" :1555408800
		},
	"2019-04-16T20:00:00+08:00" : {
		"windSpeed" : 0.3,
		"windDir" : 142,
		"rain" : 0,
		"cloudbase" : 5400,
		"flyability" : 100,
		"reason" : "",
		"timestamp" :1555419600
		},
	"2019-04-16T23:00:00+08:00" : {
		"windSpeed" : 0.7,
		"windDir" : 352,
		"rain" : 0,
		"cloudbase" : null,
		"flyability" : 0,
		"reason" : "windDir",
		"timestamp" :1555430400
		},
	"2019-04-17T02:00:00+08:00" : {
		"windSpeed" : 1.9,
		"windDir" : 356,
		"rain" : 0,
		"cloudbase" : 15000,
		"flyability" : 0,
		"reason" : "windDir",
		"timestamp" :1555441200
		},
	"2019-04-17T05:00:00+08:00" : {
		"windSpeed" : 2.1,
		"windDir" : 6,
		"rain" : 0,
		"cloudbase" : null,
		"flyability" : 0,
		"reason" : "windDir",
		"timestamp" :1555452000
		},
	"2019-04-17T08:00:00+08:00" : {
		"windSpeed" : 3.5,
		"windDir" : 31,
		"rain" : 0,
		"cloudbase" : 13000,
		"flyability" : 100,
		"reason" : "",
		"timestamp" :1555462800
		},
	"2019-04-17T11:00:00+08:00" : {
		"windSpeed" : 2,
		"windDir" : 110,
		"rain" : 0,
		"cloudbase" : 12000,
		"flyability" : 100,
		"reason" : "",
		"timestamp" :1555473600
		},
	"2019-04-17T14:00:00+08:00" : {
		"windSpeed" : 4.5,
		"windDir" : 202,
		"rain" : 0,
		"cloudbase" : null,
		"flyability" : 100,
		"reason" : "",
		"timestamp" :1555484400
		},
	"2019-04-17T17:00:00+08:00" : {
		"windSpeed" : 3,
		"windDir" : 236,
		"rain" : 0,
		"cloudbase" : null,
		"flyability" : 100,
		"reason" : "",
		"timestamp" :1555495200
		},
	"2019-04-17T20:00:00+08:00" : {
		"windSpeed" : 1.6,
		"windDir" : 252,
		"rain" : 0,
		"cloudbase" : null,
		"flyability" : 0,
		"reason" : "windDir",
		"timestamp" :1555506000
		},
	"2019-04-17T23:00:00+08:00" : {
		"windSpeed" : 1,
		"windDir" : 294,
		"rain" : 0,
		"cloudbase" : null,
		"flyability" : 0,
		"reason" : "windDir",
		"timestamp" :1555516800
		},
	"2019-04-18T02:00:00+08:00" : {
		"windSpeed" : 1,
		"windDir" : 348,
		"rain" : 0,
		"cloudbase" : null,
		"flyability" : 0,
		"reason" : "windDir",
		"timestamp" :1555527600
		},
	"2019-04-18T05:00:00+08:00" : {
		"windSpeed" : 1,
		"windDir" : 356,
		"rain" : 0,
		"cloudbase" : null,
		"flyability" : 0,
		"reason" : "windDir",
		"timestamp" :1555538400
		},
	"2019-04-18T08:00:00+08:00" : {
		"windSpeed" : 1.7,
		"windDir" : 48,
		"rain" : 0,
		"cloudbase" : null,
		"flyability" : 100,
		"reason" : "",
		"timestamp" :1555549200
		},
	"2019-04-18T11:00:00+08:00" : {
		"windSpeed" : 1.8,
		"windDir" : 129,
		"rain" : 0,
		"cloudbase" : null,
		"flyability" : 100,
		"reason" : "",
		"timestamp" :1555560000
		},
	"2019-04-18T14:00:00+08:00" : {
		"windSpeed" : 4.1,
		"windDir" : 198,
		"rain" : 0,
		"cloudbase" : null,
		"flyability" : 100,
		"reason" : "",
		"timestamp" :1555570800
		},
	"2019-04-18T17:00:00+08:00" : {
		"windSpeed" : 3.8,
		"windDir" : 239,
		"rain" : 0,
		"cloudbase" : null,
		"flyability" : 100,
		"reason" : "",
		"timestamp" :1555581600
		},
	"2019-04-18T20:00:00+08:00" : {
		"windSpeed" : 1.8,
		"windDir" : 268,
		"rain" : 0,
		"cloudbase" : null,
		"flyability" : 0,
		"reason" : "windDir",
		"timestamp" :1555592400
		},
	"2019-04-18T23:00:00+08:00" : {
		"windSpeed" : 0.9,
		"windDir" : 4,
		"rain" : 0,
		"cloudbase" : null,
		"flyability" : 0,
		"reason" : "windDir",
		"timestamp" :1555603200
		},
	"2019-04-19T02:00:00+08:00" : {
		"windSpeed" : 1,
		"windDir" : 348,
		"rain" : 0,
		"cloudbase" : null,
		"flyability" : 0,
		"reason" : "windDir",
		"timestamp" :1555614000
		},
	"2019-04-19T05:00:00+08:00" : {
		"windSpeed" : 1.3,
		"windDir" : 10,
		"rain" : 0,
		"cloudbase" : null,
		"flyability" : 0,
		"reason" : "windDir",
		"timestamp" :1555624800
		},
	"2019-04-19T08:00:00+08:00" : {
		"windSpeed" : 2.5,
		"windDir" : 41,
		"rain" : 0,
		"cloudbase" : null,
		"flyability" : 100,
		"reason" : "",
		"timestamp" :1555635600
		},
	"2019-04-19T11:00:00+08:00" : {
		"windSpeed" : 2.6,
		"windDir" : 148,
		"rain" : 0,
		"cloudbase" : 14289.74,
		"flyability" : 100,
		"reason" : "",
		"timestamp" :1555646400
		},
	"2019-04-19T14:00:00+08:00" : {
		"windSpeed" : 3.7,
		"windDir" : 214,
		"rain" : 0,
		"cloudbase" : null,
		"flyability" : 100,
		"reason" : "",
		"timestamp" :1555657200
		},
	"2019-04-19T17:00:00+08:00" : {
		"windSpeed" : 2.9,
		"windDir" : 236,
		"rain" : 0,
		"cloudbase" : null,
		"flyability" : 100,
		"reason" : "",
		"timestamp" :1555668000
		},
	"2019-04-19T20:00:00+08:00" : {
		"windSpeed" : 2.5,
		"windDir" : 239,
		"rain" : 0,
		"cloudbase" : null,
		"flyability" : 100,
		"reason" : "",
		"timestamp" :1555678800
		}
	}
}