{
"site" : "Soglio - Orero",
"id" : 15839,
"orientations" : "00122100",
"forecasts" : { 
	"2019-04-20T17:00:00+02:00" : {
		"windSpeed" : 1,
		"windDir" : 64,
		"rain" : 0,
		"cloudbase" : null,
		"flyability" : 0,
		"reason" : "windDir",
		"timestamp" :1555776000
		},
	"2019-04-20T20:00:00+02:00" : {
		"windSpeed" : 2.2,
		"windDir" : 27,
		"rain" : 0,
		"cloudbase" : 7909,
		"flyability" : 0,
		"reason" : "windDir",
		"timestamp" :1555786800
		},
	"2019-04-20T23:00:00+02:00" : {
		"windSpeed" : 3.3,
		"windDir" : 27,
		"rain" : 0,
		"cloudbase" : 7094.3,
		"flyability" : 0,
		"reason" : "windDir",
		"timestamp" :1555797600
		},
	"2019-04-21T02:00:00+02:00" : {
		"windSpeed" : 3.3,
		"windDir" : 27,
		"rain" : 0,
		"cloudbase" : 7353.9,
		"flyability" : 0,
		"reason" : "windDir",
		"timestamp" :1555808400
		},
	"2019-04-21T05:00:00+02:00" : {
		"windSpeed" : 3.3,
		"windDir" : 27,
		"rain" : 0,
		"cloudbase" : 6137.3,
		"flyability" : 0,
		"reason" : "windDir",
		"timestamp" :1555819200
		},
	"2019-04-21T08:00:00+02:00" : {
		"windSpeed" : 3.1,
		"windDir" : 20,
		"rain" : 0,
		"cloudbase" : 5094.85,
		"flyability" : 0,
		"reason" : "windDir",
		"timestamp" :1555830000
		},
	"2019-04-21T11:00:00+02:00" : {
		"windSpeed" : 1.6,
		"windDir" : 113,
		"rain" : 0,
		"cloudbase" : 4254.5,
		"flyability" : 100,
		"reason" : "",
		"timestamp" :1555840800
		},
	"2019-04-21T14:00:00+02:00" : {
		"windSpeed" : 0.8,
		"windDir" : 309,
		"rain" : 0,
		"cloudbase" : 3700.5,
		"flyability" : 0,
		"reason" : "windDir",
		"timestamp" :1555851600
		},
	"2019-04-21T17:00:00+02:00" : {
		"windSpeed" : 1.8,
		"windDir" : 55,
		"rain" : 0,
		"cloudbase" : 9776.1499999997,
		"flyability" : 0,
		"reason" : "windDir",
		"timestamp" :1555862400
		},
	"2019-04-21T20:00:00+02:00" : {
		"windSpeed" : 3.5,
		"windDir" : 35,
		"rain" : 0,
		"cloudbase" : 9522.7499999998,
		"flyability" : 0,
		"reason" : "windDir",
		"timestamp" :1555873200
		},
	"2019-04-21T23:00:00+02:00" : {
		"windSpeed" : 4,
		"windDir" : 31,
		"rain" : 0,
		"cloudbase" : 3707.85,
		"flyability" : 0,
		"reason" : "windDir",
		"timestamp" :1555884000
		},
	"2019-04-22T02:00:00+02:00" : {
		"windSpeed" : 4.2,
		"windDir" : 36,
		"rain" : 0,
		"cloudbase" : 3700,
		"flyability" : 0,
		"reason" : "windDir",
		"timestamp" :1555894800
		},
	"2019-04-22T05:00:00+02:00" : {
		"windSpeed" : 2.6,
		"windDir" : 21,
		"rain" : 1,
		"cloudbase" : 4191.6999999999,
		"flyability" : 0,
		"reason" : "windDir, rain",
		"timestamp" :1555905600
		},
	"2019-04-22T08:00:00+02:00" : {
		"windSpeed" : 5.8,
		"windDir" : 31,
		"rain" : 1,
		"cloudbase" : 5991,
		"flyability" : 0,
		"reason" : "windSpeed, windDir, rain",
		"timestamp" :1555916400
		},
	"2019-04-22T11:00:00+02:00" : {
		"windSpeed" : 5.6,
		"windDir" : 45,
		"rain" : 0,
		"cloudbase" : 6205.6,
		"flyability" : 0,
		"reason" : "windSpeed, windDir",
		"timestamp" :1555927200
		},
	"2019-04-22T14:00:00+02:00" : {
		"windSpeed" : 4.9,
		"windDir" : 55,
		"rain" : 0,
		"cloudbase" : 8022,
		"flyability" : 0,
		"reason" : "windDir",
		"timestamp" :1555938000
		},
	"2019-04-22T17:00:00+02:00" : {
		"windSpeed" : 4.9,
		"windDir" : 46,
		"rain" : 0,
		"cloudbase" : 8215,
		"flyability" : 0,
		"reason" : "windDir",
		"timestamp" :1555948800
		},
	"2019-04-22T20:00:00+02:00" : {
		"windSpeed" : 6,
		"windDir" : 48,
		"rain" : 0,
		"cloudbase" : 6194.3,
		"flyability" : 0,
		"reason" : "windSpeed, windDir",
		"timestamp" :1555959600
		},
	"2019-04-22T23:00:00+02:00" : {
		"windSpeed" : 3.4,
		"windDir" : 46,
		"rain" : 1,
		"cloudbase" : 4698.4699999999,
		"flyability" : 0,
		"reason" : "windDir, rain",
		"timestamp" :1555970400
		},
	"2019-04-23T02:00:00+02:00" : {
		"windSpeed" : 3.9,
		"windDir" : 39,
		"rain" : 1,
		"cloudbase" : 3962.05,
		"flyability" : 0,
		"reason" : "windDir, rain",
		"timestamp" :1555981200
		},
	"2019-04-23T05:00:00+02:00" : {
		"windSpeed" : 1,
		"windDir" : 62,
		"rain" : 1,
		"cloudbase" : 1755.7,
		"flyability" : 0,
		"reason" : "windDir, rain",
		"timestamp" :1555992000
		},
	"2019-04-23T08:00:00+02:00" : {
		"windSpeed" : 2,
		"windDir" : 45,
		"rain" : 1,
		"cloudbase" : 1153.27,
		"flyability" : 0,
		"reason" : "windDir, rain",
		"timestamp" :1556002800
		},
	"2019-04-23T11:00:00+02:00" : {
		"windSpeed" : 2,
		"windDir" : 46,
		"rain" : 1,
		"cloudbase" : 1110.92,
		"flyability" : 0,
		"reason" : "windDir, rain",
		"timestamp" :1556013600
		},
	"2019-04-23T14:00:00+02:00" : {
		"windSpeed" : 1.5,
		"windDir" : 181,
		"rain" : 1,
		"cloudbase" : 1251.67,
		"flyability" : 0,
		"reason" : "rain",
		"timestamp" :1556024400
		},
	"2019-04-23T17:00:00+02:00" : {
		"windSpeed" : 3.1,
		"windDir" : 140,
		"rain" : 1,
		"cloudbase" : 211.71,
		"flyability" : 0,
		"reason" : "rain, cloudbase",
		"timestamp" :1556035200
		},
	"2019-04-23T20:00:00+02:00" : {
		"windSpeed" : 3.6,
		"windDir" : 124,
		"rain" : 1,
		"cloudbase" : 35.145000000003,
		"flyability" : 0,
		"reason" : "rain, cloudbase",
		"timestamp" :1556046000
		},
	"2019-04-23T23:00:00+02:00" : {
		"windSpeed" : 5.8,
		"windDir" : 142,
		"rain" : 1,
		"cloudbase" : 140.74,
		"flyability" : 0,
		"reason" : "windSpeed, rain, cloudbase",
		"timestamp" :1556056800
		},
	"2019-04-24T02:00:00+02:00" : {
		"windSpeed" : 4.5,
		"windDir" : 153,
		"rain" : 1,
		"cloudbase" : 53.004999999999,
		"flyability" : 0,
		"reason" : "rain, cloudbase",
		"timestamp" :1556067600
		},
	"2019-04-24T05:00:00+02:00" : {
		"windSpeed" : 3.7,
		"windDir" : 164,
		"rain" : 1,
		"cloudbase" : 36.615000000004,
		"flyability" : 0,
		"reason" : "rain, cloudbase",
		"timestamp" :1556078400
		},
	"2019-04-24T08:00:00+02:00" : {
		"windSpeed" : 3.1,
		"windDir" : 170,
		"rain" : 1,
		"cloudbase" : 445.73,
		"flyability" : 0,
		"reason" : "rain, cloudbase",
		"timestamp" :1556089200
		},
	"2019-04-24T11:00:00+02:00" : {
		"windSpeed" : 2.7,
		"windDir" : 155,
		"rain" : 1,
		"cloudbase" : 186.99999999999,
		"flyability" : 0,
		"reason" : "rain, cloudbase",
		"timestamp" :1556100000
		},
	"2019-04-24T14:00:00+02:00" : {
		"windSpeed" : 2.4,
		"windDir" : 151,
		"rain" : 1,
		"cloudbase" : 7725.7,
		"flyability" : 0,
		"reason" : "rain",
		"timestamp" :1556110800
		},
	"2019-04-24T17:00:00+02:00" : {
		"windSpeed" : 3,
		"windDir" : 170,
		"rain" : 1,
		"cloudbase" : 6725.7,
		"flyability" : 0,
		"reason" : "rain",
		"timestamp" :1556121600
		},
	"2019-04-24T20:00:00+02:00" : {
		"windSpeed" : 1.1,
		"windDir" : 68,
		"rain" : 1,
		"cloudbase" : null,
		"flyability" : 0,
		"reason" : "rain",
		"timestamp" :1556132400
		},
	"2019-04-24T23:00:00+02:00" : {
		"windSpeed" : 1.8,
		"windDir" : 149,
		"rain" : 1,
		"cloudbase" : 3672.75,
		"flyability" : 0,
		"reason" : "rain",
		"timestamp" :1556143200
		},
	"2019-04-25T02:00:00+02:00" : {
		"windSpeed" : 3.8,
		"windDir" : 147,
		"rain" : 1,
		"cloudbase" : 1332.5899999999,
		"flyability" : 0,
		"reason" : "rain",
		"timestamp" :1556154000
		},
	"2019-04-25T05:00:00+02:00" : {
		"windSpeed" : 2.7,
		"windDir" : 202,
		"rain" : 1,
		"cloudbase" : 279.40999999999,
		"flyability" : 0,
		"reason" : "rain, cloudbase",
		"timestamp" :1556164800
		},
	"2019-04-25T08:00:00+02:00" : {
		"windSpeed" : 3.1,
		"windDir" : 188,
		"rain" : 1,
		"cloudbase" : 720,
		"flyability" : 0,
		"reason" : "rain",
		"timestamp" :1556175600
		},
	"2019-04-25T11:00:00+02:00" : {
		"windSpeed" : 3.7,
		"windDir" : 196,
		"rain" : 1,
		"cloudbase" : 1075.6,
		"flyability" : 0,
		"reason" : "rain",
		"timestamp" :1556186400
		},
	"2019-04-25T14:00:00+02:00" : {
		"windSpeed" : 3,
		"windDir" : 179,
		"rain" : 1,
		"cloudbase" : null,
		"flyability" : 0,
		"reason" : "rain",
		"timestamp" :1556197200
		},
	"2019-04-25T17:00:00+02:00" : {
		"windSpeed" : 2.5,
		"windDir" : 178,
		"rain" : 1,
		"cloudbase" : 8063.5,
		"flyability" : 0,
		"reason" : "rain",
		"timestamp" :1556208000
		},
	"2019-04-25T20:00:00+02:00" : {
		"windSpeed" : 0.8,
		"windDir" : 141,
		"rain" : 1,
		"cloudbase" : null,
		"flyability" : 0,
		"reason" : "rain",
		"timestamp" :1556218800
		},
	"2019-04-25T23:00:00+02:00" : {
		"windSpeed" : 1.2,
		"windDir" : 66,
		"rain" : 0,
		"cloudbase" : null,
		"flyability" : 0,
		"reason" : "windDir",
		"timestamp" :1556229600
		},
	"2019-04-26T02:00:00+02:00" : {
		"windSpeed" : 1.7,
		"windDir" : 74,
		"rain" : 0,
		"cloudbase" : null,
		"flyability" : 100,
		"reason" : "",
		"timestamp" :1556240400
		},
	"2019-04-26T05:00:00+02:00" : {
		"windSpeed" : 1.5,
		"windDir" : 131,
		"rain" : 1,
		"cloudbase" : 2113.35,
		"flyability" : 0,
		"reason" : "rain",
		"timestamp" :1556251200
		},
	"2019-04-26T08:00:00+02:00" : {
		"windSpeed" : 3,
		"windDir" : 133,
		"rain" : 1,
		"cloudbase" : 1850.15,
		"flyability" : 0,
		"reason" : "rain",
		"timestamp" :1556262000
		},
	"2019-04-26T11:00:00+02:00" : {
		"windSpeed" : 6,
		"windDir" : 181,
		"rain" : 1,
		"cloudbase" : 65.940000000012,
		"flyability" : 0,
		"reason" : "windSpeed, rain, cloudbase",
		"timestamp" :1556272800
		},
	"2019-04-26T14:00:00+02:00" : {
		"windSpeed" : 3.6,
		"windDir" : 186,
		"rain" : 1,
		"cloudbase" : 30,
		"flyability" : 0,
		"reason" : "rain, cloudbase",
		"timestamp" :1556283600
		}
	}
}