{
"site" : "Casoni",
"id" : 15847,
"orientations" : "00012210",
"forecasts" : { 
	"2019-04-20T17:00:00+02:00" : {
		"windSpeed" : 4.1,
		"windDir" : 56,
		"rain" : 0,
		"cloudbase" : null,
		"flyability" : 0,
		"reason" : "windDir",
		"timestamp" :1555776000
		},
	"2019-04-20T20:00:00+02:00" : {
		"windSpeed" : 1.6,
		"windDir" : 22,
		"rain" : 0,
		"cloudbase" : 7807.2,
		"flyability" : 0,
		"reason" : "windDir",
		"timestamp" :1555786800
		},
	"2019-04-20T23:00:00+02:00" : {
		"windSpeed" : 2,
		"windDir" : 349,
		"rain" : 0,
		"cloudbase" : 7006.6348,
		"flyability" : 0,
		"reason" : "windDir",
		"timestamp" :1555797600
		},
	"2019-04-21T02:00:00+02:00" : {
		"windSpeed" : 2,
		"windDir" : 349,
		"rain" : 0,
		"cloudbase" : 7473.5,
		"flyability" : 0,
		"reason" : "windDir",
		"timestamp" :1555808400
		},
	"2019-04-21T05:00:00+02:00" : {
		"windSpeed" : 2.5,
		"windDir" : 351,
		"rain" : 0,
		"cloudbase" : 6271.6044,
		"flyability" : 0,
		"reason" : "windDir",
		"timestamp" :1555819200
		},
	"2019-04-21T08:00:00+02:00" : {
		"windSpeed" : 2.5,
		"windDir" : 351,
		"rain" : 0,
		"cloudbase" : 5080.4174,
		"flyability" : 0,
		"reason" : "windDir",
		"timestamp" :1555830000
		},
	"2019-04-21T11:00:00+02:00" : {
		"windSpeed" : 1.8,
		"windDir" : 36,
		"rain" : 0,
		"cloudbase" : 5050.5418000005,
		"flyability" : 0,
		"reason" : "windDir",
		"timestamp" :1555840800
		},
	"2019-04-21T14:00:00+02:00" : {
		"windSpeed" : 1,
		"windDir" : 68,
		"rain" : 0,
		"cloudbase" : 4275.8,
		"flyability" : 0,
		"reason" : "windDir",
		"timestamp" :1555851600
		},
	"2019-04-21T17:00:00+02:00" : {
		"windSpeed" : 2.9,
		"windDir" : 32,
		"rain" : 0,
		"cloudbase" : 9807.2,
		"flyability" : 0,
		"reason" : "windDir",
		"timestamp" :1555862400
		},
	"2019-04-21T20:00:00+02:00" : {
		"windSpeed" : 2,
		"windDir" : 5,
		"rain" : 0,
		"cloudbase" : 9507.2,
		"flyability" : 0,
		"reason" : "windDir",
		"timestamp" :1555873200
		},
	"2019-04-21T23:00:00+02:00" : {
		"windSpeed" : 2.9,
		"windDir" : 354,
		"rain" : 0,
		"cloudbase" : null,
		"flyability" : 0,
		"reason" : "windDir",
		"timestamp" :1555884000
		},
	"2019-04-22T02:00:00+02:00" : {
		"windSpeed" : 2.9,
		"windDir" : 354,
		"rain" : 0,
		"cloudbase" : 7474.0652,
		"flyability" : 0,
		"reason" : "windDir",
		"timestamp" :1555894800
		},
	"2019-04-22T05:00:00+02:00" : {
		"windSpeed" : 2.9,
		"windDir" : 354,
		"rain" : 1,
		"cloudbase" : 5030.1,
		"flyability" : 0,
		"reason" : "windDir, rain",
		"timestamp" :1555905600
		},
	"2019-04-22T08:00:00+02:00" : {
		"windSpeed" : 4.1,
		"windDir" : 350,
		"rain" : 1,
		"cloudbase" : 2689.3048000004,
		"flyability" : 0,
		"reason" : "windDir, rain",
		"timestamp" :1555916400
		},
	"2019-04-22T11:00:00+02:00" : {
		"windSpeed" : 4.6,
		"windDir" : 14,
		"rain" : 0,
		"cloudbase" : 6114.9652,
		"flyability" : 0,
		"reason" : "windDir",
		"timestamp" :1555927200
		},
	"2019-04-22T14:00:00+02:00" : {
		"windSpeed" : 4.8,
		"windDir" : 33,
		"rain" : 0,
		"cloudbase" : 7700,
		"flyability" : 0,
		"reason" : "windDir",
		"timestamp" :1555938000
		},
	"2019-04-22T17:00:00+02:00" : {
		"windSpeed" : 4.4,
		"windDir" : 37,
		"rain" : 0,
		"cloudbase" : 8076.5348,
		"flyability" : 0,
		"reason" : "windDir",
		"timestamp" :1555948800
		},
	"2019-04-22T20:00:00+02:00" : {
		"windSpeed" : 2.7,
		"windDir" : 16,
		"rain" : 0,
		"cloudbase" : 5995.1392,
		"flyability" : 0,
		"reason" : "windDir",
		"timestamp" :1555959600
		},
	"2019-04-22T23:00:00+02:00" : {
		"windSpeed" : 3.1,
		"windDir" : 12,
		"rain" : 1,
		"cloudbase" : 4753.111,
		"flyability" : 0,
		"reason" : "windDir, rain",
		"timestamp" :1555970400
		},
	"2019-04-23T02:00:00+02:00" : {
		"windSpeed" : 3,
		"windDir" : 3,
		"rain" : 1,
		"cloudbase" : 1799.6326,
		"flyability" : 0,
		"reason" : "windDir, rain",
		"timestamp" :1555981200
		},
	"2019-04-23T05:00:00+02:00" : {
		"windSpeed" : 2.5,
		"windDir" : 4,
		"rain" : 1,
		"cloudbase" : 1578.8152,
		"flyability" : 0,
		"reason" : "windDir, rain",
		"timestamp" :1555992000
		},
	"2019-04-23T08:00:00+02:00" : {
		"windSpeed" : 2.5,
		"windDir" : 2,
		"rain" : 1,
		"cloudbase" : 893.29215999999,
		"flyability" : 0,
		"reason" : "windDir, rain, cloudbase",
		"timestamp" :1556002800
		},
	"2019-04-23T11:00:00+02:00" : {
		"windSpeed" : 1.9,
		"windDir" : 36,
		"rain" : 1,
		"cloudbase" : 1050,
		"flyability" : 0,
		"reason" : "windDir, rain",
		"timestamp" :1556013600
		},
	"2019-04-23T14:00:00+02:00" : {
		"windSpeed" : 1.6,
		"windDir" : 109,
		"rain" : 1,
		"cloudbase" : 1050.65648,
		"flyability" : 0,
		"reason" : "windDir, rain",
		"timestamp" :1556024400
		},
	"2019-04-23T17:00:00+02:00" : {
		"windSpeed" : 4.6,
		"windDir" : 150,
		"rain" : 1,
		"cloudbase" : 338.07263999999,
		"flyability" : 0,
		"reason" : "rain, cloudbase",
		"timestamp" :1556035200
		},
	"2019-04-23T20:00:00+02:00" : {
		"windSpeed" : 2.8,
		"windDir" : 158,
		"rain" : 1,
		"cloudbase" : 50,
		"flyability" : 0,
		"reason" : "rain, cloudbase",
		"timestamp" :1556046000
		},
	"2019-04-23T23:00:00+02:00" : {
		"windSpeed" : 3,
		"windDir" : 150,
		"rain" : 1,
		"cloudbase" : 135.89065999999,
		"flyability" : 0,
		"reason" : "rain, cloudbase",
		"timestamp" :1556056800
		},
	"2019-04-24T02:00:00+02:00" : {
		"windSpeed" : 2.5,
		"windDir" : 183,
		"rain" : 1,
		"cloudbase" : 70.902839999993,
		"flyability" : 0,
		"reason" : "rain, cloudbase",
		"timestamp" :1556067600
		},
	"2019-04-24T05:00:00+02:00" : {
		"windSpeed" : 2.3,
		"windDir" : 205,
		"rain" : 1,
		"cloudbase" : 33.09132,
		"flyability" : 0,
		"reason" : "rain, cloudbase",
		"timestamp" :1556078400
		},
	"2019-04-24T08:00:00+02:00" : {
		"windSpeed" : 1.6,
		"windDir" : 161,
		"rain" : 1,
		"cloudbase" : 54.160620000001,
		"flyability" : 0,
		"reason" : "rain, cloudbase",
		"timestamp" :1556089200
		},
	"2019-04-24T11:00:00+02:00" : {
		"windSpeed" : 2.1,
		"windDir" : 165,
		"rain" : 1,
		"cloudbase" : 197.20653999998,
		"flyability" : 0,
		"reason" : "rain, cloudbase",
		"timestamp" :1556100000
		},
	"2019-04-24T14:00:00+02:00" : {
		"windSpeed" : 2.1,
		"windDir" : 166,
		"rain" : 1,
		"cloudbase" : 7295.6652,
		"flyability" : 0,
		"reason" : "rain",
		"timestamp" :1556110800
		},
	"2019-04-24T17:00:00+02:00" : {
		"windSpeed" : 2.5,
		"windDir" : 126,
		"rain" : 1,
		"cloudbase" : 6990.9348,
		"flyability" : 0,
		"reason" : "rain",
		"timestamp" :1556121600
		},
	"2019-04-24T20:00:00+02:00" : {
		"windSpeed" : 0.6,
		"windDir" : 88,
		"rain" : 0,
		"cloudbase" : null,
		"flyability" : 0,
		"reason" : "windDir",
		"timestamp" :1556132400
		},
	"2019-04-24T23:00:00+02:00" : {
		"windSpeed" : 1.5,
		"windDir" : 177,
		"rain" : 1,
		"cloudbase" : 4442.8392,
		"flyability" : 0,
		"reason" : "rain",
		"timestamp" :1556143200
		},
	"2019-04-25T02:00:00+02:00" : {
		"windSpeed" : 2.6,
		"windDir" : 171,
		"rain" : 0,
		"cloudbase" : 224.46763999999,
		"flyability" : 0,
		"reason" : "cloudbase",
		"timestamp" :1556154000
		},
	"2019-04-25T05:00:00+02:00" : {
		"windSpeed" : 2.6,
		"windDir" : 195,
		"rain" : 1,
		"cloudbase" : null,
		"flyability" : 0,
		"reason" : "rain",
		"timestamp" :1556164800
		},
	"2019-04-25T08:00:00+02:00" : {
		"windSpeed" : 1.5,
		"windDir" : 187,
		"rain" : 1,
		"cloudbase" : null,
		"flyability" : 0,
		"reason" : "rain",
		"timestamp" :1556175600
		},
	"2019-04-25T11:00:00+02:00" : {
		"windSpeed" : 3.2,
		"windDir" : 200,
		"rain" : 1,
		"cloudbase" : 920,
		"flyability" : 0,
		"reason" : "rain, cloudbase",
		"timestamp" :1556186400
		},
	"2019-04-25T14:00:00+02:00" : {
		"windSpeed" : 3.2,
		"windDir" : 200,
		"rain" : 1,
		"cloudbase" : null,
		"flyability" : 0,
		"reason" : "rain",
		"timestamp" :1556197200
		},
	"2019-04-25T17:00:00+02:00" : {
		"windSpeed" : 2.1,
		"windDir" : 197,
		"rain" : 1,
		"cloudbase" : 7594.5348,
		"flyability" : 0,
		"reason" : "rain",
		"timestamp" :1556208000
		},
	"2019-04-25T20:00:00+02:00" : {
		"windSpeed" : 1,
		"windDir" : 181,
		"rain" : 1,
		"cloudbase" : null,
		"flyability" : 0,
		"reason" : "rain",
		"timestamp" :1556218800
		},
	"2019-04-25T23:00:00+02:00" : {
		"windSpeed" : 0.9,
		"windDir" : 84,
		"rain" : 1,
		"cloudbase" : 8692.0652,
		"flyability" : 0,
		"reason" : "windDir, rain",
		"timestamp" :1556229600
		},
	"2019-04-26T02:00:00+02:00" : {
		"windSpeed" : 1,
		"windDir" : 83,
		"rain" : 0,
		"cloudbase" : null,
		"flyability" : 0,
		"reason" : "windDir",
		"timestamp" :1556240400
		},
	"2019-04-26T05:00:00+02:00" : {
		"windSpeed" : 1,
		"windDir" : 150,
		"rain" : 1,
		"cloudbase" : null,
		"flyability" : 0,
		"reason" : "rain",
		"timestamp" :1556251200
		},
	"2019-04-26T08:00:00+02:00" : {
		"windSpeed" : 0.8,
		"windDir" : 134,
		"rain" : 1,
		"cloudbase" : 1952.6674,
		"flyability" : 0,
		"reason" : "rain",
		"timestamp" :1556262000
		},
	"2019-04-26T11:00:00+02:00" : {
		"windSpeed" : 4,
		"windDir" : 161,
		"rain" : 1,
		"cloudbase" : 95.753039999997,
		"flyability" : 0,
		"reason" : "rain, cloudbase",
		"timestamp" :1556272800
		},
	"2019-04-26T14:00:00+02:00" : {
		"windSpeed" : 5.1,
		"windDir" : 218,
		"rain" : 1,
		"cloudbase" : 142.39977999999,
		"flyability" : 0,
		"reason" : "windSpeed, rain, cloudbase",
		"timestamp" :1556283600
		}
	}
}