{
"site" : "Lepanto",
"id" : 15887,
"orientations" : "00002220",
"forecasts" : { 
	"2019-04-06T09:00:00-06:00" : {
		"windSpeed" : 1.5,
		"windDir" : 85,
		"rain" : 0,
		"cloudbase" : null,
		"flyability" : 0,
		"reason" : "windDir",
		"timestamp" :1554562800
		},
	"2019-04-06T12:00:00-06:00" : {
		"windSpeed" : 3.2,
		"windDir" : 127,
		"rain" : 0,
		"cloudbase" : null,
		"flyability" : 0,
		"reason" : "windDir",
		"timestamp" :1554573600
		},
	"2019-04-06T15:00:00-06:00" : {
		"windSpeed" : 2.3,
		"windDir" : 141,
		"rain" : 1,
		"cloudbase" : null,
		"flyability" : 0,
		"reason" : "windDir, rain",
		"timestamp" :1554584400
		},
	"2019-04-06T18:00:00-06:00" : {
		"windSpeed" : 1.4,
		"windDir" : 149,
		"rain" : 0,
		"cloudbase" : null,
		"flyability" : 0,
		"reason" : "windDir",
		"timestamp" :1554595200
		},
	"2019-04-06T21:00:00-06:00" : {
		"windSpeed" : 0.4,
		"windDir" : 208,
		"rain" : 1,
		"cloudbase" : null,
		"flyability" : 0,
		"reason" : "rain",
		"timestamp" :1554606000
		},
	"2019-04-07T00:00:00-06:00" : {
		"windSpeed" : 0.4,
		"windDir" : 239,
		"rain" : 1,
		"cloudbase" : null,
		"flyability" : 0,
		"reason" : "rain",
		"timestamp" :1554616800
		},
	"2019-04-07T03:00:00-06:00" : {
		"windSpeed" : 0.7,
		"windDir" : 148,
		"rain" : 1,
		"cloudbase" : null,
		"flyability" : 0,
		"reason" : "windDir, rain",
		"timestamp" :1554627600
		},
	"2019-04-07T06:00:00-06:00" : {
		"windSpeed" : 1.6,
		"windDir" : 139,
		"rain" : 1,
		"cloudbase" : null,
		"flyability" : 0,
		"reason" : "windDir, rain",
		"timestamp" :1554638400
		},
	"2019-04-07T09:00:00-06:00" : {
		"windSpeed" : 1.6,
		"windDir" : 105,
		"rain" : 0,
		"cloudbase" : null,
		"flyability" : 0,
		"reason" : "windDir",
		"timestamp" :1554649200
		},
	"2019-04-07T12:00:00-06:00" : {
		"windSpeed" : 2.2,
		"windDir" : 128,
		"rain" : 1,
		"cloudbase" : null,
		"flyability" : 0,
		"reason" : "windDir, rain",
		"timestamp" :1554660000
		},
	"2019-04-07T15:00:00-06:00" : {
		"windSpeed" : 1.5,
		"windDir" : 180,
		"rain" : 0,
		"cloudbase" : 940,
		"flyability" : 100,
		"reason" : "",
		"timestamp" :1554670800
		},
	"2019-04-07T18:00:00-06:00" : {
		"windSpeed" : 1.5,
		"windDir" : 223,
		"rain" : 1,
		"cloudbase" : null,
		"flyability" : 0,
		"reason" : "rain",
		"timestamp" :1554681600
		},
	"2019-04-07T21:00:00-06:00" : {
		"windSpeed" : 0.6,
		"windDir" : 167,
		"rain" : 1,
		"cloudbase" : null,
		"flyability" : 0,
		"reason" : "rain",
		"timestamp" :1554692400
		},
	"2019-04-08T00:00:00-06:00" : {
		"windSpeed" : 1,
		"windDir" : 147,
		"rain" : 1,
		"cloudbase" : null,
		"flyability" : 0,
		"reason" : "windDir, rain",
		"timestamp" :1554703200
		},
	"2019-04-08T03:00:00-06:00" : {
		"windSpeed" : 0.5,
		"windDir" : 104,
		"rain" : 1,
		"cloudbase" : null,
		"flyability" : 0,
		"reason" : "windDir, rain",
		"timestamp" :1554714000
		},
	"2019-04-08T06:00:00-06:00" : {
		"windSpeed" : 0.6,
		"windDir" : 93,
		"rain" : 0,
		"cloudbase" : null,
		"flyability" : 0,
		"reason" : "windDir",
		"timestamp" :1554724800
		},
	"2019-04-08T09:00:00-06:00" : {
		"windSpeed" : 0.8,
		"windDir" : 27,
		"rain" : 0,
		"cloudbase" : null,
		"flyability" : 0,
		"reason" : "windDir",
		"timestamp" :1554735600
		},
	"2019-04-08T12:00:00-06:00" : {
		"windSpeed" : 1.5,
		"windDir" : 84,
		"rain" : 0,
		"cloudbase" : null,
		"flyability" : 0,
		"reason" : "windDir",
		"timestamp" :1554746400
		},
	"2019-04-08T15:00:00-06:00" : {
		"windSpeed" : 3.6,
		"windDir" : 207,
		"rain" : 0,
		"cloudbase" : null,
		"flyability" : 100,
		"reason" : "",
		"timestamp" :1554757200
		},
	"2019-04-08T18:00:00-06:00" : {
		"windSpeed" : 0.4,
		"windDir" : 225,
		"rain" : 0,
		"cloudbase" : 900,
		"flyability" : 100,
		"reason" : "",
		"timestamp" :1554768000
		},
	"2019-04-08T21:00:00-06:00" : {
		"windSpeed" : 0.7,
		"windDir" : 141,
		"rain" : 1,
		"cloudbase" : null,
		"flyability" : 0,
		"reason" : "windDir, rain",
		"timestamp" :1554778800
		},
	"2019-04-09T00:00:00-06:00" : {
		"windSpeed" : 0.6,
		"windDir" : 289,
		"rain" : 1,
		"cloudbase" : null,
		"flyability" : 0,
		"reason" : "rain",
		"timestamp" :1554789600
		},
	"2019-04-09T03:00:00-06:00" : {
		"windSpeed" : 0.3,
		"windDir" : 164,
		"rain" : 1,
		"cloudbase" : null,
		"flyability" : 0,
		"reason" : "rain",
		"timestamp" :1554800400
		},
	"2019-04-09T06:00:00-06:00" : {
		"windSpeed" : 1.7,
		"windDir" : 313,
		"rain" : 1,
		"cloudbase" : 350,
		"flyability" : 0,
		"reason" : "windDir, rain, cloudbase",
		"timestamp" :1554811200
		},
	"2019-04-09T09:00:00-06:00" : {
		"windSpeed" : 0.1,
		"windDir" : 128,
		"rain" : 1,
		"cloudbase" : null,
		"flyability" : 0,
		"reason" : "windDir, rain",
		"timestamp" :1554822000
		},
	"2019-04-09T12:00:00-06:00" : {
		"windSpeed" : 1.6,
		"windDir" : 95,
		"rain" : 0,
		"cloudbase" : null,
		"flyability" : 0,
		"reason" : "windDir",
		"timestamp" :1554832800
		},
	"2019-04-09T15:00:00-06:00" : {
		"windSpeed" : 4.6,
		"windDir" : 202,
		"rain" : 1,
		"cloudbase" : 16000,
		"flyability" : 0,
		"reason" : "rain",
		"timestamp" :1554843600
		},
	"2019-04-09T18:00:00-06:00" : {
		"windSpeed" : 1.2,
		"windDir" : 233,
		"rain" : 1,
		"cloudbase" : null,
		"flyability" : 0,
		"reason" : "rain",
		"timestamp" :1554854400
		},
	"2019-04-09T21:00:00-06:00" : {
		"windSpeed" : 1.7,
		"windDir" : 38,
		"rain" : 1,
		"cloudbase" : null,
		"flyability" : 0,
		"reason" : "windDir, rain",
		"timestamp" :1554865200
		},
	"2019-04-10T00:00:00-06:00" : {
		"windSpeed" : 0.5,
		"windDir" : 348,
		"rain" : 1,
		"cloudbase" : null,
		"flyability" : 0,
		"reason" : "windDir, rain",
		"timestamp" :1554876000
		},
	"2019-04-10T03:00:00-06:00" : {
		"windSpeed" : 0.8,
		"windDir" : 94,
		"rain" : 1,
		"cloudbase" : null,
		"flyability" : 0,
		"reason" : "windDir, rain",
		"timestamp" :1554886800
		},
	"2019-04-10T06:00:00-06:00" : {
		"windSpeed" : 0.3,
		"windDir" : 290,
		"rain" : 1,
		"cloudbase" : null,
		"flyability" : 0,
		"reason" : "rain",
		"timestamp" :1554897600
		},
	"2019-04-10T09:00:00-06:00" : {
		"windSpeed" : 0.5,
		"windDir" : 351,
		"rain" : 1,
		"cloudbase" : null,
		"flyability" : 0,
		"reason" : "windDir, rain",
		"timestamp" :1554908400
		},
	"2019-04-10T12:00:00-06:00" : {
		"windSpeed" : 2.9,
		"windDir" : 168,
		"rain" : 1,
		"cloudbase" : 940,
		"flyability" : 0,
		"reason" : "rain",
		"timestamp" :1554919200
		},
	"2019-04-10T15:00:00-06:00" : {
		"windSpeed" : 1.5,
		"windDir" : 193,
		"rain" : 0,
		"cloudbase" : 940,
		"flyability" : 100,
		"reason" : "",
		"timestamp" :1554930000
		},
	"2019-04-10T18:00:00-06:00" : {
		"windSpeed" : 0.8,
		"windDir" : 74,
		"rain" : 1,
		"cloudbase" : null,
		"flyability" : 0,
		"reason" : "windDir, rain",
		"timestamp" :1554940800
		},
	"2019-04-10T21:00:00-06:00" : {
		"windSpeed" : 1.4,
		"windDir" : 120,
		"rain" : 1,
		"cloudbase" : null,
		"flyability" : 0,
		"reason" : "windDir, rain",
		"timestamp" :1554951600
		},
	"2019-04-11T00:00:00-06:00" : {
		"windSpeed" : 0.8,
		"windDir" : 130,
		"rain" : 1,
		"cloudbase" : null,
		"flyability" : 0,
		"reason" : "windDir, rain",
		"timestamp" :1554962400
		},
	"2019-04-11T03:00:00-06:00" : {
		"windSpeed" : 0.8,
		"windDir" : 159,
		"rain" : 1,
		"cloudbase" : null,
		"flyability" : 0,
		"reason" : "rain",
		"timestamp" :1554973200
		},
	"2019-04-11T06:00:00-06:00" : {
		"windSpeed" : 0.6,
		"windDir" : 152,
		"rain" : 1,
		"cloudbase" : 30,
		"flyability" : 0,
		"reason" : "windDir, rain, cloudbase",
		"timestamp" :1554984000
		},
	"2019-04-11T09:00:00-06:00" : {
		"windSpeed" : 1.1,
		"windDir" : 28,
		"rain" : 1,
		"cloudbase" : 300,
		"flyability" : 0,
		"reason" : "windDir, rain, cloudbase",
		"timestamp" :1554994800
		},
	"2019-04-11T12:00:00-06:00" : {
		"windSpeed" : 2.6,
		"windDir" : 176,
		"rain" : 0,
		"cloudbase" : 10000,
		"flyability" : 100,
		"reason" : "",
		"timestamp" :1555005600
		},
	"2019-04-11T15:00:00-06:00" : {
		"windSpeed" : 2.9,
		"windDir" : 192,
		"rain" : 0,
		"cloudbase" : 13500,
		"flyability" : 100,
		"reason" : "",
		"timestamp" :1555016400
		},
	"2019-04-11T18:00:00-06:00" : {
		"windSpeed" : 0.9,
		"windDir" : 345,
		"rain" : 1,
		"cloudbase" : null,
		"flyability" : 0,
		"reason" : "windDir, rain",
		"timestamp" :1555027200
		},
	"2019-04-11T21:00:00-06:00" : {
		"windSpeed" : 1.2,
		"windDir" : 8,
		"rain" : 0,
		"cloudbase" : null,
		"flyability" : 0,
		"reason" : "windDir",
		"timestamp" :1555038000
		},
	"2019-04-12T00:00:00-06:00" : {
		"windSpeed" : 0.9,
		"windDir" : 313,
		"rain" : 1,
		"cloudbase" : null,
		"flyability" : 0,
		"reason" : "windDir, rain",
		"timestamp" :1555048800
		},
	"2019-04-12T03:00:00-06:00" : {
		"windSpeed" : 1,
		"windDir" : 314,
		"rain" : 1,
		"cloudbase" : null,
		"flyability" : 0,
		"reason" : "windDir, rain",
		"timestamp" :1555059600
		},
	"2019-04-12T06:00:00-06:00" : {
		"windSpeed" : 1.1,
		"windDir" : 295,
		"rain" : 1,
		"cloudbase" : null,
		"flyability" : 0,
		"reason" : "windDir, rain",
		"timestamp" :1555070400
		}
	}
}