{
"site" : "Morro Pelado (Gaspar SC)",
"id" : 15890,
"orientations" : "22001002",
"forecasts" : { 
	"2019-04-22T00:00:00-03:00" : {
		"windSpeed" : 1.4,
		"windDir" : 157,
		"rain" : 1,
		"cloudbase" : 1768.0128400002,
		"flyability" : 0,
		"reason" : "rain",
		"timestamp" :1555902000
		},
	"2019-04-22T03:00:00-03:00" : {
		"windSpeed" : 0.2,
		"windDir" : 78,
		"rain" : 1,
		"cloudbase" : 1091.9402,
		"flyability" : 0,
		"reason" : "windDir, rain",
		"timestamp" :1555912800
		},
	"2019-04-22T06:00:00-03:00" : {
		"windSpeed" : 2.3,
		"windDir" : 162,
		"rain" : 1,
		"cloudbase" : 2822.5402,
		"flyability" : 0,
		"reason" : "rain",
		"timestamp" :1555923600
		},
	"2019-04-22T09:00:00-03:00" : {
		"windSpeed" : 2.8,
		"windDir" : 169,
		"rain" : 1,
		"cloudbase" : 1447.3648000002,
		"flyability" : 0,
		"reason" : "rain",
		"timestamp" :1555934400
		},
	"2019-04-22T12:00:00-03:00" : {
		"windSpeed" : 3.4,
		"windDir" : 165,
		"rain" : 1,
		"cloudbase" : 2435.2322,
		"flyability" : 0,
		"reason" : "rain",
		"timestamp" :1555945200
		},
	"2019-04-22T15:00:00-03:00" : {
		"windSpeed" : 3.7,
		"windDir" : 150,
		"rain" : 1,
		"cloudbase" : 1403.8804,
		"flyability" : 0,
		"reason" : "windDir, rain",
		"timestamp" :1555956000
		},
	"2019-04-22T18:00:00-03:00" : {
		"windSpeed" : 3.8,
		"windDir" : 156,
		"rain" : 0,
		"cloudbase" : 1688.1598,
		"flyability" : 100,
		"reason" : "",
		"timestamp" :1555966800
		},
	"2019-04-22T21:00:00-03:00" : {
		"windSpeed" : 3.4,
		"windDir" : 162,
		"rain" : 1,
		"cloudbase" : 1439.199,
		"flyability" : 0,
		"reason" : "rain",
		"timestamp" :1555977600
		},
	"2019-04-23T00:00:00-03:00" : {
		"windSpeed" : 2.6,
		"windDir" : 177,
		"rain" : 0,
		"cloudbase" : 648.58352000002,
		"flyability" : 100,
		"reason" : "",
		"timestamp" :1555988400
		},
	"2019-04-23T03:00:00-03:00" : {
		"windSpeed" : 2.6,
		"windDir" : 163,
		"rain" : 1,
		"cloudbase" : 1029.47588,
		"flyability" : 0,
		"reason" : "rain",
		"timestamp" :1555999200
		},
	"2019-04-23T06:00:00-03:00" : {
		"windSpeed" : 3,
		"windDir" : 170,
		"rain" : 1,
		"cloudbase" : null,
		"flyability" : 0,
		"reason" : "rain",
		"timestamp" :1556010000
		},
	"2019-04-23T09:00:00-03:00" : {
		"windSpeed" : 3.5,
		"windDir" : 161,
		"rain" : 0,
		"cloudbase" : null,
		"flyability" : 100,
		"reason" : "",
		"timestamp" :1556020800
		},
	"2019-04-23T12:00:00-03:00" : {
		"windSpeed" : 4.6,
		"windDir" : 135,
		"rain" : 1,
		"cloudbase" : 1140.5196,
		"flyability" : 0,
		"reason" : "windDir, rain",
		"timestamp" :1556031600
		},
	"2019-04-23T15:00:00-03:00" : {
		"windSpeed" : 4.3,
		"windDir" : 130,
		"rain" : 1,
		"cloudbase" : 1567.5783999999,
		"flyability" : 0,
		"reason" : "windDir, rain",
		"timestamp" :1556042400
		},
	"2019-04-23T18:00:00-03:00" : {
		"windSpeed" : 2.5,
		"windDir" : 144,
		"rain" : 0,
		"cloudbase" : 2189.1402,
		"flyability" : 0,
		"reason" : "windDir",
		"timestamp" :1556053200
		},
	"2019-04-23T21:00:00-03:00" : {
		"windSpeed" : 1.6,
		"windDir" : 189,
		"rain" : 0,
		"cloudbase" : null,
		"flyability" : 100,
		"reason" : "",
		"timestamp" :1556064000
		},
	"2019-04-24T00:00:00-03:00" : {
		"windSpeed" : 2.2,
		"windDir" : 191,
		"rain" : 1,
		"cloudbase" : null,
		"flyability" : 0,
		"reason" : "rain",
		"timestamp" :1556074800
		},
	"2019-04-24T03:00:00-03:00" : {
		"windSpeed" : 2.1,
		"windDir" : 173,
		"rain" : 1,
		"cloudbase" : 603.93607999998,
		"flyability" : 0,
		"reason" : "rain",
		"timestamp" :1556085600
		},
	"2019-04-24T06:00:00-03:00" : {
		"windSpeed" : 1.8,
		"windDir" : 186,
		"rain" : 0,
		"cloudbase" : 1261.8580799999,
		"flyability" : 100,
		"reason" : "",
		"timestamp" :1556096400
		},
	"2019-04-24T09:00:00-03:00" : {
		"windSpeed" : 2.6,
		"windDir" : 183,
		"rain" : 0,
		"cloudbase" : 1398.3402,
		"flyability" : 100,
		"reason" : "",
		"timestamp" :1556107200
		},
	"2019-04-24T12:00:00-03:00" : {
		"windSpeed" : 3.1,
		"windDir" : 129,
		"rain" : 0,
		"cloudbase" : 945.41507999996,
		"flyability" : 0,
		"reason" : "windDir",
		"timestamp" :1556118000
		},
	"2019-04-24T15:00:00-03:00" : {
		"windSpeed" : 2.7,
		"windDir" : 139,
		"rain" : 1,
		"cloudbase" : 1189.7628,
		"flyability" : 0,
		"reason" : "windDir, rain",
		"timestamp" :1556128800
		},
	"2019-04-24T18:00:00-03:00" : {
		"windSpeed" : 1.3,
		"windDir" : 113,
		"rain" : 0,
		"cloudbase" : null,
		"flyability" : 0,
		"reason" : "windDir",
		"timestamp" :1556139600
		},
	"2019-04-24T21:00:00-03:00" : {
		"windSpeed" : 1.2,
		"windDir" : 191,
		"rain" : 0,
		"cloudbase" : null,
		"flyability" : 100,
		"reason" : "",
		"timestamp" :1556150400
		},
	"2019-04-25T00:00:00-03:00" : {
		"windSpeed" : 1.4,
		"windDir" : 224,
		"rain" : 1,
		"cloudbase" : null,
		"flyability" : 0,
		"reason" : "windDir, rain",
		"timestamp" :1556161200
		},
	"2019-04-25T03:00:00-03:00" : {
		"windSpeed" : 1.3,
		"windDir" : 214,
		"rain" : 0,
		"cloudbase" : null,
		"flyability" : 0,
		"reason" : "windDir",
		"timestamp" :1556172000
		},
	"2019-04-25T06:00:00-03:00" : {
		"windSpeed" : 1.1,
		"windDir" : 240,
		"rain" : 1,
		"cloudbase" : 9257.7196,
		"flyability" : 0,
		"reason" : "windDir, rain",
		"timestamp" :1556182800
		},
	"2019-04-25T09:00:00-03:00" : {
		"windSpeed" : 0.7,
		"windDir" : 275,
		"rain" : 0,
		"cloudbase" : null,
		"flyability" : 0,
		"reason" : "windDir",
		"timestamp" :1556193600
		},
	"2019-04-25T12:00:00-03:00" : {
		"windSpeed" : 0.2,
		"windDir" : 220,
		"rain" : 1,
		"cloudbase" : 6198.4093599996,
		"flyability" : 0,
		"reason" : "windDir, rain",
		"timestamp" :1556204400
		},
	"2019-04-25T15:00:00-03:00" : {
		"windSpeed" : 1,
		"windDir" : 133,
		"rain" : 0,
		"cloudbase" : 7135.2199999995,
		"flyability" : 0,
		"reason" : "windDir",
		"timestamp" :1556215200
		},
	"2019-04-25T18:00:00-03:00" : {
		"windSpeed" : 1.9,
		"windDir" : 114,
		"rain" : 0,
		"cloudbase" : null,
		"flyability" : 0,
		"reason" : "windDir",
		"timestamp" :1556226000
		},
	"2019-04-25T21:00:00-03:00" : {
		"windSpeed" : 1.2,
		"windDir" : 143,
		"rain" : 0,
		"cloudbase" : 7515.8411999999,
		"flyability" : 0,
		"reason" : "windDir",
		"timestamp" :1556236800
		},
	"2019-04-26T00:00:00-03:00" : {
		"windSpeed" : 1.3,
		"windDir" : 203,
		"rain" : 1,
		"cloudbase" : 359.87587999998,
		"flyability" : 0,
		"reason" : "windDir, rain",
		"timestamp" :1556247600
		},
	"2019-04-26T03:00:00-03:00" : {
		"windSpeed" : 1.3,
		"windDir" : 199,
		"rain" : 1,
		"cloudbase" : 512.56431999993,
		"flyability" : 0,
		"reason" : "rain",
		"timestamp" :1556258400
		},
	"2019-04-26T06:00:00-03:00" : {
		"windSpeed" : 1.4,
		"windDir" : 202,
		"rain" : 0,
		"cloudbase" : 549.95176000001,
		"flyability" : 100,
		"reason" : "",
		"timestamp" :1556269200
		},
	"2019-04-26T09:00:00-03:00" : {
		"windSpeed" : 1.3,
		"windDir" : 251,
		"rain" : 0,
		"cloudbase" : 820,
		"flyability" : 0,
		"reason" : "windDir",
		"timestamp" :1556280000
		},
	"2019-04-26T12:00:00-03:00" : {
		"windSpeed" : 1.4,
		"windDir" : 276,
		"rain" : 1,
		"cloudbase" : 5168.2833599995,
		"flyability" : 0,
		"reason" : "windDir, rain",
		"timestamp" :1556290800
		},
	"2019-04-26T15:00:00-03:00" : {
		"windSpeed" : 0.3,
		"windDir" : 135,
		"rain" : 0,
		"cloudbase" : 8979.2784,
		"flyability" : 0,
		"reason" : "windDir",
		"timestamp" :1556301600
		},
	"2019-04-26T18:00:00-03:00" : {
		"windSpeed" : 1.8,
		"windDir" : 57,
		"rain" : 0,
		"cloudbase" : 9667.7607999999,
		"flyability" : 100,
		"reason" : "",
		"timestamp" :1556312400
		},
	"2019-04-26T21:00:00-03:00" : {
		"windSpeed" : 1,
		"windDir" : 145,
		"rain" : 0,
		"cloudbase" : 5284.2837999987,
		"flyability" : 0,
		"reason" : "windDir",
		"timestamp" :1556323200
		},
	"2019-04-27T00:00:00-03:00" : {
		"windSpeed" : 0.5,
		"windDir" : 177,
		"rain" : 0,
		"cloudbase" : 5078.2922399988,
		"flyability" : 100,
		"reason" : "",
		"timestamp" :1556334000
		},
	"2019-04-27T03:00:00-03:00" : {
		"windSpeed" : 0.5,
		"windDir" : 177,
		"rain" : 1,
		"cloudbase" : 4266.8989999996,
		"flyability" : 0,
		"reason" : "rain",
		"timestamp" :1556344800
		},
	"2019-04-27T06:00:00-03:00" : {
		"windSpeed" : 1.1,
		"windDir" : 204,
		"rain" : 0,
		"cloudbase" : 7378.3216,
		"flyability" : 0,
		"reason" : "windDir",
		"timestamp" :1556355600
		},
	"2019-04-27T09:00:00-03:00" : {
		"windSpeed" : 0.7,
		"windDir" : 223,
		"rain" : 0,
		"cloudbase" : 1421.5573200005,
		"flyability" : 0,
		"reason" : "windDir",
		"timestamp" :1556366400
		},
	"2019-04-27T12:00:00-03:00" : {
		"windSpeed" : 0.4,
		"windDir" : 207,
		"rain" : 1,
		"cloudbase" : 1812.9188399997,
		"flyability" : 0,
		"reason" : "windDir, rain",
		"timestamp" :1556377200
		},
	"2019-04-27T15:00:00-03:00" : {
		"windSpeed" : 0.7,
		"windDir" : 108,
		"rain" : 1,
		"cloudbase" : 3216.6443199993,
		"flyability" : 0,
		"reason" : "windDir, rain",
		"timestamp" :1556388000
		},
	"2019-04-27T18:00:00-03:00" : {
		"windSpeed" : 2.1,
		"windDir" : 46,
		"rain" : 0,
		"cloudbase" : 7522.3415999994,
		"flyability" : 100,
		"reason" : "",
		"timestamp" :1556398800
		},
	"2019-04-27T21:00:00-03:00" : {
		"windSpeed" : 1.2,
		"windDir" : 36,
		"rain" : 1,
		"cloudbase" : 5649.5552799992,
		"flyability" : 0,
		"reason" : "rain",
		"timestamp" :1556409600
		}
	}
}