{
"site" : "Glengarriff",
"id" : 15942,
"orientations" : "00011200",
"forecasts" : { 
	"2019-04-20T04:00:00+01:00" : {
		"windSpeed" : 0.6,
		"windDir" : 360,
		"rain" : 0,
		"cloudbase" : 8140.96,
		"flyability" : 0,
		"reason" : "windDir",
		"timestamp" :1555725600
		},
	"2019-04-20T07:00:00+01:00" : {
		"windSpeed" : 1.1,
		"windDir" : 21,
		"rain" : 0,
		"cloudbase" : 3746.4000000001,
		"flyability" : 0,
		"reason" : "windDir",
		"timestamp" :1555736400
		},
	"2019-04-20T10:00:00+01:00" : {
		"windSpeed" : 0.6,
		"windDir" : 315,
		"rain" : 0,
		"cloudbase" : 9400,
		"flyability" : 0,
		"reason" : "windDir",
		"timestamp" :1555747200
		},
	"2019-04-20T13:00:00+01:00" : {
		"windSpeed" : 0.7,
		"windDir" : 180,
		"rain" : 0,
		"cloudbase" : 6564,
		"flyability" : 100,
		"reason" : "",
		"timestamp" :1555758000
		},
	"2019-04-20T16:00:00+01:00" : {
		"windSpeed" : 2.1,
		"windDir" : 219,
		"rain" : 0,
		"cloudbase" : 5041.08,
		"flyability" : 100,
		"reason" : "",
		"timestamp" :1555768800
		},
	"2019-04-20T19:00:00+01:00" : {
		"windSpeed" : 1.7,
		"windDir" : 243,
		"rain" : 0,
		"cloudbase" : 10500,
		"flyability" : 100,
		"reason" : "",
		"timestamp" :1555779600
		},
	"2019-04-20T22:00:00+01:00" : {
		"windSpeed" : 1.2,
		"windDir" : 294,
		"rain" : 0,
		"cloudbase" : 9928,
		"flyability" : 0,
		"reason" : "windDir",
		"timestamp" :1555790400
		},
	"2019-04-21T01:00:00+01:00" : {
		"windSpeed" : 1.5,
		"windDir" : 356,
		"rain" : 0,
		"cloudbase" : 11245.2,
		"flyability" : 0,
		"reason" : "windDir",
		"timestamp" :1555801200
		},
	"2019-04-21T04:00:00+01:00" : {
		"windSpeed" : 1.1,
		"windDir" : 340,
		"rain" : 0,
		"cloudbase" : 30,
		"flyability" : 0,
		"reason" : "windDir, cloudbase",
		"timestamp" :1555812000
		},
	"2019-04-21T07:00:00+01:00" : {
		"windSpeed" : 0.9,
		"windDir" : 251,
		"rain" : 0,
		"cloudbase" : 30,
		"flyability" : 0,
		"reason" : "windDir, cloudbase",
		"timestamp" :1555822800
		},
	"2019-04-21T10:00:00+01:00" : {
		"windSpeed" : 2.2,
		"windDir" : 207,
		"rain" : 1,
		"cloudbase" : 50.095999999999,
		"flyability" : 0,
		"reason" : "rain, cloudbase",
		"timestamp" :1555833600
		},
	"2019-04-21T13:00:00+01:00" : {
		"windSpeed" : 3.4,
		"windDir" : 198,
		"rain" : 1,
		"cloudbase" : 126.696,
		"flyability" : 0,
		"reason" : "rain, cloudbase",
		"timestamp" :1555844400
		},
	"2019-04-21T16:00:00+01:00" : {
		"windSpeed" : 3.9,
		"windDir" : 194,
		"rain" : 1,
		"cloudbase" : 105.408,
		"flyability" : 0,
		"reason" : "rain, cloudbase",
		"timestamp" :1555855200
		},
	"2019-04-21T19:00:00+01:00" : {
		"windSpeed" : 3.7,
		"windDir" : 188,
		"rain" : 1,
		"cloudbase" : 59.248,
		"flyability" : 0,
		"reason" : "rain, cloudbase",
		"timestamp" :1555866000
		},
	"2019-04-21T22:00:00+01:00" : {
		"windSpeed" : 4.7,
		"windDir" : 161,
		"rain" : 1,
		"cloudbase" : 30,
		"flyability" : 0,
		"reason" : "rain, cloudbase",
		"timestamp" :1555876800
		},
	"2019-04-22T01:00:00+01:00" : {
		"windSpeed" : 5.8,
		"windDir" : 155,
		"rain" : 1,
		"cloudbase" : 30,
		"flyability" : 0,
		"reason" : "windSpeed, rain, cloudbase",
		"timestamp" :1555887600
		},
	"2019-04-22T04:00:00+01:00" : {
		"windSpeed" : 4.7,
		"windDir" : 155,
		"rain" : 0,
		"cloudbase" : 172.66400000001,
		"flyability" : 0,
		"reason" : "cloudbase",
		"timestamp" :1555898400
		},
	"2019-04-22T07:00:00+01:00" : {
		"windSpeed" : 4.3,
		"windDir" : 144,
		"rain" : 0,
		"cloudbase" : 9810.96,
		"flyability" : 100,
		"reason" : "",
		"timestamp" :1555909200
		},
	"2019-04-22T10:00:00+01:00" : {
		"windSpeed" : 6.1,
		"windDir" : 151,
		"rain" : 0,
		"cloudbase" : 7687.04,
		"flyability" : 0,
		"reason" : "windSpeed",
		"timestamp" :1555920000
		},
	"2019-04-22T13:00:00+01:00" : {
		"windSpeed" : 6.4,
		"windDir" : 158,
		"rain" : 0,
		"cloudbase" : 7646,
		"flyability" : 0,
		"reason" : "windSpeed",
		"timestamp" :1555930800
		},
	"2019-04-22T16:00:00+01:00" : {
		"windSpeed" : 6.1,
		"windDir" : 161,
		"rain" : 0,
		"cloudbase" : 6500,
		"flyability" : 0,
		"reason" : "windSpeed",
		"timestamp" :1555941600
		},
	"2019-04-22T19:00:00+01:00" : {
		"windSpeed" : 4.6,
		"windDir" : 148,
		"rain" : 0,
		"cloudbase" : 2157.048,
		"flyability" : 100,
		"reason" : "",
		"timestamp" :1555952400
		},
	"2019-04-22T22:00:00+01:00" : {
		"windSpeed" : 3.8,
		"windDir" : 129,
		"rain" : 0,
		"cloudbase" : 164.61599999999,
		"flyability" : 0,
		"reason" : "cloudbase",
		"timestamp" :1555963200
		},
	"2019-04-23T01:00:00+01:00" : {
		"windSpeed" : 3.1,
		"windDir" : 152,
		"rain" : 1,
		"cloudbase" : 52.251999999998,
		"flyability" : 0,
		"reason" : "rain, cloudbase",
		"timestamp" :1555974000
		},
	"2019-04-23T04:00:00+01:00" : {
		"windSpeed" : 0.8,
		"windDir" : 172,
		"rain" : 1,
		"cloudbase" : null,
		"flyability" : 0,
		"reason" : "rain",
		"timestamp" :1555984800
		},
	"2019-04-23T07:00:00+01:00" : {
		"windSpeed" : 1.2,
		"windDir" : 360,
		"rain" : 0,
		"cloudbase" : 3346,
		"flyability" : 0,
		"reason" : "windDir",
		"timestamp" :1555995600
		},
	"2019-04-23T10:00:00+01:00" : {
		"windSpeed" : 2,
		"windDir" : 15,
		"rain" : 0,
		"cloudbase" : 3189.52,
		"flyability" : 0,
		"reason" : "windDir",
		"timestamp" :1556006400
		},
	"2019-04-23T13:00:00+01:00" : {
		"windSpeed" : 1.7,
		"windDir" : 41,
		"rain" : 1,
		"cloudbase" : 792.592,
		"flyability" : 0,
		"reason" : "windDir, rain",
		"timestamp" :1556017200
		},
	"2019-04-23T16:00:00+01:00" : {
		"windSpeed" : 1.8,
		"windDir" : 41,
		"rain" : 1,
		"cloudbase" : 691.616,
		"flyability" : 0,
		"reason" : "windDir, rain",
		"timestamp" :1556028000
		},
	"2019-04-23T19:00:00+01:00" : {
		"windSpeed" : 1.9,
		"windDir" : 8,
		"rain" : 1,
		"cloudbase" : 567.376,
		"flyability" : 0,
		"reason" : "windDir, rain",
		"timestamp" :1556038800
		},
	"2019-04-23T22:00:00+01:00" : {
		"windSpeed" : 1.2,
		"windDir" : 125,
		"rain" : 0,
		"cloudbase" : 316.672,
		"flyability" : 100,
		"reason" : "",
		"timestamp" :1556049600
		},
	"2019-04-24T01:00:00+01:00" : {
		"windSpeed" : 2.1,
		"windDir" : 135,
		"rain" : 1,
		"cloudbase" : 50.851999999998,
		"flyability" : 0,
		"reason" : "rain, cloudbase",
		"timestamp" :1556060400
		},
	"2019-04-24T04:00:00+01:00" : {
		"windSpeed" : 2,
		"windDir" : 160,
		"rain" : 1,
		"cloudbase" : 135.52399999999,
		"flyability" : 0,
		"reason" : "rain, cloudbase",
		"timestamp" :1556071200
		},
	"2019-04-24T07:00:00+01:00" : {
		"windSpeed" : 1.4,
		"windDir" : 176,
		"rain" : 1,
		"cloudbase" : 208.51199999999,
		"flyability" : 0,
		"reason" : "rain, cloudbase",
		"timestamp" :1556082000
		},
	"2019-04-24T10:00:00+01:00" : {
		"windSpeed" : 1.9,
		"windDir" : 166,
		"rain" : 1,
		"cloudbase" : 379.27999999999,
		"flyability" : 0,
		"reason" : "rain",
		"timestamp" :1556092800
		},
	"2019-04-24T13:00:00+01:00" : {
		"windSpeed" : 4.6,
		"windDir" : 154,
		"rain" : 1,
		"cloudbase" : 588.608,
		"flyability" : 0,
		"reason" : "rain",
		"timestamp" :1556103600
		},
	"2019-04-24T16:00:00+01:00" : {
		"windSpeed" : 3.6,
		"windDir" : 162,
		"rain" : 1,
		"cloudbase" : 575.792,
		"flyability" : 0,
		"reason" : "rain",
		"timestamp" :1556114400
		},
	"2019-04-24T19:00:00+01:00" : {
		"windSpeed" : 1.6,
		"windDir" : 160,
		"rain" : 1,
		"cloudbase" : 1357.52,
		"flyability" : 0,
		"reason" : "rain",
		"timestamp" :1556125200
		},
	"2019-04-24T22:00:00+01:00" : {
		"windSpeed" : 0.5,
		"windDir" : 72,
		"rain" : 1,
		"cloudbase" : 1897.08,
		"flyability" : 0,
		"reason" : "windDir, rain",
		"timestamp" :1556136000
		},
	"2019-04-25T01:00:00+01:00" : {
		"windSpeed" : 1.3,
		"windDir" : 119,
		"rain" : 1,
		"cloudbase" : 719.29599999999,
		"flyability" : 0,
		"reason" : "rain",
		"timestamp" :1556146800
		},
	"2019-04-25T04:00:00+01:00" : {
		"windSpeed" : 2,
		"windDir" : 258,
		"rain" : 1,
		"cloudbase" : 787.21599999999,
		"flyability" : 0,
		"reason" : "windDir, rain",
		"timestamp" :1556157600
		},
	"2019-04-25T07:00:00+01:00" : {
		"windSpeed" : 3.7,
		"windDir" : 160,
		"rain" : 1,
		"cloudbase" : 529.712,
		"flyability" : 0,
		"reason" : "rain",
		"timestamp" :1556168400
		},
	"2019-04-25T10:00:00+01:00" : {
		"windSpeed" : 4.3,
		"windDir" : 201,
		"rain" : 1,
		"cloudbase" : 450.352,
		"flyability" : 0,
		"reason" : "rain",
		"timestamp" :1556179200
		},
	"2019-04-25T13:00:00+01:00" : {
		"windSpeed" : 5.2,
		"windDir" : 214,
		"rain" : 1,
		"cloudbase" : 612.99200000005,
		"flyability" : 0,
		"reason" : "windSpeed, rain",
		"timestamp" :1556190000
		},
	"2019-04-25T16:00:00+01:00" : {
		"windSpeed" : 4.2,
		"windDir" : 233,
		"rain" : 1,
		"cloudbase" : 808.79199999999,
		"flyability" : 0,
		"reason" : "rain",
		"timestamp" :1556200800
		},
	"2019-04-25T19:00:00+01:00" : {
		"windSpeed" : 3.9,
		"windDir" : 257,
		"rain" : 1,
		"cloudbase" : 6069.12,
		"flyability" : 0,
		"reason" : "windDir, rain",
		"timestamp" :1556211600
		},
	"2019-04-25T22:00:00+01:00" : {
		"windSpeed" : 3.1,
		"windDir" : 243,
		"rain" : 1,
		"cloudbase" : 5251.12,
		"flyability" : 0,
		"reason" : "rain",
		"timestamp" :1556222400
		},
	"2019-04-26T01:00:00+01:00" : {
		"windSpeed" : 4.1,
		"windDir" : 277,
		"rain" : 1,
		"cloudbase" : 5954,
		"flyability" : 0,
		"reason" : "windDir, rain",
		"timestamp" :1556233200
		}
	}
}