{
"site" : "Jeric\u00f3",
"id" : 15962,
"orientations" : "20000000",
"forecasts" : { 
	"2019-04-04T22:00:00-05:00" : {
		"windSpeed" : 0.6,
		"windDir" : 241,
		"rain" : 0,
		"cloudbase" : 10462.1172,
		"flyability" : 0,
		"reason" : "windDir",
		"timestamp" :1554429600
		},
	"2019-04-05T01:00:00-05:00" : {
		"windSpeed" : 0.3,
		"windDir" : 180,
		"rain" : 0,
		"cloudbase" : 2898.4618400004,
		"flyability" : 0,
		"reason" : "windDir",
		"timestamp" :1554440400
		},
	"2019-04-05T04:00:00-05:00" : {
		"windSpeed" : 0.6,
		"windDir" : 330,
		"rain" : 1,
		"cloudbase" : 3386.6151999999,
		"flyability" : 0,
		"reason" : "windDir, rain",
		"timestamp" :1554451200
		},
	"2019-04-05T07:00:00-05:00" : {
		"windSpeed" : 0,
		"windDir" : 360,
		"rain" : 1,
		"cloudbase" : 3131.1286000002,
		"flyability" : 0,
		"reason" : "rain",
		"timestamp" :1554462000
		},
	"2019-04-05T10:00:00-05:00" : {
		"windSpeed" : 0.7,
		"windDir" : 59,
		"rain" : 1,
		"cloudbase" : 2690.8750000004,
		"flyability" : 0,
		"reason" : "windDir, rain",
		"timestamp" :1554472800
		},
	"2019-04-05T13:00:00-05:00" : {
		"windSpeed" : 0.8,
		"windDir" : 132,
		"rain" : 1,
		"cloudbase" : 8904.9212,
		"flyability" : 0,
		"reason" : "windDir, rain",
		"timestamp" :1554483600
		},
	"2019-04-05T16:00:00-05:00" : {
		"windSpeed" : 0.4,
		"windDir" : 163,
		"rain" : 0,
		"cloudbase" : 9400,
		"flyability" : 0,
		"reason" : "windDir",
		"timestamp" :1554494400
		},
	"2019-04-05T19:00:00-05:00" : {
		"windSpeed" : 0.4,
		"windDir" : 177,
		"rain" : 0,
		"cloudbase" : 10576.106,
		"flyability" : 0,
		"reason" : "windDir",
		"timestamp" :1554505200
		},
	"2019-04-05T22:00:00-05:00" : {
		"windSpeed" : 0.8,
		"windDir" : 99,
		"rain" : 0,
		"cloudbase" : 5331.447,
		"flyability" : 0,
		"reason" : "windDir",
		"timestamp" :1554516000
		},
	"2019-04-06T01:00:00-05:00" : {
		"windSpeed" : 0.5,
		"windDir" : 48,
		"rain" : 1,
		"cloudbase" : 3234.2878,
		"flyability" : 0,
		"reason" : "windDir, rain",
		"timestamp" :1554526800
		},
	"2019-04-06T04:00:00-05:00" : {
		"windSpeed" : 0,
		"windDir" : 102,
		"rain" : 1,
		"cloudbase" : 1742.65332,
		"flyability" : 0,
		"reason" : "windDir, rain, cloudbase",
		"timestamp" :1554537600
		},
	"2019-04-06T07:00:00-05:00" : {
		"windSpeed" : 0.1,
		"windDir" : 260,
		"rain" : 1,
		"cloudbase" : 2518.83344,
		"flyability" : 0,
		"reason" : "windDir, rain",
		"timestamp" :1554548400
		},
	"2019-04-06T10:00:00-05:00" : {
		"windSpeed" : 0.9,
		"windDir" : 342,
		"rain" : 1,
		"cloudbase" : 5803.57544,
		"flyability" : 0,
		"reason" : "rain",
		"timestamp" :1554559200
		},
	"2019-04-06T13:00:00-05:00" : {
		"windSpeed" : 0.7,
		"windDir" : 260,
		"rain" : 0,
		"cloudbase" : null,
		"flyability" : 0,
		"reason" : "windDir",
		"timestamp" :1554570000
		},
	"2019-04-06T16:00:00-05:00" : {
		"windSpeed" : 1,
		"windDir" : 185,
		"rain" : 0,
		"cloudbase" : 13500,
		"flyability" : 0,
		"reason" : "windDir",
		"timestamp" :1554580800
		},
	"2019-04-06T19:00:00-05:00" : {
		"windSpeed" : 0.9,
		"windDir" : 192,
		"rain" : 0,
		"cloudbase" : 11547.924,
		"flyability" : 0,
		"reason" : "windDir",
		"timestamp" :1554591600
		},
	"2019-04-06T22:00:00-05:00" : {
		"windSpeed" : 0.9,
		"windDir" : 152,
		"rain" : 0,
		"cloudbase" : 1841.2624000006,
		"flyability" : 0,
		"reason" : "windDir, cloudbase",
		"timestamp" :1554602400
		},
	"2019-04-07T01:00:00-05:00" : {
		"windSpeed" : 0.6,
		"windDir" : 240,
		"rain" : 0,
		"cloudbase" : 2802.0722000002,
		"flyability" : 0,
		"reason" : "windDir",
		"timestamp" :1554613200
		},
	"2019-04-07T04:00:00-05:00" : {
		"windSpeed" : 0.6,
		"windDir" : 241,
		"rain" : 0,
		"cloudbase" : 8346.8008,
		"flyability" : 0,
		"reason" : "windDir",
		"timestamp" :1554624000
		},
	"2019-04-07T07:00:00-05:00" : {
		"windSpeed" : 0.6,
		"windDir" : 240,
		"rain" : 0,
		"cloudbase" : null,
		"flyability" : 0,
		"reason" : "windDir",
		"timestamp" :1554634800
		},
	"2019-04-07T10:00:00-05:00" : {
		"windSpeed" : 1.1,
		"windDir" : 322,
		"rain" : 0,
		"cloudbase" : 8948.20816,
		"flyability" : 0,
		"reason" : "windDir",
		"timestamp" :1554645600
		},
	"2019-04-07T13:00:00-05:00" : {
		"windSpeed" : 0.2,
		"windDir" : 202,
		"rain" : 0,
		"cloudbase" : 10490.8848,
		"flyability" : 0,
		"reason" : "windDir",
		"timestamp" :1554656400
		},
	"2019-04-07T16:00:00-05:00" : {
		"windSpeed" : 0.6,
		"windDir" : 38,
		"rain" : 0,
		"cloudbase" : 8889.4464000001,
		"flyability" : 0,
		"reason" : "windDir",
		"timestamp" :1554667200
		},
	"2019-04-07T19:00:00-05:00" : {
		"windSpeed" : 0.2,
		"windDir" : 175,
		"rain" : 0,
		"cloudbase" : 5000,
		"flyability" : 0,
		"reason" : "windDir",
		"timestamp" :1554678000
		},
	"2019-04-07T22:00:00-05:00" : {
		"windSpeed" : 0.6,
		"windDir" : 243,
		"rain" : 0,
		"cloudbase" : null,
		"flyability" : 0,
		"reason" : "windDir",
		"timestamp" :1554688800
		},
	"2019-04-08T01:00:00-05:00" : {
		"windSpeed" : 0.1,
		"windDir" : 188,
		"rain" : 0,
		"cloudbase" : 12500,
		"flyability" : 0,
		"reason" : "windDir",
		"timestamp" :1554699600
		},
	"2019-04-08T04:00:00-05:00" : {
		"windSpeed" : 0.5,
		"windDir" : 226,
		"rain" : 0,
		"cloudbase" : 3439.2613600005,
		"flyability" : 0,
		"reason" : "windDir",
		"timestamp" :1554710400
		},
	"2019-04-08T07:00:00-05:00" : {
		"windSpeed" : 0.1,
		"windDir" : 7,
		"rain" : 0,
		"cloudbase" : 9643.1835999999,
		"flyability" : 100,
		"reason" : "",
		"timestamp" :1554721200
		},
	"2019-04-08T10:00:00-05:00" : {
		"windSpeed" : 0.5,
		"windDir" : 322,
		"rain" : 0,
		"cloudbase" : 5443.0730000004,
		"flyability" : 0,
		"reason" : "windDir",
		"timestamp" :1554732000
		},
	"2019-04-08T13:00:00-05:00" : {
		"windSpeed" : 0.8,
		"windDir" : 299,
		"rain" : 1,
		"cloudbase" : 10894.5,
		"flyability" : 0,
		"reason" : "windDir, rain",
		"timestamp" :1554742800
		},
	"2019-04-08T16:00:00-05:00" : {
		"windSpeed" : 0.3,
		"windDir" : 87,
		"rain" : 0,
		"cloudbase" : 10087.4676,
		"flyability" : 0,
		"reason" : "windDir",
		"timestamp" :1554753600
		},
	"2019-04-08T19:00:00-05:00" : {
		"windSpeed" : 0.4,
		"windDir" : 195,
		"rain" : 1,
		"cloudbase" : 5817.6796000003,
		"flyability" : 0,
		"reason" : "windDir, rain",
		"timestamp" :1554764400
		},
	"2019-04-08T22:00:00-05:00" : {
		"windSpeed" : 0.3,
		"windDir" : 160,
		"rain" : 0,
		"cloudbase" : 3097.2466000002,
		"flyability" : 0,
		"reason" : "windDir",
		"timestamp" :1554775200
		},
	"2019-04-09T01:00:00-05:00" : {
		"windSpeed" : 0.5,
		"windDir" : 168,
		"rain" : 0,
		"cloudbase" : 2688.9102000003,
		"flyability" : 0,
		"reason" : "windDir",
		"timestamp" :1554786000
		},
	"2019-04-09T04:00:00-05:00" : {
		"windSpeed" : 0.4,
		"windDir" : 165,
		"rain" : 1,
		"cloudbase" : 8013.7906,
		"flyability" : 0,
		"reason" : "windDir, rain",
		"timestamp" :1554796800
		},
	"2019-04-09T07:00:00-05:00" : {
		"windSpeed" : 0.5,
		"windDir" : 232,
		"rain" : 1,
		"cloudbase" : 7822.3732,
		"flyability" : 0,
		"reason" : "windDir, rain",
		"timestamp" :1554807600
		},
	"2019-04-09T10:00:00-05:00" : {
		"windSpeed" : 0.2,
		"windDir" : 96,
		"rain" : 1,
		"cloudbase" : 15000,
		"flyability" : 0,
		"reason" : "windDir, rain",
		"timestamp" :1554818400
		},
	"2019-04-09T13:00:00-05:00" : {
		"windSpeed" : 0.6,
		"windDir" : 103,
		"rain" : 1,
		"cloudbase" : 4726.1808000003,
		"flyability" : 0,
		"reason" : "windDir, rain",
		"timestamp" :1554829200
		},
	"2019-04-09T16:00:00-05:00" : {
		"windSpeed" : 0.6,
		"windDir" : 102,
		"rain" : 1,
		"cloudbase" : 12246.394,
		"flyability" : 0,
		"reason" : "windDir, rain",
		"timestamp" :1554840000
		},
	"2019-04-09T19:00:00-05:00" : {
		"windSpeed" : 1.1,
		"windDir" : 116,
		"rain" : 0,
		"cloudbase" : 13258.702,
		"flyability" : 0,
		"reason" : "windDir",
		"timestamp" :1554850800
		},
	"2019-04-09T22:00:00-05:00" : {
		"windSpeed" : 0.9,
		"windDir" : 84,
		"rain" : 1,
		"cloudbase" : 8476.288,
		"flyability" : 0,
		"reason" : "windDir, rain",
		"timestamp" :1554861600
		},
	"2019-04-10T01:00:00-05:00" : {
		"windSpeed" : 0.4,
		"windDir" : 91,
		"rain" : 1,
		"cloudbase" : 3530.5850800003,
		"flyability" : 0,
		"reason" : "windDir, rain",
		"timestamp" :1554872400
		},
	"2019-04-10T04:00:00-05:00" : {
		"windSpeed" : 1,
		"windDir" : 149,
		"rain" : 1,
		"cloudbase" : 1540.7043600002,
		"flyability" : 0,
		"reason" : "windDir, rain, cloudbase",
		"timestamp" :1554883200
		},
	"2019-04-10T07:00:00-05:00" : {
		"windSpeed" : 0.5,
		"windDir" : 124,
		"rain" : 1,
		"cloudbase" : 2441.0602,
		"flyability" : 0,
		"reason" : "windDir, rain",
		"timestamp" :1554894000
		},
	"2019-04-10T10:00:00-05:00" : {
		"windSpeed" : 0.1,
		"windDir" : 100,
		"rain" : 1,
		"cloudbase" : 2339.5994,
		"flyability" : 0,
		"reason" : "windDir, rain",
		"timestamp" :1554904800
		},
	"2019-04-10T13:00:00-05:00" : {
		"windSpeed" : 0.6,
		"windDir" : 307,
		"rain" : 1,
		"cloudbase" : 6300,
		"flyability" : 0,
		"reason" : "windDir, rain",
		"timestamp" :1554915600
		},
	"2019-04-10T16:00:00-05:00" : {
		"windSpeed" : 0.4,
		"windDir" : 255,
		"rain" : 0,
		"cloudbase" : null,
		"flyability" : 0,
		"reason" : "windDir",
		"timestamp" :1554926400
		},
	"2019-04-10T19:00:00-05:00" : {
		"windSpeed" : 0.5,
		"windDir" : 167,
		"rain" : 0,
		"cloudbase" : 12090.308,
		"flyability" : 0,
		"reason" : "windDir",
		"timestamp" :1554937200
		}
	}
}