{
"site" : "Slivecarran",
"id" : 16038,
"orientations" : "02200000",
"forecasts" : { 
	"2019-04-14T04:00:00+01:00" : {
		"windSpeed" : 8,
		"windDir" : 124,
		"rain" : 1,
		"cloudbase" : 1757.7509999999,
		"flyability" : 0,
		"reason" : "windSpeed, windDir, rain",
		"timestamp" :1555207200
		},
	"2019-04-14T07:00:00+01:00" : {
		"windSpeed" : 7.9,
		"windDir" : 129,
		"rain" : 1,
		"cloudbase" : 280.5534,
		"flyability" : 0,
		"reason" : "windSpeed, windDir, rain",
		"timestamp" :1555218000
		},
	"2019-04-14T10:00:00+01:00" : {
		"windSpeed" : 8.4,
		"windDir" : 142,
		"rain" : 1,
		"cloudbase" : 539.8202,
		"flyability" : 0,
		"reason" : "windSpeed, windDir, rain",
		"timestamp" :1555228800
		},
	"2019-04-14T13:00:00+01:00" : {
		"windSpeed" : 8.3,
		"windDir" : 137,
		"rain" : 0,
		"cloudbase" : 539.0468,
		"flyability" : 0,
		"reason" : "windSpeed, windDir",
		"timestamp" :1555239600
		},
	"2019-04-14T16:00:00+01:00" : {
		"windSpeed" : 7.2,
		"windDir" : 129,
		"rain" : 0,
		"cloudbase" : 541.62,
		"flyability" : 0,
		"reason" : "windSpeed, windDir",
		"timestamp" :1555250400
		},
	"2019-04-14T19:00:00+01:00" : {
		"windSpeed" : 5.7,
		"windDir" : 116,
		"rain" : 1,
		"cloudbase" : 536.9272,
		"flyability" : 0,
		"reason" : "windSpeed, windDir, rain",
		"timestamp" :1555261200
		},
	"2019-04-14T22:00:00+01:00" : {
		"windSpeed" : 5.9,
		"windDir" : 120,
		"rain" : 1,
		"cloudbase" : 1720.433,
		"flyability" : 0,
		"reason" : "windSpeed, windDir, rain",
		"timestamp" :1555272000
		},
	"2019-04-15T01:00:00+01:00" : {
		"windSpeed" : 6.4,
		"windDir" : 118,
		"rain" : 1,
		"cloudbase" : 2954.016,
		"flyability" : 0,
		"reason" : "windSpeed, windDir, rain",
		"timestamp" :1555282800
		},
	"2019-04-15T04:00:00+01:00" : {
		"windSpeed" : 7.3,
		"windDir" : 114,
		"rain" : 1,
		"cloudbase" : 1911.832,
		"flyability" : 0,
		"reason" : "windSpeed, windDir, rain",
		"timestamp" :1555293600
		},
	"2019-04-15T07:00:00+01:00" : {
		"windSpeed" : 8.2,
		"windDir" : 119,
		"rain" : 1,
		"cloudbase" : 2415.1970000003,
		"flyability" : 0,
		"reason" : "windSpeed, windDir, rain",
		"timestamp" :1555304400
		},
	"2019-04-15T10:00:00+01:00" : {
		"windSpeed" : 8.6,
		"windDir" : 125,
		"rain" : 0,
		"cloudbase" : 1948.4360000002,
		"flyability" : 0,
		"reason" : "windSpeed, windDir",
		"timestamp" :1555315200
		},
	"2019-04-15T13:00:00+01:00" : {
		"windSpeed" : 9.3,
		"windDir" : 125,
		"rain" : 1,
		"cloudbase" : 1292.4568,
		"flyability" : 0,
		"reason" : "windSpeed, windDir, rain",
		"timestamp" :1555326000
		},
	"2019-04-15T16:00:00+01:00" : {
		"windSpeed" : 9.6,
		"windDir" : 128,
		"rain" : 1,
		"cloudbase" : 993.91339999999,
		"flyability" : 0,
		"reason" : "windSpeed, windDir, rain",
		"timestamp" :1555336800
		},
	"2019-04-15T19:00:00+01:00" : {
		"windSpeed" : 7.1,
		"windDir" : 140,
		"rain" : 1,
		"cloudbase" : 615.26639999999,
		"flyability" : 0,
		"reason" : "windSpeed, windDir, rain",
		"timestamp" :1555347600
		},
	"2019-04-15T22:00:00+01:00" : {
		"windSpeed" : 5.1,
		"windDir" : 150,
		"rain" : 0,
		"cloudbase" : 7698.866,
		"flyability" : 0,
		"reason" : "windSpeed, windDir",
		"timestamp" :1555358400
		},
	"2019-04-16T01:00:00+01:00" : {
		"windSpeed" : 3.6,
		"windDir" : 146,
		"rain" : 0,
		"cloudbase" : 1701.6870000003,
		"flyability" : 0,
		"reason" : "windDir",
		"timestamp" :1555369200
		},
	"2019-04-16T04:00:00+01:00" : {
		"windSpeed" : 2.7,
		"windDir" : 156,
		"rain" : 1,
		"cloudbase" : 7839.7759999999,
		"flyability" : 0,
		"reason" : "windDir, rain",
		"timestamp" :1555380000
		},
	"2019-04-16T07:00:00+01:00" : {
		"windSpeed" : 2.3,
		"windDir" : 150,
		"rain" : 1,
		"cloudbase" : 54.6264,
		"flyability" : 0,
		"reason" : "windDir, rain, cloudbase",
		"timestamp" :1555390800
		},
	"2019-04-16T10:00:00+01:00" : {
		"windSpeed" : 3.3,
		"windDir" : 153,
		"rain" : 0,
		"cloudbase" : 211.2734,
		"flyability" : 0,
		"reason" : "windDir",
		"timestamp" :1555401600
		},
	"2019-04-16T13:00:00+01:00" : {
		"windSpeed" : 3.2,
		"windDir" : 160,
		"rain" : 1,
		"cloudbase" : 1200,
		"flyability" : 0,
		"reason" : "windDir, rain",
		"timestamp" :1555412400
		},
	"2019-04-16T16:00:00+01:00" : {
		"windSpeed" : 3.2,
		"windDir" : 161,
		"rain" : 0,
		"cloudbase" : 1625.551,
		"flyability" : 0,
		"reason" : "windDir",
		"timestamp" :1555423200
		},
	"2019-04-16T19:00:00+01:00" : {
		"windSpeed" : 2.6,
		"windDir" : 100,
		"rain" : 0,
		"cloudbase" : 2344.6480000002,
		"flyability" : 100,
		"reason" : "",
		"timestamp" :1555434000
		},
	"2019-04-16T22:00:00+01:00" : {
		"windSpeed" : 4,
		"windDir" : 128,
		"rain" : 1,
		"cloudbase" : 8838.298,
		"flyability" : 0,
		"reason" : "windDir, rain",
		"timestamp" :1555444800
		},
	"2019-04-17T01:00:00+01:00" : {
		"windSpeed" : 3.2,
		"windDir" : 139,
		"rain" : 1,
		"cloudbase" : 8608.1,
		"flyability" : 0,
		"reason" : "windDir, rain",
		"timestamp" :1555455600
		},
	"2019-04-17T04:00:00+01:00" : {
		"windSpeed" : 3.3,
		"windDir" : 128,
		"rain" : 0,
		"cloudbase" : 169.0102,
		"flyability" : 0,
		"reason" : "windDir, cloudbase",
		"timestamp" :1555466400
		},
	"2019-04-17T07:00:00+01:00" : {
		"windSpeed" : 3.5,
		"windDir" : 116,
		"rain" : 0,
		"cloudbase" : null,
		"flyability" : 0,
		"reason" : "windDir",
		"timestamp" :1555477200
		},
	"2019-04-17T10:00:00+01:00" : {
		"windSpeed" : 3.7,
		"windDir" : 134,
		"rain" : 0,
		"cloudbase" : 4616.435,
		"flyability" : 0,
		"reason" : "windDir",
		"timestamp" :1555488000
		},
	"2019-04-17T13:00:00+01:00" : {
		"windSpeed" : 4.7,
		"windDir" : 130,
		"rain" : 1,
		"cloudbase" : 3066.349,
		"flyability" : 0,
		"reason" : "windDir, rain",
		"timestamp" :1555498800
		},
	"2019-04-17T16:00:00+01:00" : {
		"windSpeed" : 5,
		"windDir" : 127,
		"rain" : 1,
		"cloudbase" : 6033.764,
		"flyability" : 0,
		"reason" : "windDir, rain",
		"timestamp" :1555509600
		},
	"2019-04-17T19:00:00+01:00" : {
		"windSpeed" : 3.8,
		"windDir" : 113,
		"rain" : 0,
		"cloudbase" : 8051.934,
		"flyability" : 0,
		"reason" : "windDir",
		"timestamp" :1555520400
		},
	"2019-04-17T22:00:00+01:00" : {
		"windSpeed" : 3.2,
		"windDir" : 108,
		"rain" : 0,
		"cloudbase" : 6291.4940000001,
		"flyability" : 100,
		"reason" : "",
		"timestamp" :1555531200
		},
	"2019-04-18T01:00:00+01:00" : {
		"windSpeed" : 3.6,
		"windDir" : 82,
		"rain" : 0,
		"cloudbase" : 7902.2,
		"flyability" : 100,
		"reason" : "",
		"timestamp" :1555542000
		},
	"2019-04-18T04:00:00+01:00" : {
		"windSpeed" : 3.6,
		"windDir" : 90,
		"rain" : 0,
		"cloudbase" : 9387.202,
		"flyability" : 100,
		"reason" : "",
		"timestamp" :1555552800
		},
	"2019-04-18T07:00:00+01:00" : {
		"windSpeed" : 3.7,
		"windDir" : 105,
		"rain" : 0,
		"cloudbase" : 8375.8339999999,
		"flyability" : 100,
		"reason" : "",
		"timestamp" :1555563600
		},
	"2019-04-18T10:00:00+01:00" : {
		"windSpeed" : 5,
		"windDir" : 113,
		"rain" : 0,
		"cloudbase" : null,
		"flyability" : 0,
		"reason" : "windDir",
		"timestamp" :1555574400
		},
	"2019-04-18T13:00:00+01:00" : {
		"windSpeed" : 4.5,
		"windDir" : 130,
		"rain" : 0,
		"cloudbase" : 3158.633,
		"flyability" : 0,
		"reason" : "windDir",
		"timestamp" :1555585200
		},
	"2019-04-18T16:00:00+01:00" : {
		"windSpeed" : 5,
		"windDir" : 135,
		"rain" : 0,
		"cloudbase" : 10935.67,
		"flyability" : 0,
		"reason" : "windDir",
		"timestamp" :1555596000
		},
	"2019-04-18T19:00:00+01:00" : {
		"windSpeed" : 3.2,
		"windDir" : 129,
		"rain" : 1,
		"cloudbase" : 8169.0960000001,
		"flyability" : 0,
		"reason" : "windDir, rain",
		"timestamp" :1555606800
		},
	"2019-04-18T22:00:00+01:00" : {
		"windSpeed" : 3.2,
		"windDir" : 140,
		"rain" : 1,
		"cloudbase" : 9015.13,
		"flyability" : 0,
		"reason" : "windDir, rain",
		"timestamp" :1555617600
		},
	"2019-04-19T01:00:00+01:00" : {
		"windSpeed" : 2.6,
		"windDir" : 125,
		"rain" : 0,
		"cloudbase" : 9744.502,
		"flyability" : 0,
		"reason" : "windDir",
		"timestamp" :1555628400
		},
	"2019-04-19T04:00:00+01:00" : {
		"windSpeed" : 1.5,
		"windDir" : 134,
		"rain" : 0,
		"cloudbase" : 9100,
		"flyability" : 0,
		"reason" : "windDir",
		"timestamp" :1555639200
		},
	"2019-04-19T07:00:00+01:00" : {
		"windSpeed" : 1.8,
		"windDir" : 143,
		"rain" : 1,
		"cloudbase" : 8277.9,
		"flyability" : 0,
		"reason" : "windDir, rain",
		"timestamp" :1555650000
		},
	"2019-04-19T10:00:00+01:00" : {
		"windSpeed" : 2.8,
		"windDir" : 134,
		"rain" : 0,
		"cloudbase" : null,
		"flyability" : 0,
		"reason" : "windDir",
		"timestamp" :1555660800
		},
	"2019-04-19T13:00:00+01:00" : {
		"windSpeed" : 3.6,
		"windDir" : 146,
		"rain" : 0,
		"cloudbase" : 12000,
		"flyability" : 0,
		"reason" : "windDir",
		"timestamp" :1555671600
		},
	"2019-04-19T16:00:00+01:00" : {
		"windSpeed" : 3,
		"windDir" : 171,
		"rain" : 0,
		"cloudbase" : 10500,
		"flyability" : 0,
		"reason" : "windDir",
		"timestamp" :1555682400
		},
	"2019-04-19T19:00:00+01:00" : {
		"windSpeed" : 3.2,
		"windDir" : 162,
		"rain" : 0,
		"cloudbase" : 9560.9660000001,
		"flyability" : 0,
		"reason" : "windDir",
		"timestamp" :1555693200
		},
	"2019-04-19T22:00:00+01:00" : {
		"windSpeed" : 3.3,
		"windDir" : 162,
		"rain" : 0,
		"cloudbase" : 8845.7680000001,
		"flyability" : 0,
		"reason" : "windDir",
		"timestamp" :1555704000
		},
	"2019-04-20T01:00:00+01:00" : {
		"windSpeed" : 3,
		"windDir" : 190,
		"rain" : 0,
		"cloudbase" : 10000,
		"flyability" : 0,
		"reason" : "windDir",
		"timestamp" :1555714800
		}
	}
}