{
"site" : "Haig Pit",
"id" : 16211,
"orientations" : "00000000",
"forecasts" : { 
	"2019-04-13T16:00:00+01:00" : {
		"windSpeed" : 6.5,
		"windDir" : 132,
		"rain" : 0,
		"cloudbase" : 1550,
		"flyability" : -0,
		"reason" : "windSpeed, orientationsUnknown",
		"timestamp" :1555164000
		},
	"2019-04-13T19:00:00+01:00" : {
		"windSpeed" : 6.1,
		"windDir" : 118,
		"rain" : 0,
		"cloudbase" : 1473.17017,
		"flyability" : -0,
		"reason" : "windSpeed, orientationsUnknown",
		"timestamp" :1555174800
		},
	"2019-04-13T22:00:00+01:00" : {
		"windSpeed" : 5.1,
		"windDir" : 112,
		"rain" : 0,
		"cloudbase" : 7524.67102,
		"flyability" : -0,
		"reason" : "windSpeed, orientationsUnknown",
		"timestamp" :1555185600
		},
	"2019-04-14T01:00:00+01:00" : {
		"windSpeed" : 4.2,
		"windDir" : 121,
		"rain" : 0,
		"cloudbase" : 6843.47034,
		"flyability" : -50,
		"reason" : "orientationsUnknown",
		"timestamp" :1555196400
		},
	"2019-04-14T04:00:00+01:00" : {
		"windSpeed" : 3.9,
		"windDir" : 111,
		"rain" : 0,
		"cloudbase" : 6624.67102,
		"flyability" : -50,
		"reason" : "orientationsUnknown",
		"timestamp" :1555207200
		},
	"2019-04-14T07:00:00+01:00" : {
		"windSpeed" : 3.5,
		"windDir" : 101,
		"rain" : 0,
		"cloudbase" : 6243.47034,
		"flyability" : -50,
		"reason" : "orientationsUnknown",
		"timestamp" :1555218000
		},
	"2019-04-14T10:00:00+01:00" : {
		"windSpeed" : 6.1,
		"windDir" : 123,
		"rain" : 0,
		"cloudbase" : 8578.9982999999,
		"flyability" : -0,
		"reason" : "windSpeed, orientationsUnknown",
		"timestamp" :1555228800
		},
	"2019-04-14T13:00:00+01:00" : {
		"windSpeed" : 5.9,
		"windDir" : 130,
		"rain" : 0,
		"cloudbase" : 1275.4,
		"flyability" : -0,
		"reason" : "windSpeed, orientationsUnknown",
		"timestamp" :1555239600
		},
	"2019-04-14T16:00:00+01:00" : {
		"windSpeed" : 6,
		"windDir" : 127,
		"rain" : 0,
		"cloudbase" : 1300,
		"flyability" : -0,
		"reason" : "windSpeed, orientationsUnknown",
		"timestamp" :1555250400
		},
	"2019-04-14T19:00:00+01:00" : {
		"windSpeed" : 5.6,
		"windDir" : 114,
		"rain" : 0,
		"cloudbase" : 3745.0651699999,
		"flyability" : -0,
		"reason" : "windSpeed, orientationsUnknown",
		"timestamp" :1555261200
		},
	"2019-04-14T22:00:00+01:00" : {
		"windSpeed" : 5.2,
		"windDir" : 108,
		"rain" : 0,
		"cloudbase" : 7396.26932,
		"flyability" : -0,
		"reason" : "windSpeed, orientationsUnknown",
		"timestamp" :1555272000
		},
	"2019-04-15T01:00:00+01:00" : {
		"windSpeed" : 6,
		"windDir" : 110,
		"rain" : 0,
		"cloudbase" : 7600,
		"flyability" : -0,
		"reason" : "windSpeed, orientationsUnknown",
		"timestamp" :1555282800
		},
	"2019-04-15T04:00:00+01:00" : {
		"windSpeed" : 6,
		"windDir" : 116,
		"rain" : 0,
		"cloudbase" : null,
		"flyability" : -0,
		"reason" : "windSpeed, orientationsUnknown",
		"timestamp" :1555293600
		},
	"2019-04-15T07:00:00+01:00" : {
		"windSpeed" : 7.1,
		"windDir" : 115,
		"rain" : 0,
		"cloudbase" : 9258.2,
		"flyability" : -0,
		"reason" : "windSpeed, orientationsUnknown",
		"timestamp" :1555304400
		},
	"2019-04-15T10:00:00+01:00" : {
		"windSpeed" : 7.2,
		"windDir" : 118,
		"rain" : 0,
		"cloudbase" : 3750,
		"flyability" : -0,
		"reason" : "windSpeed, orientationsUnknown",
		"timestamp" :1555315200
		},
	"2019-04-15T13:00:00+01:00" : {
		"windSpeed" : 8.6,
		"windDir" : 125,
		"rain" : 0,
		"cloudbase" : 8881.92966,
		"flyability" : -0,
		"reason" : "windSpeed, orientationsUnknown",
		"timestamp" :1555326000
		},
	"2019-04-15T16:00:00+01:00" : {
		"windSpeed" : 7.3,
		"windDir" : 124,
		"rain" : 0,
		"cloudbase" : 8123.00068,
		"flyability" : -0,
		"reason" : "windSpeed, orientationsUnknown",
		"timestamp" :1555336800
		},
	"2019-04-15T19:00:00+01:00" : {
		"windSpeed" : 5.8,
		"windDir" : 122,
		"rain" : 0,
		"cloudbase" : 9471.51252,
		"flyability" : -0,
		"reason" : "windSpeed, orientationsUnknown",
		"timestamp" :1555347600
		},
	"2019-04-15T22:00:00+01:00" : {
		"windSpeed" : 6.1,
		"windDir" : 111,
		"rain" : 0,
		"cloudbase" : 8789.3703399999,
		"flyability" : -0,
		"reason" : "windSpeed, orientationsUnknown",
		"timestamp" :1555358400
		},
	"2019-04-16T01:00:00+01:00" : {
		"windSpeed" : 5.9,
		"windDir" : 125,
		"rain" : 0,
		"cloudbase" : 8017.59966,
		"flyability" : -0,
		"reason" : "windSpeed, orientationsUnknown",
		"timestamp" :1555369200
		},
	"2019-04-16T04:00:00+01:00" : {
		"windSpeed" : 4.5,
		"windDir" : 115,
		"rain" : 0,
		"cloudbase" : 7191.92286,
		"flyability" : -50,
		"reason" : "orientationsUnknown",
		"timestamp" :1555380000
		},
	"2019-04-16T07:00:00+01:00" : {
		"windSpeed" : 3.8,
		"windDir" : 110,
		"rain" : 0,
		"cloudbase" : 4135.10085,
		"flyability" : -50,
		"reason" : "orientationsUnknown",
		"timestamp" :1555390800
		},
	"2019-04-16T10:00:00+01:00" : {
		"windSpeed" : 3.7,
		"windDir" : 107,
		"rain" : 1,
		"cloudbase" : 3581.80051,
		"flyability" : -0,
		"reason" : "orientationsUnknown, rain",
		"timestamp" :1555401600
		},
	"2019-04-16T13:00:00+01:00" : {
		"windSpeed" : 1.4,
		"windDir" : 117,
		"rain" : 1,
		"cloudbase" : 3124.0154099999,
		"flyability" : -0,
		"reason" : "orientationsUnknown, rain",
		"timestamp" :1555412400
		},
	"2019-04-16T16:00:00+01:00" : {
		"windSpeed" : 0.7,
		"windDir" : 70,
		"rain" : 1,
		"cloudbase" : 3720.705,
		"flyability" : -0,
		"reason" : "orientationsUnknown, rain",
		"timestamp" :1555423200
		},
	"2019-04-16T19:00:00+01:00" : {
		"windSpeed" : 2.5,
		"windDir" : 85,
		"rain" : 1,
		"cloudbase" : 4050.2656800001,
		"flyability" : -0,
		"reason" : "orientationsUnknown, rain",
		"timestamp" :1555434000
		},
	"2019-04-16T22:00:00+01:00" : {
		"windSpeed" : 3.9,
		"windDir" : 106,
		"rain" : 0,
		"cloudbase" : 3350,
		"flyability" : -50,
		"reason" : "orientationsUnknown",
		"timestamp" :1555444800
		},
	"2019-04-17T01:00:00+01:00" : {
		"windSpeed" : 2.4,
		"windDir" : 105,
		"rain" : 0,
		"cloudbase" : 2716.63534,
		"flyability" : -50,
		"reason" : "orientationsUnknown",
		"timestamp" :1555455600
		},
	"2019-04-17T04:00:00+01:00" : {
		"windSpeed" : 2.4,
		"windDir" : 74,
		"rain" : 0,
		"cloudbase" : 2483.6,
		"flyability" : -50,
		"reason" : "orientationsUnknown",
		"timestamp" :1555466400
		},
	"2019-04-17T07:00:00+01:00" : {
		"windSpeed" : 2.3,
		"windDir" : 86,
		"rain" : 0,
		"cloudbase" : 4066.38666,
		"flyability" : -50,
		"reason" : "orientationsUnknown",
		"timestamp" :1555477200
		},
	"2019-04-17T10:00:00+01:00" : {
		"windSpeed" : 1.5,
		"windDir" : 84,
		"rain" : 0,
		"cloudbase" : 2200,
		"flyability" : -50,
		"reason" : "orientationsUnknown",
		"timestamp" :1555488000
		},
	"2019-04-17T13:00:00+01:00" : {
		"windSpeed" : 2.1,
		"windDir" : 114,
		"rain" : 0,
		"cloudbase" : null,
		"flyability" : -50,
		"reason" : "orientationsUnknown",
		"timestamp" :1555498800
		},
	"2019-04-17T16:00:00+01:00" : {
		"windSpeed" : 1.9,
		"windDir" : 216,
		"rain" : 0,
		"cloudbase" : 3800,
		"flyability" : -50,
		"reason" : "orientationsUnknown",
		"timestamp" :1555509600
		},
	"2019-04-17T19:00:00+01:00" : {
		"windSpeed" : 1.3,
		"windDir" : 29,
		"rain" : 0,
		"cloudbase" : 7502.87,
		"flyability" : -50,
		"reason" : "orientationsUnknown",
		"timestamp" :1555520400
		},
	"2019-04-17T22:00:00+01:00" : {
		"windSpeed" : 5.3,
		"windDir" : 105,
		"rain" : 0,
		"cloudbase" : 8340.12966,
		"flyability" : -0,
		"reason" : "windSpeed, orientationsUnknown",
		"timestamp" :1555531200
		},
	"2019-04-18T01:00:00+01:00" : {
		"windSpeed" : 3.2,
		"windDir" : 97,
		"rain" : 0,
		"cloudbase" : 8557.82626,
		"flyability" : -50,
		"reason" : "orientationsUnknown",
		"timestamp" :1555542000
		},
	"2019-04-18T04:00:00+01:00" : {
		"windSpeed" : 2.3,
		"windDir" : 59,
		"rain" : 0,
		"cloudbase" : 7336.78306,
		"flyability" : -50,
		"reason" : "orientationsUnknown",
		"timestamp" :1555552800
		},
	"2019-04-18T07:00:00+01:00" : {
		"windSpeed" : 2.1,
		"windDir" : 54,
		"rain" : 0,
		"cloudbase" : 9528.87238,
		"flyability" : -50,
		"reason" : "orientationsUnknown",
		"timestamp" :1555563600
		},
	"2019-04-18T10:00:00+01:00" : {
		"windSpeed" : 1.3,
		"windDir" : 48,
		"rain" : 0,
		"cloudbase" : 8700.6625199999,
		"flyability" : -50,
		"reason" : "orientationsUnknown",
		"timestamp" :1555574400
		},
	"2019-04-18T13:00:00+01:00" : {
		"windSpeed" : 1.5,
		"windDir" : 261,
		"rain" : 0,
		"cloudbase" : 8161.07,
		"flyability" : -50,
		"reason" : "orientationsUnknown",
		"timestamp" :1555585200
		},
	"2019-04-18T16:00:00+01:00" : {
		"windSpeed" : 2,
		"windDir" : 315,
		"rain" : 0,
		"cloudbase" : null,
		"flyability" : -50,
		"reason" : "orientationsUnknown",
		"timestamp" :1555596000
		},
	"2019-04-18T19:00:00+01:00" : {
		"windSpeed" : 2,
		"windDir" : 116,
		"rain" : 0,
		"cloudbase" : null,
		"flyability" : -50,
		"reason" : "orientationsUnknown",
		"timestamp" :1555606800
		},
	"2019-04-18T22:00:00+01:00" : {
		"windSpeed" : 3.6,
		"windDir" : 98,
		"rain" : 0,
		"cloudbase" : null,
		"flyability" : -50,
		"reason" : "orientationsUnknown",
		"timestamp" :1555617600
		},
	"2019-04-19T01:00:00+01:00" : {
		"windSpeed" : 4.8,
		"windDir" : 119,
		"rain" : 0,
		"cloudbase" : null,
		"flyability" : -50,
		"reason" : "orientationsUnknown",
		"timestamp" :1555628400
		},
	"2019-04-19T04:00:00+01:00" : {
		"windSpeed" : 2.8,
		"windDir" : 93,
		"rain" : 0,
		"cloudbase" : null,
		"flyability" : -50,
		"reason" : "orientationsUnknown",
		"timestamp" :1555639200
		},
	"2019-04-19T07:00:00+01:00" : {
		"windSpeed" : 2.3,
		"windDir" : 48,
		"rain" : 0,
		"cloudbase" : 10500,
		"flyability" : -50,
		"reason" : "orientationsUnknown",
		"timestamp" :1555650000
		},
	"2019-04-19T10:00:00+01:00" : {
		"windSpeed" : 1.8,
		"windDir" : 23,
		"rain" : 0,
		"cloudbase" : 9318.79932,
		"flyability" : -50,
		"reason" : "orientationsUnknown",
		"timestamp" :1555660800
		},
	"2019-04-19T13:00:00+01:00" : {
		"windSpeed" : 0.6,
		"windDir" : 328,
		"rain" : 0,
		"cloudbase" : 9400,
		"flyability" : -50,
		"reason" : "orientationsUnknown",
		"timestamp" :1555671600
		}
	}
}