{
"site" : "Kandel ",
"id" : 16659,
"orientations" : "00000000",
"forecasts" : { 
	"2019-04-20T17:00:00+02:00" : {
		"windSpeed" : 3.6,
		"windDir" : 66,
		"rain" : 0,
		"cloudbase" : null,
		"flyability" : -50,
		"reason" : "orientationsUnknown",
		"timestamp" :1555776000
		},
	"2019-04-20T20:00:00+02:00" : {
		"windSpeed" : 2.1,
		"windDir" : 72,
		"rain" : 0,
		"cloudbase" : null,
		"flyability" : -50,
		"reason" : "orientationsUnknown",
		"timestamp" :1555786800
		},
	"2019-04-20T23:00:00+02:00" : {
		"windSpeed" : 3.3,
		"windDir" : 91,
		"rain" : 0,
		"cloudbase" : null,
		"flyability" : -50,
		"reason" : "orientationsUnknown",
		"timestamp" :1555797600
		},
	"2019-04-21T02:00:00+02:00" : {
		"windSpeed" : 2.6,
		"windDir" : 94,
		"rain" : 0,
		"cloudbase" : null,
		"flyability" : -50,
		"reason" : "orientationsUnknown",
		"timestamp" :1555808400
		},
	"2019-04-21T05:00:00+02:00" : {
		"windSpeed" : 2.2,
		"windDir" : 104,
		"rain" : 0,
		"cloudbase" : null,
		"flyability" : -50,
		"reason" : "orientationsUnknown",
		"timestamp" :1555819200
		},
	"2019-04-21T08:00:00+02:00" : {
		"windSpeed" : 1.7,
		"windDir" : 107,
		"rain" : 0,
		"cloudbase" : 8500,
		"flyability" : -50,
		"reason" : "orientationsUnknown",
		"timestamp" :1555830000
		},
	"2019-04-21T11:00:00+02:00" : {
		"windSpeed" : 1,
		"windDir" : 270,
		"rain" : 0,
		"cloudbase" : null,
		"flyability" : -50,
		"reason" : "orientationsUnknown",
		"timestamp" :1555840800
		},
	"2019-04-21T14:00:00+02:00" : {
		"windSpeed" : 1.3,
		"windDir" : 336,
		"rain" : 0,
		"cloudbase" : null,
		"flyability" : -50,
		"reason" : "orientationsUnknown",
		"timestamp" :1555851600
		},
	"2019-04-21T17:00:00+02:00" : {
		"windSpeed" : 1.9,
		"windDir" : 85,
		"rain" : 0,
		"cloudbase" : null,
		"flyability" : -50,
		"reason" : "orientationsUnknown",
		"timestamp" :1555862400
		},
	"2019-04-21T20:00:00+02:00" : {
		"windSpeed" : 2,
		"windDir" : 91,
		"rain" : 0,
		"cloudbase" : 8800,
		"flyability" : -50,
		"reason" : "orientationsUnknown",
		"timestamp" :1555873200
		},
	"2019-04-21T23:00:00+02:00" : {
		"windSpeed" : 3.5,
		"windDir" : 107,
		"rain" : 0,
		"cloudbase" : 8432,
		"flyability" : -50,
		"reason" : "orientationsUnknown",
		"timestamp" :1555884000
		},
	"2019-04-22T02:00:00+02:00" : {
		"windSpeed" : 2.1,
		"windDir" : 113,
		"rain" : 0,
		"cloudbase" : null,
		"flyability" : -50,
		"reason" : "orientationsUnknown",
		"timestamp" :1555894800
		},
	"2019-04-22T05:00:00+02:00" : {
		"windSpeed" : 1.9,
		"windDir" : 106,
		"rain" : 0,
		"cloudbase" : 9700,
		"flyability" : -50,
		"reason" : "orientationsUnknown",
		"timestamp" :1555905600
		},
	"2019-04-22T08:00:00+02:00" : {
		"windSpeed" : 1.9,
		"windDir" : 116,
		"rain" : 0,
		"cloudbase" : null,
		"flyability" : -50,
		"reason" : "orientationsUnknown",
		"timestamp" :1555916400
		},
	"2019-04-22T11:00:00+02:00" : {
		"windSpeed" : 0.8,
		"windDir" : 283,
		"rain" : 0,
		"cloudbase" : 9160,
		"flyability" : -50,
		"reason" : "orientationsUnknown",
		"timestamp" :1555927200
		},
	"2019-04-22T14:00:00+02:00" : {
		"windSpeed" : 0.3,
		"windDir" : 114,
		"rain" : 0,
		"cloudbase" : 9335.2,
		"flyability" : -50,
		"reason" : "orientationsUnknown",
		"timestamp" :1555938000
		},
	"2019-04-22T17:00:00+02:00" : {
		"windSpeed" : 2.6,
		"windDir" : 138,
		"rain" : 0,
		"cloudbase" : 7833.44,
		"flyability" : -50,
		"reason" : "orientationsUnknown",
		"timestamp" :1555948800
		},
	"2019-04-22T20:00:00+02:00" : {
		"windSpeed" : 1.8,
		"windDir" : 67,
		"rain" : 0,
		"cloudbase" : 5621.44,
		"flyability" : -50,
		"reason" : "orientationsUnknown",
		"timestamp" :1555959600
		},
	"2019-04-22T23:00:00+02:00" : {
		"windSpeed" : 3.2,
		"windDir" : 96,
		"rain" : 0,
		"cloudbase" : null,
		"flyability" : -50,
		"reason" : "orientationsUnknown",
		"timestamp" :1555970400
		},
	"2019-04-23T02:00:00+02:00" : {
		"windSpeed" : 2.9,
		"windDir" : 98,
		"rain" : 0,
		"cloudbase" : 8932,
		"flyability" : -50,
		"reason" : "orientationsUnknown",
		"timestamp" :1555981200
		},
	"2019-04-23T05:00:00+02:00" : {
		"windSpeed" : 2.3,
		"windDir" : 117,
		"rain" : 0,
		"cloudbase" : 8932,
		"flyability" : -50,
		"reason" : "orientationsUnknown",
		"timestamp" :1555992000
		},
	"2019-04-23T08:00:00+02:00" : {
		"windSpeed" : 1.5,
		"windDir" : 132,
		"rain" : 0,
		"cloudbase" : null,
		"flyability" : -50,
		"reason" : "orientationsUnknown",
		"timestamp" :1556002800
		},
	"2019-04-23T11:00:00+02:00" : {
		"windSpeed" : 1,
		"windDir" : 281,
		"rain" : 0,
		"cloudbase" : 4300,
		"flyability" : -50,
		"reason" : "orientationsUnknown",
		"timestamp" :1556013600
		},
	"2019-04-23T14:00:00+02:00" : {
		"windSpeed" : 1.6,
		"windDir" : 289,
		"rain" : 0,
		"cloudbase" : 4628,
		"flyability" : -50,
		"reason" : "orientationsUnknown",
		"timestamp" :1556024400
		},
	"2019-04-23T17:00:00+02:00" : {
		"windSpeed" : 1.1,
		"windDir" : 335,
		"rain" : 0,
		"cloudbase" : 7846.88,
		"flyability" : -50,
		"reason" : "orientationsUnknown",
		"timestamp" :1556035200
		},
	"2019-04-23T20:00:00+02:00" : {
		"windSpeed" : 1.2,
		"windDir" : 44,
		"rain" : 0,
		"cloudbase" : 9400,
		"flyability" : -50,
		"reason" : "orientationsUnknown",
		"timestamp" :1556046000
		},
	"2019-04-23T23:00:00+02:00" : {
		"windSpeed" : 2.2,
		"windDir" : 113,
		"rain" : 0,
		"cloudbase" : null,
		"flyability" : -50,
		"reason" : "orientationsUnknown",
		"timestamp" :1556056800
		},
	"2019-04-24T02:00:00+02:00" : {
		"windSpeed" : 2.1,
		"windDir" : 119,
		"rain" : 0,
		"cloudbase" : null,
		"flyability" : -50,
		"reason" : "orientationsUnknown",
		"timestamp" :1556067600
		},
	"2019-04-24T05:00:00+02:00" : {
		"windSpeed" : 1.7,
		"windDir" : 143,
		"rain" : 0,
		"cloudbase" : null,
		"flyability" : -50,
		"reason" : "orientationsUnknown",
		"timestamp" :1556078400
		},
	"2019-04-24T08:00:00+02:00" : {
		"windSpeed" : 1.6,
		"windDir" : 156,
		"rain" : 0,
		"cloudbase" : null,
		"flyability" : -50,
		"reason" : "orientationsUnknown",
		"timestamp" :1556089200
		},
	"2019-04-24T11:00:00+02:00" : {
		"windSpeed" : 0.5,
		"windDir" : 253,
		"rain" : 0,
		"cloudbase" : null,
		"flyability" : -50,
		"reason" : "orientationsUnknown",
		"timestamp" :1556100000
		},
	"2019-04-24T14:00:00+02:00" : {
		"windSpeed" : 0.4,
		"windDir" : 246,
		"rain" : 0,
		"cloudbase" : 7300,
		"flyability" : -50,
		"reason" : "orientationsUnknown",
		"timestamp" :1556110800
		},
	"2019-04-24T17:00:00+02:00" : {
		"windSpeed" : 2.2,
		"windDir" : 270,
		"rain" : 0,
		"cloudbase" : 8140,
		"flyability" : -50,
		"reason" : "orientationsUnknown",
		"timestamp" :1556121600
		},
	"2019-04-24T20:00:00+02:00" : {
		"windSpeed" : 0.9,
		"windDir" : 314,
		"rain" : 0,
		"cloudbase" : 8300,
		"flyability" : -50,
		"reason" : "orientationsUnknown",
		"timestamp" :1556132400
		},
	"2019-04-24T23:00:00+02:00" : {
		"windSpeed" : 0.4,
		"windDir" : 337,
		"rain" : 1,
		"cloudbase" : 3837.7919999998,
		"flyability" : -0,
		"reason" : "orientationsUnknown, rain",
		"timestamp" :1556143200
		},
	"2019-04-25T02:00:00+02:00" : {
		"windSpeed" : 1.5,
		"windDir" : 215,
		"rain" : 1,
		"cloudbase" : 824.64000000002,
		"flyability" : -0,
		"reason" : "orientationsUnknown, rain",
		"timestamp" :1556154000
		},
	"2019-04-25T05:00:00+02:00" : {
		"windSpeed" : 1.6,
		"windDir" : 185,
		"rain" : 1,
		"cloudbase" : 3651.28,
		"flyability" : -0,
		"reason" : "orientationsUnknown, rain",
		"timestamp" :1556164800
		},
	"2019-04-25T08:00:00+02:00" : {
		"windSpeed" : 3.3,
		"windDir" : 96,
		"rain" : 1,
		"cloudbase" : 2050,
		"flyability" : -0,
		"reason" : "orientationsUnknown, rain",
		"timestamp" :1556175600
		},
	"2019-04-25T11:00:00+02:00" : {
		"windSpeed" : 0.7,
		"windDir" : 208,
		"rain" : 0,
		"cloudbase" : null,
		"flyability" : -50,
		"reason" : "orientationsUnknown",
		"timestamp" :1556186400
		},
	"2019-04-25T14:00:00+02:00" : {
		"windSpeed" : 1.2,
		"windDir" : 262,
		"rain" : 0,
		"cloudbase" : null,
		"flyability" : -50,
		"reason" : "orientationsUnknown",
		"timestamp" :1556197200
		},
	"2019-04-25T17:00:00+02:00" : {
		"windSpeed" : 2,
		"windDir" : 155,
		"rain" : 0,
		"cloudbase" : null,
		"flyability" : -50,
		"reason" : "orientationsUnknown",
		"timestamp" :1556208000
		},
	"2019-04-25T20:00:00+02:00" : {
		"windSpeed" : 1.9,
		"windDir" : 349,
		"rain" : 1,
		"cloudbase" : null,
		"flyability" : -0,
		"reason" : "orientationsUnknown, rain",
		"timestamp" :1556218800
		},
	"2019-04-25T23:00:00+02:00" : {
		"windSpeed" : 2.9,
		"windDir" : 346,
		"rain" : 1,
		"cloudbase" : 414.99200000001,
		"flyability" : -0,
		"reason" : "orientationsUnknown, rain",
		"timestamp" :1556229600
		},
	"2019-04-26T02:00:00+02:00" : {
		"windSpeed" : 3,
		"windDir" : 218,
		"rain" : 1,
		"cloudbase" : 658.84800000003,
		"flyability" : -0,
		"reason" : "orientationsUnknown, rain",
		"timestamp" :1556240400
		},
	"2019-04-26T05:00:00+02:00" : {
		"windSpeed" : 2.5,
		"windDir" : 187,
		"rain" : 1,
		"cloudbase" : 3506.1600000001,
		"flyability" : -0,
		"reason" : "orientationsUnknown, rain",
		"timestamp" :1556251200
		},
	"2019-04-26T08:00:00+02:00" : {
		"windSpeed" : 2.1,
		"windDir" : 165,
		"rain" : 1,
		"cloudbase" : 3854.56,
		"flyability" : -0,
		"reason" : "orientationsUnknown, rain",
		"timestamp" :1556262000
		},
	"2019-04-26T11:00:00+02:00" : {
		"windSpeed" : 2.4,
		"windDir" : 214,
		"rain" : 1,
		"cloudbase" : 4338,
		"flyability" : -0,
		"reason" : "orientationsUnknown, rain",
		"timestamp" :1556272800
		},
	"2019-04-26T14:00:00+02:00" : {
		"windSpeed" : 4.2,
		"windDir" : 222,
		"rain" : 1,
		"cloudbase" : 4444.8000000002,
		"flyability" : -0,
		"reason" : "orientationsUnknown, rain",
		"timestamp" :1556283600
		}
	}
}