{
"site" : "Cliff Rd-Glover park",
"id" : 17108,
"orientations" : "22000000",
"forecasts" : { 
	"2019-04-21T03:00:00+12:00" : {
		"windSpeed" : 1.9,
		"windDir" : 296,
		"rain" : 0,
		"cloudbase" : null,
		"flyability" : 0,
		"reason" : "windDir",
		"timestamp" :1555772400
		},
	"2019-04-21T06:00:00+12:00" : {
		"windSpeed" : 1.7,
		"windDir" : 320,
		"rain" : 0,
		"cloudbase" : null,
		"flyability" : 0,
		"reason" : "windDir",
		"timestamp" :1555783200
		},
	"2019-04-21T09:00:00+12:00" : {
		"windSpeed" : 3.3,
		"windDir" : 339,
		"rain" : 0,
		"cloudbase" : null,
		"flyability" : 100,
		"reason" : "",
		"timestamp" :1555794000
		},
	"2019-04-21T12:00:00+12:00" : {
		"windSpeed" : 5.7,
		"windDir" : 351,
		"rain" : 1,
		"cloudbase" : null,
		"flyability" : 0,
		"reason" : "windSpeed, rain",
		"timestamp" :1555804800
		},
	"2019-04-21T15:00:00+12:00" : {
		"windSpeed" : 7,
		"windDir" : 4,
		"rain" : 1,
		"cloudbase" : 2900,
		"flyability" : 0,
		"reason" : "windSpeed, rain",
		"timestamp" :1555815600
		},
	"2019-04-21T18:00:00+12:00" : {
		"windSpeed" : 5.9,
		"windDir" : 359,
		"rain" : 1,
		"cloudbase" : null,
		"flyability" : 0,
		"reason" : "windSpeed, rain",
		"timestamp" :1555826400
		},
	"2019-04-21T21:00:00+12:00" : {
		"windSpeed" : 6.7,
		"windDir" : 357,
		"rain" : 1,
		"cloudbase" : 3348.8314999997,
		"flyability" : 0,
		"reason" : "windSpeed, rain",
		"timestamp" :1555837200
		},
	"2019-04-22T00:00:00+12:00" : {
		"windSpeed" : 5.5,
		"windDir" : 341,
		"rain" : 1,
		"cloudbase" : 6371.542,
		"flyability" : 0,
		"reason" : "windSpeed, rain",
		"timestamp" :1555848000
		},
	"2019-04-22T03:00:00+12:00" : {
		"windSpeed" : 6.3,
		"windDir" : 345,
		"rain" : 1,
		"cloudbase" : null,
		"flyability" : 0,
		"reason" : "windSpeed, rain",
		"timestamp" :1555858800
		},
	"2019-04-22T06:00:00+12:00" : {
		"windSpeed" : 5.3,
		"windDir" : 344,
		"rain" : 1,
		"cloudbase" : 4400,
		"flyability" : 0,
		"reason" : "windSpeed, rain",
		"timestamp" :1555869600
		},
	"2019-04-22T09:00:00+12:00" : {
		"windSpeed" : 4.2,
		"windDir" : 330,
		"rain" : 1,
		"cloudbase" : 6100,
		"flyability" : 0,
		"reason" : "windDir, rain",
		"timestamp" :1555880400
		},
	"2019-04-22T12:00:00+12:00" : {
		"windSpeed" : 4.9,
		"windDir" : 314,
		"rain" : 1,
		"cloudbase" : 3290.6621000004,
		"flyability" : 0,
		"reason" : "windDir, rain",
		"timestamp" :1555891200
		},
	"2019-04-22T15:00:00+12:00" : {
		"windSpeed" : 2.3,
		"windDir" : 300,
		"rain" : 1,
		"cloudbase" : 5842.687,
		"flyability" : 0,
		"reason" : "windDir, rain",
		"timestamp" :1555902000
		},
	"2019-04-22T18:00:00+12:00" : {
		"windSpeed" : 1.7,
		"windDir" : 296,
		"rain" : 1,
		"cloudbase" : 4078.5324999999,
		"flyability" : 0,
		"reason" : "windDir, rain",
		"timestamp" :1555912800
		},
	"2019-04-22T21:00:00+12:00" : {
		"windSpeed" : 2.8,
		"windDir" : 294,
		"rain" : 1,
		"cloudbase" : null,
		"flyability" : 0,
		"reason" : "windDir, rain",
		"timestamp" :1555923600
		},
	"2019-04-23T00:00:00+12:00" : {
		"windSpeed" : 3.3,
		"windDir" : 285,
		"rain" : 0,
		"cloudbase" : null,
		"flyability" : 0,
		"reason" : "windDir",
		"timestamp" :1555934400
		},
	"2019-04-23T03:00:00+12:00" : {
		"windSpeed" : 2.3,
		"windDir" : 296,
		"rain" : 1,
		"cloudbase" : null,
		"flyability" : 0,
		"reason" : "windDir, rain",
		"timestamp" :1555945200
		},
	"2019-04-23T06:00:00+12:00" : {
		"windSpeed" : 2.4,
		"windDir" : 275,
		"rain" : 1,
		"cloudbase" : 560,
		"flyability" : 0,
		"reason" : "windDir, rain",
		"timestamp" :1555956000
		},
	"2019-04-23T09:00:00+12:00" : {
		"windSpeed" : 0.4,
		"windDir" : 69,
		"rain" : 1,
		"cloudbase" : 390,
		"flyability" : 0,
		"reason" : "windDir, rain",
		"timestamp" :1555966800
		},
	"2019-04-23T12:00:00+12:00" : {
		"windSpeed" : 1,
		"windDir" : 41,
		"rain" : 0,
		"cloudbase" : null,
		"flyability" : 100,
		"reason" : "",
		"timestamp" :1555977600
		},
	"2019-04-23T15:00:00+12:00" : {
		"windSpeed" : 1.3,
		"windDir" : 199,
		"rain" : 1,
		"cloudbase" : null,
		"flyability" : 0,
		"reason" : "windDir, rain",
		"timestamp" :1555988400
		},
	"2019-04-23T18:00:00+12:00" : {
		"windSpeed" : 4.7,
		"windDir" : 200,
		"rain" : 1,
		"cloudbase" : null,
		"flyability" : 0,
		"reason" : "windDir, rain",
		"timestamp" :1555999200
		},
	"2019-04-23T21:00:00+12:00" : {
		"windSpeed" : 3.3,
		"windDir" : 180,
		"rain" : 0,
		"cloudbase" : null,
		"flyability" : 0,
		"reason" : "windDir",
		"timestamp" :1556010000
		},
	"2019-04-24T00:00:00+12:00" : {
		"windSpeed" : 3.1,
		"windDir" : 206,
		"rain" : 0,
		"cloudbase" : null,
		"flyability" : 0,
		"reason" : "windDir",
		"timestamp" :1556020800
		},
	"2019-04-24T03:00:00+12:00" : {
		"windSpeed" : 3.3,
		"windDir" : 197,
		"rain" : 0,
		"cloudbase" : null,
		"flyability" : 0,
		"reason" : "windDir",
		"timestamp" :1556031600
		},
	"2019-04-24T06:00:00+12:00" : {
		"windSpeed" : 4.3,
		"windDir" : 182,
		"rain" : 1,
		"cloudbase" : null,
		"flyability" : 0,
		"reason" : "windDir, rain",
		"timestamp" :1556042400
		},
	"2019-04-24T09:00:00+12:00" : {
		"windSpeed" : 4.9,
		"windDir" : 192,
		"rain" : 0,
		"cloudbase" : null,
		"flyability" : 0,
		"reason" : "windDir",
		"timestamp" :1556053200
		},
	"2019-04-24T12:00:00+12:00" : {
		"windSpeed" : 6.3,
		"windDir" : 200,
		"rain" : 0,
		"cloudbase" : null,
		"flyability" : 0,
		"reason" : "windSpeed, windDir",
		"timestamp" :1556064000
		},
	"2019-04-24T15:00:00+12:00" : {
		"windSpeed" : 5.8,
		"windDir" : 211,
		"rain" : 0,
		"cloudbase" : null,
		"flyability" : 0,
		"reason" : "windSpeed, windDir",
		"timestamp" :1556074800
		},
	"2019-04-24T18:00:00+12:00" : {
		"windSpeed" : 6,
		"windDir" : 217,
		"rain" : 0,
		"cloudbase" : null,
		"flyability" : 0,
		"reason" : "windSpeed, windDir",
		"timestamp" :1556085600
		},
	"2019-04-24T21:00:00+12:00" : {
		"windSpeed" : 5.5,
		"windDir" : 201,
		"rain" : 0,
		"cloudbase" : null,
		"flyability" : 0,
		"reason" : "windSpeed, windDir",
		"timestamp" :1556096400
		},
	"2019-04-25T00:00:00+12:00" : {
		"windSpeed" : 5,
		"windDir" : 195,
		"rain" : 0,
		"cloudbase" : null,
		"flyability" : 0,
		"reason" : "windDir",
		"timestamp" :1556107200
		},
	"2019-04-25T03:00:00+12:00" : {
		"windSpeed" : 3.9,
		"windDir" : 183,
		"rain" : 0,
		"cloudbase" : null,
		"flyability" : 0,
		"reason" : "windDir",
		"timestamp" :1556118000
		},
	"2019-04-25T06:00:00+12:00" : {
		"windSpeed" : 4.4,
		"windDir" : 189,
		"rain" : 0,
		"cloudbase" : null,
		"flyability" : 0,
		"reason" : "windDir",
		"timestamp" :1556128800
		},
	"2019-04-25T09:00:00+12:00" : {
		"windSpeed" : 4.3,
		"windDir" : 208,
		"rain" : 1,
		"cloudbase" : null,
		"flyability" : 0,
		"reason" : "windDir, rain",
		"timestamp" :1556139600
		},
	"2019-04-25T12:00:00+12:00" : {
		"windSpeed" : 5.6,
		"windDir" : 214,
		"rain" : 0,
		"cloudbase" : 820,
		"flyability" : 0,
		"reason" : "windSpeed, windDir",
		"timestamp" :1556150400
		},
	"2019-04-25T15:00:00+12:00" : {
		"windSpeed" : 6.8,
		"windDir" : 214,
		"rain" : 0,
		"cloudbase" : 1000,
		"flyability" : 0,
		"reason" : "windSpeed, windDir",
		"timestamp" :1556161200
		},
	"2019-04-25T18:00:00+12:00" : {
		"windSpeed" : 6.4,
		"windDir" : 220,
		"rain" : 0,
		"cloudbase" : null,
		"flyability" : 0,
		"reason" : "windSpeed, windDir",
		"timestamp" :1556172000
		},
	"2019-04-25T21:00:00+12:00" : {
		"windSpeed" : 4.9,
		"windDir" : 217,
		"rain" : 1,
		"cloudbase" : 800,
		"flyability" : 0,
		"reason" : "windDir, rain",
		"timestamp" :1556182800
		},
	"2019-04-26T00:00:00+12:00" : {
		"windSpeed" : 4.8,
		"windDir" : 224,
		"rain" : 0,
		"cloudbase" : 898.7148,
		"flyability" : 0,
		"reason" : "windDir",
		"timestamp" :1556193600
		},
	"2019-04-26T03:00:00+12:00" : {
		"windSpeed" : 4.1,
		"windDir" : 239,
		"rain" : 0,
		"cloudbase" : null,
		"flyability" : 0,
		"reason" : "windDir",
		"timestamp" :1556204400
		},
	"2019-04-26T06:00:00+12:00" : {
		"windSpeed" : 4.3,
		"windDir" : 240,
		"rain" : 1,
		"cloudbase" : null,
		"flyability" : 0,
		"reason" : "windDir, rain",
		"timestamp" :1556215200
		},
	"2019-04-26T09:00:00+12:00" : {
		"windSpeed" : 3.9,
		"windDir" : 241,
		"rain" : 0,
		"cloudbase" : null,
		"flyability" : 0,
		"reason" : "windDir",
		"timestamp" :1556226000
		},
	"2019-04-26T12:00:00+12:00" : {
		"windSpeed" : 5.6,
		"windDir" : 245,
		"rain" : 1,
		"cloudbase" : 1100,
		"flyability" : 0,
		"reason" : "windSpeed, windDir, rain",
		"timestamp" :1556236800
		},
	"2019-04-26T15:00:00+12:00" : {
		"windSpeed" : 6,
		"windDir" : 239,
		"rain" : 0,
		"cloudbase" : 1037.329,
		"flyability" : 0,
		"reason" : "windSpeed, windDir",
		"timestamp" :1556247600
		},
	"2019-04-26T18:00:00+12:00" : {
		"windSpeed" : 3.2,
		"windDir" : 236,
		"rain" : 0,
		"cloudbase" : null,
		"flyability" : 0,
		"reason" : "windDir",
		"timestamp" :1556258400
		},
	"2019-04-26T21:00:00+12:00" : {
		"windSpeed" : 2,
		"windDir" : 276,
		"rain" : 0,
		"cloudbase" : null,
		"flyability" : 0,
		"reason" : "windDir",
		"timestamp" :1556269200
		},
	"2019-04-27T00:00:00+12:00" : {
		"windSpeed" : 3.3,
		"windDir" : 288,
		"rain" : 1,
		"cloudbase" : null,
		"flyability" : 0,
		"reason" : "windDir, rain",
		"timestamp" :1556280000
		}
	}
}