{
"site" : "trynak",
"id" : 17115,
"orientations" : "12222100",
"forecasts" : { 
	"2019-04-14T18:00:00+03:00" : {
		"windSpeed" : 4.3,
		"windDir" : 358,
		"rain" : 1,
		"cloudbase" : 914.53539999999,
		"flyability" : 0,
		"reason" : "rain",
		"timestamp" :1555254000
		},
	"2019-04-14T21:00:00+03:00" : {
		"windSpeed" : 3.8,
		"windDir" : 353,
		"rain" : 1,
		"cloudbase" : 756.45379999999,
		"flyability" : 0,
		"reason" : "rain",
		"timestamp" :1555264800
		},
	"2019-04-15T00:00:00+03:00" : {
		"windSpeed" : 3.4,
		"windDir" : 341,
		"rain" : 1,
		"cloudbase" : 629.49539999998,
		"flyability" : 0,
		"reason" : "rain",
		"timestamp" :1555275600
		},
	"2019-04-15T03:00:00+03:00" : {
		"windSpeed" : 3.4,
		"windDir" : 344,
		"rain" : 1,
		"cloudbase" : 1048.3448999999,
		"flyability" : 0,
		"reason" : "rain",
		"timestamp" :1555286400
		},
	"2019-04-15T06:00:00+03:00" : {
		"windSpeed" : 3.2,
		"windDir" : 338,
		"rain" : 1,
		"cloudbase" : 322.77160000001,
		"flyability" : 0,
		"reason" : "rain, cloudbase",
		"timestamp" :1555297200
		},
	"2019-04-15T09:00:00+03:00" : {
		"windSpeed" : 3.6,
		"windDir" : 350,
		"rain" : 1,
		"cloudbase" : 713.12909999999,
		"flyability" : 0,
		"reason" : "rain",
		"timestamp" :1555308000
		},
	"2019-04-15T12:00:00+03:00" : {
		"windSpeed" : 4.5,
		"windDir" : 4,
		"rain" : 1,
		"cloudbase" : 475.34930000001,
		"flyability" : 0,
		"reason" : "rain, cloudbase",
		"timestamp" :1555318800
		},
	"2019-04-15T15:00:00+03:00" : {
		"windSpeed" : 4.2,
		"windDir" : 1,
		"rain" : 1,
		"cloudbase" : 1042.7239,
		"flyability" : 0,
		"reason" : "rain",
		"timestamp" :1555329600
		},
	"2019-04-15T18:00:00+03:00" : {
		"windSpeed" : 4,
		"windDir" : 10,
		"rain" : 0,
		"cloudbase" : null,
		"flyability" : 100,
		"reason" : "",
		"timestamp" :1555340400
		},
	"2019-04-15T21:00:00+03:00" : {
		"windSpeed" : 2.2,
		"windDir" : 4,
		"rain" : 0,
		"cloudbase" : null,
		"flyability" : 100,
		"reason" : "",
		"timestamp" :1555351200
		},
	"2019-04-16T00:00:00+03:00" : {
		"windSpeed" : 2,
		"windDir" : 355,
		"rain" : 0,
		"cloudbase" : null,
		"flyability" : 100,
		"reason" : "",
		"timestamp" :1555362000
		},
	"2019-04-16T03:00:00+03:00" : {
		"windSpeed" : 1.6,
		"windDir" : 308,
		"rain" : 0,
		"cloudbase" : null,
		"flyability" : 0,
		"reason" : "windDir",
		"timestamp" :1555372800
		},
	"2019-04-16T06:00:00+03:00" : {
		"windSpeed" : 1.5,
		"windDir" : 302,
		"rain" : 0,
		"cloudbase" : null,
		"flyability" : 0,
		"reason" : "windDir",
		"timestamp" :1555383600
		},
	"2019-04-16T09:00:00+03:00" : {
		"windSpeed" : 1.9,
		"windDir" : 338,
		"rain" : 0,
		"cloudbase" : null,
		"flyability" : 100,
		"reason" : "",
		"timestamp" :1555394400
		},
	"2019-04-16T12:00:00+03:00" : {
		"windSpeed" : 1.6,
		"windDir" : 323,
		"rain" : 0,
		"cloudbase" : null,
		"flyability" : 0,
		"reason" : "windDir",
		"timestamp" :1555405200
		},
	"2019-04-16T15:00:00+03:00" : {
		"windSpeed" : 3.1,
		"windDir" : 327,
		"rain" : 0,
		"cloudbase" : 1848.5,
		"flyability" : 0,
		"reason" : "windDir",
		"timestamp" :1555416000
		},
	"2019-04-16T18:00:00+03:00" : {
		"windSpeed" : 2.3,
		"windDir" : 307,
		"rain" : 0,
		"cloudbase" : 2347.55,
		"flyability" : 0,
		"reason" : "windDir",
		"timestamp" :1555426800
		},
	"2019-04-16T21:00:00+03:00" : {
		"windSpeed" : 0.8,
		"windDir" : 211,
		"rain" : 0,
		"cloudbase" : null,
		"flyability" : 100,
		"reason" : "",
		"timestamp" :1555437600
		},
	"2019-04-17T00:00:00+03:00" : {
		"windSpeed" : 1.8,
		"windDir" : 201,
		"rain" : 0,
		"cloudbase" : null,
		"flyability" : 100,
		"reason" : "",
		"timestamp" :1555448400
		},
	"2019-04-17T03:00:00+03:00" : {
		"windSpeed" : 2.6,
		"windDir" : 212,
		"rain" : 1,
		"cloudbase" : 2565.4645000001,
		"flyability" : 0,
		"reason" : "rain",
		"timestamp" :1555459200
		},
	"2019-04-17T06:00:00+03:00" : {
		"windSpeed" : 2.2,
		"windDir" : 232,
		"rain" : 1,
		"cloudbase" : 2709.4155,
		"flyability" : 0,
		"reason" : "rain",
		"timestamp" :1555470000
		},
	"2019-04-17T09:00:00+03:00" : {
		"windSpeed" : 2.5,
		"windDir" : 315,
		"rain" : 0,
		"cloudbase" : null,
		"flyability" : 0,
		"reason" : "windDir",
		"timestamp" :1555480800
		},
	"2019-04-17T12:00:00+03:00" : {
		"windSpeed" : 2.5,
		"windDir" : 336,
		"rain" : 0,
		"cloudbase" : 6500,
		"flyability" : 0,
		"reason" : "windDir",
		"timestamp" :1555491600
		},
	"2019-04-17T15:00:00+03:00" : {
		"windSpeed" : 2.2,
		"windDir" : 13,
		"rain" : 1,
		"cloudbase" : 3629.9595,
		"flyability" : 0,
		"reason" : "rain",
		"timestamp" :1555502400
		},
	"2019-04-17T18:00:00+03:00" : {
		"windSpeed" : 3.3,
		"windDir" : 21,
		"rain" : 0,
		"cloudbase" : 3452.2809999998,
		"flyability" : 100,
		"reason" : "",
		"timestamp" :1555513200
		},
	"2019-04-17T21:00:00+03:00" : {
		"windSpeed" : 1,
		"windDir" : 76,
		"rain" : 1,
		"cloudbase" : 1450,
		"flyability" : 0,
		"reason" : "rain",
		"timestamp" :1555524000
		},
	"2019-04-18T00:00:00+03:00" : {
		"windSpeed" : 1.3,
		"windDir" : 51,
		"rain" : 0,
		"cloudbase" : null,
		"flyability" : 100,
		"reason" : "",
		"timestamp" :1555534800
		},
	"2019-04-18T03:00:00+03:00" : {
		"windSpeed" : 0.9,
		"windDir" : 327,
		"rain" : 0,
		"cloudbase" : 1306.5833999999,
		"flyability" : 0,
		"reason" : "windDir",
		"timestamp" :1555545600
		},
	"2019-04-18T06:00:00+03:00" : {
		"windSpeed" : 1.4,
		"windDir" : 331,
		"rain" : 0,
		"cloudbase" : 350,
		"flyability" : 0,
		"reason" : "windDir, cloudbase",
		"timestamp" :1555556400
		},
	"2019-04-18T09:00:00+03:00" : {
		"windSpeed" : 2.1,
		"windDir" : 341,
		"rain" : 0,
		"cloudbase" : null,
		"flyability" : 100,
		"reason" : "",
		"timestamp" :1555567200
		},
	"2019-04-18T12:00:00+03:00" : {
		"windSpeed" : 3.1,
		"windDir" : 14,
		"rain" : 0,
		"cloudbase" : 879.2816,
		"flyability" : 100,
		"reason" : "",
		"timestamp" :1555578000
		},
	"2019-04-18T15:00:00+03:00" : {
		"windSpeed" : 3.2,
		"windDir" : 15,
		"rain" : 1,
		"cloudbase" : 1271.4885,
		"flyability" : 0,
		"reason" : "rain",
		"timestamp" :1555588800
		},
	"2019-04-18T18:00:00+03:00" : {
		"windSpeed" : 4.2,
		"windDir" : 20,
		"rain" : 1,
		"cloudbase" : 1325.3189999999,
		"flyability" : 0,
		"reason" : "rain",
		"timestamp" :1555599600
		},
	"2019-04-18T21:00:00+03:00" : {
		"windSpeed" : 3.1,
		"windDir" : 5,
		"rain" : 1,
		"cloudbase" : 396.11539999999,
		"flyability" : 0,
		"reason" : "rain, cloudbase",
		"timestamp" :1555610400
		},
	"2019-04-19T00:00:00+03:00" : {
		"windSpeed" : 3.3,
		"windDir" : 355,
		"rain" : 1,
		"cloudbase" : 423.47290000003,
		"flyability" : 0,
		"reason" : "rain, cloudbase",
		"timestamp" :1555621200
		},
	"2019-04-19T03:00:00+03:00" : {
		"windSpeed" : 3.8,
		"windDir" : 360,
		"rain" : 1,
		"cloudbase" : 173.4454,
		"flyability" : 0,
		"reason" : "rain, cloudbase",
		"timestamp" :1555632000
		},
	"2019-04-19T06:00:00+03:00" : {
		"windSpeed" : 2.4,
		"windDir" : 341,
		"rain" : 1,
		"cloudbase" : 993.61505000007,
		"flyability" : 0,
		"reason" : "rain",
		"timestamp" :1555642800
		},
	"2019-04-19T09:00:00+03:00" : {
		"windSpeed" : 3.1,
		"windDir" : 324,
		"rain" : 0,
		"cloudbase" : 975.15859999996,
		"flyability" : 0,
		"reason" : "windDir",
		"timestamp" :1555653600
		},
	"2019-04-19T12:00:00+03:00" : {
		"windSpeed" : 3.6,
		"windDir" : 348,
		"rain" : 1,
		"cloudbase" : 2372.781,
		"flyability" : 0,
		"reason" : "rain",
		"timestamp" :1555664400
		},
	"2019-04-19T15:00:00+03:00" : {
		"windSpeed" : 3.1,
		"windDir" : 19,
		"rain" : 1,
		"cloudbase" : 4321.281,
		"flyability" : 0,
		"reason" : "rain",
		"timestamp" :1555675200
		},
	"2019-04-19T18:00:00+03:00" : {
		"windSpeed" : 2,
		"windDir" : 326,
		"rain" : 1,
		"cloudbase" : 2372.0024999999,
		"flyability" : 0,
		"reason" : "windDir, rain",
		"timestamp" :1555686000
		},
	"2019-04-19T21:00:00+03:00" : {
		"windSpeed" : 2.9,
		"windDir" : 2,
		"rain" : 1,
		"cloudbase" : 1481.3600000001,
		"flyability" : 0,
		"reason" : "rain",
		"timestamp" :1555696800
		},
	"2019-04-20T00:00:00+03:00" : {
		"windSpeed" : 2.7,
		"windDir" : 49,
		"rain" : 1,
		"cloudbase" : 969.33009999999,
		"flyability" : 0,
		"reason" : "rain",
		"timestamp" :1555707600
		},
	"2019-04-20T03:00:00+03:00" : {
		"windSpeed" : 2.1,
		"windDir" : 346,
		"rain" : 1,
		"cloudbase" : 4650,
		"flyability" : 0,
		"reason" : "rain",
		"timestamp" :1555718400
		},
	"2019-04-20T06:00:00+03:00" : {
		"windSpeed" : 2.6,
		"windDir" : 331,
		"rain" : 0,
		"cloudbase" : 1554.3885,
		"flyability" : 0,
		"reason" : "windDir",
		"timestamp" :1555729200
		},
	"2019-04-20T09:00:00+03:00" : {
		"windSpeed" : 3.6,
		"windDir" : 352,
		"rain" : 1,
		"cloudbase" : 260,
		"flyability" : 0,
		"reason" : "rain, cloudbase",
		"timestamp" :1555740000
		},
	"2019-04-20T12:00:00+03:00" : {
		"windSpeed" : 5.1,
		"windDir" : 11,
		"rain" : 0,
		"cloudbase" : 3150,
		"flyability" : 0,
		"reason" : "windSpeed",
		"timestamp" :1555750800
		},
	"2019-04-20T15:00:00+03:00" : {
		"windSpeed" : 5.6,
		"windDir" : 21,
		"rain" : 0,
		"cloudbase" : 1670.5879999999,
		"flyability" : 0,
		"reason" : "windSpeed",
		"timestamp" :1555761600
		}
	}
}