{
"site" : "Mandredhunga",
"id" : 17326,
"orientations" : "00012100",
"forecasts" : { 
	"2019-04-06T20:45:00+05:45" : {
		"windSpeed" : 0.4,
		"windDir" : 326,
		"rain" : 0,
		"cloudbase" : 6575.6909999998,
		"flyability" : 0,
		"reason" : "windDir",
		"timestamp" :1554566400
		},
	"2019-04-06T23:45:00+05:45" : {
		"windSpeed" : 0.9,
		"windDir" : 92,
		"rain" : 0,
		"cloudbase" : 1471.1936000004,
		"flyability" : 0,
		"reason" : "windDir, cloudbase",
		"timestamp" :1554577200
		},
	"2019-04-07T02:45:00+05:45" : {
		"windSpeed" : 0.3,
		"windDir" : 24,
		"rain" : 1,
		"cloudbase" : 3081.2221000008,
		"flyability" : 0,
		"reason" : "windDir, rain",
		"timestamp" :1554588000
		},
	"2019-04-07T05:45:00+05:45" : {
		"windSpeed" : 0.4,
		"windDir" : 52,
		"rain" : 1,
		"cloudbase" : 230,
		"flyability" : 0,
		"reason" : "windDir, rain, cloudbase",
		"timestamp" :1554598800
		},
	"2019-04-07T08:45:00+05:45" : {
		"windSpeed" : 0.7,
		"windDir" : 38,
		"rain" : 1,
		"cloudbase" : null,
		"flyability" : 0,
		"reason" : "windDir, rain",
		"timestamp" :1554609600
		},
	"2019-04-07T11:45:00+05:45" : {
		"windSpeed" : 1.1,
		"windDir" : 69,
		"rain" : 1,
		"cloudbase" : 8499.678,
		"flyability" : 0,
		"reason" : "windDir, rain",
		"timestamp" :1554620400
		},
	"2019-04-07T14:45:00+05:45" : {
		"windSpeed" : 1.7,
		"windDir" : 90,
		"rain" : 0,
		"cloudbase" : 2000,
		"flyability" : 0,
		"reason" : "windDir",
		"timestamp" :1554631200
		},
	"2019-04-07T17:45:00+05:45" : {
		"windSpeed" : 0.5,
		"windDir" : 20,
		"rain" : 1,
		"cloudbase" : 1650,
		"flyability" : 0,
		"reason" : "windDir, rain, cloudbase",
		"timestamp" :1554642000
		},
	"2019-04-07T20:45:00+05:45" : {
		"windSpeed" : 0.5,
		"windDir" : 11,
		"rain" : 0,
		"cloudbase" : 2150,
		"flyability" : 0,
		"reason" : "windDir",
		"timestamp" :1554652800
		},
	"2019-04-07T23:45:00+05:45" : {
		"windSpeed" : 0.7,
		"windDir" : 288,
		"rain" : 0,
		"cloudbase" : 9741.9480000002,
		"flyability" : 0,
		"reason" : "windDir",
		"timestamp" :1554663600
		},
	"2019-04-08T02:45:00+05:45" : {
		"windSpeed" : 0.9,
		"windDir" : 274,
		"rain" : 0,
		"cloudbase" : 10500,
		"flyability" : 0,
		"reason" : "windDir",
		"timestamp" :1554674400
		},
	"2019-04-08T05:45:00+05:45" : {
		"windSpeed" : 0.6,
		"windDir" : 348,
		"rain" : 0,
		"cloudbase" : 9679.0259999999,
		"flyability" : 0,
		"reason" : "windDir",
		"timestamp" :1554685200
		},
	"2019-04-08T08:45:00+05:45" : {
		"windSpeed" : 0.5,
		"windDir" : 120,
		"rain" : 0,
		"cloudbase" : null,
		"flyability" : 100,
		"reason" : "",
		"timestamp" :1554696000
		},
	"2019-04-08T11:45:00+05:45" : {
		"windSpeed" : 1.3,
		"windDir" : 124,
		"rain" : 1,
		"cloudbase" : 4912.3239999977,
		"flyability" : 0,
		"reason" : "rain",
		"timestamp" :1554706800
		},
	"2019-04-08T14:45:00+05:45" : {
		"windSpeed" : 0.4,
		"windDir" : 135,
		"rain" : 0,
		"cloudbase" : 1650,
		"flyability" : 0,
		"reason" : "cloudbase",
		"timestamp" :1554717600
		},
	"2019-04-08T17:45:00+05:45" : {
		"windSpeed" : 0.5,
		"windDir" : 96,
		"rain" : 0,
		"cloudbase" : null,
		"flyability" : 0,
		"reason" : "windDir",
		"timestamp" :1554728400
		},
	"2019-04-08T20:45:00+05:45" : {
		"windSpeed" : 0.7,
		"windDir" : 301,
		"rain" : 0,
		"cloudbase" : 9018.3640000004,
		"flyability" : 0,
		"reason" : "windDir",
		"timestamp" :1554739200
		},
	"2019-04-08T23:45:00+05:45" : {
		"windSpeed" : 1.2,
		"windDir" : 304,
		"rain" : 0,
		"cloudbase" : null,
		"flyability" : 0,
		"reason" : "windDir",
		"timestamp" :1554750000
		},
	"2019-04-09T02:45:00+05:45" : {
		"windSpeed" : 1.1,
		"windDir" : 304,
		"rain" : 0,
		"cloudbase" : null,
		"flyability" : 0,
		"reason" : "windDir",
		"timestamp" :1554760800
		},
	"2019-04-09T05:45:00+05:45" : {
		"windSpeed" : 0.6,
		"windDir" : 305,
		"rain" : 0,
		"cloudbase" : null,
		"flyability" : 0,
		"reason" : "windDir",
		"timestamp" :1554771600
		},
	"2019-04-09T08:45:00+05:45" : {
		"windSpeed" : 0.5,
		"windDir" : 90,
		"rain" : 1,
		"cloudbase" : null,
		"flyability" : 0,
		"reason" : "windDir, rain",
		"timestamp" :1554782400
		},
	"2019-04-09T11:45:00+05:45" : {
		"windSpeed" : 0.7,
		"windDir" : 112,
		"rain" : 0,
		"cloudbase" : null,
		"flyability" : 0,
		"reason" : "windDir",
		"timestamp" :1554793200
		},
	"2019-04-09T14:45:00+05:45" : {
		"windSpeed" : 0.6,
		"windDir" : 29,
		"rain" : 0,
		"cloudbase" : null,
		"flyability" : 0,
		"reason" : "windDir",
		"timestamp" :1554804000
		},
	"2019-04-09T17:45:00+05:45" : {
		"windSpeed" : 0.9,
		"windDir" : 90,
		"rain" : 0,
		"cloudbase" : 1200,
		"flyability" : 0,
		"reason" : "windDir, cloudbase",
		"timestamp" :1554814800
		},
	"2019-04-09T20:45:00+05:45" : {
		"windSpeed" : 0.6,
		"windDir" : 328,
		"rain" : 0,
		"cloudbase" : null,
		"flyability" : 0,
		"reason" : "windDir",
		"timestamp" :1554825600
		},
	"2019-04-09T23:45:00+05:45" : {
		"windSpeed" : 0.9,
		"windDir" : 308,
		"rain" : 1,
		"cloudbase" : null,
		"flyability" : 0,
		"reason" : "windDir, rain",
		"timestamp" :1554836400
		},
	"2019-04-10T02:45:00+05:45" : {
		"windSpeed" : 0.8,
		"windDir" : 299,
		"rain" : 1,
		"cloudbase" : null,
		"flyability" : 0,
		"reason" : "windDir, rain",
		"timestamp" :1554847200
		},
	"2019-04-10T05:45:00+05:45" : {
		"windSpeed" : 1.3,
		"windDir" : 285,
		"rain" : 0,
		"cloudbase" : 680,
		"flyability" : 0,
		"reason" : "windDir, cloudbase",
		"timestamp" :1554858000
		},
	"2019-04-10T08:45:00+05:45" : {
		"windSpeed" : 1.3,
		"windDir" : 157,
		"rain" : 1,
		"cloudbase" : null,
		"flyability" : 0,
		"reason" : "rain",
		"timestamp" :1554868800
		},
	"2019-04-10T11:45:00+05:45" : {
		"windSpeed" : 1.6,
		"windDir" : 140,
		"rain" : 1,
		"cloudbase" : 1050,
		"flyability" : 0,
		"reason" : "rain, cloudbase",
		"timestamp" :1554879600
		},
	"2019-04-10T14:45:00+05:45" : {
		"windSpeed" : 1.7,
		"windDir" : 113,
		"rain" : 0,
		"cloudbase" : 1600,
		"flyability" : 0,
		"reason" : "cloudbase",
		"timestamp" :1554890400
		},
	"2019-04-10T17:45:00+05:45" : {
		"windSpeed" : 0.9,
		"windDir" : 36,
		"rain" : 0,
		"cloudbase" : 10500,
		"flyability" : 0,
		"reason" : "windDir",
		"timestamp" :1554901200
		},
	"2019-04-10T20:45:00+05:45" : {
		"windSpeed" : 0.6,
		"windDir" : 330,
		"rain" : 0,
		"cloudbase" : 1600,
		"flyability" : 0,
		"reason" : "windDir, cloudbase",
		"timestamp" :1554912000
		},
	"2019-04-10T23:45:00+05:45" : {
		"windSpeed" : 0.6,
		"windDir" : 315,
		"rain" : 1,
		"cloudbase" : null,
		"flyability" : 0,
		"reason" : "windDir, rain",
		"timestamp" :1554922800
		},
	"2019-04-11T02:45:00+05:45" : {
		"windSpeed" : 1.1,
		"windDir" : 288,
		"rain" : 0,
		"cloudbase" : null,
		"flyability" : 0,
		"reason" : "windDir",
		"timestamp" :1554933600
		},
	"2019-04-11T05:45:00+05:45" : {
		"windSpeed" : 0.6,
		"windDir" : 345,
		"rain" : 0,
		"cloudbase" : null,
		"flyability" : 0,
		"reason" : "windDir",
		"timestamp" :1554944400
		},
	"2019-04-11T08:45:00+05:45" : {
		"windSpeed" : 1,
		"windDir" : 148,
		"rain" : 1,
		"cloudbase" : null,
		"flyability" : 0,
		"reason" : "rain",
		"timestamp" :1554955200
		},
	"2019-04-11T11:45:00+05:45" : {
		"windSpeed" : 2.3,
		"windDir" : 145,
		"rain" : 1,
		"cloudbase" : 874.40160000006,
		"flyability" : 0,
		"reason" : "rain, cloudbase",
		"timestamp" :1554966000
		},
	"2019-04-11T14:45:00+05:45" : {
		"windSpeed" : 0.8,
		"windDir" : 121,
		"rain" : 1,
		"cloudbase" : 960,
		"flyability" : 0,
		"reason" : "rain, cloudbase",
		"timestamp" :1554976800
		},
	"2019-04-11T17:45:00+05:45" : {
		"windSpeed" : 0.4,
		"windDir" : 75,
		"rain" : 0,
		"cloudbase" : 6646.0499999971,
		"flyability" : 0,
		"reason" : "windDir",
		"timestamp" :1554987600
		},
	"2019-04-11T20:45:00+05:45" : {
		"windSpeed" : 0.7,
		"windDir" : 319,
		"rain" : 0,
		"cloudbase" : 9264.4519999999,
		"flyability" : 0,
		"reason" : "windDir",
		"timestamp" :1554998400
		},
	"2019-04-11T23:45:00+05:45" : {
		"windSpeed" : 1.2,
		"windDir" : 308,
		"rain" : 0,
		"cloudbase" : 9125.7299999998,
		"flyability" : 0,
		"reason" : "windDir",
		"timestamp" :1555009200
		},
	"2019-04-12T02:45:00+05:45" : {
		"windSpeed" : 1.2,
		"windDir" : 302,
		"rain" : 0,
		"cloudbase" : 10500,
		"flyability" : 0,
		"reason" : "windDir",
		"timestamp" :1555020000
		},
	"2019-04-12T05:45:00+05:45" : {
		"windSpeed" : 0.6,
		"windDir" : 305,
		"rain" : 0,
		"cloudbase" : 9400,
		"flyability" : 0,
		"reason" : "windDir",
		"timestamp" :1555030800
		},
	"2019-04-12T08:45:00+05:45" : {
		"windSpeed" : 0.1,
		"windDir" : 360,
		"rain" : 0,
		"cloudbase" : null,
		"flyability" : 0,
		"reason" : "windDir",
		"timestamp" :1555041600
		},
	"2019-04-12T11:45:00+05:45" : {
		"windSpeed" : 1.5,
		"windDir" : 138,
		"rain" : 1,
		"cloudbase" : null,
		"flyability" : 0,
		"reason" : "rain",
		"timestamp" :1555052400
		},
	"2019-04-12T14:45:00+05:45" : {
		"windSpeed" : 1,
		"windDir" : 16,
		"rain" : 0,
		"cloudbase" : 8292.174,
		"flyability" : 0,
		"reason" : "windDir",
		"timestamp" :1555063200
		},
	"2019-04-12T17:45:00+05:45" : {
		"windSpeed" : 0.8,
		"windDir" : 307,
		"rain" : 0,
		"cloudbase" : 5405.0659999978,
		"flyability" : 0,
		"reason" : "windDir",
		"timestamp" :1555074000
		}
	}
}