{
"site" : "Mt. Katsuragi",
"id" : 17400,
"orientations" : "01211210",
"forecasts" : { 
	"2019-04-13T12:00:00+09:00" : {
		"windSpeed" : 1.5,
		"windDir" : 10,
		"rain" : 0,
		"cloudbase" : null,
		"flyability" : 0,
		"reason" : "windDir",
		"timestamp" :1555124400
		},
	"2019-04-13T15:00:00+09:00" : {
		"windSpeed" : 3.4,
		"windDir" : 299,
		"rain" : 0,
		"cloudbase" : 5991.882,
		"flyability" : 0,
		"reason" : "windDir",
		"timestamp" :1555135200
		},
	"2019-04-13T18:00:00+09:00" : {
		"windSpeed" : 1.1,
		"windDir" : 290,
		"rain" : 0,
		"cloudbase" : 4807.686,
		"flyability" : 100,
		"reason" : "",
		"timestamp" :1555146000
		},
	"2019-04-13T21:00:00+09:00" : {
		"windSpeed" : 0.5,
		"windDir" : 127,
		"rain" : 0,
		"cloudbase" : 3887.25,
		"flyability" : 100,
		"reason" : "",
		"timestamp" :1555156800
		},
	"2019-04-14T00:00:00+09:00" : {
		"windSpeed" : 1.3,
		"windDir" : 144,
		"rain" : 0,
		"cloudbase" : null,
		"flyability" : 100,
		"reason" : "",
		"timestamp" :1555167600
		},
	"2019-04-14T03:00:00+09:00" : {
		"windSpeed" : 1.5,
		"windDir" : 146,
		"rain" : 0,
		"cloudbase" : 2400,
		"flyability" : 100,
		"reason" : "",
		"timestamp" :1555178400
		},
	"2019-04-14T06:00:00+09:00" : {
		"windSpeed" : 1.6,
		"windDir" : 135,
		"rain" : 0,
		"cloudbase" : null,
		"flyability" : 100,
		"reason" : "",
		"timestamp" :1555189200
		},
	"2019-04-14T09:00:00+09:00" : {
		"windSpeed" : 0.5,
		"windDir" : 204,
		"rain" : 0,
		"cloudbase" : 2510.332,
		"flyability" : 100,
		"reason" : "",
		"timestamp" :1555200000
		},
	"2019-04-14T12:00:00+09:00" : {
		"windSpeed" : 1,
		"windDir" : 115,
		"rain" : 0,
		"cloudbase" : 2859.882,
		"flyability" : 100,
		"reason" : "",
		"timestamp" :1555210800
		},
	"2019-04-14T15:00:00+09:00" : {
		"windSpeed" : 1.9,
		"windDir" : 246,
		"rain" : 0,
		"cloudbase" : 2837.332,
		"flyability" : 100,
		"reason" : "",
		"timestamp" :1555221600
		},
	"2019-04-14T18:00:00+09:00" : {
		"windSpeed" : 0.8,
		"windDir" : 153,
		"rain" : 1,
		"cloudbase" : 2059.882,
		"flyability" : 0,
		"reason" : "rain",
		"timestamp" :1555232400
		},
	"2019-04-14T21:00:00+09:00" : {
		"windSpeed" : 2.1,
		"windDir" : 191,
		"rain" : 1,
		"cloudbase" : 2438.762,
		"flyability" : 0,
		"reason" : "rain",
		"timestamp" :1555243200
		},
	"2019-04-15T00:00:00+09:00" : {
		"windSpeed" : 1.6,
		"windDir" : 293,
		"rain" : 1,
		"cloudbase" : 1232.6406,
		"flyability" : 0,
		"reason" : "windDir, rain",
		"timestamp" :1555254000
		},
	"2019-04-15T03:00:00+09:00" : {
		"windSpeed" : 2.2,
		"windDir" : 263,
		"rain" : 1,
		"cloudbase" : 6594.5819999998,
		"flyability" : 0,
		"reason" : "rain",
		"timestamp" :1555264800
		},
	"2019-04-15T06:00:00+09:00" : {
		"windSpeed" : 2.5,
		"windDir" : 257,
		"rain" : 0,
		"cloudbase" : 190,
		"flyability" : 0,
		"reason" : "cloudbase",
		"timestamp" :1555275600
		},
	"2019-04-15T09:00:00+09:00" : {
		"windSpeed" : 3.2,
		"windDir" : 342,
		"rain" : 1,
		"cloudbase" : null,
		"flyability" : 0,
		"reason" : "windDir, rain",
		"timestamp" :1555286400
		},
	"2019-04-15T12:00:00+09:00" : {
		"windSpeed" : 3.4,
		"windDir" : 338,
		"rain" : 0,
		"cloudbase" : null,
		"flyability" : 0,
		"reason" : "windDir",
		"timestamp" :1555297200
		},
	"2019-04-15T15:00:00+09:00" : {
		"windSpeed" : 4.6,
		"windDir" : 342,
		"rain" : 0,
		"cloudbase" : null,
		"flyability" : 0,
		"reason" : "windDir",
		"timestamp" :1555308000
		},
	"2019-04-15T18:00:00+09:00" : {
		"windSpeed" : 2.2,
		"windDir" : 352,
		"rain" : 0,
		"cloudbase" : null,
		"flyability" : 0,
		"reason" : "windDir",
		"timestamp" :1555318800
		},
	"2019-04-15T21:00:00+09:00" : {
		"windSpeed" : 1.7,
		"windDir" : 2,
		"rain" : 0,
		"cloudbase" : null,
		"flyability" : 0,
		"reason" : "windDir",
		"timestamp" :1555329600
		},
	"2019-04-16T00:00:00+09:00" : {
		"windSpeed" : 1,
		"windDir" : 167,
		"rain" : 0,
		"cloudbase" : null,
		"flyability" : 100,
		"reason" : "",
		"timestamp" :1555340400
		},
	"2019-04-16T03:00:00+09:00" : {
		"windSpeed" : 0.9,
		"windDir" : 180,
		"rain" : 0,
		"cloudbase" : null,
		"flyability" : 100,
		"reason" : "",
		"timestamp" :1555351200
		},
	"2019-04-16T06:00:00+09:00" : {
		"windSpeed" : 1.3,
		"windDir" : 168,
		"rain" : 0,
		"cloudbase" : null,
		"flyability" : 100,
		"reason" : "",
		"timestamp" :1555362000
		},
	"2019-04-16T09:00:00+09:00" : {
		"windSpeed" : 0.1,
		"windDir" : 90,
		"rain" : 0,
		"cloudbase" : null,
		"flyability" : 100,
		"reason" : "",
		"timestamp" :1555372800
		},
	"2019-04-16T12:00:00+09:00" : {
		"windSpeed" : 1.3,
		"windDir" : 10,
		"rain" : 0,
		"cloudbase" : 9100,
		"flyability" : 0,
		"reason" : "windDir",
		"timestamp" :1555383600
		},
	"2019-04-16T15:00:00+09:00" : {
		"windSpeed" : 1.9,
		"windDir" : 347,
		"rain" : 0,
		"cloudbase" : 7771.6260000002,
		"flyability" : 0,
		"reason" : "windDir",
		"timestamp" :1555394400
		},
	"2019-04-16T18:00:00+09:00" : {
		"windSpeed" : 1.1,
		"windDir" : 237,
		"rain" : 0,
		"cloudbase" : 7025.418,
		"flyability" : 100,
		"reason" : "",
		"timestamp" :1555405200
		},
	"2019-04-16T21:00:00+09:00" : {
		"windSpeed" : 0.9,
		"windDir" : 141,
		"rain" : 0,
		"cloudbase" : 6782.618,
		"flyability" : 100,
		"reason" : "",
		"timestamp" :1555416000
		},
	"2019-04-17T00:00:00+09:00" : {
		"windSpeed" : 1.4,
		"windDir" : 155,
		"rain" : 0,
		"cloudbase" : 9895.3080000006,
		"flyability" : 100,
		"reason" : "",
		"timestamp" :1555426800
		},
	"2019-04-17T03:00:00+09:00" : {
		"windSpeed" : 1.1,
		"windDir" : 165,
		"rain" : 0,
		"cloudbase" : 9809.8,
		"flyability" : 100,
		"reason" : "",
		"timestamp" :1555437600
		},
	"2019-04-17T06:00:00+09:00" : {
		"windSpeed" : 1.8,
		"windDir" : 170,
		"rain" : 0,
		"cloudbase" : 8945.018,
		"flyability" : 100,
		"reason" : "",
		"timestamp" :1555448400
		},
	"2019-04-17T09:00:00+09:00" : {
		"windSpeed" : 0.5,
		"windDir" : 69,
		"rain" : 0,
		"cloudbase" : 9315.79,
		"flyability" : 100,
		"reason" : "",
		"timestamp" :1555459200
		},
	"2019-04-17T12:00:00+09:00" : {
		"windSpeed" : 0.3,
		"windDir" : 344,
		"rain" : 1,
		"cloudbase" : 9394.346,
		"flyability" : 0,
		"reason" : "windDir, rain",
		"timestamp" :1555470000
		},
	"2019-04-17T15:00:00+09:00" : {
		"windSpeed" : 0.5,
		"windDir" : 142,
		"rain" : 1,
		"cloudbase" : 2811.9779999999,
		"flyability" : 0,
		"reason" : "rain",
		"timestamp" :1555480800
		},
	"2019-04-17T18:00:00+09:00" : {
		"windSpeed" : 1.1,
		"windDir" : 117,
		"rain" : 1,
		"cloudbase" : 4475.814,
		"flyability" : 0,
		"reason" : "rain",
		"timestamp" :1555491600
		},
	"2019-04-17T21:00:00+09:00" : {
		"windSpeed" : 1.2,
		"windDir" : 169,
		"rain" : 0,
		"cloudbase" : null,
		"flyability" : 100,
		"reason" : "",
		"timestamp" :1555502400
		},
	"2019-04-18T00:00:00+09:00" : {
		"windSpeed" : 1.5,
		"windDir" : 170,
		"rain" : 0,
		"cloudbase" : null,
		"flyability" : 100,
		"reason" : "",
		"timestamp" :1555513200
		},
	"2019-04-18T03:00:00+09:00" : {
		"windSpeed" : 1.1,
		"windDir" : 168,
		"rain" : 0,
		"cloudbase" : null,
		"flyability" : 100,
		"reason" : "",
		"timestamp" :1555524000
		},
	"2019-04-18T06:00:00+09:00" : {
		"windSpeed" : 1.8,
		"windDir" : 174,
		"rain" : 1,
		"cloudbase" : null,
		"flyability" : 0,
		"reason" : "rain",
		"timestamp" :1555534800
		},
	"2019-04-18T09:00:00+09:00" : {
		"windSpeed" : 1.7,
		"windDir" : 251,
		"rain" : 1,
		"cloudbase" : null,
		"flyability" : 0,
		"reason" : "rain",
		"timestamp" :1555545600
		},
	"2019-04-18T12:00:00+09:00" : {
		"windSpeed" : 3.1,
		"windDir" : 283,
		"rain" : 0,
		"cloudbase" : 10500,
		"flyability" : 100,
		"reason" : "",
		"timestamp" :1555556400
		},
	"2019-04-18T15:00:00+09:00" : {
		"windSpeed" : 2.7,
		"windDir" : 291,
		"rain" : 0,
		"cloudbase" : null,
		"flyability" : 100,
		"reason" : "",
		"timestamp" :1555567200
		},
	"2019-04-18T18:00:00+09:00" : {
		"windSpeed" : 1.7,
		"windDir" : 251,
		"rain" : 0,
		"cloudbase" : null,
		"flyability" : 100,
		"reason" : "",
		"timestamp" :1555578000
		},
	"2019-04-18T21:00:00+09:00" : {
		"windSpeed" : 2.4,
		"windDir" : 188,
		"rain" : 0,
		"cloudbase" : null,
		"flyability" : 100,
		"reason" : "",
		"timestamp" :1555588800
		},
	"2019-04-19T00:00:00+09:00" : {
		"windSpeed" : 2.2,
		"windDir" : 197,
		"rain" : 0,
		"cloudbase" : null,
		"flyability" : 100,
		"reason" : "",
		"timestamp" :1555599600
		},
	"2019-04-19T03:00:00+09:00" : {
		"windSpeed" : 1.8,
		"windDir" : 240,
		"rain" : 0,
		"cloudbase" : null,
		"flyability" : 100,
		"reason" : "",
		"timestamp" :1555610400
		},
	"2019-04-19T06:00:00+09:00" : {
		"windSpeed" : 1.5,
		"windDir" : 197,
		"rain" : 0,
		"cloudbase" : 12000,
		"flyability" : 100,
		"reason" : "",
		"timestamp" :1555621200
		},
	"2019-04-19T09:00:00+09:00" : {
		"windSpeed" : 4.7,
		"windDir" : 263,
		"rain" : 0,
		"cloudbase" : 9483.1020000001,
		"flyability" : 100,
		"reason" : "",
		"timestamp" :1555632000
		}
	}
}