{
"site" : "Kerry Head (Northeast)",
"id" : 17412,
"orientations" : "12000000",
"forecasts" : { 
	"2019-04-20T04:00:00+01:00" : {
		"windSpeed" : 0.8,
		"windDir" : 278,
		"rain" : 0,
		"cloudbase" : 30,
		"flyability" : 0,
		"reason" : "windDir, cloudbase",
		"timestamp" :1555725600
		},
	"2019-04-20T07:00:00+01:00" : {
		"windSpeed" : 1,
		"windDir" : 125,
		"rain" : 0,
		"cloudbase" : 30,
		"flyability" : 0,
		"reason" : "windDir, cloudbase",
		"timestamp" :1555736400
		},
	"2019-04-20T10:00:00+01:00" : {
		"windSpeed" : 0.8,
		"windDir" : 302,
		"rain" : 0,
		"cloudbase" : 86.189999999997,
		"flyability" : 0,
		"reason" : "windDir",
		"timestamp" :1555747200
		},
	"2019-04-20T13:00:00+01:00" : {
		"windSpeed" : 1.2,
		"windDir" : 312,
		"rain" : 0,
		"cloudbase" : 156.9703,
		"flyability" : 0,
		"reason" : "windDir",
		"timestamp" :1555758000
		},
	"2019-04-20T16:00:00+01:00" : {
		"windSpeed" : 2.8,
		"windDir" : 315,
		"rain" : 0,
		"cloudbase" : 9445.7643999999,
		"flyability" : 0,
		"reason" : "windDir",
		"timestamp" :1555768800
		},
	"2019-04-20T19:00:00+01:00" : {
		"windSpeed" : 1.6,
		"windDir" : 293,
		"rain" : 0,
		"cloudbase" : 8455.6180000002,
		"flyability" : 0,
		"reason" : "windDir",
		"timestamp" :1555779600
		},
	"2019-04-20T22:00:00+01:00" : {
		"windSpeed" : 1.4,
		"windDir" : 225,
		"rain" : 0,
		"cloudbase" : 2612.4798000005,
		"flyability" : 0,
		"reason" : "windDir",
		"timestamp" :1555790400
		},
	"2019-04-21T01:00:00+01:00" : {
		"windSpeed" : 2,
		"windDir" : 184,
		"rain" : 0,
		"cloudbase" : 30,
		"flyability" : 0,
		"reason" : "windDir, cloudbase",
		"timestamp" :1555801200
		},
	"2019-04-21T04:00:00+01:00" : {
		"windSpeed" : 2.5,
		"windDir" : 168,
		"rain" : 0,
		"cloudbase" : 30,
		"flyability" : 0,
		"reason" : "windDir, cloudbase",
		"timestamp" :1555812000
		},
	"2019-04-21T07:00:00+01:00" : {
		"windSpeed" : 3.5,
		"windDir" : 178,
		"rain" : 0,
		"cloudbase" : 56.567939999997,
		"flyability" : 0,
		"reason" : "windDir",
		"timestamp" :1555822800
		},
	"2019-04-21T10:00:00+01:00" : {
		"windSpeed" : 5.4,
		"windDir" : 203,
		"rain" : 0,
		"cloudbase" : 279.27206,
		"flyability" : 0,
		"reason" : "windSpeed, windDir",
		"timestamp" :1555833600
		},
	"2019-04-21T13:00:00+01:00" : {
		"windSpeed" : 5.5,
		"windDir" : 199,
		"rain" : 1,
		"cloudbase" : 488.63588000001,
		"flyability" : 0,
		"reason" : "windSpeed, windDir, rain",
		"timestamp" :1555844400
		},
	"2019-04-21T16:00:00+01:00" : {
		"windSpeed" : 6,
		"windDir" : 191,
		"rain" : 1,
		"cloudbase" : 387.75176,
		"flyability" : 0,
		"reason" : "windSpeed, windDir, rain",
		"timestamp" :1555855200
		},
	"2019-04-21T19:00:00+01:00" : {
		"windSpeed" : 5.9,
		"windDir" : 176,
		"rain" : 1,
		"cloudbase" : 328.01528000001,
		"flyability" : 0,
		"reason" : "windSpeed, windDir, rain",
		"timestamp" :1555866000
		},
	"2019-04-21T22:00:00+01:00" : {
		"windSpeed" : 6.9,
		"windDir" : 172,
		"rain" : 1,
		"cloudbase" : 300.86794,
		"flyability" : 0,
		"reason" : "windSpeed, windDir, rain",
		"timestamp" :1555876800
		},
	"2019-04-22T01:00:00+01:00" : {
		"windSpeed" : 7.4,
		"windDir" : 168,
		"rain" : 0,
		"cloudbase" : 567.28325999999,
		"flyability" : 0,
		"reason" : "windSpeed, windDir",
		"timestamp" :1555887600
		},
	"2019-04-22T04:00:00+01:00" : {
		"windSpeed" : 7,
		"windDir" : 160,
		"rain" : 0,
		"cloudbase" : 3983.8339199999,
		"flyability" : 0,
		"reason" : "windSpeed, windDir",
		"timestamp" :1555898400
		},
	"2019-04-22T07:00:00+01:00" : {
		"windSpeed" : 7.3,
		"windDir" : 156,
		"rain" : 0,
		"cloudbase" : 6857.2,
		"flyability" : 0,
		"reason" : "windSpeed, windDir",
		"timestamp" :1555909200
		},
	"2019-04-22T10:00:00+01:00" : {
		"windSpeed" : 6.6,
		"windDir" : 150,
		"rain" : 0,
		"cloudbase" : 6132.4588,
		"flyability" : 0,
		"reason" : "windSpeed, windDir",
		"timestamp" :1555920000
		},
	"2019-04-22T13:00:00+01:00" : {
		"windSpeed" : 5.7,
		"windDir" : 164,
		"rain" : 0,
		"cloudbase" : 6076.3176,
		"flyability" : 0,
		"reason" : "windSpeed, windDir",
		"timestamp" :1555930800
		},
	"2019-04-22T16:00:00+01:00" : {
		"windSpeed" : 6.1,
		"windDir" : 167,
		"rain" : 0,
		"cloudbase" : 6277.1206,
		"flyability" : 0,
		"reason" : "windSpeed, windDir",
		"timestamp" :1555941600
		},
	"2019-04-22T19:00:00+01:00" : {
		"windSpeed" : 4.6,
		"windDir" : 147,
		"rain" : 0,
		"cloudbase" : 7012.8412,
		"flyability" : 0,
		"reason" : "windDir",
		"timestamp" :1555952400
		},
	"2019-04-22T22:00:00+01:00" : {
		"windSpeed" : 6,
		"windDir" : 135,
		"rain" : 0,
		"cloudbase" : 3857.5824,
		"flyability" : 0,
		"reason" : "windSpeed, windDir",
		"timestamp" :1555963200
		},
	"2019-04-23T01:00:00+01:00" : {
		"windSpeed" : 5.3,
		"windDir" : 159,
		"rain" : 0,
		"cloudbase" : 3073.2133,
		"flyability" : 0,
		"reason" : "windSpeed, windDir",
		"timestamp" :1555974000
		},
	"2019-04-23T04:00:00+01:00" : {
		"windSpeed" : 3.8,
		"windDir" : 186,
		"rain" : 0,
		"cloudbase" : null,
		"flyability" : 0,
		"reason" : "windDir",
		"timestamp" :1555984800
		},
	"2019-04-23T07:00:00+01:00" : {
		"windSpeed" : 2.6,
		"windDir" : 226,
		"rain" : 0,
		"cloudbase" : null,
		"flyability" : 0,
		"reason" : "windDir",
		"timestamp" :1555995600
		},
	"2019-04-23T10:00:00+01:00" : {
		"windSpeed" : 2.6,
		"windDir" : 305,
		"rain" : 0,
		"cloudbase" : 1886.05652,
		"flyability" : 0,
		"reason" : "windDir",
		"timestamp" :1556006400
		},
	"2019-04-23T13:00:00+01:00" : {
		"windSpeed" : 2.8,
		"windDir" : 339,
		"rain" : 0,
		"cloudbase" : 731.15416000001,
		"flyability" : 100,
		"reason" : "",
		"timestamp" :1556017200
		},
	"2019-04-23T16:00:00+01:00" : {
		"windSpeed" : 3.9,
		"windDir" : 351,
		"rain" : 1,
		"cloudbase" : 1049.48652,
		"flyability" : 0,
		"reason" : "rain",
		"timestamp" :1556028000
		},
	"2019-04-23T19:00:00+01:00" : {
		"windSpeed" : 3.7,
		"windDir" : 14,
		"rain" : 0,
		"cloudbase" : 966.56588000001,
		"flyability" : 100,
		"reason" : "",
		"timestamp" :1556038800
		},
	"2019-04-23T22:00:00+01:00" : {
		"windSpeed" : 2.5,
		"windDir" : 32,
		"rain" : 0,
		"cloudbase" : 568.56,
		"flyability" : 100,
		"reason" : "",
		"timestamp" :1556049600
		},
	"2019-04-24T01:00:00+01:00" : {
		"windSpeed" : 1.8,
		"windDir" : 155,
		"rain" : 1,
		"cloudbase" : 2637.7603,
		"flyability" : 0,
		"reason" : "windDir, rain",
		"timestamp" :1556060400
		},
	"2019-04-24T04:00:00+01:00" : {
		"windSpeed" : 1.6,
		"windDir" : 165,
		"rain" : 1,
		"cloudbase" : 450.59622000001,
		"flyability" : 0,
		"reason" : "windDir, rain",
		"timestamp" :1556071200
		},
	"2019-04-24T07:00:00+01:00" : {
		"windSpeed" : 2.4,
		"windDir" : 218,
		"rain" : 1,
		"cloudbase" : 326.97351999999,
		"flyability" : 0,
		"reason" : "windDir, rain",
		"timestamp" :1556082000
		},
	"2019-04-24T10:00:00+01:00" : {
		"windSpeed" : 1.6,
		"windDir" : 215,
		"rain" : 1,
		"cloudbase" : 410.41206,
		"flyability" : 0,
		"reason" : "windDir, rain",
		"timestamp" :1556092800
		},
	"2019-04-24T13:00:00+01:00" : {
		"windSpeed" : 2.2,
		"windDir" : 167,
		"rain" : 1,
		"cloudbase" : 916.70824000001,
		"flyability" : 0,
		"reason" : "windDir, rain",
		"timestamp" :1556103600
		},
	"2019-04-24T16:00:00+01:00" : {
		"windSpeed" : 2.3,
		"windDir" : 298,
		"rain" : 1,
		"cloudbase" : 923.26,
		"flyability" : 0,
		"reason" : "windDir, rain",
		"timestamp" :1556114400
		},
	"2019-04-24T19:00:00+01:00" : {
		"windSpeed" : 2.3,
		"windDir" : 14,
		"rain" : 1,
		"cloudbase" : 684.13467999998,
		"flyability" : 0,
		"reason" : "rain",
		"timestamp" :1556125200
		},
	"2019-04-24T22:00:00+01:00" : {
		"windSpeed" : 2.4,
		"windDir" : 15,
		"rain" : 1,
		"cloudbase" : 632.68909999998,
		"flyability" : 0,
		"reason" : "rain",
		"timestamp" :1556136000
		},
	"2019-04-25T01:00:00+01:00" : {
		"windSpeed" : 1.7,
		"windDir" : 347,
		"rain" : 1,
		"cloudbase" : 2416.4015000001,
		"flyability" : 0,
		"reason" : "rain",
		"timestamp" :1556146800
		},
	"2019-04-25T04:00:00+01:00" : {
		"windSpeed" : 3,
		"windDir" : 44,
		"rain" : 1,
		"cloudbase" : 925.85794000001,
		"flyability" : 0,
		"reason" : "rain",
		"timestamp" :1556157600
		},
	"2019-04-25T07:00:00+01:00" : {
		"windSpeed" : 4.6,
		"windDir" : 77,
		"rain" : 1,
		"cloudbase" : 397.62382,
		"flyability" : 0,
		"reason" : "windDir, rain",
		"timestamp" :1556168400
		},
	"2019-04-25T10:00:00+01:00" : {
		"windSpeed" : 7.8,
		"windDir" : 197,
		"rain" : 1,
		"cloudbase" : 528.41497999999,
		"flyability" : 0,
		"reason" : "windSpeed, windDir, rain",
		"timestamp" :1556179200
		},
	"2019-04-25T13:00:00+01:00" : {
		"windSpeed" : 10.5,
		"windDir" : 204,
		"rain" : 1,
		"cloudbase" : 2216.27576,
		"flyability" : 0,
		"reason" : "windSpeed, windDir, rain",
		"timestamp" :1556190000
		},
	"2019-04-25T16:00:00+01:00" : {
		"windSpeed" : 9.1,
		"windDir" : 237,
		"rain" : 1,
		"cloudbase" : 1459.1139000001,
		"flyability" : 0,
		"reason" : "windSpeed, windDir, rain",
		"timestamp" :1556200800
		},
	"2019-04-25T19:00:00+01:00" : {
		"windSpeed" : 6.6,
		"windDir" : 236,
		"rain" : 1,
		"cloudbase" : 4425.3310999998,
		"flyability" : 0,
		"reason" : "windSpeed, windDir, rain",
		"timestamp" :1556211600
		},
	"2019-04-25T22:00:00+01:00" : {
		"windSpeed" : 6.4,
		"windDir" : 224,
		"rain" : 1,
		"cloudbase" : 5495.6794,
		"flyability" : 0,
		"reason" : "windSpeed, windDir, rain",
		"timestamp" :1556222400
		},
	"2019-04-26T01:00:00+01:00" : {
		"windSpeed" : 7.2,
		"windDir" : 253,
		"rain" : 1,
		"cloudbase" : 5841.1115999999,
		"flyability" : 0,
		"reason" : "windSpeed, windDir, rain",
		"timestamp" :1556233200
		}
	}
}