{
"site" : "Crohane",
"id" : 17444,
"orientations" : "22020202",
"forecasts" : { 
	"2019-04-20T04:00:00+01:00" : {
		"windSpeed" : 1,
		"windDir" : 268,
		"rain" : 0,
		"cloudbase" : 1382.2586699989,
		"flyability" : 0,
		"reason" : "windDir",
		"timestamp" :1555725600
		},
	"2019-04-20T07:00:00+01:00" : {
		"windSpeed" : 0.7,
		"windDir" : 37,
		"rain" : 0,
		"cloudbase" : 209.99359999981,
		"flyability" : 0,
		"reason" : "cloudbase",
		"timestamp" :1555736400
		},
	"2019-04-20T10:00:00+01:00" : {
		"windSpeed" : 0.5,
		"windDir" : 360,
		"rain" : 0,
		"cloudbase" : 8818.0809999998,
		"flyability" : 100,
		"reason" : "",
		"timestamp" :1555747200
		},
	"2019-04-20T13:00:00+01:00" : {
		"windSpeed" : 0.3,
		"windDir" : 15,
		"rain" : 0,
		"cloudbase" : 6899.3,
		"flyability" : 100,
		"reason" : "",
		"timestamp" :1555758000
		},
	"2019-04-20T16:00:00+01:00" : {
		"windSpeed" : 2,
		"windDir" : 192,
		"rain" : 0,
		"cloudbase" : 5206.6781,
		"flyability" : 0,
		"reason" : "windDir",
		"timestamp" :1555768800
		},
	"2019-04-20T19:00:00+01:00" : {
		"windSpeed" : 1.5,
		"windDir" : 259,
		"rain" : 0,
		"cloudbase" : 9357.6971000001,
		"flyability" : 0,
		"reason" : "windDir",
		"timestamp" :1555779600
		},
	"2019-04-20T22:00:00+01:00" : {
		"windSpeed" : 1.5,
		"windDir" : 355,
		"rain" : 0,
		"cloudbase" : 9143.3512000007,
		"flyability" : 100,
		"reason" : "",
		"timestamp" :1555790400
		},
	"2019-04-21T01:00:00+01:00" : {
		"windSpeed" : 0.2,
		"windDir" : 317,
		"rain" : 0,
		"cloudbase" : 8342.3373500007,
		"flyability" : 100,
		"reason" : "",
		"timestamp" :1555801200
		},
	"2019-04-21T04:00:00+01:00" : {
		"windSpeed" : 0.7,
		"windDir" : 228,
		"rain" : 0,
		"cloudbase" : 30,
		"flyability" : 0,
		"reason" : "cloudbase",
		"timestamp" :1555812000
		},
	"2019-04-21T07:00:00+01:00" : {
		"windSpeed" : 1.6,
		"windDir" : 205,
		"rain" : 0,
		"cloudbase" : 30,
		"flyability" : 0,
		"reason" : "cloudbase",
		"timestamp" :1555822800
		},
	"2019-04-21T10:00:00+01:00" : {
		"windSpeed" : 2.9,
		"windDir" : 214,
		"rain" : 0,
		"cloudbase" : 108.156095,
		"flyability" : 0,
		"reason" : "cloudbase",
		"timestamp" :1555833600
		},
	"2019-04-21T13:00:00+01:00" : {
		"windSpeed" : 3.8,
		"windDir" : 205,
		"rain" : 0,
		"cloudbase" : 314.68561999999,
		"flyability" : 0,
		"reason" : "cloudbase",
		"timestamp" :1555844400
		},
	"2019-04-21T16:00:00+01:00" : {
		"windSpeed" : 3.6,
		"windDir" : 196,
		"rain" : 1,
		"cloudbase" : 191.58219,
		"flyability" : 0,
		"reason" : "windDir, rain, cloudbase",
		"timestamp" :1555855200
		},
	"2019-04-21T19:00:00+01:00" : {
		"windSpeed" : 3.5,
		"windDir" : 182,
		"rain" : 1,
		"cloudbase" : 113.77,
		"flyability" : 0,
		"reason" : "windDir, rain, cloudbase",
		"timestamp" :1555866000
		},
	"2019-04-21T22:00:00+01:00" : {
		"windSpeed" : 4.4,
		"windDir" : 160,
		"rain" : 1,
		"cloudbase" : 37.552190000002,
		"flyability" : 0,
		"reason" : "windDir, rain, cloudbase",
		"timestamp" :1555876800
		},
	"2019-04-22T01:00:00+01:00" : {
		"windSpeed" : 5.4,
		"windDir" : 158,
		"rain" : 1,
		"cloudbase" : 33.776095000001,
		"flyability" : 0,
		"reason" : "windSpeed, windDir, rain, cloudbase",
		"timestamp" :1555887600
		},
	"2019-04-22T04:00:00+01:00" : {
		"windSpeed" : 5.2,
		"windDir" : 163,
		"rain" : 0,
		"cloudbase" : 649.88534500016,
		"flyability" : 0,
		"reason" : "windSpeed, windDir",
		"timestamp" :1555898400
		},
	"2019-04-22T07:00:00+01:00" : {
		"windSpeed" : 5,
		"windDir" : 156,
		"rain" : 0,
		"cloudbase" : 7400,
		"flyability" : 0,
		"reason" : "windDir",
		"timestamp" :1555909200
		},
	"2019-04-22T10:00:00+01:00" : {
		"windSpeed" : 6,
		"windDir" : 155,
		"rain" : 0,
		"cloudbase" : 7900,
		"flyability" : 0,
		"reason" : "windSpeed",
		"timestamp" :1555920000
		},
	"2019-04-22T13:00:00+01:00" : {
		"windSpeed" : 6.3,
		"windDir" : 162,
		"rain" : 0,
		"cloudbase" : 8278.4999999998,
		"flyability" : 0,
		"reason" : "windSpeed, windDir",
		"timestamp" :1555930800
		},
	"2019-04-22T16:00:00+01:00" : {
		"windSpeed" : 6.2,
		"windDir" : 165,
		"rain" : 1,
		"cloudbase" : 9526.6876,
		"flyability" : 0,
		"reason" : "windSpeed, windDir, rain",
		"timestamp" :1555941600
		},
	"2019-04-22T19:00:00+01:00" : {
		"windSpeed" : 4.3,
		"windDir" : 144,
		"rain" : 1,
		"cloudbase" : 8716.8133500005,
		"flyability" : 0,
		"reason" : "rain",
		"timestamp" :1555952400
		},
	"2019-04-22T22:00:00+01:00" : {
		"windSpeed" : 4.2,
		"windDir" : 134,
		"rain" : 0,
		"cloudbase" : 133.10219000001,
		"flyability" : 0,
		"reason" : "cloudbase",
		"timestamp" :1555963200
		},
	"2019-04-23T01:00:00+01:00" : {
		"windSpeed" : 3.8,
		"windDir" : 155,
		"rain" : 1,
		"cloudbase" : 94.312045000013,
		"flyability" : 0,
		"reason" : "rain, cloudbase",
		"timestamp" :1555974000
		},
	"2019-04-23T04:00:00+01:00" : {
		"windSpeed" : 2.1,
		"windDir" : 191,
		"rain" : 1,
		"cloudbase" : 97.270620000004,
		"flyability" : 0,
		"reason" : "windDir, rain, cloudbase",
		"timestamp" :1555984800
		},
	"2019-04-23T07:00:00+01:00" : {
		"windSpeed" : 0.6,
		"windDir" : 282,
		"rain" : 0,
		"cloudbase" : 2666.7328500003,
		"flyability" : 0,
		"reason" : "windDir",
		"timestamp" :1555995600
		},
	"2019-04-23T10:00:00+01:00" : {
		"windSpeed" : 1.4,
		"windDir" : 5,
		"rain" : 0,
		"cloudbase" : 2502.9201100004,
		"flyability" : 100,
		"reason" : "",
		"timestamp" :1556006400
		},
	"2019-04-23T13:00:00+01:00" : {
		"windSpeed" : 1.7,
		"windDir" : 37,
		"rain" : 1,
		"cloudbase" : 622.38876,
		"flyability" : 0,
		"reason" : "rain, cloudbase",
		"timestamp" :1556017200
		},
	"2019-04-23T16:00:00+01:00" : {
		"windSpeed" : 1.7,
		"windDir" : 356,
		"rain" : 1,
		"cloudbase" : 525.66875999999,
		"flyability" : 0,
		"reason" : "rain, cloudbase",
		"timestamp" :1556028000
		},
	"2019-04-23T19:00:00+01:00" : {
		"windSpeed" : 1.9,
		"windDir" : 336,
		"rain" : 1,
		"cloudbase" : null,
		"flyability" : 0,
		"reason" : "rain",
		"timestamp" :1556038800
		},
	"2019-04-23T22:00:00+01:00" : {
		"windSpeed" : 1.4,
		"windDir" : 119,
		"rain" : 1,
		"cloudbase" : 209.24876000001,
		"flyability" : 0,
		"reason" : "rain, cloudbase",
		"timestamp" :1556049600
		},
	"2019-04-24T01:00:00+01:00" : {
		"windSpeed" : 2.4,
		"windDir" : 152,
		"rain" : 1,
		"cloudbase" : 297.67913000006,
		"flyability" : 0,
		"reason" : "rain, cloudbase",
		"timestamp" :1556060400
		},
	"2019-04-24T04:00:00+01:00" : {
		"windSpeed" : 2,
		"windDir" : 146,
		"rain" : 1,
		"cloudbase" : 265.50256000005,
		"flyability" : 0,
		"reason" : "rain, cloudbase",
		"timestamp" :1556071200
		},
	"2019-04-24T07:00:00+01:00" : {
		"windSpeed" : 1.9,
		"windDir" : 147,
		"rain" : 1,
		"cloudbase" : 122.92985500002,
		"flyability" : 0,
		"reason" : "rain, cloudbase",
		"timestamp" :1556082000
		},
	"2019-04-24T10:00:00+01:00" : {
		"windSpeed" : 2.7,
		"windDir" : 158,
		"rain" : 1,
		"cloudbase" : 264.68000000002,
		"flyability" : 0,
		"reason" : "windDir, rain, cloudbase",
		"timestamp" :1556092800
		},
	"2019-04-24T13:00:00+01:00" : {
		"windSpeed" : 4.5,
		"windDir" : 154,
		"rain" : 1,
		"cloudbase" : 543.94343000002,
		"flyability" : 0,
		"reason" : "rain, cloudbase",
		"timestamp" :1556103600
		},
	"2019-04-24T16:00:00+01:00" : {
		"windSpeed" : 4.2,
		"windDir" : 159,
		"rain" : 1,
		"cloudbase" : 1284.8195,
		"flyability" : 0,
		"reason" : "windDir, rain",
		"timestamp" :1556114400
		},
	"2019-04-24T19:00:00+01:00" : {
		"windSpeed" : 1.9,
		"windDir" : 177,
		"rain" : 1,
		"cloudbase" : 1128.8,
		"flyability" : 0,
		"reason" : "windDir, rain",
		"timestamp" :1556125200
		},
	"2019-04-24T22:00:00+01:00" : {
		"windSpeed" : 0.7,
		"windDir" : 225,
		"rain" : 1,
		"cloudbase" : 993.06203,
		"flyability" : 0,
		"reason" : "rain",
		"timestamp" :1556136000
		},
	"2019-04-25T01:00:00+01:00" : {
		"windSpeed" : 1.1,
		"windDir" : 94,
		"rain" : 1,
		"cloudbase" : 930.8523500001,
		"flyability" : 0,
		"reason" : "windDir, rain",
		"timestamp" :1556146800
		},
	"2019-04-25T04:00:00+01:00" : {
		"windSpeed" : 1.1,
		"windDir" : 28,
		"rain" : 1,
		"cloudbase" : 305.49876000002,
		"flyability" : 0,
		"reason" : "rain, cloudbase",
		"timestamp" :1556157600
		},
	"2019-04-25T07:00:00+01:00" : {
		"windSpeed" : 4.5,
		"windDir" : 174,
		"rain" : 1,
		"cloudbase" : 507.35971000003,
		"flyability" : 0,
		"reason" : "windDir, rain, cloudbase",
		"timestamp" :1556168400
		},
	"2019-04-25T10:00:00+01:00" : {
		"windSpeed" : 4.6,
		"windDir" : 192,
		"rain" : 1,
		"cloudbase" : 955.67644000016,
		"flyability" : 0,
		"reason" : "windDir, rain",
		"timestamp" :1556179200
		},
	"2019-04-25T13:00:00+01:00" : {
		"windSpeed" : 5.6,
		"windDir" : 196,
		"rain" : 1,
		"cloudbase" : 531.55007999994,
		"flyability" : 0,
		"reason" : "windSpeed, windDir, rain, cloudbase",
		"timestamp" :1556190000
		},
	"2019-04-25T16:00:00+01:00" : {
		"windSpeed" : 4,
		"windDir" : 221,
		"rain" : 1,
		"cloudbase" : 1495.0549599995,
		"flyability" : 0,
		"reason" : "rain",
		"timestamp" :1556200800
		},
	"2019-04-25T19:00:00+01:00" : {
		"windSpeed" : 3.4,
		"windDir" : 244,
		"rain" : 1,
		"cloudbase" : 6059.3780999999,
		"flyability" : 0,
		"reason" : "rain",
		"timestamp" :1556211600
		},
	"2019-04-25T22:00:00+01:00" : {
		"windSpeed" : 2.8,
		"windDir" : 226,
		"rain" : 0,
		"cloudbase" : 5191.1,
		"flyability" : 100,
		"reason" : "",
		"timestamp" :1556222400
		},
	"2019-04-26T01:00:00+01:00" : {
		"windSpeed" : 2.7,
		"windDir" : 249,
		"rain" : 0,
		"cloudbase" : 5816.1438000001,
		"flyability" : 0,
		"reason" : "windDir",
		"timestamp" :1556233200
		}
	}
}