{
"site" : "Mweelrea Mt. North",
"id" : 17508,
"orientations" : "20000022",
"forecasts" : { 
	"2019-04-14T04:00:00+01:00" : {
		"windSpeed" : 8.7,
		"windDir" : 123,
		"rain" : 1,
		"cloudbase" : 457.15064000011,
		"flyability" : 0,
		"reason" : "windSpeed, windDir, rain, cloudbase",
		"timestamp" :1555207200
		},
	"2019-04-14T07:00:00+01:00" : {
		"windSpeed" : 8.5,
		"windDir" : 123,
		"rain" : 1,
		"cloudbase" : 310.31780000011,
		"flyability" : 0,
		"reason" : "windSpeed, windDir, rain, cloudbase",
		"timestamp" :1555218000
		},
	"2019-04-14T10:00:00+01:00" : {
		"windSpeed" : 8.4,
		"windDir" : 132,
		"rain" : 1,
		"cloudbase" : 425.80640000005,
		"flyability" : 0,
		"reason" : "windSpeed, windDir, rain, cloudbase",
		"timestamp" :1555228800
		},
	"2019-04-14T13:00:00+01:00" : {
		"windSpeed" : 8.8,
		"windDir" : 144,
		"rain" : 1,
		"cloudbase" : 429.74000000001,
		"flyability" : 0,
		"reason" : "windSpeed, windDir, rain, cloudbase",
		"timestamp" :1555239600
		},
	"2019-04-14T16:00:00+01:00" : {
		"windSpeed" : 6.8,
		"windDir" : 129,
		"rain" : 1,
		"cloudbase" : 508.78000000002,
		"flyability" : 0,
		"reason" : "windSpeed, windDir, rain, cloudbase",
		"timestamp" :1555250400
		},
	"2019-04-14T19:00:00+01:00" : {
		"windSpeed" : 6.1,
		"windDir" : 118,
		"rain" : 1,
		"cloudbase" : 623.81664000003,
		"flyability" : 0,
		"reason" : "windSpeed, windDir, rain, cloudbase",
		"timestamp" :1555261200
		},
	"2019-04-14T22:00:00+01:00" : {
		"windSpeed" : 6.6,
		"windDir" : 118,
		"rain" : 1,
		"cloudbase" : 749.66424000008,
		"flyability" : 0,
		"reason" : "windSpeed, windDir, rain, cloudbase",
		"timestamp" :1555272000
		},
	"2019-04-15T01:00:00+01:00" : {
		"windSpeed" : 7.5,
		"windDir" : 117,
		"rain" : 1,
		"cloudbase" : 1404.1460000001,
		"flyability" : 0,
		"reason" : "windSpeed, windDir, rain",
		"timestamp" :1555282800
		},
	"2019-04-15T04:00:00+01:00" : {
		"windSpeed" : 8.5,
		"windDir" : 111,
		"rain" : 0,
		"cloudbase" : 1901.0956000001,
		"flyability" : 0,
		"reason" : "windSpeed, windDir",
		"timestamp" :1555293600
		},
	"2019-04-15T07:00:00+01:00" : {
		"windSpeed" : 10.6,
		"windDir" : 115,
		"rain" : 1,
		"cloudbase" : 2496.2920000001,
		"flyability" : 0,
		"reason" : "windSpeed, windDir, rain",
		"timestamp" :1555304400
		},
	"2019-04-15T10:00:00+01:00" : {
		"windSpeed" : 10.6,
		"windDir" : 117,
		"rain" : 1,
		"cloudbase" : 2692.6336000003,
		"flyability" : 0,
		"reason" : "windSpeed, windDir, rain",
		"timestamp" :1555315200
		},
	"2019-04-15T13:00:00+01:00" : {
		"windSpeed" : 11,
		"windDir" : 122,
		"rain" : 1,
		"cloudbase" : 2664.0124,
		"flyability" : 0,
		"reason" : "windSpeed, windDir, rain",
		"timestamp" :1555326000
		},
	"2019-04-15T16:00:00+01:00" : {
		"windSpeed" : 10.5,
		"windDir" : 124,
		"rain" : 1,
		"cloudbase" : 3057.0256000004,
		"flyability" : 0,
		"reason" : "windSpeed, windDir, rain",
		"timestamp" :1555336800
		},
	"2019-04-15T19:00:00+01:00" : {
		"windSpeed" : 9.4,
		"windDir" : 142,
		"rain" : 1,
		"cloudbase" : 517.16408000005,
		"flyability" : 0,
		"reason" : "windSpeed, windDir, rain, cloudbase",
		"timestamp" :1555347600
		},
	"2019-04-15T22:00:00+01:00" : {
		"windSpeed" : 6,
		"windDir" : 150,
		"rain" : 1,
		"cloudbase" : 651.13344,
		"flyability" : 0,
		"reason" : "windSpeed, windDir, rain, cloudbase",
		"timestamp" :1555358400
		},
	"2019-04-16T01:00:00+01:00" : {
		"windSpeed" : 4,
		"windDir" : 150,
		"rain" : 1,
		"cloudbase" : 1710.0895200003,
		"flyability" : 0,
		"reason" : "windDir, rain",
		"timestamp" :1555369200
		},
	"2019-04-16T04:00:00+01:00" : {
		"windSpeed" : 3.7,
		"windDir" : 140,
		"rain" : 0,
		"cloudbase" : 7629.1008000002,
		"flyability" : 0,
		"reason" : "windDir",
		"timestamp" :1555380000
		},
	"2019-04-16T07:00:00+01:00" : {
		"windSpeed" : 3.2,
		"windDir" : 134,
		"rain" : 0,
		"cloudbase" : 30,
		"flyability" : 0,
		"reason" : "windDir, cloudbase",
		"timestamp" :1555390800
		},
	"2019-04-16T10:00:00+01:00" : {
		"windSpeed" : 3.7,
		"windDir" : 140,
		"rain" : 1,
		"cloudbase" : 220,
		"flyability" : 0,
		"reason" : "windDir, rain, cloudbase",
		"timestamp" :1555401600
		},
	"2019-04-16T13:00:00+01:00" : {
		"windSpeed" : 3.8,
		"windDir" : 154,
		"rain" : 0,
		"cloudbase" : 1724.9980000003,
		"flyability" : 0,
		"reason" : "windDir",
		"timestamp" :1555412400
		},
	"2019-04-16T16:00:00+01:00" : {
		"windSpeed" : 3.2,
		"windDir" : 175,
		"rain" : 1,
		"cloudbase" : 1552.9,
		"flyability" : 0,
		"reason" : "windDir, rain",
		"timestamp" :1555423200
		},
	"2019-04-16T19:00:00+01:00" : {
		"windSpeed" : 1.5,
		"windDir" : 88,
		"rain" : 1,
		"cloudbase" : 6808.5343999999,
		"flyability" : 0,
		"reason" : "windDir, rain",
		"timestamp" :1555434000
		},
	"2019-04-16T22:00:00+01:00" : {
		"windSpeed" : 5,
		"windDir" : 104,
		"rain" : 0,
		"cloudbase" : 7875.0423999999,
		"flyability" : 0,
		"reason" : "windDir",
		"timestamp" :1555444800
		},
	"2019-04-17T01:00:00+01:00" : {
		"windSpeed" : 3.7,
		"windDir" : 130,
		"rain" : 0,
		"cloudbase" : 8323.6176000002,
		"flyability" : 0,
		"reason" : "windDir",
		"timestamp" :1555455600
		},
	"2019-04-17T04:00:00+01:00" : {
		"windSpeed" : 4.2,
		"windDir" : 120,
		"rain" : 1,
		"cloudbase" : 3525.7650400007,
		"flyability" : 0,
		"reason" : "windDir, rain",
		"timestamp" :1555466400
		},
	"2019-04-17T07:00:00+01:00" : {
		"windSpeed" : 5,
		"windDir" : 125,
		"rain" : 0,
		"cloudbase" : 106.74832000001,
		"flyability" : 0,
		"reason" : "windDir, cloudbase",
		"timestamp" :1555477200
		},
	"2019-04-17T10:00:00+01:00" : {
		"windSpeed" : 5.4,
		"windDir" : 131,
		"rain" : 1,
		"cloudbase" : 4152.3,
		"flyability" : 0,
		"reason" : "windSpeed, windDir, rain",
		"timestamp" :1555488000
		},
	"2019-04-17T13:00:00+01:00" : {
		"windSpeed" : 5.1,
		"windDir" : 128,
		"rain" : 1,
		"cloudbase" : 2855.5584,
		"flyability" : 0,
		"reason" : "windSpeed, windDir, rain",
		"timestamp" :1555498800
		},
	"2019-04-17T16:00:00+01:00" : {
		"windSpeed" : 4.9,
		"windDir" : 135,
		"rain" : 0,
		"cloudbase" : 7417.0832,
		"flyability" : 0,
		"reason" : "windDir",
		"timestamp" :1555509600
		},
	"2019-04-17T19:00:00+01:00" : {
		"windSpeed" : 3.9,
		"windDir" : 121,
		"rain" : 0,
		"cloudbase" : 8048.6495999999,
		"flyability" : 0,
		"reason" : "windDir",
		"timestamp" :1555520400
		},
	"2019-04-17T22:00:00+01:00" : {
		"windSpeed" : 4.1,
		"windDir" : 118,
		"rain" : 1,
		"cloudbase" : 8723.0584,
		"flyability" : 0,
		"reason" : "windDir, rain",
		"timestamp" :1555531200
		},
	"2019-04-18T01:00:00+01:00" : {
		"windSpeed" : 5,
		"windDir" : 114,
		"rain" : 0,
		"cloudbase" : 8621.8832,
		"flyability" : 0,
		"reason" : "windDir",
		"timestamp" :1555542000
		},
	"2019-04-18T04:00:00+01:00" : {
		"windSpeed" : 4.9,
		"windDir" : 109,
		"rain" : 0,
		"cloudbase" : 5793.3080000001,
		"flyability" : 0,
		"reason" : "windDir",
		"timestamp" :1555552800
		},
	"2019-04-18T07:00:00+01:00" : {
		"windSpeed" : 5.1,
		"windDir" : 114,
		"rain" : 0,
		"cloudbase" : 5807.5911999999,
		"flyability" : 0,
		"reason" : "windSpeed, windDir",
		"timestamp" :1555563600
		},
	"2019-04-18T10:00:00+01:00" : {
		"windSpeed" : 5.1,
		"windDir" : 114,
		"rain" : 0,
		"cloudbase" : null,
		"flyability" : 0,
		"reason" : "windSpeed, windDir",
		"timestamp" :1555574400
		},
	"2019-04-18T13:00:00+01:00" : {
		"windSpeed" : 5,
		"windDir" : 136,
		"rain" : 0,
		"cloudbase" : null,
		"flyability" : 0,
		"reason" : "windDir",
		"timestamp" :1555585200
		},
	"2019-04-18T16:00:00+01:00" : {
		"windSpeed" : 5.1,
		"windDir" : 141,
		"rain" : 0,
		"cloudbase" : null,
		"flyability" : 0,
		"reason" : "windSpeed, windDir",
		"timestamp" :1555596000
		},
	"2019-04-18T19:00:00+01:00" : {
		"windSpeed" : 3.5,
		"windDir" : 147,
		"rain" : 1,
		"cloudbase" : 6541.4016000003,
		"flyability" : 0,
		"reason" : "windDir, rain",
		"timestamp" :1555606800
		},
	"2019-04-18T22:00:00+01:00" : {
		"windSpeed" : 3.4,
		"windDir" : 137,
		"rain" : 1,
		"cloudbase" : null,
		"flyability" : 0,
		"reason" : "windDir, rain",
		"timestamp" :1555617600
		},
	"2019-04-19T01:00:00+01:00" : {
		"windSpeed" : 4,
		"windDir" : 135,
		"rain" : 0,
		"cloudbase" : 9282.7416,
		"flyability" : 0,
		"reason" : "windDir",
		"timestamp" :1555628400
		},
	"2019-04-19T04:00:00+01:00" : {
		"windSpeed" : 4,
		"windDir" : 138,
		"rain" : 1,
		"cloudbase" : 7722.4,
		"flyability" : 0,
		"reason" : "windDir, rain",
		"timestamp" :1555639200
		},
	"2019-04-19T07:00:00+01:00" : {
		"windSpeed" : 3.8,
		"windDir" : 137,
		"rain" : 1,
		"cloudbase" : null,
		"flyability" : 0,
		"reason" : "windDir, rain",
		"timestamp" :1555650000
		},
	"2019-04-19T10:00:00+01:00" : {
		"windSpeed" : 4.1,
		"windDir" : 146,
		"rain" : 0,
		"cloudbase" : null,
		"flyability" : 0,
		"reason" : "windDir",
		"timestamp" :1555660800
		},
	"2019-04-19T13:00:00+01:00" : {
		"windSpeed" : 4.4,
		"windDir" : 167,
		"rain" : 0,
		"cloudbase" : 12054.708,
		"flyability" : 0,
		"reason" : "windDir",
		"timestamp" :1555671600
		},
	"2019-04-19T16:00:00+01:00" : {
		"windSpeed" : 3.7,
		"windDir" : 191,
		"rain" : 0,
		"cloudbase" : 9727.8584,
		"flyability" : 0,
		"reason" : "windDir",
		"timestamp" :1555682400
		},
	"2019-04-19T19:00:00+01:00" : {
		"windSpeed" : 1.5,
		"windDir" : 235,
		"rain" : 0,
		"cloudbase" : 11359,
		"flyability" : 0,
		"reason" : "windDir",
		"timestamp" :1555693200
		},
	"2019-04-19T22:00:00+01:00" : {
		"windSpeed" : 0.4,
		"windDir" : 12,
		"rain" : 0,
		"cloudbase" : 10280.292,
		"flyability" : 100,
		"reason" : "",
		"timestamp" :1555704000
		},
	"2019-04-20T01:00:00+01:00" : {
		"windSpeed" : 1.7,
		"windDir" : 175,
		"rain" : 0,
		"cloudbase" : 9656.0584,
		"flyability" : 0,
		"reason" : "windDir",
		"timestamp" :1555714800
		}
	}
}