{
"site" : "Delfin",
"id" : 18253,
"orientations" : "02100000",
"forecasts" : { 
	"2019-04-14T18:00:00+03:00" : {
		"windSpeed" : 5.8,
		"windDir" : 10,
		"rain" : 1,
		"cloudbase" : 643.9464,
		"flyability" : 0,
		"reason" : "windSpeed, windDir, rain",
		"timestamp" :1555254000
		},
	"2019-04-14T21:00:00+03:00" : {
		"windSpeed" : 4.9,
		"windDir" : 354,
		"rain" : 1,
		"cloudbase" : 534.46399999999,
		"flyability" : 0,
		"reason" : "windDir, rain",
		"timestamp" :1555264800
		},
	"2019-04-15T00:00:00+03:00" : {
		"windSpeed" : 4.6,
		"windDir" : 339,
		"rain" : 1,
		"cloudbase" : 492.67039999999,
		"flyability" : 0,
		"reason" : "windDir, rain",
		"timestamp" :1555275600
		},
	"2019-04-15T03:00:00+03:00" : {
		"windSpeed" : 5,
		"windDir" : 321,
		"rain" : 1,
		"cloudbase" : 572.27999999999,
		"flyability" : 0,
		"reason" : "windDir, rain",
		"timestamp" :1555286400
		},
	"2019-04-15T06:00:00+03:00" : {
		"windSpeed" : 4.8,
		"windDir" : 335,
		"rain" : 1,
		"cloudbase" : 464.2336,
		"flyability" : 0,
		"reason" : "windDir, rain",
		"timestamp" :1555297200
		},
	"2019-04-15T09:00:00+03:00" : {
		"windSpeed" : 5,
		"windDir" : 344,
		"rain" : 1,
		"cloudbase" : 354.4264,
		"flyability" : 0,
		"reason" : "windDir, rain",
		"timestamp" :1555308000
		},
	"2019-04-15T12:00:00+03:00" : {
		"windSpeed" : 5.3,
		"windDir" : 0,
		"rain" : 1,
		"cloudbase" : 670.80039999999,
		"flyability" : 0,
		"reason" : "windSpeed, windDir, rain",
		"timestamp" :1555318800
		},
	"2019-04-15T15:00:00+03:00" : {
		"windSpeed" : 5.9,
		"windDir" : 14,
		"rain" : 0,
		"cloudbase" : 633.0728,
		"flyability" : 0,
		"reason" : "windSpeed, windDir",
		"timestamp" :1555329600
		},
	"2019-04-15T18:00:00+03:00" : {
		"windSpeed" : 3.7,
		"windDir" : 46,
		"rain" : 1,
		"cloudbase" : 862.2392,
		"flyability" : 0,
		"reason" : "rain",
		"timestamp" :1555340400
		},
	"2019-04-15T21:00:00+03:00" : {
		"windSpeed" : 1.6,
		"windDir" : 129,
		"rain" : 0,
		"cloudbase" : null,
		"flyability" : 0,
		"reason" : "windDir",
		"timestamp" :1555351200
		},
	"2019-04-16T00:00:00+03:00" : {
		"windSpeed" : 1.6,
		"windDir" : 291,
		"rain" : 0,
		"cloudbase" : null,
		"flyability" : 0,
		"reason" : "windDir",
		"timestamp" :1555362000
		},
	"2019-04-16T03:00:00+03:00" : {
		"windSpeed" : 1.9,
		"windDir" : 296,
		"rain" : 0,
		"cloudbase" : null,
		"flyability" : 0,
		"reason" : "windDir",
		"timestamp" :1555372800
		},
	"2019-04-16T06:00:00+03:00" : {
		"windSpeed" : 3.2,
		"windDir" : 306,
		"rain" : 1,
		"cloudbase" : null,
		"flyability" : 0,
		"reason" : "windDir, rain",
		"timestamp" :1555383600
		},
	"2019-04-16T09:00:00+03:00" : {
		"windSpeed" : 4,
		"windDir" : 346,
		"rain" : 0,
		"cloudbase" : null,
		"flyability" : 0,
		"reason" : "windDir",
		"timestamp" :1555394400
		},
	"2019-04-16T12:00:00+03:00" : {
		"windSpeed" : 3.2,
		"windDir" : 8,
		"rain" : 0,
		"cloudbase" : null,
		"flyability" : 0,
		"reason" : "windDir",
		"timestamp" :1555405200
		},
	"2019-04-16T15:00:00+03:00" : {
		"windSpeed" : 2.1,
		"windDir" : 63,
		"rain" : 0,
		"cloudbase" : null,
		"flyability" : 100,
		"reason" : "",
		"timestamp" :1555416000
		},
	"2019-04-16T18:00:00+03:00" : {
		"windSpeed" : 3.8,
		"windDir" : 146,
		"rain" : 0,
		"cloudbase" : null,
		"flyability" : 0,
		"reason" : "windDir",
		"timestamp" :1555426800
		},
	"2019-04-16T21:00:00+03:00" : {
		"windSpeed" : 4.4,
		"windDir" : 186,
		"rain" : 0,
		"cloudbase" : null,
		"flyability" : 0,
		"reason" : "windDir",
		"timestamp" :1555437600
		},
	"2019-04-17T00:00:00+03:00" : {
		"windSpeed" : 2.9,
		"windDir" : 179,
		"rain" : 0,
		"cloudbase" : null,
		"flyability" : 0,
		"reason" : "windDir",
		"timestamp" :1555448400
		},
	"2019-04-17T03:00:00+03:00" : {
		"windSpeed" : 2.4,
		"windDir" : 182,
		"rain" : 0,
		"cloudbase" : null,
		"flyability" : 0,
		"reason" : "windDir",
		"timestamp" :1555459200
		},
	"2019-04-17T06:00:00+03:00" : {
		"windSpeed" : 2,
		"windDir" : 283,
		"rain" : 0,
		"cloudbase" : 2454.766,
		"flyability" : 0,
		"reason" : "windDir",
		"timestamp" :1555470000
		},
	"2019-04-17T09:00:00+03:00" : {
		"windSpeed" : 0.6,
		"windDir" : 319,
		"rain" : 0,
		"cloudbase" : 2929.284,
		"flyability" : 0,
		"reason" : "windDir",
		"timestamp" :1555480800
		},
	"2019-04-17T12:00:00+03:00" : {
		"windSpeed" : 2.1,
		"windDir" : 75,
		"rain" : 0,
		"cloudbase" : 3150,
		"flyability" : 100,
		"reason" : "",
		"timestamp" :1555491600
		},
	"2019-04-17T15:00:00+03:00" : {
		"windSpeed" : 1.3,
		"windDir" : 86,
		"rain" : 1,
		"cloudbase" : 5684.912,
		"flyability" : 0,
		"reason" : "rain",
		"timestamp" :1555502400
		},
	"2019-04-17T18:00:00+03:00" : {
		"windSpeed" : 3.4,
		"windDir" : 51,
		"rain" : 0,
		"cloudbase" : 7173.104,
		"flyability" : 100,
		"reason" : "",
		"timestamp" :1555513200
		},
	"2019-04-17T21:00:00+03:00" : {
		"windSpeed" : 2.1,
		"windDir" : 38,
		"rain" : 1,
		"cloudbase" : 5759.3479999999,
		"flyability" : 0,
		"reason" : "rain",
		"timestamp" :1555524000
		},
	"2019-04-18T00:00:00+03:00" : {
		"windSpeed" : 2.1,
		"windDir" : 35,
		"rain" : 0,
		"cloudbase" : 7400,
		"flyability" : 100,
		"reason" : "",
		"timestamp" :1555534800
		},
	"2019-04-18T03:00:00+03:00" : {
		"windSpeed" : 2.1,
		"windDir" : 4,
		"rain" : 0,
		"cloudbase" : null,
		"flyability" : 0,
		"reason" : "windDir",
		"timestamp" :1555545600
		},
	"2019-04-18T06:00:00+03:00" : {
		"windSpeed" : 2.5,
		"windDir" : 4,
		"rain" : 0,
		"cloudbase" : 1300,
		"flyability" : 0,
		"reason" : "windDir",
		"timestamp" :1555556400
		},
	"2019-04-18T09:00:00+03:00" : {
		"windSpeed" : 3.7,
		"windDir" : 359,
		"rain" : 1,
		"cloudbase" : 1400,
		"flyability" : 0,
		"reason" : "windDir, rain",
		"timestamp" :1555567200
		},
	"2019-04-18T12:00:00+03:00" : {
		"windSpeed" : 3.9,
		"windDir" : 22,
		"rain" : 1,
		"cloudbase" : null,
		"flyability" : 0,
		"reason" : "windDir, rain",
		"timestamp" :1555578000
		},
	"2019-04-18T15:00:00+03:00" : {
		"windSpeed" : 3.3,
		"windDir" : 27,
		"rain" : 0,
		"cloudbase" : null,
		"flyability" : 100,
		"reason" : "",
		"timestamp" :1555588800
		},
	"2019-04-18T18:00:00+03:00" : {
		"windSpeed" : 2.1,
		"windDir" : 45,
		"rain" : 0,
		"cloudbase" : null,
		"flyability" : 100,
		"reason" : "",
		"timestamp" :1555599600
		},
	"2019-04-18T21:00:00+03:00" : {
		"windSpeed" : 2.8,
		"windDir" : 13,
		"rain" : 0,
		"cloudbase" : 660,
		"flyability" : 0,
		"reason" : "windDir",
		"timestamp" :1555610400
		},
	"2019-04-19T00:00:00+03:00" : {
		"windSpeed" : 1.9,
		"windDir" : 21,
		"rain" : 0,
		"cloudbase" : 2398.066,
		"flyability" : 0,
		"reason" : "windDir",
		"timestamp" :1555621200
		},
	"2019-04-19T03:00:00+03:00" : {
		"windSpeed" : 2.5,
		"windDir" : 31,
		"rain" : 1,
		"cloudbase" : 1083.618,
		"flyability" : 0,
		"reason" : "rain",
		"timestamp" :1555632000
		},
	"2019-04-19T06:00:00+03:00" : {
		"windSpeed" : 4.7,
		"windDir" : 27,
		"rain" : 1,
		"cloudbase" : 1313.99,
		"flyability" : 0,
		"reason" : "rain",
		"timestamp" :1555642800
		},
	"2019-04-19T09:00:00+03:00" : {
		"windSpeed" : 5.3,
		"windDir" : 6,
		"rain" : 1,
		"cloudbase" : 3300,
		"flyability" : 0,
		"reason" : "windSpeed, windDir, rain",
		"timestamp" :1555653600
		},
	"2019-04-19T12:00:00+03:00" : {
		"windSpeed" : 4.2,
		"windDir" : 30,
		"rain" : 0,
		"cloudbase" : null,
		"flyability" : 100,
		"reason" : "",
		"timestamp" :1555664400
		},
	"2019-04-19T15:00:00+03:00" : {
		"windSpeed" : 2.9,
		"windDir" : 48,
		"rain" : 1,
		"cloudbase" : null,
		"flyability" : 0,
		"reason" : "rain",
		"timestamp" :1555675200
		},
	"2019-04-19T18:00:00+03:00" : {
		"windSpeed" : 1.6,
		"windDir" : 76,
		"rain" : 0,
		"cloudbase" : 1832.068,
		"flyability" : 100,
		"reason" : "",
		"timestamp" :1555686000
		},
	"2019-04-19T21:00:00+03:00" : {
		"windSpeed" : 1.2,
		"windDir" : 90,
		"rain" : 1,
		"cloudbase" : 1897.596,
		"flyability" : 0,
		"reason" : "rain",
		"timestamp" :1555696800
		},
	"2019-04-20T00:00:00+03:00" : {
		"windSpeed" : 3.8,
		"windDir" : 56,
		"rain" : 0,
		"cloudbase" : 1422.1,
		"flyability" : 100,
		"reason" : "",
		"timestamp" :1555707600
		},
	"2019-04-20T03:00:00+03:00" : {
		"windSpeed" : 4.9,
		"windDir" : 26,
		"rain" : 1,
		"cloudbase" : 2600,
		"flyability" : 0,
		"reason" : "rain",
		"timestamp" :1555718400
		},
	"2019-04-20T06:00:00+03:00" : {
		"windSpeed" : 6.1,
		"windDir" : 15,
		"rain" : 0,
		"cloudbase" : 1850,
		"flyability" : 0,
		"reason" : "windSpeed, windDir",
		"timestamp" :1555729200
		},
	"2019-04-20T09:00:00+03:00" : {
		"windSpeed" : 6.5,
		"windDir" : 10,
		"rain" : 1,
		"cloudbase" : 460,
		"flyability" : 0,
		"reason" : "windSpeed, windDir, rain",
		"timestamp" :1555740000
		},
	"2019-04-20T12:00:00+03:00" : {
		"windSpeed" : 6.9,
		"windDir" : 2,
		"rain" : 1,
		"cloudbase" : null,
		"flyability" : 0,
		"reason" : "windSpeed, windDir, rain",
		"timestamp" :1555750800
		},
	"2019-04-20T15:00:00+03:00" : {
		"windSpeed" : 7.3,
		"windDir" : 20,
		"rain" : 1,
		"cloudbase" : 5000,
		"flyability" : 0,
		"reason" : "windSpeed, windDir, rain",
		"timestamp" :1555761600
		}
	}
}