{
"site" : "KILI\u00c3\u2021KAYA",
"id" : 18383,
"orientations" : "00012222",
"forecasts" : { 
	"2019-04-05T06:00:00+03:00" : {
		"windSpeed" : 1.1,
		"windDir" : 102,
		"rain" : 0,
		"cloudbase" : null,
		"flyability" : 0,
		"reason" : "windDir",
		"timestamp" :1554433200
		},
	"2019-04-05T09:00:00+03:00" : {
		"windSpeed" : 0.9,
		"windDir" : 172,
		"rain" : 0,
		"cloudbase" : null,
		"flyability" : 100,
		"reason" : "",
		"timestamp" :1554444000
		},
	"2019-04-05T12:00:00+03:00" : {
		"windSpeed" : 0.8,
		"windDir" : 256,
		"rain" : 0,
		"cloudbase" : null,
		"flyability" : 100,
		"reason" : "",
		"timestamp" :1554454800
		},
	"2019-04-05T15:00:00+03:00" : {
		"windSpeed" : 2.4,
		"windDir" : 28,
		"rain" : 0,
		"cloudbase" : null,
		"flyability" : 0,
		"reason" : "windDir",
		"timestamp" :1554465600
		},
	"2019-04-05T18:00:00+03:00" : {
		"windSpeed" : 2.5,
		"windDir" : 26,
		"rain" : 1,
		"cloudbase" : null,
		"flyability" : 0,
		"reason" : "windDir, rain",
		"timestamp" :1554476400
		},
	"2019-04-05T21:00:00+03:00" : {
		"windSpeed" : 1.5,
		"windDir" : 47,
		"rain" : 0,
		"cloudbase" : null,
		"flyability" : 0,
		"reason" : "windDir",
		"timestamp" :1554487200
		},
	"2019-04-06T00:00:00+03:00" : {
		"windSpeed" : 1,
		"windDir" : 90,
		"rain" : 0,
		"cloudbase" : null,
		"flyability" : 0,
		"reason" : "windDir",
		"timestamp" :1554498000
		},
	"2019-04-06T03:00:00+03:00" : {
		"windSpeed" : 1.1,
		"windDir" : 101,
		"rain" : 0,
		"cloudbase" : null,
		"flyability" : 0,
		"reason" : "windDir",
		"timestamp" :1554508800
		},
	"2019-04-06T06:00:00+03:00" : {
		"windSpeed" : 1.6,
		"windDir" : 97,
		"rain" : 0,
		"cloudbase" : null,
		"flyability" : 0,
		"reason" : "windDir",
		"timestamp" :1554519600
		},
	"2019-04-06T09:00:00+03:00" : {
		"windSpeed" : 1.7,
		"windDir" : 130,
		"rain" : 0,
		"cloudbase" : null,
		"flyability" : 100,
		"reason" : "",
		"timestamp" :1554530400
		},
	"2019-04-06T12:00:00+03:00" : {
		"windSpeed" : 2.6,
		"windDir" : 150,
		"rain" : 0,
		"cloudbase" : null,
		"flyability" : 100,
		"reason" : "",
		"timestamp" :1554541200
		},
	"2019-04-06T15:00:00+03:00" : {
		"windSpeed" : 1.8,
		"windDir" : 96,
		"rain" : 0,
		"cloudbase" : 4176.3591999987,
		"flyability" : 0,
		"reason" : "windDir",
		"timestamp" :1554552000
		},
	"2019-04-06T18:00:00+03:00" : {
		"windSpeed" : 3.1,
		"windDir" : 14,
		"rain" : 0,
		"cloudbase" : 3517.9444000001,
		"flyability" : 0,
		"reason" : "windDir",
		"timestamp" :1554562800
		},
	"2019-04-06T21:00:00+03:00" : {
		"windSpeed" : 0.5,
		"windDir" : 253,
		"rain" : 0,
		"cloudbase" : 4284.0440000017,
		"flyability" : 100,
		"reason" : "",
		"timestamp" :1554573600
		},
	"2019-04-07T00:00:00+03:00" : {
		"windSpeed" : 1.1,
		"windDir" : 153,
		"rain" : 0,
		"cloudbase" : 5766.0916000003,
		"flyability" : 100,
		"reason" : "",
		"timestamp" :1554584400
		},
	"2019-04-07T03:00:00+03:00" : {
		"windSpeed" : 1.2,
		"windDir" : 140,
		"rain" : 0,
		"cloudbase" : 2435.8481600012,
		"flyability" : 100,
		"reason" : "",
		"timestamp" :1554595200
		},
	"2019-04-07T06:00:00+03:00" : {
		"windSpeed" : 1.8,
		"windDir" : 118,
		"rain" : 1,
		"cloudbase" : 6919.1112000004,
		"flyability" : 0,
		"reason" : "rain",
		"timestamp" :1554606000
		},
	"2019-04-07T09:00:00+03:00" : {
		"windSpeed" : 2.1,
		"windDir" : 133,
		"rain" : 0,
		"cloudbase" : 7003.8000000001,
		"flyability" : 100,
		"reason" : "",
		"timestamp" :1554616800
		},
	"2019-04-07T12:00:00+03:00" : {
		"windSpeed" : 4,
		"windDir" : 158,
		"rain" : 0,
		"cloudbase" : 8018.6224000001,
		"flyability" : 100,
		"reason" : "",
		"timestamp" :1554627600
		},
	"2019-04-07T15:00:00+03:00" : {
		"windSpeed" : 2.1,
		"windDir" : 146,
		"rain" : 0,
		"cloudbase" : 1742.0556,
		"flyability" : 100,
		"reason" : "",
		"timestamp" :1554638400
		},
	"2019-04-07T18:00:00+03:00" : {
		"windSpeed" : 0.5,
		"windDir" : 360,
		"rain" : 0,
		"cloudbase" : 1900,
		"flyability" : 0,
		"reason" : "windDir",
		"timestamp" :1554649200
		},
	"2019-04-07T21:00:00+03:00" : {
		"windSpeed" : 0.8,
		"windDir" : 152,
		"rain" : 0,
		"cloudbase" : 2388.7888000001,
		"flyability" : 100,
		"reason" : "",
		"timestamp" :1554660000
		},
	"2019-04-08T00:00:00+03:00" : {
		"windSpeed" : 1.4,
		"windDir" : 117,
		"rain" : 0,
		"cloudbase" : null,
		"flyability" : 100,
		"reason" : "",
		"timestamp" :1554670800
		},
	"2019-04-08T03:00:00+03:00" : {
		"windSpeed" : 1.6,
		"windDir" : 114,
		"rain" : 0,
		"cloudbase" : null,
		"flyability" : 100,
		"reason" : "",
		"timestamp" :1554681600
		},
	"2019-04-08T06:00:00+03:00" : {
		"windSpeed" : 1.7,
		"windDir" : 113,
		"rain" : 0,
		"cloudbase" : null,
		"flyability" : 100,
		"reason" : "",
		"timestamp" :1554692400
		},
	"2019-04-08T09:00:00+03:00" : {
		"windSpeed" : 2.1,
		"windDir" : 143,
		"rain" : 1,
		"cloudbase" : null,
		"flyability" : 0,
		"reason" : "rain",
		"timestamp" :1554703200
		},
	"2019-04-08T12:00:00+03:00" : {
		"windSpeed" : 3.1,
		"windDir" : 185,
		"rain" : 1,
		"cloudbase" : null,
		"flyability" : 0,
		"reason" : "rain",
		"timestamp" :1554714000
		},
	"2019-04-08T15:00:00+03:00" : {
		"windSpeed" : 0.4,
		"windDir" : 215,
		"rain" : 0,
		"cloudbase" : 1750,
		"flyability" : 100,
		"reason" : "",
		"timestamp" :1554724800
		},
	"2019-04-08T18:00:00+03:00" : {
		"windSpeed" : 1.3,
		"windDir" : 50,
		"rain" : 0,
		"cloudbase" : 3150,
		"flyability" : 0,
		"reason" : "windDir",
		"timestamp" :1554735600
		},
	"2019-04-08T21:00:00+03:00" : {
		"windSpeed" : 1.1,
		"windDir" : 23,
		"rain" : 1,
		"cloudbase" : 231.82467999996,
		"flyability" : 0,
		"reason" : "windDir, rain, cloudbase",
		"timestamp" :1554746400
		},
	"2019-04-09T00:00:00+03:00" : {
		"windSpeed" : 1.1,
		"windDir" : 152,
		"rain" : 1,
		"cloudbase" : 40,
		"flyability" : 0,
		"reason" : "rain, cloudbase",
		"timestamp" :1554757200
		},
	"2019-04-09T03:00:00+03:00" : {
		"windSpeed" : 1.7,
		"windDir" : 191,
		"rain" : 1,
		"cloudbase" : 840.30055999974,
		"flyability" : 0,
		"reason" : "rain, cloudbase",
		"timestamp" :1554768000
		},
	"2019-04-09T06:00:00+03:00" : {
		"windSpeed" : 1.6,
		"windDir" : 160,
		"rain" : 1,
		"cloudbase" : 2620.5332000002,
		"flyability" : 0,
		"reason" : "rain",
		"timestamp" :1554778800
		},
	"2019-04-09T09:00:00+03:00" : {
		"windSpeed" : 2.1,
		"windDir" : 152,
		"rain" : 1,
		"cloudbase" : 4540.5000000001,
		"flyability" : 0,
		"reason" : "rain",
		"timestamp" :1554789600
		},
	"2019-04-09T12:00:00+03:00" : {
		"windSpeed" : 3.6,
		"windDir" : 211,
		"rain" : 1,
		"cloudbase" : 6350.6,
		"flyability" : 0,
		"reason" : "rain",
		"timestamp" :1554800400
		},
	"2019-04-09T15:00:00+03:00" : {
		"windSpeed" : 2.9,
		"windDir" : 220,
		"rain" : 0,
		"cloudbase" : 5860.444,
		"flyability" : 100,
		"reason" : "",
		"timestamp" :1554811200
		},
	"2019-04-09T18:00:00+03:00" : {
		"windSpeed" : 1.1,
		"windDir" : 356,
		"rain" : 1,
		"cloudbase" : 6580.6888,
		"flyability" : 0,
		"reason" : "windDir, rain",
		"timestamp" :1554822000
		},
	"2019-04-09T21:00:00+03:00" : {
		"windSpeed" : 1.1,
		"windDir" : 117,
		"rain" : 1,
		"cloudbase" : 7124.3768000007,
		"flyability" : 0,
		"reason" : "rain",
		"timestamp" :1554832800
		},
	"2019-04-10T00:00:00+03:00" : {
		"windSpeed" : 1.7,
		"windDir" : 116,
		"rain" : 0,
		"cloudbase" : 7288.6,
		"flyability" : 100,
		"reason" : "",
		"timestamp" :1554843600
		},
	"2019-04-10T03:00:00+03:00" : {
		"windSpeed" : 1.7,
		"windDir" : 144,
		"rain" : 1,
		"cloudbase" : 1276.5112,
		"flyability" : 0,
		"reason" : "rain",
		"timestamp" :1554854400
		},
	"2019-04-10T06:00:00+03:00" : {
		"windSpeed" : 1.6,
		"windDir" : 137,
		"rain" : 0,
		"cloudbase" : 1093.4357600002,
		"flyability" : 0,
		"reason" : "cloudbase",
		"timestamp" :1554865200
		},
	"2019-04-10T09:00:00+03:00" : {
		"windSpeed" : 2.4,
		"windDir" : 163,
		"rain" : 0,
		"cloudbase" : 5817.8664000003,
		"flyability" : 100,
		"reason" : "",
		"timestamp" :1554876000
		},
	"2019-04-10T12:00:00+03:00" : {
		"windSpeed" : 2.4,
		"windDir" : 219,
		"rain" : 1,
		"cloudbase" : 3450.5,
		"flyability" : 0,
		"reason" : "rain",
		"timestamp" :1554886800
		},
	"2019-04-10T15:00:00+03:00" : {
		"windSpeed" : 2.3,
		"windDir" : 279,
		"rain" : 0,
		"cloudbase" : 1807.0112,
		"flyability" : 100,
		"reason" : "",
		"timestamp" :1554897600
		},
	"2019-04-10T18:00:00+03:00" : {
		"windSpeed" : 2,
		"windDir" : 225,
		"rain" : 0,
		"cloudbase" : null,
		"flyability" : 100,
		"reason" : "",
		"timestamp" :1554908400
		},
	"2019-04-10T21:00:00+03:00" : {
		"windSpeed" : 1.2,
		"windDir" : 141,
		"rain" : 0,
		"cloudbase" : null,
		"flyability" : 100,
		"reason" : "",
		"timestamp" :1554919200
		},
	"2019-04-11T00:00:00+03:00" : {
		"windSpeed" : 1.4,
		"windDir" : 111,
		"rain" : 0,
		"cloudbase" : 1950,
		"flyability" : 0,
		"reason" : "windDir",
		"timestamp" :1554930000
		},
	"2019-04-11T03:00:00+03:00" : {
		"windSpeed" : 1.2,
		"windDir" : 124,
		"rain" : 1,
		"cloudbase" : 1950,
		"flyability" : 0,
		"reason" : "rain",
		"timestamp" :1554940800
		}
	}
}