{
"site" : "Dodd Fell",
"id" : 18633,
"orientations" : "00000000",
"forecasts" : { 
	"2019-04-21T04:00:00+01:00" : {
		"windSpeed" : 2.1,
		"windDir" : 187,
		"rain" : 0,
		"cloudbase" : 9400,
		"flyability" : -50,
		"reason" : "orientationsUnknown",
		"timestamp" :1555812000
		},
	"2019-04-21T07:00:00+01:00" : {
		"windSpeed" : 2,
		"windDir" : 194,
		"rain" : 0,
		"cloudbase" : null,
		"flyability" : -50,
		"reason" : "orientationsUnknown",
		"timestamp" :1555822800
		},
	"2019-04-21T10:00:00+01:00" : {
		"windSpeed" : 2.7,
		"windDir" : 200,
		"rain" : 0,
		"cloudbase" : null,
		"flyability" : -50,
		"reason" : "orientationsUnknown",
		"timestamp" :1555833600
		},
	"2019-04-21T13:00:00+01:00" : {
		"windSpeed" : 3.6,
		"windDir" : 193,
		"rain" : 0,
		"cloudbase" : null,
		"flyability" : -50,
		"reason" : "orientationsUnknown",
		"timestamp" :1555844400
		},
	"2019-04-21T16:00:00+01:00" : {
		"windSpeed" : 3.7,
		"windDir" : 199,
		"rain" : 0,
		"cloudbase" : null,
		"flyability" : -50,
		"reason" : "orientationsUnknown",
		"timestamp" :1555855200
		},
	"2019-04-21T19:00:00+01:00" : {
		"windSpeed" : 2.5,
		"windDir" : 202,
		"rain" : 0,
		"cloudbase" : null,
		"flyability" : -50,
		"reason" : "orientationsUnknown",
		"timestamp" :1555866000
		},
	"2019-04-21T22:00:00+01:00" : {
		"windSpeed" : 2.1,
		"windDir" : 172,
		"rain" : 0,
		"cloudbase" : null,
		"flyability" : -50,
		"reason" : "orientationsUnknown",
		"timestamp" :1555876800
		},
	"2019-04-22T01:00:00+01:00" : {
		"windSpeed" : 2.4,
		"windDir" : 168,
		"rain" : 0,
		"cloudbase" : null,
		"flyability" : -50,
		"reason" : "orientationsUnknown",
		"timestamp" :1555887600
		},
	"2019-04-22T04:00:00+01:00" : {
		"windSpeed" : 2.2,
		"windDir" : 153,
		"rain" : 0,
		"cloudbase" : null,
		"flyability" : -50,
		"reason" : "orientationsUnknown",
		"timestamp" :1555898400
		},
	"2019-04-22T07:00:00+01:00" : {
		"windSpeed" : 2.8,
		"windDir" : 131,
		"rain" : 0,
		"cloudbase" : null,
		"flyability" : -50,
		"reason" : "orientationsUnknown",
		"timestamp" :1555909200
		},
	"2019-04-22T10:00:00+01:00" : {
		"windSpeed" : 4.4,
		"windDir" : 133,
		"rain" : 0,
		"cloudbase" : null,
		"flyability" : -50,
		"reason" : "orientationsUnknown",
		"timestamp" :1555920000
		},
	"2019-04-22T13:00:00+01:00" : {
		"windSpeed" : 4.9,
		"windDir" : 116,
		"rain" : 0,
		"cloudbase" : null,
		"flyability" : -50,
		"reason" : "orientationsUnknown",
		"timestamp" :1555930800
		},
	"2019-04-22T16:00:00+01:00" : {
		"windSpeed" : 6.2,
		"windDir" : 132,
		"rain" : 1,
		"cloudbase" : 1698.18,
		"flyability" : -0,
		"reason" : "windSpeed, orientationsUnknown, rain",
		"timestamp" :1555941600
		},
	"2019-04-22T19:00:00+01:00" : {
		"windSpeed" : 4.5,
		"windDir" : 103,
		"rain" : 0,
		"cloudbase" : 7600,
		"flyability" : -50,
		"reason" : "orientationsUnknown",
		"timestamp" :1555952400
		},
	"2019-04-22T22:00:00+01:00" : {
		"windSpeed" : 3.7,
		"windDir" : 93,
		"rain" : 0,
		"cloudbase" : 9088.92,
		"flyability" : -50,
		"reason" : "orientationsUnknown",
		"timestamp" :1555963200
		},
	"2019-04-23T01:00:00+01:00" : {
		"windSpeed" : 3.4,
		"windDir" : 90,
		"rain" : 0,
		"cloudbase" : 9767.44,
		"flyability" : -50,
		"reason" : "orientationsUnknown",
		"timestamp" :1555974000
		},
	"2019-04-23T04:00:00+01:00" : {
		"windSpeed" : 2.8,
		"windDir" : 81,
		"rain" : 0,
		"cloudbase" : 5865.5999999999,
		"flyability" : -50,
		"reason" : "orientationsUnknown",
		"timestamp" :1555984800
		},
	"2019-04-23T07:00:00+01:00" : {
		"windSpeed" : 3.5,
		"windDir" : 70,
		"rain" : 0,
		"cloudbase" : 9500,
		"flyability" : -50,
		"reason" : "orientationsUnknown",
		"timestamp" :1555995600
		},
	"2019-04-23T10:00:00+01:00" : {
		"windSpeed" : 4.3,
		"windDir" : 88,
		"rain" : 0,
		"cloudbase" : 8840,
		"flyability" : -50,
		"reason" : "orientationsUnknown",
		"timestamp" :1556006400
		},
	"2019-04-23T13:00:00+01:00" : {
		"windSpeed" : 5.3,
		"windDir" : 90,
		"rain" : 0,
		"cloudbase" : 7867.44,
		"flyability" : -0,
		"reason" : "windSpeed, orientationsUnknown",
		"timestamp" :1556017200
		},
	"2019-04-23T16:00:00+01:00" : {
		"windSpeed" : 5.7,
		"windDir" : 93,
		"rain" : 0,
		"cloudbase" : 7446.12,
		"flyability" : -0,
		"reason" : "windSpeed, orientationsUnknown",
		"timestamp" :1556028000
		},
	"2019-04-23T19:00:00+01:00" : {
		"windSpeed" : 5.1,
		"windDir" : 84,
		"rain" : 0,
		"cloudbase" : null,
		"flyability" : -0,
		"reason" : "windSpeed, orientationsUnknown",
		"timestamp" :1556038800
		},
	"2019-04-23T22:00:00+01:00" : {
		"windSpeed" : 4.3,
		"windDir" : 79,
		"rain" : 0,
		"cloudbase" : null,
		"flyability" : -50,
		"reason" : "orientationsUnknown",
		"timestamp" :1556049600
		},
	"2019-04-24T01:00:00+01:00" : {
		"windSpeed" : 4,
		"windDir" : 61,
		"rain" : 0,
		"cloudbase" : null,
		"flyability" : -50,
		"reason" : "orientationsUnknown",
		"timestamp" :1556060400
		},
	"2019-04-24T04:00:00+01:00" : {
		"windSpeed" : 4.5,
		"windDir" : 61,
		"rain" : 0,
		"cloudbase" : null,
		"flyability" : -50,
		"reason" : "orientationsUnknown",
		"timestamp" :1556071200
		},
	"2019-04-24T07:00:00+01:00" : {
		"windSpeed" : 5.2,
		"windDir" : 70,
		"rain" : 0,
		"cloudbase" : null,
		"flyability" : -0,
		"reason" : "windSpeed, orientationsUnknown",
		"timestamp" :1556082000
		},
	"2019-04-24T10:00:00+01:00" : {
		"windSpeed" : 6.3,
		"windDir" : 82,
		"rain" : 0,
		"cloudbase" : null,
		"flyability" : -0,
		"reason" : "windSpeed, orientationsUnknown",
		"timestamp" :1556092800
		},
	"2019-04-24T13:00:00+01:00" : {
		"windSpeed" : 7.9,
		"windDir" : 90,
		"rain" : 0,
		"cloudbase" : 1987.1840000003,
		"flyability" : -0,
		"reason" : "windSpeed, orientationsUnknown",
		"timestamp" :1556103600
		},
	"2019-04-24T16:00:00+01:00" : {
		"windSpeed" : 7.8,
		"windDir" : 93,
		"rain" : 1,
		"cloudbase" : 688.35999999996,
		"flyability" : -0,
		"reason" : "windSpeed, orientationsUnknown, rain",
		"timestamp" :1556114400
		},
	"2019-04-24T19:00:00+01:00" : {
		"windSpeed" : 6.5,
		"windDir" : 89,
		"rain" : 1,
		"cloudbase" : 96.100000000008,
		"flyability" : -0,
		"reason" : "windSpeed, orientationsUnknown, rain, cloudbase",
		"timestamp" :1556125200
		},
	"2019-04-24T22:00:00+01:00" : {
		"windSpeed" : 4.9,
		"windDir" : 176,
		"rain" : 1,
		"cloudbase" : 7000,
		"flyability" : -0,
		"reason" : "orientationsUnknown, rain",
		"timestamp" :1556136000
		},
	"2019-04-25T01:00:00+01:00" : {
		"windSpeed" : 4.4,
		"windDir" : 179,
		"rain" : 0,
		"cloudbase" : 6236.2,
		"flyability" : -50,
		"reason" : "orientationsUnknown",
		"timestamp" :1556146800
		},
	"2019-04-25T04:00:00+01:00" : {
		"windSpeed" : 3,
		"windDir" : 135,
		"rain" : 0,
		"cloudbase" : null,
		"flyability" : -50,
		"reason" : "orientationsUnknown",
		"timestamp" :1556157600
		},
	"2019-04-25T07:00:00+01:00" : {
		"windSpeed" : 4.6,
		"windDir" : 113,
		"rain" : 0,
		"cloudbase" : 4132.3199999998,
		"flyability" : -50,
		"reason" : "orientationsUnknown",
		"timestamp" :1556168400
		},
	"2019-04-25T10:00:00+01:00" : {
		"windSpeed" : 7.2,
		"windDir" : 120,
		"rain" : 1,
		"cloudbase" : 548.992,
		"flyability" : -0,
		"reason" : "windSpeed, orientationsUnknown, rain, cloudbase",
		"timestamp" :1556179200
		},
	"2019-04-25T13:00:00+01:00" : {
		"windSpeed" : 5.7,
		"windDir" : 142,
		"rain" : 1,
		"cloudbase" : 482.628,
		"flyability" : -0,
		"reason" : "windSpeed, orientationsUnknown, rain, cloudbase",
		"timestamp" :1556190000
		},
	"2019-04-25T16:00:00+01:00" : {
		"windSpeed" : 5.3,
		"windDir" : 134,
		"rain" : 1,
		"cloudbase" : 1908.152,
		"flyability" : -0,
		"reason" : "windSpeed, orientationsUnknown, rain",
		"timestamp" :1556200800
		},
	"2019-04-25T19:00:00+01:00" : {
		"windSpeed" : 4.5,
		"windDir" : 157,
		"rain" : 1,
		"cloudbase" : null,
		"flyability" : -0,
		"reason" : "orientationsUnknown, rain",
		"timestamp" :1556211600
		},
	"2019-04-25T22:00:00+01:00" : {
		"windSpeed" : 4.6,
		"windDir" : 162,
		"rain" : 0,
		"cloudbase" : 6500,
		"flyability" : -50,
		"reason" : "orientationsUnknown",
		"timestamp" :1556222400
		},
	"2019-04-26T01:00:00+01:00" : {
		"windSpeed" : 4.6,
		"windDir" : 150,
		"rain" : 0,
		"cloudbase" : 5847.6,
		"flyability" : -50,
		"reason" : "orientationsUnknown",
		"timestamp" :1556233200
		},
	"2019-04-26T04:00:00+01:00" : {
		"windSpeed" : 5.3,
		"windDir" : 167,
		"rain" : 1,
		"cloudbase" : 335.388,
		"flyability" : -0,
		"reason" : "windSpeed, orientationsUnknown, rain, cloudbase",
		"timestamp" :1556244000
		},
	"2019-04-26T07:00:00+01:00" : {
		"windSpeed" : 4.9,
		"windDir" : 131,
		"rain" : 1,
		"cloudbase" : 180.56400000001,
		"flyability" : -0,
		"reason" : "orientationsUnknown, rain, cloudbase",
		"timestamp" :1556254800
		},
	"2019-04-26T10:00:00+01:00" : {
		"windSpeed" : 6.5,
		"windDir" : 144,
		"rain" : 1,
		"cloudbase" : null,
		"flyability" : -0,
		"reason" : "windSpeed, orientationsUnknown, rain",
		"timestamp" :1556265600
		},
	"2019-04-26T13:00:00+01:00" : {
		"windSpeed" : 5.6,
		"windDir" : 137,
		"rain" : 1,
		"cloudbase" : 6140.1399999998,
		"flyability" : -0,
		"reason" : "windSpeed, orientationsUnknown, rain",
		"timestamp" :1556276400
		},
	"2019-04-26T16:00:00+01:00" : {
		"windSpeed" : 3.6,
		"windDir" : 146,
		"rain" : 1,
		"cloudbase" : 2215.8800000001,
		"flyability" : -0,
		"reason" : "orientationsUnknown, rain",
		"timestamp" :1556287200
		},
	"2019-04-26T19:00:00+01:00" : {
		"windSpeed" : 2,
		"windDir" : 220,
		"rain" : 1,
		"cloudbase" : 698.512,
		"flyability" : -0,
		"reason" : "orientationsUnknown, rain",
		"timestamp" :1556298000
		},
	"2019-04-26T22:00:00+01:00" : {
		"windSpeed" : 4.4,
		"windDir" : 257,
		"rain" : 1,
		"cloudbase" : null,
		"flyability" : -0,
		"reason" : "orientationsUnknown, rain",
		"timestamp" :1556308800
		},
	"2019-04-27T01:00:00+01:00" : {
		"windSpeed" : 5.9,
		"windDir" : 252,
		"rain" : 1,
		"cloudbase" : 168.76,
		"flyability" : -0,
		"reason" : "windSpeed, orientationsUnknown, rain, cloudbase",
		"timestamp" :1556319600
		}
	}
}