{
"site" : "Tatl\u0131su",
"id" : 18827,
"orientations" : "11200021",
"forecasts" : { 
	"2019-04-05T06:00:00+03:00" : {
		"windSpeed" : 2,
		"windDir" : 329,
		"rain" : 1,
		"cloudbase" : null,
		"flyability" : 0,
		"reason" : "rain",
		"timestamp" :1554433200
		},
	"2019-04-05T09:00:00+03:00" : {
		"windSpeed" : 2,
		"windDir" : 11,
		"rain" : 1,
		"cloudbase" : null,
		"flyability" : 0,
		"reason" : "rain",
		"timestamp" :1554444000
		},
	"2019-04-05T12:00:00+03:00" : {
		"windSpeed" : 2.5,
		"windDir" : 349,
		"rain" : 1,
		"cloudbase" : 720,
		"flyability" : 0,
		"reason" : "rain",
		"timestamp" :1554454800
		},
	"2019-04-05T15:00:00+03:00" : {
		"windSpeed" : 2.5,
		"windDir" : 354,
		"rain" : 1,
		"cloudbase" : null,
		"flyability" : 0,
		"reason" : "rain",
		"timestamp" :1554465600
		},
	"2019-04-05T18:00:00+03:00" : {
		"windSpeed" : 1.3,
		"windDir" : 321,
		"rain" : 0,
		"cloudbase" : null,
		"flyability" : 100,
		"reason" : "",
		"timestamp" :1554476400
		},
	"2019-04-05T21:00:00+03:00" : {
		"windSpeed" : 1.4,
		"windDir" : 258,
		"rain" : 0,
		"cloudbase" : null,
		"flyability" : 100,
		"reason" : "",
		"timestamp" :1554487200
		},
	"2019-04-06T00:00:00+03:00" : {
		"windSpeed" : 1.9,
		"windDir" : 267,
		"rain" : 0,
		"cloudbase" : null,
		"flyability" : 100,
		"reason" : "",
		"timestamp" :1554498000
		},
	"2019-04-06T03:00:00+03:00" : {
		"windSpeed" : 0.7,
		"windDir" : 213,
		"rain" : 0,
		"cloudbase" : 8553.3,
		"flyability" : 0,
		"reason" : "windDir",
		"timestamp" :1554508800
		},
	"2019-04-06T06:00:00+03:00" : {
		"windSpeed" : 0.6,
		"windDir" : 183,
		"rain" : 0,
		"cloudbase" : null,
		"flyability" : 0,
		"reason" : "windDir",
		"timestamp" :1554519600
		},
	"2019-04-06T09:00:00+03:00" : {
		"windSpeed" : 1.6,
		"windDir" : 130,
		"rain" : 0,
		"cloudbase" : 9555,
		"flyability" : 0,
		"reason" : "windDir",
		"timestamp" :1554530400
		},
	"2019-04-06T12:00:00+03:00" : {
		"windSpeed" : 1.5,
		"windDir" : 75,
		"rain" : 0,
		"cloudbase" : 7713.9999999997,
		"flyability" : 100,
		"reason" : "",
		"timestamp" :1554541200
		},
	"2019-04-06T15:00:00+03:00" : {
		"windSpeed" : 2.5,
		"windDir" : 127,
		"rain" : 1,
		"cloudbase" : 3699.225,
		"flyability" : 0,
		"reason" : "windDir, rain",
		"timestamp" :1554552000
		},
	"2019-04-06T18:00:00+03:00" : {
		"windSpeed" : 1.7,
		"windDir" : 163,
		"rain" : 0,
		"cloudbase" : 3789.125,
		"flyability" : 0,
		"reason" : "windDir",
		"timestamp" :1554562800
		},
	"2019-04-06T21:00:00+03:00" : {
		"windSpeed" : 1.7,
		"windDir" : 147,
		"rain" : 0,
		"cloudbase" : 3414.075,
		"flyability" : 0,
		"reason" : "windDir",
		"timestamp" :1554573600
		},
	"2019-04-07T00:00:00+03:00" : {
		"windSpeed" : 2.1,
		"windDir" : 165,
		"rain" : 0,
		"cloudbase" : 4549.3249999998,
		"flyability" : 0,
		"reason" : "windDir",
		"timestamp" :1554584400
		},
	"2019-04-07T03:00:00+03:00" : {
		"windSpeed" : 1,
		"windDir" : 148,
		"rain" : 1,
		"cloudbase" : 2250,
		"flyability" : 0,
		"reason" : "windDir, rain",
		"timestamp" :1554595200
		},
	"2019-04-07T06:00:00+03:00" : {
		"windSpeed" : 1,
		"windDir" : 72,
		"rain" : 0,
		"cloudbase" : 2120.675,
		"flyability" : 100,
		"reason" : "",
		"timestamp" :1554606000
		},
	"2019-04-07T09:00:00+03:00" : {
		"windSpeed" : 1.3,
		"windDir" : 71,
		"rain" : 0,
		"cloudbase" : null,
		"flyability" : 100,
		"reason" : "",
		"timestamp" :1554616800
		},
	"2019-04-07T12:00:00+03:00" : {
		"windSpeed" : 3,
		"windDir" : 57,
		"rain" : 0,
		"cloudbase" : 1300,
		"flyability" : 100,
		"reason" : "",
		"timestamp" :1554627600
		},
	"2019-04-07T15:00:00+03:00" : {
		"windSpeed" : 3.9,
		"windDir" : 53,
		"rain" : 0,
		"cloudbase" : null,
		"flyability" : 100,
		"reason" : "",
		"timestamp" :1554638400
		},
	"2019-04-07T18:00:00+03:00" : {
		"windSpeed" : 2.5,
		"windDir" : 61,
		"rain" : 0,
		"cloudbase" : null,
		"flyability" : 100,
		"reason" : "",
		"timestamp" :1554649200
		},
	"2019-04-07T21:00:00+03:00" : {
		"windSpeed" : 1.1,
		"windDir" : 99,
		"rain" : 0,
		"cloudbase" : 3600,
		"flyability" : 100,
		"reason" : "",
		"timestamp" :1554660000
		},
	"2019-04-08T00:00:00+03:00" : {
		"windSpeed" : 1.3,
		"windDir" : 61,
		"rain" : 1,
		"cloudbase" : null,
		"flyability" : 0,
		"reason" : "rain",
		"timestamp" :1554670800
		},
	"2019-04-08T03:00:00+03:00" : {
		"windSpeed" : 1.3,
		"windDir" : 91,
		"rain" : 0,
		"cloudbase" : null,
		"flyability" : 100,
		"reason" : "",
		"timestamp" :1554681600
		},
	"2019-04-08T06:00:00+03:00" : {
		"windSpeed" : 1.4,
		"windDir" : 71,
		"rain" : 0,
		"cloudbase" : null,
		"flyability" : 100,
		"reason" : "",
		"timestamp" :1554692400
		},
	"2019-04-08T09:00:00+03:00" : {
		"windSpeed" : 1.5,
		"windDir" : 71,
		"rain" : 0,
		"cloudbase" : null,
		"flyability" : 100,
		"reason" : "",
		"timestamp" :1554703200
		},
	"2019-04-08T12:00:00+03:00" : {
		"windSpeed" : 2.4,
		"windDir" : 37,
		"rain" : 0,
		"cloudbase" : null,
		"flyability" : 100,
		"reason" : "",
		"timestamp" :1554714000
		},
	"2019-04-08T15:00:00+03:00" : {
		"windSpeed" : 3.1,
		"windDir" : 69,
		"rain" : 1,
		"cloudbase" : null,
		"flyability" : 0,
		"reason" : "rain",
		"timestamp" :1554724800
		},
	"2019-04-08T18:00:00+03:00" : {
		"windSpeed" : 3,
		"windDir" : 117,
		"rain" : 0,
		"cloudbase" : null,
		"flyability" : 0,
		"reason" : "windDir",
		"timestamp" :1554735600
		},
	"2019-04-08T21:00:00+03:00" : {
		"windSpeed" : 3.2,
		"windDir" : 154,
		"rain" : 0,
		"cloudbase" : null,
		"flyability" : 0,
		"reason" : "windDir",
		"timestamp" :1554746400
		},
	"2019-04-09T00:00:00+03:00" : {
		"windSpeed" : 1.8,
		"windDir" : 190,
		"rain" : 0,
		"cloudbase" : null,
		"flyability" : 0,
		"reason" : "windDir",
		"timestamp" :1554757200
		},
	"2019-04-09T03:00:00+03:00" : {
		"windSpeed" : 1.8,
		"windDir" : 190,
		"rain" : 0,
		"cloudbase" : null,
		"flyability" : 0,
		"reason" : "windDir",
		"timestamp" :1554768000
		},
	"2019-04-09T06:00:00+03:00" : {
		"windSpeed" : 2,
		"windDir" : 274,
		"rain" : 0,
		"cloudbase" : 1026.3700000003,
		"flyability" : 100,
		"reason" : "",
		"timestamp" :1554778800
		},
	"2019-04-09T09:00:00+03:00" : {
		"windSpeed" : 1.7,
		"windDir" : 292,
		"rain" : 1,
		"cloudbase" : null,
		"flyability" : 0,
		"reason" : "rain",
		"timestamp" :1554789600
		},
	"2019-04-09T12:00:00+03:00" : {
		"windSpeed" : 2.4,
		"windDir" : 308,
		"rain" : 1,
		"cloudbase" : 1699.3949999999,
		"flyability" : 0,
		"reason" : "rain",
		"timestamp" :1554800400
		},
	"2019-04-09T15:00:00+03:00" : {
		"windSpeed" : 3.9,
		"windDir" : 296,
		"rain" : 0,
		"cloudbase" : 880,
		"flyability" : 100,
		"reason" : "",
		"timestamp" :1554811200
		},
	"2019-04-09T18:00:00+03:00" : {
		"windSpeed" : 4,
		"windDir" : 296,
		"rain" : 1,
		"cloudbase" : null,
		"flyability" : 0,
		"reason" : "rain",
		"timestamp" :1554822000
		},
	"2019-04-09T21:00:00+03:00" : {
		"windSpeed" : 4.4,
		"windDir" : 276,
		"rain" : 1,
		"cloudbase" : null,
		"flyability" : 0,
		"reason" : "rain",
		"timestamp" :1554832800
		},
	"2019-04-10T00:00:00+03:00" : {
		"windSpeed" : 1.8,
		"windDir" : 213,
		"rain" : 0,
		"cloudbase" : null,
		"flyability" : 0,
		"reason" : "windDir",
		"timestamp" :1554843600
		},
	"2019-04-10T03:00:00+03:00" : {
		"windSpeed" : 0.4,
		"windDir" : 149,
		"rain" : 0,
		"cloudbase" : null,
		"flyability" : 0,
		"reason" : "windDir",
		"timestamp" :1554854400
		},
	"2019-04-10T06:00:00+03:00" : {
		"windSpeed" : 1.1,
		"windDir" : 156,
		"rain" : 0,
		"cloudbase" : null,
		"flyability" : 0,
		"reason" : "windDir",
		"timestamp" :1554865200
		},
	"2019-04-10T09:00:00+03:00" : {
		"windSpeed" : 0.6,
		"windDir" : 196,
		"rain" : 0,
		"cloudbase" : null,
		"flyability" : 0,
		"reason" : "windDir",
		"timestamp" :1554876000
		},
	"2019-04-10T12:00:00+03:00" : {
		"windSpeed" : 2.4,
		"windDir" : 331,
		"rain" : 0,
		"cloudbase" : null,
		"flyability" : 100,
		"reason" : "",
		"timestamp" :1554886800
		},
	"2019-04-10T15:00:00+03:00" : {
		"windSpeed" : 2.9,
		"windDir" : 317,
		"rain" : 1,
		"cloudbase" : 2286.8749999999,
		"flyability" : 0,
		"reason" : "rain",
		"timestamp" :1554897600
		},
	"2019-04-10T18:00:00+03:00" : {
		"windSpeed" : 2.9,
		"windDir" : 278,
		"rain" : 1,
		"cloudbase" : 1650,
		"flyability" : 0,
		"reason" : "rain",
		"timestamp" :1554908400
		},
	"2019-04-10T21:00:00+03:00" : {
		"windSpeed" : 1,
		"windDir" : 233,
		"rain" : 1,
		"cloudbase" : null,
		"flyability" : 0,
		"reason" : "windDir, rain",
		"timestamp" :1554919200
		},
	"2019-04-11T00:00:00+03:00" : {
		"windSpeed" : 1.2,
		"windDir" : 231,
		"rain" : 0,
		"cloudbase" : null,
		"flyability" : 0,
		"reason" : "windDir",
		"timestamp" :1554930000
		},
	"2019-04-11T03:00:00+03:00" : {
		"windSpeed" : 1.2,
		"windDir" : 180,
		"rain" : 0,
		"cloudbase" : null,
		"flyability" : 0,
		"reason" : "windDir",
		"timestamp" :1554940800
		}
	}
}