{
"site" : "Cerro de la Nava",
"id" : 19373,
"orientations" : "00000222",
"forecasts" : { 
	"2019-04-13T05:00:00+02:00" : {
		"windSpeed" : 1.4,
		"windDir" : 234,
		"rain" : 0,
		"cloudbase" : null,
		"flyability" : 100,
		"reason" : "",
		"timestamp" :1555128000
		},
	"2019-04-13T08:00:00+02:00" : {
		"windSpeed" : 0.7,
		"windDir" : 188,
		"rain" : 0,
		"cloudbase" : null,
		"flyability" : 0,
		"reason" : "windDir",
		"timestamp" :1555138800
		},
	"2019-04-13T11:00:00+02:00" : {
		"windSpeed" : 0.3,
		"windDir" : 258,
		"rain" : 0,
		"cloudbase" : null,
		"flyability" : 100,
		"reason" : "",
		"timestamp" :1555149600
		},
	"2019-04-13T14:00:00+02:00" : {
		"windSpeed" : 1.8,
		"windDir" : 291,
		"rain" : 0,
		"cloudbase" : null,
		"flyability" : 100,
		"reason" : "",
		"timestamp" :1555160400
		},
	"2019-04-13T17:00:00+02:00" : {
		"windSpeed" : 3.2,
		"windDir" : 300,
		"rain" : 0,
		"cloudbase" : null,
		"flyability" : 100,
		"reason" : "",
		"timestamp" :1555171200
		},
	"2019-04-13T20:00:00+02:00" : {
		"windSpeed" : 2.9,
		"windDir" : 308,
		"rain" : 0,
		"cloudbase" : null,
		"flyability" : 100,
		"reason" : "",
		"timestamp" :1555182000
		},
	"2019-04-13T23:00:00+02:00" : {
		"windSpeed" : 2.7,
		"windDir" : 265,
		"rain" : 0,
		"cloudbase" : null,
		"flyability" : 100,
		"reason" : "",
		"timestamp" :1555192800
		},
	"2019-04-14T02:00:00+02:00" : {
		"windSpeed" : 1.8,
		"windDir" : 276,
		"rain" : 0,
		"cloudbase" : null,
		"flyability" : 100,
		"reason" : "",
		"timestamp" :1555203600
		},
	"2019-04-14T05:00:00+02:00" : {
		"windSpeed" : 1.7,
		"windDir" : 209,
		"rain" : 0,
		"cloudbase" : 11500,
		"flyability" : 100,
		"reason" : "",
		"timestamp" :1555214400
		},
	"2019-04-14T08:00:00+02:00" : {
		"windSpeed" : 2,
		"windDir" : 167,
		"rain" : 0,
		"cloudbase" : 8138.1906,
		"flyability" : 0,
		"reason" : "windDir",
		"timestamp" :1555225200
		},
	"2019-04-14T11:00:00+02:00" : {
		"windSpeed" : 2,
		"windDir" : 238,
		"rain" : 0,
		"cloudbase" : null,
		"flyability" : 100,
		"reason" : "",
		"timestamp" :1555236000
		},
	"2019-04-14T14:00:00+02:00" : {
		"windSpeed" : 3.3,
		"windDir" : 267,
		"rain" : 0,
		"cloudbase" : 1658.65,
		"flyability" : 100,
		"reason" : "",
		"timestamp" :1555246800
		},
	"2019-04-14T17:00:00+02:00" : {
		"windSpeed" : 4,
		"windDir" : 260,
		"rain" : 0,
		"cloudbase" : 1785.2453,
		"flyability" : 100,
		"reason" : "",
		"timestamp" :1555257600
		},
	"2019-04-14T20:00:00+02:00" : {
		"windSpeed" : 2.7,
		"windDir" : 272,
		"rain" : 0,
		"cloudbase" : 1700,
		"flyability" : 100,
		"reason" : "",
		"timestamp" :1555268400
		},
	"2019-04-14T23:00:00+02:00" : {
		"windSpeed" : 0.4,
		"windDir" : 159,
		"rain" : 0,
		"cloudbase" : null,
		"flyability" : 0,
		"reason" : "windDir",
		"timestamp" :1555279200
		},
	"2019-04-15T02:00:00+02:00" : {
		"windSpeed" : 1.5,
		"windDir" : 147,
		"rain" : 0,
		"cloudbase" : 6165.7094000001,
		"flyability" : 0,
		"reason" : "windDir",
		"timestamp" :1555290000
		},
	"2019-04-15T05:00:00+02:00" : {
		"windSpeed" : 3.1,
		"windDir" : 147,
		"rain" : 0,
		"cloudbase" : 6224.7906,
		"flyability" : 0,
		"reason" : "windDir",
		"timestamp" :1555300800
		},
	"2019-04-15T08:00:00+02:00" : {
		"windSpeed" : 2.8,
		"windDir" : 142,
		"rain" : 0,
		"cloudbase" : 7780.1094000001,
		"flyability" : 0,
		"reason" : "windDir",
		"timestamp" :1555311600
		},
	"2019-04-15T11:00:00+02:00" : {
		"windSpeed" : 3.1,
		"windDir" : 170,
		"rain" : 0,
		"cloudbase" : 4996.2547,
		"flyability" : 0,
		"reason" : "windDir",
		"timestamp" :1555322400
		},
	"2019-04-15T14:00:00+02:00" : {
		"windSpeed" : 5.4,
		"windDir" : 208,
		"rain" : 0,
		"cloudbase" : null,
		"flyability" : 0,
		"reason" : "windSpeed",
		"timestamp" :1555333200
		},
	"2019-04-15T17:00:00+02:00" : {
		"windSpeed" : 5.9,
		"windDir" : 234,
		"rain" : 0,
		"cloudbase" : null,
		"flyability" : 0,
		"reason" : "windSpeed",
		"timestamp" :1555344000
		},
	"2019-04-15T20:00:00+02:00" : {
		"windSpeed" : 4.8,
		"windDir" : 248,
		"rain" : 0,
		"cloudbase" : null,
		"flyability" : 100,
		"reason" : "",
		"timestamp" :1555354800
		},
	"2019-04-15T23:00:00+02:00" : {
		"windSpeed" : 3.9,
		"windDir" : 286,
		"rain" : 0,
		"cloudbase" : 6867.3094,
		"flyability" : 100,
		"reason" : "",
		"timestamp" :1555365600
		},
	"2019-04-16T02:00:00+02:00" : {
		"windSpeed" : 3.4,
		"windDir" : 269,
		"rain" : 0,
		"cloudbase" : 6698.0094000001,
		"flyability" : 100,
		"reason" : "",
		"timestamp" :1555376400
		},
	"2019-04-16T05:00:00+02:00" : {
		"windSpeed" : 1.3,
		"windDir" : 160,
		"rain" : 0,
		"cloudbase" : null,
		"flyability" : 0,
		"reason" : "windDir",
		"timestamp" :1555387200
		},
	"2019-04-16T08:00:00+02:00" : {
		"windSpeed" : 2.3,
		"windDir" : 160,
		"rain" : 0,
		"cloudbase" : null,
		"flyability" : 0,
		"reason" : "windDir",
		"timestamp" :1555398000
		},
	"2019-04-16T11:00:00+02:00" : {
		"windSpeed" : 0.5,
		"windDir" : 65,
		"rain" : 0,
		"cloudbase" : 8044.1,
		"flyability" : 0,
		"reason" : "windDir",
		"timestamp" :1555408800
		},
	"2019-04-16T14:00:00+02:00" : {
		"windSpeed" : 2.4,
		"windDir" : 186,
		"rain" : 0,
		"cloudbase" : 6986.6,
		"flyability" : 0,
		"reason" : "windDir",
		"timestamp" :1555419600
		},
	"2019-04-16T17:00:00+02:00" : {
		"windSpeed" : 2.7,
		"windDir" : 185,
		"rain" : 0,
		"cloudbase" : 8092.5094,
		"flyability" : 0,
		"reason" : "windDir",
		"timestamp" :1555430400
		},
	"2019-04-16T20:00:00+02:00" : {
		"windSpeed" : 1.4,
		"windDir" : 180,
		"rain" : 0,
		"cloudbase" : 8930.7,
		"flyability" : 0,
		"reason" : "windDir",
		"timestamp" :1555441200
		},
	"2019-04-16T23:00:00+02:00" : {
		"windSpeed" : 1.5,
		"windDir" : 101,
		"rain" : 0,
		"cloudbase" : 9230.7,
		"flyability" : 0,
		"reason" : "windDir",
		"timestamp" :1555452000
		},
	"2019-04-17T02:00:00+02:00" : {
		"windSpeed" : 3.3,
		"windDir" : 171,
		"rain" : 0,
		"cloudbase" : 11500,
		"flyability" : 0,
		"reason" : "windDir",
		"timestamp" :1555462800
		},
	"2019-04-17T05:00:00+02:00" : {
		"windSpeed" : 3.2,
		"windDir" : 152,
		"rain" : 0,
		"cloudbase" : 9438.1906,
		"flyability" : 0,
		"reason" : "windDir",
		"timestamp" :1555473600
		},
	"2019-04-17T08:00:00+02:00" : {
		"windSpeed" : 2.9,
		"windDir" : 161,
		"rain" : 0,
		"cloudbase" : 8330.7,
		"flyability" : 0,
		"reason" : "windDir",
		"timestamp" :1555484400
		},
	"2019-04-17T11:00:00+02:00" : {
		"windSpeed" : 3.8,
		"windDir" : 192,
		"rain" : 0,
		"cloudbase" : 7813.4,
		"flyability" : 0,
		"reason" : "windDir",
		"timestamp" :1555495200
		},
	"2019-04-17T14:00:00+02:00" : {
		"windSpeed" : 4.3,
		"windDir" : 187,
		"rain" : 0,
		"cloudbase" : 6070.9,
		"flyability" : 0,
		"reason" : "windDir",
		"timestamp" :1555506000
		},
	"2019-04-17T17:00:00+02:00" : {
		"windSpeed" : 7.4,
		"windDir" : 192,
		"rain" : 0,
		"cloudbase" : 2337.3187999995,
		"flyability" : 0,
		"reason" : "windSpeed, windDir",
		"timestamp" :1555516800
		},
	"2019-04-17T20:00:00+02:00" : {
		"windSpeed" : 3.8,
		"windDir" : 236,
		"rain" : 1,
		"cloudbase" : 860,
		"flyability" : 0,
		"reason" : "rain, cloudbase",
		"timestamp" :1555527600
		},
	"2019-04-17T23:00:00+02:00" : {
		"windSpeed" : 2.6,
		"windDir" : 177,
		"rain" : 1,
		"cloudbase" : 1592.2735,
		"flyability" : 0,
		"reason" : "windDir, rain",
		"timestamp" :1555538400
		},
	"2019-04-18T02:00:00+02:00" : {
		"windSpeed" : 2.7,
		"windDir" : 186,
		"rain" : 1,
		"cloudbase" : 7542.7299000012,
		"flyability" : 0,
		"reason" : "windDir, rain",
		"timestamp" :1555549200
		},
	"2019-04-18T05:00:00+02:00" : {
		"windSpeed" : 2.7,
		"windDir" : 175,
		"rain" : 0,
		"cloudbase" : 30,
		"flyability" : 0,
		"reason" : "windDir, cloudbase",
		"timestamp" :1555560000
		},
	"2019-04-18T08:00:00+02:00" : {
		"windSpeed" : 2.3,
		"windDir" : 162,
		"rain" : 0,
		"cloudbase" : 30,
		"flyability" : 0,
		"reason" : "windDir, cloudbase",
		"timestamp" :1555570800
		},
	"2019-04-18T11:00:00+02:00" : {
		"windSpeed" : 3.2,
		"windDir" : 189,
		"rain" : 1,
		"cloudbase" : 45,
		"flyability" : 0,
		"reason" : "windDir, rain, cloudbase",
		"timestamp" :1555581600
		},
	"2019-04-18T14:00:00+02:00" : {
		"windSpeed" : 3.2,
		"windDir" : 214,
		"rain" : 1,
		"cloudbase" : 340,
		"flyability" : 0,
		"reason" : "rain, cloudbase",
		"timestamp" :1555592400
		},
	"2019-04-18T17:00:00+02:00" : {
		"windSpeed" : 2.7,
		"windDir" : 261,
		"rain" : 1,
		"cloudbase" : 7500,
		"flyability" : 0,
		"reason" : "rain",
		"timestamp" :1555603200
		},
	"2019-04-18T20:00:00+02:00" : {
		"windSpeed" : 2.4,
		"windDir" : 180,
		"rain" : 1,
		"cloudbase" : 5334.0268999999,
		"flyability" : 0,
		"reason" : "windDir, rain",
		"timestamp" :1555614000
		},
	"2019-04-18T23:00:00+02:00" : {
		"windSpeed" : 1.7,
		"windDir" : 180,
		"rain" : 0,
		"cloudbase" : 7330.7,
		"flyability" : 0,
		"reason" : "windDir",
		"timestamp" :1555624800
		},
	"2019-04-19T02:00:00+02:00" : {
		"windSpeed" : 2,
		"windDir" : 166,
		"rain" : 0,
		"cloudbase" : 7538.1906,
		"flyability" : 0,
		"reason" : "windDir",
		"timestamp" :1555635600
		}
	}
}