{
"site" : "Giles2",
"id" : 19488,
"orientations" : "20000002",
"forecasts" : { 
	"2019-04-15T04:00:00+01:00" : {
		"windSpeed" : 4.4,
		"windDir" : 304,
		"rain" : 0,
		"cloudbase" : 364.68399999999,
		"flyability" : 100,
		"reason" : "",
		"timestamp" :1555293600
		},
	"2019-04-15T07:00:00+01:00" : {
		"windSpeed" : 3.1,
		"windDir" : 308,
		"rain" : 0,
		"cloudbase" : 5560.5600000001,
		"flyability" : 100,
		"reason" : "",
		"timestamp" :1555304400
		},
	"2019-04-15T10:00:00+01:00" : {
		"windSpeed" : 2.6,
		"windDir" : 350,
		"rain" : 0,
		"cloudbase" : 9770.64,
		"flyability" : 100,
		"reason" : "",
		"timestamp" :1555315200
		},
	"2019-04-15T13:00:00+01:00" : {
		"windSpeed" : 1.8,
		"windDir" : 13,
		"rain" : 0,
		"cloudbase" : 9900,
		"flyability" : 100,
		"reason" : "",
		"timestamp" :1555326000
		},
	"2019-04-15T16:00:00+01:00" : {
		"windSpeed" : 1.9,
		"windDir" : 42,
		"rain" : 0,
		"cloudbase" : 11222.6,
		"flyability" : 0,
		"reason" : "windDir",
		"timestamp" :1555336800
		},
	"2019-04-15T19:00:00+01:00" : {
		"windSpeed" : 1.8,
		"windDir" : 11,
		"rain" : 0,
		"cloudbase" : null,
		"flyability" : 100,
		"reason" : "",
		"timestamp" :1555347600
		},
	"2019-04-15T22:00:00+01:00" : {
		"windSpeed" : 1.9,
		"windDir" : 51,
		"rain" : 0,
		"cloudbase" : null,
		"flyability" : 0,
		"reason" : "windDir",
		"timestamp" :1555358400
		},
	"2019-04-16T01:00:00+01:00" : {
		"windSpeed" : 2.5,
		"windDir" : 62,
		"rain" : 0,
		"cloudbase" : 410,
		"flyability" : 0,
		"reason" : "windDir",
		"timestamp" :1555369200
		},
	"2019-04-16T04:00:00+01:00" : {
		"windSpeed" : 1.8,
		"windDir" : 67,
		"rain" : 0,
		"cloudbase" : 290,
		"flyability" : 0,
		"reason" : "windDir",
		"timestamp" :1555380000
		},
	"2019-04-16T07:00:00+01:00" : {
		"windSpeed" : 1.1,
		"windDir" : 66,
		"rain" : 0,
		"cloudbase" : 500,
		"flyability" : 0,
		"reason" : "windDir",
		"timestamp" :1555390800
		},
	"2019-04-16T10:00:00+01:00" : {
		"windSpeed" : 2.2,
		"windDir" : 61,
		"rain" : 1,
		"cloudbase" : 290,
		"flyability" : 0,
		"reason" : "windDir, rain",
		"timestamp" :1555401600
		},
	"2019-04-16T13:00:00+01:00" : {
		"windSpeed" : 3.4,
		"windDir" : 80,
		"rain" : 0,
		"cloudbase" : null,
		"flyability" : 0,
		"reason" : "windDir",
		"timestamp" :1555412400
		},
	"2019-04-16T16:00:00+01:00" : {
		"windSpeed" : 1.9,
		"windDir" : 33,
		"rain" : 0,
		"cloudbase" : null,
		"flyability" : 0,
		"reason" : "windDir",
		"timestamp" :1555423200
		},
	"2019-04-16T19:00:00+01:00" : {
		"windSpeed" : 1.3,
		"windDir" : 345,
		"rain" : 0,
		"cloudbase" : null,
		"flyability" : 100,
		"reason" : "",
		"timestamp" :1555434000
		},
	"2019-04-16T22:00:00+01:00" : {
		"windSpeed" : 4.7,
		"windDir" : 314,
		"rain" : 0,
		"cloudbase" : null,
		"flyability" : 100,
		"reason" : "",
		"timestamp" :1555444800
		},
	"2019-04-17T01:00:00+01:00" : {
		"windSpeed" : 5.5,
		"windDir" : 315,
		"rain" : 1,
		"cloudbase" : 1580.916,
		"flyability" : 0,
		"reason" : "windSpeed, rain",
		"timestamp" :1555455600
		},
	"2019-04-17T04:00:00+01:00" : {
		"windSpeed" : 4.4,
		"windDir" : 302,
		"rain" : 0,
		"cloudbase" : null,
		"flyability" : 100,
		"reason" : "",
		"timestamp" :1555466400
		},
	"2019-04-17T07:00:00+01:00" : {
		"windSpeed" : 3.2,
		"windDir" : 302,
		"rain" : 0,
		"cloudbase" : null,
		"flyability" : 100,
		"reason" : "",
		"timestamp" :1555477200
		},
	"2019-04-17T10:00:00+01:00" : {
		"windSpeed" : 2.8,
		"windDir" : 300,
		"rain" : 0,
		"cloudbase" : null,
		"flyability" : 100,
		"reason" : "",
		"timestamp" :1555488000
		},
	"2019-04-17T13:00:00+01:00" : {
		"windSpeed" : 4.3,
		"windDir" : 331,
		"rain" : 0,
		"cloudbase" : 720,
		"flyability" : 100,
		"reason" : "",
		"timestamp" :1555498800
		},
	"2019-04-17T16:00:00+01:00" : {
		"windSpeed" : 5.4,
		"windDir" : 335,
		"rain" : 0,
		"cloudbase" : 600,
		"flyability" : 0,
		"reason" : "windSpeed",
		"timestamp" :1555509600
		},
	"2019-04-17T19:00:00+01:00" : {
		"windSpeed" : 5.2,
		"windDir" : 337,
		"rain" : 1,
		"cloudbase" : 770.184,
		"flyability" : 0,
		"reason" : "windSpeed, rain",
		"timestamp" :1555520400
		},
	"2019-04-17T22:00:00+01:00" : {
		"windSpeed" : 5.5,
		"windDir" : 345,
		"rain" : 1,
		"cloudbase" : 972.68399999999,
		"flyability" : 0,
		"reason" : "windSpeed, rain",
		"timestamp" :1555531200
		},
	"2019-04-18T01:00:00+01:00" : {
		"windSpeed" : 5.4,
		"windDir" : 353,
		"rain" : 1,
		"cloudbase" : 600,
		"flyability" : 0,
		"reason" : "windSpeed, rain",
		"timestamp" :1555542000
		},
	"2019-04-18T04:00:00+01:00" : {
		"windSpeed" : 5.3,
		"windDir" : 358,
		"rain" : 1,
		"cloudbase" : 920,
		"flyability" : 0,
		"reason" : "windSpeed, rain",
		"timestamp" :1555552800
		},
	"2019-04-18T07:00:00+01:00" : {
		"windSpeed" : 5,
		"windDir" : 357,
		"rain" : 1,
		"cloudbase" : 820,
		"flyability" : 0,
		"reason" : "rain",
		"timestamp" :1555563600
		},
	"2019-04-18T10:00:00+01:00" : {
		"windSpeed" : 4.9,
		"windDir" : 18,
		"rain" : 0,
		"cloudbase" : 983.77999999999,
		"flyability" : 100,
		"reason" : "",
		"timestamp" :1555574400
		},
	"2019-04-18T13:00:00+01:00" : {
		"windSpeed" : 6.1,
		"windDir" : 28,
		"rain" : 1,
		"cloudbase" : 720,
		"flyability" : 0,
		"reason" : "windSpeed, windDir, rain",
		"timestamp" :1555585200
		},
	"2019-04-18T16:00:00+01:00" : {
		"windSpeed" : 5.5,
		"windDir" : 19,
		"rain" : 1,
		"cloudbase" : 1000,
		"flyability" : 0,
		"reason" : "windSpeed, rain",
		"timestamp" :1555596000
		},
	"2019-04-18T19:00:00+01:00" : {
		"windSpeed" : 5.5,
		"windDir" : 14,
		"rain" : 0,
		"cloudbase" : 820,
		"flyability" : 0,
		"reason" : "windSpeed",
		"timestamp" :1555606800
		},
	"2019-04-18T22:00:00+01:00" : {
		"windSpeed" : 5.6,
		"windDir" : 9,
		"rain" : 0,
		"cloudbase" : null,
		"flyability" : 0,
		"reason" : "windSpeed",
		"timestamp" :1555617600
		},
	"2019-04-19T01:00:00+01:00" : {
		"windSpeed" : 5.7,
		"windDir" : 13,
		"rain" : 0,
		"cloudbase" : 845.684,
		"flyability" : 0,
		"reason" : "windSpeed",
		"timestamp" :1555628400
		},
	"2019-04-19T04:00:00+01:00" : {
		"windSpeed" : 6.3,
		"windDir" : 11,
		"rain" : 0,
		"cloudbase" : 783.20799999999,
		"flyability" : 0,
		"reason" : "windSpeed",
		"timestamp" :1555639200
		},
	"2019-04-19T07:00:00+01:00" : {
		"windSpeed" : 5.4,
		"windDir" : 11,
		"rain" : 0,
		"cloudbase" : 1074.828,
		"flyability" : 0,
		"reason" : "windSpeed",
		"timestamp" :1555650000
		},
	"2019-04-19T10:00:00+01:00" : {
		"windSpeed" : 6.4,
		"windDir" : 19,
		"rain" : 1,
		"cloudbase" : 844.848,
		"flyability" : 0,
		"reason" : "windSpeed, rain",
		"timestamp" :1555660800
		},
	"2019-04-19T13:00:00+01:00" : {
		"windSpeed" : 6,
		"windDir" : 23,
		"rain" : 0,
		"cloudbase" : 931.28,
		"flyability" : 0,
		"reason" : "windSpeed, windDir",
		"timestamp" :1555671600
		},
	"2019-04-19T16:00:00+01:00" : {
		"windSpeed" : 5.3,
		"windDir" : 9,
		"rain" : 0,
		"cloudbase" : 1070.02,
		"flyability" : 0,
		"reason" : "windSpeed",
		"timestamp" :1555682400
		},
	"2019-04-19T19:00:00+01:00" : {
		"windSpeed" : 4.9,
		"windDir" : 10,
		"rain" : 0,
		"cloudbase" : null,
		"flyability" : 100,
		"reason" : "",
		"timestamp" :1555693200
		},
	"2019-04-19T22:00:00+01:00" : {
		"windSpeed" : 5.3,
		"windDir" : 0,
		"rain" : 0,
		"cloudbase" : null,
		"flyability" : 0,
		"reason" : "windSpeed",
		"timestamp" :1555704000
		},
	"2019-04-20T01:00:00+01:00" : {
		"windSpeed" : 4.5,
		"windDir" : 356,
		"rain" : 0,
		"cloudbase" : 754.376,
		"flyability" : 100,
		"reason" : "",
		"timestamp" :1555714800
		},
	"2019-04-20T04:00:00+01:00" : {
		"windSpeed" : 5,
		"windDir" : 355,
		"rain" : 0,
		"cloudbase" : 623.78,
		"flyability" : 100,
		"reason" : "",
		"timestamp" :1555725600
		},
	"2019-04-20T07:00:00+01:00" : {
		"windSpeed" : 5.1,
		"windDir" : 0,
		"rain" : 1,
		"cloudbase" : 649.848,
		"flyability" : 0,
		"reason" : "windSpeed, rain",
		"timestamp" :1555736400
		},
	"2019-04-20T10:00:00+01:00" : {
		"windSpeed" : 6.1,
		"windDir" : 13,
		"rain" : 1,
		"cloudbase" : 669.432,
		"flyability" : 0,
		"reason" : "windSpeed, rain",
		"timestamp" :1555747200
		},
	"2019-04-20T13:00:00+01:00" : {
		"windSpeed" : 5.7,
		"windDir" : 10,
		"rain" : 0,
		"cloudbase" : 803.568,
		"flyability" : 0,
		"reason" : "windSpeed",
		"timestamp" :1555758000
		},
	"2019-04-20T16:00:00+01:00" : {
		"windSpeed" : 6,
		"windDir" : 12,
		"rain" : 1,
		"cloudbase" : 797.256,
		"flyability" : 0,
		"reason" : "windSpeed, rain",
		"timestamp" :1555768800
		},
	"2019-04-20T19:00:00+01:00" : {
		"windSpeed" : 6.4,
		"windDir" : 358,
		"rain" : 1,
		"cloudbase" : 1078,
		"flyability" : 0,
		"reason" : "windSpeed, rain",
		"timestamp" :1555779600
		},
	"2019-04-20T22:00:00+01:00" : {
		"windSpeed" : 6.9,
		"windDir" : 1,
		"rain" : 1,
		"cloudbase" : null,
		"flyability" : 0,
		"reason" : "windSpeed, rain",
		"timestamp" :1555790400
		},
	"2019-04-21T01:00:00+01:00" : {
		"windSpeed" : 6.3,
		"windDir" : 7,
		"rain" : 1,
		"cloudbase" : 980,
		"flyability" : 0,
		"reason" : "windSpeed, rain",
		"timestamp" :1555801200
		}
	}
}