{
"site" : "Cawston",
"id" : 19517,
"orientations" : "00001221",
"forecasts" : { 
	"2019-04-16T20:00:00-07:00" : {
		"windSpeed" : 1,
		"windDir" : 241,
		"rain" : 0,
		"cloudbase" : 6730.076,
		"flyability" : 100,
		"reason" : "",
		"timestamp" :1555473600
		},
	"2019-04-16T23:00:00-07:00" : {
		"windSpeed" : 1.4,
		"windDir" : 270,
		"rain" : 0,
		"cloudbase" : null,
		"flyability" : 100,
		"reason" : "",
		"timestamp" :1555484400
		},
	"2019-04-17T02:00:00-07:00" : {
		"windSpeed" : 1.4,
		"windDir" : 267,
		"rain" : 0,
		"cloudbase" : 1574.619,
		"flyability" : 100,
		"reason" : "",
		"timestamp" :1555495200
		},
	"2019-04-17T05:00:00-07:00" : {
		"windSpeed" : 1.4,
		"windDir" : 252,
		"rain" : 0,
		"cloudbase" : 1352.073,
		"flyability" : 100,
		"reason" : "",
		"timestamp" :1555506000
		},
	"2019-04-17T08:00:00-07:00" : {
		"windSpeed" : 0.6,
		"windDir" : 229,
		"rain" : 0,
		"cloudbase" : 1673.8569999999,
		"flyability" : 100,
		"reason" : "",
		"timestamp" :1555516800
		},
	"2019-04-17T11:00:00-07:00" : {
		"windSpeed" : 0.9,
		"windDir" : 236,
		"rain" : 0,
		"cloudbase" : 1700,
		"flyability" : 100,
		"reason" : "",
		"timestamp" :1555527600
		},
	"2019-04-17T14:00:00-07:00" : {
		"windSpeed" : 1.4,
		"windDir" : 249,
		"rain" : 0,
		"cloudbase" : 3564.646,
		"flyability" : 100,
		"reason" : "",
		"timestamp" :1555538400
		},
	"2019-04-17T17:00:00-07:00" : {
		"windSpeed" : 1.8,
		"windDir" : 272,
		"rain" : 0,
		"cloudbase" : null,
		"flyability" : 100,
		"reason" : "",
		"timestamp" :1555549200
		},
	"2019-04-17T20:00:00-07:00" : {
		"windSpeed" : 1.4,
		"windDir" : 270,
		"rain" : 0,
		"cloudbase" : null,
		"flyability" : 100,
		"reason" : "",
		"timestamp" :1555560000
		},
	"2019-04-17T23:00:00-07:00" : {
		"windSpeed" : 1.4,
		"windDir" : 270,
		"rain" : 0,
		"cloudbase" : 6080.946,
		"flyability" : 100,
		"reason" : "",
		"timestamp" :1555570800
		},
	"2019-04-18T02:00:00-07:00" : {
		"windSpeed" : 1.3,
		"windDir" : 270,
		"rain" : 1,
		"cloudbase" : 5460.8360000001,
		"flyability" : 0,
		"reason" : "rain",
		"timestamp" :1555581600
		},
	"2019-04-18T05:00:00-07:00" : {
		"windSpeed" : 1.1,
		"windDir" : 238,
		"rain" : 1,
		"cloudbase" : 3092.536,
		"flyability" : 0,
		"reason" : "rain",
		"timestamp" :1555592400
		},
	"2019-04-18T08:00:00-07:00" : {
		"windSpeed" : 0.7,
		"windDir" : 220,
		"rain" : 1,
		"cloudbase" : 7122.702,
		"flyability" : 0,
		"reason" : "rain",
		"timestamp" :1555603200
		},
	"2019-04-18T11:00:00-07:00" : {
		"windSpeed" : 1.4,
		"windDir" : 131,
		"rain" : 1,
		"cloudbase" : 2016.63,
		"flyability" : 0,
		"reason" : "windDir, rain",
		"timestamp" :1555614000
		},
	"2019-04-18T14:00:00-07:00" : {
		"windSpeed" : 1.8,
		"windDir" : 124,
		"rain" : 1,
		"cloudbase" : 682.29819999998,
		"flyability" : 0,
		"reason" : "windDir, rain, cloudbase",
		"timestamp" :1555624800
		},
	"2019-04-18T17:00:00-07:00" : {
		"windSpeed" : 1.1,
		"windDir" : 118,
		"rain" : 1,
		"cloudbase" : 1450,
		"flyability" : 0,
		"reason" : "windDir, rain",
		"timestamp" :1555635600
		},
	"2019-04-18T20:00:00-07:00" : {
		"windSpeed" : 0.6,
		"windDir" : 224,
		"rain" : 1,
		"cloudbase" : 6729.8200000003,
		"flyability" : 0,
		"reason" : "rain",
		"timestamp" :1555646400
		},
	"2019-04-18T23:00:00-07:00" : {
		"windSpeed" : 1.1,
		"windDir" : 243,
		"rain" : 1,
		"cloudbase" : null,
		"flyability" : 0,
		"reason" : "rain",
		"timestamp" :1555657200
		},
	"2019-04-19T02:00:00-07:00" : {
		"windSpeed" : 0.9,
		"windDir" : 269,
		"rain" : 1,
		"cloudbase" : null,
		"flyability" : 0,
		"reason" : "rain",
		"timestamp" :1555668000
		},
	"2019-04-19T05:00:00-07:00" : {
		"windSpeed" : 0.6,
		"windDir" : 262,
		"rain" : 1,
		"cloudbase" : 2900,
		"flyability" : 0,
		"reason" : "rain",
		"timestamp" :1555678800
		},
	"2019-04-19T08:00:00-07:00" : {
		"windSpeed" : 0.5,
		"windDir" : 270,
		"rain" : 1,
		"cloudbase" : null,
		"flyability" : 0,
		"reason" : "rain",
		"timestamp" :1555689600
		},
	"2019-04-19T11:00:00-07:00" : {
		"windSpeed" : 0.6,
		"windDir" : 311,
		"rain" : 1,
		"cloudbase" : 2285.1030000001,
		"flyability" : 0,
		"reason" : "rain",
		"timestamp" :1555700400
		},
	"2019-04-19T14:00:00-07:00" : {
		"windSpeed" : 0.9,
		"windDir" : 356,
		"rain" : 1,
		"cloudbase" : 2553.7540000001,
		"flyability" : 0,
		"reason" : "windDir, rain",
		"timestamp" :1555711200
		},
	"2019-04-19T17:00:00-07:00" : {
		"windSpeed" : 2,
		"windDir" : 315,
		"rain" : 1,
		"cloudbase" : null,
		"flyability" : 0,
		"reason" : "rain",
		"timestamp" :1555722000
		},
	"2019-04-19T20:00:00-07:00" : {
		"windSpeed" : 1.8,
		"windDir" : 329,
		"rain" : 0,
		"cloudbase" : null,
		"flyability" : 100,
		"reason" : "",
		"timestamp" :1555732800
		},
	"2019-04-19T23:00:00-07:00" : {
		"windSpeed" : 1.1,
		"windDir" : 297,
		"rain" : 0,
		"cloudbase" : null,
		"flyability" : 100,
		"reason" : "",
		"timestamp" :1555743600
		},
	"2019-04-20T02:00:00-07:00" : {
		"windSpeed" : 1.1,
		"windDir" : 274,
		"rain" : 0,
		"cloudbase" : null,
		"flyability" : 100,
		"reason" : "",
		"timestamp" :1555754400
		},
	"2019-04-20T05:00:00-07:00" : {
		"windSpeed" : 1.2,
		"windDir" : 296,
		"rain" : 0,
		"cloudbase" : null,
		"flyability" : 100,
		"reason" : "",
		"timestamp" :1555765200
		},
	"2019-04-20T08:00:00-07:00" : {
		"windSpeed" : 0.8,
		"windDir" : 315,
		"rain" : 0,
		"cloudbase" : 1100,
		"flyability" : 0,
		"reason" : "cloudbase",
		"timestamp" :1555776000
		},
	"2019-04-20T11:00:00-07:00" : {
		"windSpeed" : 2,
		"windDir" : 14,
		"rain" : 0,
		"cloudbase" : 1450,
		"flyability" : 0,
		"reason" : "windDir",
		"timestamp" :1555786800
		},
	"2019-04-20T14:00:00-07:00" : {
		"windSpeed" : 1.6,
		"windDir" : 74,
		"rain" : 0,
		"cloudbase" : null,
		"flyability" : 0,
		"reason" : "windDir",
		"timestamp" :1555797600
		},
	"2019-04-20T17:00:00-07:00" : {
		"windSpeed" : 1.5,
		"windDir" : 137,
		"rain" : 0,
		"cloudbase" : null,
		"flyability" : 0,
		"reason" : "windDir",
		"timestamp" :1555808400
		},
	"2019-04-20T20:00:00-07:00" : {
		"windSpeed" : 0.8,
		"windDir" : 220,
		"rain" : 0,
		"cloudbase" : 8574.93,
		"flyability" : 100,
		"reason" : "",
		"timestamp" :1555819200
		},
	"2019-04-20T23:00:00-07:00" : {
		"windSpeed" : 0.5,
		"windDir" : 269,
		"rain" : 0,
		"cloudbase" : 7517.746,
		"flyability" : 100,
		"reason" : "",
		"timestamp" :1555830000
		},
	"2019-04-21T02:00:00-07:00" : {
		"windSpeed" : 0.8,
		"windDir" : 220,
		"rain" : 1,
		"cloudbase" : 5402.146,
		"flyability" : 0,
		"reason" : "rain",
		"timestamp" :1555840800
		},
	"2019-04-21T05:00:00-07:00" : {
		"windSpeed" : 0.8,
		"windDir" : 220,
		"rain" : 0,
		"cloudbase" : 4694.773,
		"flyability" : 100,
		"reason" : "",
		"timestamp" :1555851600
		},
	"2019-04-21T08:00:00-07:00" : {
		"windSpeed" : 0.4,
		"windDir" : 257,
		"rain" : 1,
		"cloudbase" : 4052.219,
		"flyability" : 0,
		"reason" : "rain",
		"timestamp" :1555862400
		},
	"2019-04-21T11:00:00-07:00" : {
		"windSpeed" : 1.1,
		"windDir" : 117,
		"rain" : 1,
		"cloudbase" : 9041.432,
		"flyability" : 0,
		"reason" : "windDir, rain",
		"timestamp" :1555873200
		},
	"2019-04-21T14:00:00-07:00" : {
		"windSpeed" : 1.7,
		"windDir" : 123,
		"rain" : 1,
		"cloudbase" : 2650,
		"flyability" : 0,
		"reason" : "windDir, rain",
		"timestamp" :1555884000
		},
	"2019-04-21T17:00:00-07:00" : {
		"windSpeed" : 0.7,
		"windDir" : 40,
		"rain" : 1,
		"cloudbase" : 6130.908,
		"flyability" : 0,
		"reason" : "windDir, rain",
		"timestamp" :1555894800
		},
	"2019-04-21T20:00:00-07:00" : {
		"windSpeed" : 1.1,
		"windDir" : 297,
		"rain" : 0,
		"cloudbase" : 7373.092,
		"flyability" : 100,
		"reason" : "",
		"timestamp" :1555905600
		},
	"2019-04-21T23:00:00-07:00" : {
		"windSpeed" : 1.2,
		"windDir" : 296,
		"rain" : 0,
		"cloudbase" : 6015.134,
		"flyability" : 100,
		"reason" : "",
		"timestamp" :1555916400
		},
	"2019-04-22T02:00:00-07:00" : {
		"windSpeed" : 1.4,
		"windDir" : 270,
		"rain" : 0,
		"cloudbase" : 7256.908,
		"flyability" : 100,
		"reason" : "",
		"timestamp" :1555927200
		},
	"2019-04-22T05:00:00-07:00" : {
		"windSpeed" : 1.3,
		"windDir" : 270,
		"rain" : 0,
		"cloudbase" : 3102.219,
		"flyability" : 100,
		"reason" : "",
		"timestamp" :1555938000
		},
	"2019-04-22T08:00:00-07:00" : {
		"windSpeed" : 1.1,
		"windDir" : 203,
		"rain" : 0,
		"cloudbase" : 6739.05,
		"flyability" : 100,
		"reason" : "",
		"timestamp" :1555948800
		},
	"2019-04-22T11:00:00-07:00" : {
		"windSpeed" : 2.1,
		"windDir" : 135,
		"rain" : 0,
		"cloudbase" : 2371.084,
		"flyability" : 0,
		"reason" : "windDir",
		"timestamp" :1555959600
		},
	"2019-04-22T14:00:00-07:00" : {
		"windSpeed" : 1.5,
		"windDir" : 180,
		"rain" : 0,
		"cloudbase" : 1702.392,
		"flyability" : 100,
		"reason" : "",
		"timestamp" :1555970400
		},
	"2019-04-22T17:00:00-07:00" : {
		"windSpeed" : 0.1,
		"windDir" : 6,
		"rain" : 1,
		"cloudbase" : null,
		"flyability" : 0,
		"reason" : "windDir, rain",
		"timestamp" :1555981200
		}
	}
}