{
"site" : "Pilgrims Farm",
"id" : 19625,
"orientations" : "00022100",
"forecasts" : { 
	"2019-04-22T04:00:00+01:00" : {
		"windSpeed" : 3.3,
		"windDir" : 85,
		"rain" : 0,
		"cloudbase" : null,
		"flyability" : 0,
		"reason" : "windDir",
		"timestamp" :1555898400
		},
	"2019-04-22T07:00:00+01:00" : {
		"windSpeed" : 3.3,
		"windDir" : 85,
		"rain" : 0,
		"cloudbase" : 8952.7142,
		"flyability" : 0,
		"reason" : "windDir",
		"timestamp" :1555909200
		},
	"2019-04-22T10:00:00+01:00" : {
		"windSpeed" : 2.8,
		"windDir" : 100,
		"rain" : 0,
		"cloudbase" : null,
		"flyability" : 0,
		"reason" : "windDir",
		"timestamp" :1555920000
		},
	"2019-04-22T13:00:00+01:00" : {
		"windSpeed" : 3.6,
		"windDir" : 136,
		"rain" : 0,
		"cloudbase" : null,
		"flyability" : 100,
		"reason" : "",
		"timestamp" :1555930800
		},
	"2019-04-22T16:00:00+01:00" : {
		"windSpeed" : 4.1,
		"windDir" : 168,
		"rain" : 0,
		"cloudbase" : 8900,
		"flyability" : 100,
		"reason" : "",
		"timestamp" :1555941600
		},
	"2019-04-22T19:00:00+01:00" : {
		"windSpeed" : 1.7,
		"windDir" : 145,
		"rain" : 0,
		"cloudbase" : null,
		"flyability" : 100,
		"reason" : "",
		"timestamp" :1555952400
		},
	"2019-04-22T22:00:00+01:00" : {
		"windSpeed" : 1.5,
		"windDir" : 87,
		"rain" : 0,
		"cloudbase" : 4087.48935,
		"flyability" : 0,
		"reason" : "windDir",
		"timestamp" :1555963200
		},
	"2019-04-23T01:00:00+01:00" : {
		"windSpeed" : 3.3,
		"windDir" : 48,
		"rain" : 0,
		"cloudbase" : 4181.40355,
		"flyability" : 0,
		"reason" : "windDir",
		"timestamp" :1555974000
		},
	"2019-04-23T04:00:00+01:00" : {
		"windSpeed" : 3.9,
		"windDir" : 59,
		"rain" : 0,
		"cloudbase" : 9400,
		"flyability" : 0,
		"reason" : "windDir",
		"timestamp" :1555984800
		},
	"2019-04-23T07:00:00+01:00" : {
		"windSpeed" : 4.1,
		"windDir" : 68,
		"rain" : 0,
		"cloudbase" : 9341.3,
		"flyability" : 0,
		"reason" : "windDir",
		"timestamp" :1555995600
		},
	"2019-04-23T10:00:00+01:00" : {
		"windSpeed" : 3.9,
		"windDir" : 80,
		"rain" : 0,
		"cloudbase" : 8219.7503,
		"flyability" : 0,
		"reason" : "windDir",
		"timestamp" :1556006400
		},
	"2019-04-23T13:00:00+01:00" : {
		"windSpeed" : 4.1,
		"windDir" : 74,
		"rain" : 0,
		"cloudbase" : 7200,
		"flyability" : 0,
		"reason" : "windDir",
		"timestamp" :1556017200
		},
	"2019-04-23T16:00:00+01:00" : {
		"windSpeed" : 3.6,
		"windDir" : 71,
		"rain" : 0,
		"cloudbase" : 7031.5503,
		"flyability" : 0,
		"reason" : "windDir",
		"timestamp" :1556028000
		},
	"2019-04-23T19:00:00+01:00" : {
		"windSpeed" : 2.7,
		"windDir" : 65,
		"rain" : 0,
		"cloudbase" : 7660.2071,
		"flyability" : 0,
		"reason" : "windDir",
		"timestamp" :1556038800
		},
	"2019-04-23T22:00:00+01:00" : {
		"windSpeed" : 2.1,
		"windDir" : 59,
		"rain" : 0,
		"cloudbase" : 5785.3,
		"flyability" : 0,
		"reason" : "windDir",
		"timestamp" :1556049600
		},
	"2019-04-24T01:00:00+01:00" : {
		"windSpeed" : 1.3,
		"windDir" : 81,
		"rain" : 0,
		"cloudbase" : 4300,
		"flyability" : 0,
		"reason" : "windDir",
		"timestamp" :1556060400
		},
	"2019-04-24T04:00:00+01:00" : {
		"windSpeed" : 2,
		"windDir" : 100,
		"rain" : 0,
		"cloudbase" : null,
		"flyability" : 0,
		"reason" : "windDir",
		"timestamp" :1556071200
		},
	"2019-04-24T07:00:00+01:00" : {
		"windSpeed" : 3.9,
		"windDir" : 149,
		"rain" : 0,
		"cloudbase" : 8800,
		"flyability" : 100,
		"reason" : "",
		"timestamp" :1556082000
		},
	"2019-04-24T10:00:00+01:00" : {
		"windSpeed" : 6.2,
		"windDir" : 157,
		"rain" : 0,
		"cloudbase" : null,
		"flyability" : 0,
		"reason" : "windSpeed",
		"timestamp" :1556092800
		},
	"2019-04-24T13:00:00+01:00" : {
		"windSpeed" : 7,
		"windDir" : 185,
		"rain" : 1,
		"cloudbase" : 353.35502999999,
		"flyability" : 0,
		"reason" : "windSpeed, rain",
		"timestamp" :1556103600
		},
	"2019-04-24T16:00:00+01:00" : {
		"windSpeed" : 6,
		"windDir" : 205,
		"rain" : 1,
		"cloudbase" : 2088.3429,
		"flyability" : 0,
		"reason" : "windSpeed, rain",
		"timestamp" :1556114400
		},
	"2019-04-24T19:00:00+01:00" : {
		"windSpeed" : 3.5,
		"windDir" : 172,
		"rain" : 0,
		"cloudbase" : 6981.1929,
		"flyability" : 100,
		"reason" : "",
		"timestamp" :1556125200
		},
	"2019-04-24T22:00:00+01:00" : {
		"windSpeed" : 4.9,
		"windDir" : 156,
		"rain" : 1,
		"cloudbase" : null,
		"flyability" : 0,
		"reason" : "rain",
		"timestamp" :1556136000
		},
	"2019-04-25T01:00:00+01:00" : {
		"windSpeed" : 4.9,
		"windDir" : 144,
		"rain" : 0,
		"cloudbase" : null,
		"flyability" : 100,
		"reason" : "",
		"timestamp" :1556146800
		},
	"2019-04-25T04:00:00+01:00" : {
		"windSpeed" : 6.3,
		"windDir" : 129,
		"rain" : 1,
		"cloudbase" : 2540.9929,
		"flyability" : 0,
		"reason" : "windSpeed, rain",
		"timestamp" :1556157600
		},
	"2019-04-25T07:00:00+01:00" : {
		"windSpeed" : 6.7,
		"windDir" : 138,
		"rain" : 1,
		"cloudbase" : 2457.98935,
		"flyability" : 0,
		"reason" : "windSpeed, rain",
		"timestamp" :1556168400
		},
	"2019-04-25T10:00:00+01:00" : {
		"windSpeed" : 7.5,
		"windDir" : 155,
		"rain" : 1,
		"cloudbase" : 1117.5742,
		"flyability" : 0,
		"reason" : "windSpeed, rain",
		"timestamp" :1556179200
		},
	"2019-04-25T13:00:00+01:00" : {
		"windSpeed" : 6.5,
		"windDir" : 185,
		"rain" : 1,
		"cloudbase" : 1122.74645,
		"flyability" : 0,
		"reason" : "windSpeed, rain",
		"timestamp" :1556190000
		},
	"2019-04-25T16:00:00+01:00" : {
		"windSpeed" : 5.4,
		"windDir" : 180,
		"rain" : 0,
		"cloudbase" : 5756.1,
		"flyability" : 0,
		"reason" : "windSpeed",
		"timestamp" :1556200800
		},
	"2019-04-25T19:00:00+01:00" : {
		"windSpeed" : 4,
		"windDir" : 172,
		"rain" : 1,
		"cloudbase" : 4197.99645,
		"flyability" : 0,
		"reason" : "rain",
		"timestamp" :1556211600
		},
	"2019-04-25T22:00:00+01:00" : {
		"windSpeed" : 3,
		"windDir" : 170,
		"rain" : 0,
		"cloudbase" : null,
		"flyability" : 100,
		"reason" : "",
		"timestamp" :1556222400
		},
	"2019-04-26T01:00:00+01:00" : {
		"windSpeed" : 2.9,
		"windDir" : 182,
		"rain" : 0,
		"cloudbase" : null,
		"flyability" : 100,
		"reason" : "",
		"timestamp" :1556233200
		},
	"2019-04-26T04:00:00+01:00" : {
		"windSpeed" : 3.3,
		"windDir" : 188,
		"rain" : 0,
		"cloudbase" : null,
		"flyability" : 100,
		"reason" : "",
		"timestamp" :1556244000
		},
	"2019-04-26T07:00:00+01:00" : {
		"windSpeed" : 3.9,
		"windDir" : 174,
		"rain" : 0,
		"cloudbase" : null,
		"flyability" : 100,
		"reason" : "",
		"timestamp" :1556254800
		},
	"2019-04-26T10:00:00+01:00" : {
		"windSpeed" : 4,
		"windDir" : 173,
		"rain" : 1,
		"cloudbase" : 288.07929,
		"flyability" : 0,
		"reason" : "rain",
		"timestamp" :1556265600
		},
	"2019-04-26T13:00:00+01:00" : {
		"windSpeed" : 5,
		"windDir" : 186,
		"rain" : 1,
		"cloudbase" : 424.49213,
		"flyability" : 0,
		"reason" : "rain",
		"timestamp" :1556276400
		},
	"2019-04-26T16:00:00+01:00" : {
		"windSpeed" : 6.2,
		"windDir" : 210,
		"rain" : 1,
		"cloudbase" : 5814.7,
		"flyability" : 0,
		"reason" : "windSpeed, rain",
		"timestamp" :1556287200
		},
	"2019-04-26T19:00:00+01:00" : {
		"windSpeed" : 5,
		"windDir" : 207,
		"rain" : 0,
		"cloudbase" : 6948.3148,
		"flyability" : 100,
		"reason" : "",
		"timestamp" :1556298000
		},
	"2019-04-26T22:00:00+01:00" : {
		"windSpeed" : 4,
		"windDir" : 229,
		"rain" : 0,
		"cloudbase" : 5500,
		"flyability" : 100,
		"reason" : "",
		"timestamp" :1556308800
		},
	"2019-04-27T01:00:00+01:00" : {
		"windSpeed" : 4.3,
		"windDir" : 234,
		"rain" : 0,
		"cloudbase" : 6744.1,
		"flyability" : 100,
		"reason" : "",
		"timestamp" :1556319600
		},
	"2019-04-27T04:00:00+01:00" : {
		"windSpeed" : 4,
		"windDir" : 182,
		"rain" : 1,
		"cloudbase" : 1247.3500599999,
		"flyability" : 0,
		"reason" : "rain",
		"timestamp" :1556330400
		},
	"2019-04-27T07:00:00+01:00" : {
		"windSpeed" : 6.9,
		"windDir" : 200,
		"rain" : 1,
		"cloudbase" : 1150,
		"flyability" : 0,
		"reason" : "windSpeed, rain",
		"timestamp" :1556341200
		},
	"2019-04-27T10:00:00+01:00" : {
		"windSpeed" : 2.8,
		"windDir" : 33,
		"rain" : 1,
		"cloudbase" : 591.17426000001,
		"flyability" : 0,
		"reason" : "windDir, rain",
		"timestamp" :1556352000
		},
	"2019-04-27T13:00:00+01:00" : {
		"windSpeed" : 7.9,
		"windDir" : 315,
		"rain" : 1,
		"cloudbase" : 466.45142,
		"flyability" : 0,
		"reason" : "windSpeed, windDir, rain",
		"timestamp" :1556362800
		},
	"2019-04-27T16:00:00+01:00" : {
		"windSpeed" : 7.9,
		"windDir" : 305,
		"rain" : 1,
		"cloudbase" : 2956.05,
		"flyability" : 0,
		"reason" : "windSpeed, windDir, rain",
		"timestamp" :1556373600
		},
	"2019-04-27T19:00:00+01:00" : {
		"windSpeed" : 6.7,
		"windDir" : 297,
		"rain" : 1,
		"cloudbase" : null,
		"flyability" : 0,
		"reason" : "windSpeed, windDir, rain",
		"timestamp" :1556384400
		},
	"2019-04-27T22:00:00+01:00" : {
		"windSpeed" : 5.2,
		"windDir" : 287,
		"rain" : 0,
		"cloudbase" : null,
		"flyability" : 0,
		"reason" : "windSpeed, windDir",
		"timestamp" :1556395200
		},
	"2019-04-28T01:00:00+01:00" : {
		"windSpeed" : 4.6,
		"windDir" : 277,
		"rain" : 0,
		"cloudbase" : 8200,
		"flyability" : 0,
		"reason" : "windDir",
		"timestamp" :1556406000
		}
	}
}