{
"site" : "Nam Kh\u00ea",
"id" : 19667,
"orientations" : "00222220",
"forecasts" : { 
	"2019-04-05T10:00:00+07:00" : {
		"windSpeed" : 3.1,
		"windDir" : 101,
		"rain" : 0,
		"cloudbase" : null,
		"flyability" : 100,
		"reason" : "",
		"timestamp" :1554429600
		},
	"2019-04-05T13:00:00+07:00" : {
		"windSpeed" : 4,
		"windDir" : 131,
		"rain" : 1,
		"cloudbase" : 3756.2664999999,
		"flyability" : 0,
		"reason" : "rain",
		"timestamp" :1554440400
		},
	"2019-04-05T16:00:00+07:00" : {
		"windSpeed" : 3,
		"windDir" : 127,
		"rain" : 1,
		"cloudbase" : 2069.2025000001,
		"flyability" : 0,
		"reason" : "rain",
		"timestamp" :1554451200
		},
	"2019-04-05T19:00:00+07:00" : {
		"windSpeed" : 1.4,
		"windDir" : 104,
		"rain" : 0,
		"cloudbase" : 12000,
		"flyability" : 100,
		"reason" : "",
		"timestamp" :1554462000
		},
	"2019-04-05T22:00:00+07:00" : {
		"windSpeed" : 1.1,
		"windDir" : 18,
		"rain" : 0,
		"cloudbase" : null,
		"flyability" : 0,
		"reason" : "windDir",
		"timestamp" :1554472800
		},
	"2019-04-06T01:00:00+07:00" : {
		"windSpeed" : 1.6,
		"windDir" : 52,
		"rain" : 0,
		"cloudbase" : 1400,
		"flyability" : 0,
		"reason" : "windDir",
		"timestamp" :1554483600
		},
	"2019-04-06T04:00:00+07:00" : {
		"windSpeed" : 0.9,
		"windDir" : 84,
		"rain" : 0,
		"cloudbase" : 1077.6,
		"flyability" : 100,
		"reason" : "",
		"timestamp" :1554494400
		},
	"2019-04-06T07:00:00+07:00" : {
		"windSpeed" : 1.9,
		"windDir" : 110,
		"rain" : 0,
		"cloudbase" : null,
		"flyability" : 100,
		"reason" : "",
		"timestamp" :1554505200
		},
	"2019-04-06T10:00:00+07:00" : {
		"windSpeed" : 2.9,
		"windDir" : 152,
		"rain" : 0,
		"cloudbase" : 660,
		"flyability" : 100,
		"reason" : "",
		"timestamp" :1554516000
		},
	"2019-04-06T13:00:00+07:00" : {
		"windSpeed" : 4.5,
		"windDir" : 168,
		"rain" : 1,
		"cloudbase" : null,
		"flyability" : 0,
		"reason" : "rain",
		"timestamp" :1554526800
		},
	"2019-04-06T16:00:00+07:00" : {
		"windSpeed" : 3.7,
		"windDir" : 160,
		"rain" : 0,
		"cloudbase" : 12370.805,
		"flyability" : 100,
		"reason" : "",
		"timestamp" :1554537600
		},
	"2019-04-06T19:00:00+07:00" : {
		"windSpeed" : 1.3,
		"windDir" : 127,
		"rain" : 0,
		"cloudbase" : null,
		"flyability" : 100,
		"reason" : "",
		"timestamp" :1554548400
		},
	"2019-04-06T22:00:00+07:00" : {
		"windSpeed" : 1.4,
		"windDir" : 83,
		"rain" : 0,
		"cloudbase" : 13500,
		"flyability" : 100,
		"reason" : "",
		"timestamp" :1554559200
		},
	"2019-04-07T01:00:00+07:00" : {
		"windSpeed" : 1.3,
		"windDir" : 104,
		"rain" : 0,
		"cloudbase" : null,
		"flyability" : 100,
		"reason" : "",
		"timestamp" :1554570000
		},
	"2019-04-07T04:00:00+07:00" : {
		"windSpeed" : 1.6,
		"windDir" : 121,
		"rain" : 0,
		"cloudbase" : 149.82389999999,
		"flyability" : 0,
		"reason" : "cloudbase",
		"timestamp" :1554580800
		},
	"2019-04-07T07:00:00+07:00" : {
		"windSpeed" : 2.1,
		"windDir" : 139,
		"rain" : 0,
		"cloudbase" : 95.773899999994,
		"flyability" : 0,
		"reason" : "cloudbase",
		"timestamp" :1554591600
		},
	"2019-04-07T10:00:00+07:00" : {
		"windSpeed" : 3.6,
		"windDir" : 168,
		"rain" : 1,
		"cloudbase" : 1107.0242,
		"flyability" : 0,
		"reason" : "rain",
		"timestamp" :1554602400
		},
	"2019-04-07T13:00:00+07:00" : {
		"windSpeed" : 4.6,
		"windDir" : 159,
		"rain" : 1,
		"cloudbase" : null,
		"flyability" : 0,
		"reason" : "rain",
		"timestamp" :1554613200
		},
	"2019-04-07T16:00:00+07:00" : {
		"windSpeed" : 4.4,
		"windDir" : 155,
		"rain" : 0,
		"cloudbase" : 680,
		"flyability" : 100,
		"reason" : "",
		"timestamp" :1554624000
		},
	"2019-04-07T19:00:00+07:00" : {
		"windSpeed" : 2,
		"windDir" : 111,
		"rain" : 0,
		"cloudbase" : 13211.11,
		"flyability" : 100,
		"reason" : "",
		"timestamp" :1554634800
		},
	"2019-04-07T22:00:00+07:00" : {
		"windSpeed" : 2,
		"windDir" : 99,
		"rain" : 0,
		"cloudbase" : 12000,
		"flyability" : 100,
		"reason" : "",
		"timestamp" :1554645600
		},
	"2019-04-08T01:00:00+07:00" : {
		"windSpeed" : 1.9,
		"windDir" : 113,
		"rain" : 0,
		"cloudbase" : 5818.8049999994,
		"flyability" : 100,
		"reason" : "",
		"timestamp" :1554656400
		},
	"2019-04-08T04:00:00+07:00" : {
		"windSpeed" : 1.3,
		"windDir" : 127,
		"rain" : 0,
		"cloudbase" : 129.47559999999,
		"flyability" : 0,
		"reason" : "cloudbase",
		"timestamp" :1554667200
		},
	"2019-04-08T07:00:00+07:00" : {
		"windSpeed" : 2.9,
		"windDir" : 143,
		"rain" : 1,
		"cloudbase" : null,
		"flyability" : 0,
		"reason" : "rain",
		"timestamp" :1554678000
		},
	"2019-04-08T10:00:00+07:00" : {
		"windSpeed" : 4.5,
		"windDir" : 175,
		"rain" : 0,
		"cloudbase" : null,
		"flyability" : 100,
		"reason" : "",
		"timestamp" :1554688800
		},
	"2019-04-08T13:00:00+07:00" : {
		"windSpeed" : 5.2,
		"windDir" : 165,
		"rain" : 0,
		"cloudbase" : null,
		"flyability" : 0,
		"reason" : "windSpeed",
		"timestamp" :1554699600
		},
	"2019-04-08T16:00:00+07:00" : {
		"windSpeed" : 4.5,
		"windDir" : 151,
		"rain" : 0,
		"cloudbase" : null,
		"flyability" : 100,
		"reason" : "",
		"timestamp" :1554710400
		},
	"2019-04-08T19:00:00+07:00" : {
		"windSpeed" : 1.6,
		"windDir" : 121,
		"rain" : 0,
		"cloudbase" : null,
		"flyability" : 100,
		"reason" : "",
		"timestamp" :1554721200
		},
	"2019-04-08T22:00:00+07:00" : {
		"windSpeed" : 2.1,
		"windDir" : 113,
		"rain" : 0,
		"cloudbase" : null,
		"flyability" : 100,
		"reason" : "",
		"timestamp" :1554732000
		},
	"2019-04-09T01:00:00+07:00" : {
		"windSpeed" : 1.5,
		"windDir" : 109,
		"rain" : 0,
		"cloudbase" : null,
		"flyability" : 100,
		"reason" : "",
		"timestamp" :1554742800
		},
	"2019-04-09T04:00:00+07:00" : {
		"windSpeed" : 2.1,
		"windDir" : 117,
		"rain" : 0,
		"cloudbase" : null,
		"flyability" : 100,
		"reason" : "",
		"timestamp" :1554753600
		},
	"2019-04-09T07:00:00+07:00" : {
		"windSpeed" : 2.1,
		"windDir" : 126,
		"rain" : 0,
		"cloudbase" : null,
		"flyability" : 100,
		"reason" : "",
		"timestamp" :1554764400
		},
	"2019-04-09T10:00:00+07:00" : {
		"windSpeed" : 4.2,
		"windDir" : 177,
		"rain" : 0,
		"cloudbase" : null,
		"flyability" : 100,
		"reason" : "",
		"timestamp" :1554775200
		},
	"2019-04-09T13:00:00+07:00" : {
		"windSpeed" : 4.2,
		"windDir" : 166,
		"rain" : 0,
		"cloudbase" : null,
		"flyability" : 100,
		"reason" : "",
		"timestamp" :1554786000
		},
	"2019-04-09T16:00:00+07:00" : {
		"windSpeed" : 3.9,
		"windDir" : 155,
		"rain" : 0,
		"cloudbase" : null,
		"flyability" : 100,
		"reason" : "",
		"timestamp" :1554796800
		},
	"2019-04-09T19:00:00+07:00" : {
		"windSpeed" : 1.8,
		"windDir" : 127,
		"rain" : 0,
		"cloudbase" : null,
		"flyability" : 100,
		"reason" : "",
		"timestamp" :1554807600
		},
	"2019-04-09T22:00:00+07:00" : {
		"windSpeed" : 2,
		"windDir" : 107,
		"rain" : 0,
		"cloudbase" : null,
		"flyability" : 100,
		"reason" : "",
		"timestamp" :1554818400
		},
	"2019-04-10T01:00:00+07:00" : {
		"windSpeed" : 1.6,
		"windDir" : 116,
		"rain" : 0,
		"cloudbase" : null,
		"flyability" : 100,
		"reason" : "",
		"timestamp" :1554829200
		},
	"2019-04-10T04:00:00+07:00" : {
		"windSpeed" : 1.5,
		"windDir" : 105,
		"rain" : 0,
		"cloudbase" : null,
		"flyability" : 100,
		"reason" : "",
		"timestamp" :1554840000
		},
	"2019-04-10T07:00:00+07:00" : {
		"windSpeed" : 2.3,
		"windDir" : 100,
		"rain" : 0,
		"cloudbase" : null,
		"flyability" : 100,
		"reason" : "",
		"timestamp" :1554850800
		},
	"2019-04-10T10:00:00+07:00" : {
		"windSpeed" : 4,
		"windDir" : 155,
		"rain" : 0,
		"cloudbase" : null,
		"flyability" : 100,
		"reason" : "",
		"timestamp" :1554861600
		},
	"2019-04-10T13:00:00+07:00" : {
		"windSpeed" : 4.4,
		"windDir" : 158,
		"rain" : 0,
		"cloudbase" : null,
		"flyability" : 100,
		"reason" : "",
		"timestamp" :1554872400
		},
	"2019-04-10T16:00:00+07:00" : {
		"windSpeed" : 4.1,
		"windDir" : 148,
		"rain" : 0,
		"cloudbase" : null,
		"flyability" : 100,
		"reason" : "",
		"timestamp" :1554883200
		},
	"2019-04-10T19:00:00+07:00" : {
		"windSpeed" : 2.4,
		"windDir" : 108,
		"rain" : 0,
		"cloudbase" : null,
		"flyability" : 100,
		"reason" : "",
		"timestamp" :1554894000
		},
	"2019-04-10T22:00:00+07:00" : {
		"windSpeed" : 2.4,
		"windDir" : 92,
		"rain" : 0,
		"cloudbase" : null,
		"flyability" : 100,
		"reason" : "",
		"timestamp" :1554904800
		},
	"2019-04-11T01:00:00+07:00" : {
		"windSpeed" : 2,
		"windDir" : 104,
		"rain" : 0,
		"cloudbase" : null,
		"flyability" : 100,
		"reason" : "",
		"timestamp" :1554915600
		},
	"2019-04-11T04:00:00+07:00" : {
		"windSpeed" : 2,
		"windDir" : 104,
		"rain" : 0,
		"cloudbase" : null,
		"flyability" : 100,
		"reason" : "",
		"timestamp" :1554926400
		},
	"2019-04-11T07:00:00+07:00" : {
		"windSpeed" : 2.6,
		"windDir" : 120,
		"rain" : 0,
		"cloudbase" : null,
		"flyability" : 100,
		"reason" : "",
		"timestamp" :1554937200
		}
	}
}