{
"site" : "Tocile",
"id" : 19822,
"orientations" : "12110000",
"forecasts" : { 
	"2019-04-17T06:00:00+03:00" : {
		"windSpeed" : 1.2,
		"windDir" : 284,
		"rain" : 0,
		"cloudbase" : 1875.8087999999,
		"flyability" : 0,
		"reason" : "windDir",
		"timestamp" :1555470000
		},
	"2019-04-17T09:00:00+03:00" : {
		"windSpeed" : 2.5,
		"windDir" : 343,
		"rain" : 1,
		"cloudbase" : 889.91943999993,
		"flyability" : 0,
		"reason" : "rain",
		"timestamp" :1555480800
		},
	"2019-04-17T12:00:00+03:00" : {
		"windSpeed" : 2.4,
		"windDir" : 335,
		"rain" : 1,
		"cloudbase" : 699.27911999998,
		"flyability" : 0,
		"reason" : "windDir, rain, cloudbase",
		"timestamp" :1555491600
		},
	"2019-04-17T15:00:00+03:00" : {
		"windSpeed" : 3,
		"windDir" : 347,
		"rain" : 0,
		"cloudbase" : 716.10263999998,
		"flyability" : 0,
		"reason" : "cloudbase",
		"timestamp" :1555502400
		},
	"2019-04-17T18:00:00+03:00" : {
		"windSpeed" : 2,
		"windDir" : 26,
		"rain" : 1,
		"cloudbase" : 727.05647999996,
		"flyability" : 0,
		"reason" : "rain",
		"timestamp" :1555513200
		},
	"2019-04-17T21:00:00+03:00" : {
		"windSpeed" : 0.7,
		"windDir" : 277,
		"rain" : 1,
		"cloudbase" : null,
		"flyability" : 0,
		"reason" : "windDir, rain",
		"timestamp" :1555524000
		},
	"2019-04-18T00:00:00+03:00" : {
		"windSpeed" : 1,
		"windDir" : 253,
		"rain" : 0,
		"cloudbase" : null,
		"flyability" : 0,
		"reason" : "windDir",
		"timestamp" :1555534800
		},
	"2019-04-18T03:00:00+03:00" : {
		"windSpeed" : 0.9,
		"windDir" : 291,
		"rain" : 0,
		"cloudbase" : 960,
		"flyability" : 0,
		"reason" : "windDir",
		"timestamp" :1555545600
		},
	"2019-04-18T06:00:00+03:00" : {
		"windSpeed" : 1.1,
		"windDir" : 263,
		"rain" : 0,
		"cloudbase" : 130,
		"flyability" : 0,
		"reason" : "windDir, cloudbase",
		"timestamp" :1555556400
		},
	"2019-04-18T09:00:00+03:00" : {
		"windSpeed" : 1.1,
		"windDir" : 333,
		"rain" : 0,
		"cloudbase" : 2050,
		"flyability" : 0,
		"reason" : "windDir",
		"timestamp" :1555567200
		},
	"2019-04-18T12:00:00+03:00" : {
		"windSpeed" : 2.1,
		"windDir" : 30,
		"rain" : 0,
		"cloudbase" : 633.75471999999,
		"flyability" : 0,
		"reason" : "cloudbase",
		"timestamp" :1555578000
		},
	"2019-04-18T15:00:00+03:00" : {
		"windSpeed" : 2.1,
		"windDir" : 2,
		"rain" : 1,
		"cloudbase" : 610.67823999998,
		"flyability" : 0,
		"reason" : "rain, cloudbase",
		"timestamp" :1555588800
		},
	"2019-04-18T18:00:00+03:00" : {
		"windSpeed" : 2.3,
		"windDir" : 31,
		"rain" : 1,
		"cloudbase" : 887.07219999999,
		"flyability" : 0,
		"reason" : "rain",
		"timestamp" :1555599600
		},
	"2019-04-18T21:00:00+03:00" : {
		"windSpeed" : 1.5,
		"windDir" : 220,
		"rain" : 0,
		"cloudbase" : null,
		"flyability" : 0,
		"reason" : "windDir",
		"timestamp" :1555610400
		},
	"2019-04-19T00:00:00+03:00" : {
		"windSpeed" : 0.9,
		"windDir" : 225,
		"rain" : 0,
		"cloudbase" : null,
		"flyability" : 0,
		"reason" : "windDir",
		"timestamp" :1555621200
		},
	"2019-04-19T03:00:00+03:00" : {
		"windSpeed" : 0.9,
		"windDir" : 263,
		"rain" : 0,
		"cloudbase" : null,
		"flyability" : 0,
		"reason" : "windDir",
		"timestamp" :1555632000
		},
	"2019-04-19T06:00:00+03:00" : {
		"windSpeed" : 1.4,
		"windDir" : 282,
		"rain" : 0,
		"cloudbase" : null,
		"flyability" : 0,
		"reason" : "windDir",
		"timestamp" :1555642800
		},
	"2019-04-19T09:00:00+03:00" : {
		"windSpeed" : 2.4,
		"windDir" : 347,
		"rain" : 0,
		"cloudbase" : null,
		"flyability" : 100,
		"reason" : "",
		"timestamp" :1555653600
		},
	"2019-04-19T12:00:00+03:00" : {
		"windSpeed" : 3.9,
		"windDir" : 345,
		"rain" : 1,
		"cloudbase" : null,
		"flyability" : 0,
		"reason" : "rain",
		"timestamp" :1555664400
		},
	"2019-04-19T15:00:00+03:00" : {
		"windSpeed" : 5.3,
		"windDir" : 358,
		"rain" : 1,
		"cloudbase" : 1791.1,
		"flyability" : 0,
		"reason" : "windSpeed, rain",
		"timestamp" :1555675200
		},
	"2019-04-19T18:00:00+03:00" : {
		"windSpeed" : 4.8,
		"windDir" : 359,
		"rain" : 1,
		"cloudbase" : 2154.9043999999,
		"flyability" : 0,
		"reason" : "rain",
		"timestamp" :1555686000
		},
	"2019-04-19T21:00:00+03:00" : {
		"windSpeed" : 2.2,
		"windDir" : 24,
		"rain" : 0,
		"cloudbase" : null,
		"flyability" : 100,
		"reason" : "",
		"timestamp" :1555696800
		},
	"2019-04-20T00:00:00+03:00" : {
		"windSpeed" : 1.1,
		"windDir" : 286,
		"rain" : 0,
		"cloudbase" : null,
		"flyability" : 0,
		"reason" : "windDir",
		"timestamp" :1555707600
		},
	"2019-04-20T03:00:00+03:00" : {
		"windSpeed" : 1.2,
		"windDir" : 271,
		"rain" : 0,
		"cloudbase" : null,
		"flyability" : 0,
		"reason" : "windDir",
		"timestamp" :1555718400
		},
	"2019-04-20T06:00:00+03:00" : {
		"windSpeed" : 0.6,
		"windDir" : 306,
		"rain" : 0,
		"cloudbase" : null,
		"flyability" : 0,
		"reason" : "windDir",
		"timestamp" :1555729200
		},
	"2019-04-20T09:00:00+03:00" : {
		"windSpeed" : 0.6,
		"windDir" : 1,
		"rain" : 0,
		"cloudbase" : null,
		"flyability" : 100,
		"reason" : "",
		"timestamp" :1555740000
		},
	"2019-04-20T12:00:00+03:00" : {
		"windSpeed" : 2.3,
		"windDir" : 57,
		"rain" : 0,
		"cloudbase" : 1325.5522,
		"flyability" : 100,
		"reason" : "",
		"timestamp" :1555750800
		},
	"2019-04-20T15:00:00+03:00" : {
		"windSpeed" : 2.2,
		"windDir" : 47,
		"rain" : 0,
		"cloudbase" : 1700,
		"flyability" : 100,
		"reason" : "",
		"timestamp" :1555761600
		},
	"2019-04-20T18:00:00+03:00" : {
		"windSpeed" : 1.7,
		"windDir" : 62,
		"rain" : 0,
		"cloudbase" : null,
		"flyability" : 100,
		"reason" : "",
		"timestamp" :1555772400
		},
	"2019-04-20T21:00:00+03:00" : {
		"windSpeed" : 0.9,
		"windDir" : 216,
		"rain" : 0,
		"cloudbase" : null,
		"flyability" : 0,
		"reason" : "windDir",
		"timestamp" :1555783200
		},
	"2019-04-21T00:00:00+03:00" : {
		"windSpeed" : 2.7,
		"windDir" : 205,
		"rain" : 0,
		"cloudbase" : null,
		"flyability" : 0,
		"reason" : "windDir",
		"timestamp" :1555794000
		},
	"2019-04-21T03:00:00+03:00" : {
		"windSpeed" : 3.3,
		"windDir" : 198,
		"rain" : 0,
		"cloudbase" : 7924.7044,
		"flyability" : 0,
		"reason" : "windDir",
		"timestamp" :1555804800
		},
	"2019-04-21T06:00:00+03:00" : {
		"windSpeed" : 2,
		"windDir" : 205,
		"rain" : 0,
		"cloudbase" : 2250,
		"flyability" : 0,
		"reason" : "windDir",
		"timestamp" :1555815600
		},
	"2019-04-21T09:00:00+03:00" : {
		"windSpeed" : 0.2,
		"windDir" : 111,
		"rain" : 0,
		"cloudbase" : null,
		"flyability" : 100,
		"reason" : "",
		"timestamp" :1555826400
		},
	"2019-04-21T12:00:00+03:00" : {
		"windSpeed" : 2.6,
		"windDir" : 359,
		"rain" : 1,
		"cloudbase" : 1450,
		"flyability" : 0,
		"reason" : "rain",
		"timestamp" :1555837200
		},
	"2019-04-21T15:00:00+03:00" : {
		"windSpeed" : 3.3,
		"windDir" : 330,
		"rain" : 1,
		"cloudbase" : 2116.8132,
		"flyability" : 0,
		"reason" : "windDir, rain",
		"timestamp" :1555848000
		},
	"2019-04-21T18:00:00+03:00" : {
		"windSpeed" : 2.6,
		"windDir" : 281,
		"rain" : 1,
		"cloudbase" : 3008.6691999998,
		"flyability" : 0,
		"reason" : "windDir, rain",
		"timestamp" :1555858800
		},
	"2019-04-21T21:00:00+03:00" : {
		"windSpeed" : 0.5,
		"windDir" : 199,
		"rain" : 0,
		"cloudbase" : null,
		"flyability" : 0,
		"reason" : "windDir",
		"timestamp" :1555869600
		},
	"2019-04-22T00:00:00+03:00" : {
		"windSpeed" : 3,
		"windDir" : 189,
		"rain" : 0,
		"cloudbase" : 100,
		"flyability" : 0,
		"reason" : "windDir, cloudbase",
		"timestamp" :1555880400
		},
	"2019-04-22T03:00:00+03:00" : {
		"windSpeed" : 3.5,
		"windDir" : 188,
		"rain" : 0,
		"cloudbase" : 3736.9056400006,
		"flyability" : 0,
		"reason" : "windDir",
		"timestamp" :1555891200
		},
	"2019-04-22T06:00:00+03:00" : {
		"windSpeed" : 2.9,
		"windDir" : 183,
		"rain" : 0,
		"cloudbase" : 2085.78978,
		"flyability" : 0,
		"reason" : "windDir",
		"timestamp" :1555902000
		},
	"2019-04-22T09:00:00+03:00" : {
		"windSpeed" : 1.4,
		"windDir" : 171,
		"rain" : 1,
		"cloudbase" : 4397.4169999998,
		"flyability" : 0,
		"reason" : "windDir, rain",
		"timestamp" :1555912800
		},
	"2019-04-22T12:00:00+03:00" : {
		"windSpeed" : 3.5,
		"windDir" : 164,
		"rain" : 1,
		"cloudbase" : 4311.4428,
		"flyability" : 0,
		"reason" : "windDir, rain",
		"timestamp" :1555923600
		},
	"2019-04-22T15:00:00+03:00" : {
		"windSpeed" : 4,
		"windDir" : 173,
		"rain" : 1,
		"cloudbase" : 2505.0648,
		"flyability" : 0,
		"reason" : "windDir, rain",
		"timestamp" :1555934400
		},
	"2019-04-22T18:00:00+03:00" : {
		"windSpeed" : 4.5,
		"windDir" : 169,
		"rain" : 1,
		"cloudbase" : 3098.5699199997,
		"flyability" : 0,
		"reason" : "windDir, rain",
		"timestamp" :1555945200
		},
	"2019-04-22T21:00:00+03:00" : {
		"windSpeed" : 4.6,
		"windDir" : 172,
		"rain" : 0,
		"cloudbase" : 4299.6739200001,
		"flyability" : 0,
		"reason" : "windDir",
		"timestamp" :1555956000
		},
	"2019-04-23T00:00:00+03:00" : {
		"windSpeed" : 5.3,
		"windDir" : 174,
		"rain" : 0,
		"cloudbase" : null,
		"flyability" : 0,
		"reason" : "windSpeed, windDir",
		"timestamp" :1555966800
		},
	"2019-04-23T03:00:00+03:00" : {
		"windSpeed" : 4.8,
		"windDir" : 172,
		"rain" : 0,
		"cloudbase" : null,
		"flyability" : 0,
		"reason" : "windDir",
		"timestamp" :1555977600
		}
	}
}