{
"site" : "Auckland Gliding Club",
"id" : 20022,
"orientations" : "00000000",
"forecasts" : { 
	"2019-04-21T03:00:00+12:00" : {
		"windSpeed" : 1.7,
		"windDir" : 21,
		"rain" : 0,
		"cloudbase" : null,
		"flyability" : -50,
		"reason" : "orientationsUnknown",
		"timestamp" :1555772400
		},
	"2019-04-21T06:00:00+12:00" : {
		"windSpeed" : 2,
		"windDir" : 35,
		"rain" : 0,
		"cloudbase" : null,
		"flyability" : -50,
		"reason" : "orientationsUnknown",
		"timestamp" :1555783200
		},
	"2019-04-21T09:00:00+12:00" : {
		"windSpeed" : 3.5,
		"windDir" : 2,
		"rain" : 0,
		"cloudbase" : null,
		"flyability" : -50,
		"reason" : "orientationsUnknown",
		"timestamp" :1555794000
		},
	"2019-04-21T12:00:00+12:00" : {
		"windSpeed" : 5.4,
		"windDir" : 341,
		"rain" : 1,
		"cloudbase" : null,
		"flyability" : -0,
		"reason" : "windSpeed, orientationsUnknown, rain",
		"timestamp" :1555804800
		},
	"2019-04-21T15:00:00+12:00" : {
		"windSpeed" : 6.1,
		"windDir" : 1,
		"rain" : 1,
		"cloudbase" : null,
		"flyability" : -0,
		"reason" : "windSpeed, orientationsUnknown, rain",
		"timestamp" :1555815600
		},
	"2019-04-21T18:00:00+12:00" : {
		"windSpeed" : 4.2,
		"windDir" : 9,
		"rain" : 0,
		"cloudbase" : null,
		"flyability" : -50,
		"reason" : "orientationsUnknown",
		"timestamp" :1555826400
		},
	"2019-04-21T21:00:00+12:00" : {
		"windSpeed" : 4.7,
		"windDir" : 13,
		"rain" : 1,
		"cloudbase" : 3100,
		"flyability" : -0,
		"reason" : "orientationsUnknown, rain",
		"timestamp" :1555837200
		},
	"2019-04-22T00:00:00+12:00" : {
		"windSpeed" : 3.9,
		"windDir" : 351,
		"rain" : 1,
		"cloudbase" : 1935.4800000005,
		"flyability" : -0,
		"reason" : "orientationsUnknown, rain",
		"timestamp" :1555848000
		},
	"2019-04-22T03:00:00+12:00" : {
		"windSpeed" : 5.1,
		"windDir" : 11,
		"rain" : 1,
		"cloudbase" : 6400,
		"flyability" : -0,
		"reason" : "windSpeed, orientationsUnknown, rain",
		"timestamp" :1555858800
		},
	"2019-04-22T06:00:00+12:00" : {
		"windSpeed" : 4.5,
		"windDir" : 6,
		"rain" : 1,
		"cloudbase" : 4514.15,
		"flyability" : -0,
		"reason" : "orientationsUnknown, rain",
		"timestamp" :1555869600
		},
	"2019-04-22T09:00:00+12:00" : {
		"windSpeed" : 4,
		"windDir" : 345,
		"rain" : 1,
		"cloudbase" : 5937.7499999996,
		"flyability" : -0,
		"reason" : "orientationsUnknown, rain",
		"timestamp" :1555880400
		},
	"2019-04-22T12:00:00+12:00" : {
		"windSpeed" : 3.9,
		"windDir" : 318,
		"rain" : 1,
		"cloudbase" : 4987.4499999999,
		"flyability" : -0,
		"reason" : "orientationsUnknown, rain",
		"timestamp" :1555891200
		},
	"2019-04-22T15:00:00+12:00" : {
		"windSpeed" : 1.6,
		"windDir" : 17,
		"rain" : 1,
		"cloudbase" : 4301.7000000001,
		"flyability" : -0,
		"reason" : "orientationsUnknown, rain",
		"timestamp" :1555902000
		},
	"2019-04-22T18:00:00+12:00" : {
		"windSpeed" : 1.4,
		"windDir" : 355,
		"rain" : 1,
		"cloudbase" : 3121.0300000001,
		"flyability" : -0,
		"reason" : "orientationsUnknown, rain",
		"timestamp" :1555912800
		},
	"2019-04-22T21:00:00+12:00" : {
		"windSpeed" : 1.7,
		"windDir" : 317,
		"rain" : 1,
		"cloudbase" : null,
		"flyability" : -0,
		"reason" : "orientationsUnknown, rain",
		"timestamp" :1555923600
		},
	"2019-04-23T00:00:00+12:00" : {
		"windSpeed" : 1.6,
		"windDir" : 339,
		"rain" : 0,
		"cloudbase" : null,
		"flyability" : -50,
		"reason" : "orientationsUnknown",
		"timestamp" :1555934400
		},
	"2019-04-23T03:00:00+12:00" : {
		"windSpeed" : 1.4,
		"windDir" : 45,
		"rain" : 0,
		"cloudbase" : 5274.8000000002,
		"flyability" : -50,
		"reason" : "orientationsUnknown",
		"timestamp" :1555945200
		},
	"2019-04-23T06:00:00+12:00" : {
		"windSpeed" : 1,
		"windDir" : 175,
		"rain" : 1,
		"cloudbase" : 233.83500000001,
		"flyability" : -0,
		"reason" : "orientationsUnknown, rain",
		"timestamp" :1555956000
		},
	"2019-04-23T09:00:00+12:00" : {
		"windSpeed" : 0.9,
		"windDir" : 96,
		"rain" : 1,
		"cloudbase" : null,
		"flyability" : -0,
		"reason" : "orientationsUnknown, rain",
		"timestamp" :1555966800
		},
	"2019-04-23T12:00:00+12:00" : {
		"windSpeed" : 0.7,
		"windDir" : 44,
		"rain" : 0,
		"cloudbase" : null,
		"flyability" : -50,
		"reason" : "orientationsUnknown",
		"timestamp" :1555977600
		},
	"2019-04-23T15:00:00+12:00" : {
		"windSpeed" : 2.8,
		"windDir" : 202,
		"rain" : 0,
		"cloudbase" : 8000,
		"flyability" : -50,
		"reason" : "orientationsUnknown",
		"timestamp" :1555988400
		},
	"2019-04-23T18:00:00+12:00" : {
		"windSpeed" : 2.1,
		"windDir" : 194,
		"rain" : 1,
		"cloudbase" : null,
		"flyability" : -0,
		"reason" : "orientationsUnknown, rain",
		"timestamp" :1555999200
		},
	"2019-04-23T21:00:00+12:00" : {
		"windSpeed" : 1.7,
		"windDir" : 163,
		"rain" : 0,
		"cloudbase" : null,
		"flyability" : -50,
		"reason" : "orientationsUnknown",
		"timestamp" :1556010000
		},
	"2019-04-24T00:00:00+12:00" : {
		"windSpeed" : 1.9,
		"windDir" : 149,
		"rain" : 0,
		"cloudbase" : null,
		"flyability" : -50,
		"reason" : "orientationsUnknown",
		"timestamp" :1556020800
		},
	"2019-04-24T03:00:00+12:00" : {
		"windSpeed" : 2.1,
		"windDir" : 166,
		"rain" : 1,
		"cloudbase" : null,
		"flyability" : -0,
		"reason" : "orientationsUnknown, rain",
		"timestamp" :1556031600
		},
	"2019-04-24T06:00:00+12:00" : {
		"windSpeed" : 3.1,
		"windDir" : 144,
		"rain" : 0,
		"cloudbase" : null,
		"flyability" : -50,
		"reason" : "orientationsUnknown",
		"timestamp" :1556042400
		},
	"2019-04-24T09:00:00+12:00" : {
		"windSpeed" : 3.1,
		"windDir" : 162,
		"rain" : 1,
		"cloudbase" : null,
		"flyability" : -0,
		"reason" : "orientationsUnknown, rain",
		"timestamp" :1556053200
		},
	"2019-04-24T12:00:00+12:00" : {
		"windSpeed" : 5,
		"windDir" : 182,
		"rain" : 0,
		"cloudbase" : null,
		"flyability" : -50,
		"reason" : "orientationsUnknown",
		"timestamp" :1556064000
		},
	"2019-04-24T15:00:00+12:00" : {
		"windSpeed" : 3.7,
		"windDir" : 186,
		"rain" : 0,
		"cloudbase" : null,
		"flyability" : -50,
		"reason" : "orientationsUnknown",
		"timestamp" :1556074800
		},
	"2019-04-24T18:00:00+12:00" : {
		"windSpeed" : 3.4,
		"windDir" : 219,
		"rain" : 1,
		"cloudbase" : null,
		"flyability" : -0,
		"reason" : "orientationsUnknown, rain",
		"timestamp" :1556085600
		},
	"2019-04-24T21:00:00+12:00" : {
		"windSpeed" : 3.3,
		"windDir" : 184,
		"rain" : 1,
		"cloudbase" : null,
		"flyability" : -0,
		"reason" : "orientationsUnknown, rain",
		"timestamp" :1556096400
		},
	"2019-04-25T00:00:00+12:00" : {
		"windSpeed" : 3.1,
		"windDir" : 164,
		"rain" : 0,
		"cloudbase" : null,
		"flyability" : -50,
		"reason" : "orientationsUnknown",
		"timestamp" :1556107200
		},
	"2019-04-25T03:00:00+12:00" : {
		"windSpeed" : 3.1,
		"windDir" : 146,
		"rain" : 0,
		"cloudbase" : null,
		"flyability" : -50,
		"reason" : "orientationsUnknown",
		"timestamp" :1556118000
		},
	"2019-04-25T06:00:00+12:00" : {
		"windSpeed" : 2.8,
		"windDir" : 151,
		"rain" : 1,
		"cloudbase" : null,
		"flyability" : -0,
		"reason" : "orientationsUnknown, rain",
		"timestamp" :1556128800
		},
	"2019-04-25T09:00:00+12:00" : {
		"windSpeed" : 2.3,
		"windDir" : 197,
		"rain" : 1,
		"cloudbase" : null,
		"flyability" : -0,
		"reason" : "orientationsUnknown, rain",
		"timestamp" :1556139600
		},
	"2019-04-25T12:00:00+12:00" : {
		"windSpeed" : 3.5,
		"windDir" : 210,
		"rain" : 0,
		"cloudbase" : null,
		"flyability" : -50,
		"reason" : "orientationsUnknown",
		"timestamp" :1556150400
		},
	"2019-04-25T15:00:00+12:00" : {
		"windSpeed" : 5.4,
		"windDir" : 228,
		"rain" : 0,
		"cloudbase" : null,
		"flyability" : -0,
		"reason" : "windSpeed, orientationsUnknown",
		"timestamp" :1556161200
		},
	"2019-04-25T18:00:00+12:00" : {
		"windSpeed" : 3.7,
		"windDir" : 225,
		"rain" : 1,
		"cloudbase" : null,
		"flyability" : -0,
		"reason" : "orientationsUnknown, rain",
		"timestamp" :1556172000
		},
	"2019-04-25T21:00:00+12:00" : {
		"windSpeed" : 3.1,
		"windDir" : 210,
		"rain" : 1,
		"cloudbase" : null,
		"flyability" : -0,
		"reason" : "orientationsUnknown, rain",
		"timestamp" :1556182800
		},
	"2019-04-26T00:00:00+12:00" : {
		"windSpeed" : 2.9,
		"windDir" : 223,
		"rain" : 0,
		"cloudbase" : 720,
		"flyability" : -50,
		"reason" : "orientationsUnknown",
		"timestamp" :1556193600
		},
	"2019-04-26T03:00:00+12:00" : {
		"windSpeed" : 2.6,
		"windDir" : 234,
		"rain" : 1,
		"cloudbase" : null,
		"flyability" : -0,
		"reason" : "orientationsUnknown, rain",
		"timestamp" :1556204400
		},
	"2019-04-26T06:00:00+12:00" : {
		"windSpeed" : 2.5,
		"windDir" : 233,
		"rain" : 1,
		"cloudbase" : null,
		"flyability" : -0,
		"reason" : "orientationsUnknown, rain",
		"timestamp" :1556215200
		},
	"2019-04-26T09:00:00+12:00" : {
		"windSpeed" : 5.1,
		"windDir" : 241,
		"rain" : 1,
		"cloudbase" : null,
		"flyability" : -0,
		"reason" : "windSpeed, orientationsUnknown, rain",
		"timestamp" :1556226000
		},
	"2019-04-26T12:00:00+12:00" : {
		"windSpeed" : 6.1,
		"windDir" : 245,
		"rain" : 1,
		"cloudbase" : 1100,
		"flyability" : -0,
		"reason" : "windSpeed, orientationsUnknown, rain",
		"timestamp" :1556236800
		},
	"2019-04-26T15:00:00+12:00" : {
		"windSpeed" : 5.1,
		"windDir" : 245,
		"rain" : 1,
		"cloudbase" : null,
		"flyability" : -0,
		"reason" : "windSpeed, orientationsUnknown, rain",
		"timestamp" :1556247600
		},
	"2019-04-26T18:00:00+12:00" : {
		"windSpeed" : 2.2,
		"windDir" : 243,
		"rain" : 1,
		"cloudbase" : null,
		"flyability" : -0,
		"reason" : "orientationsUnknown, rain",
		"timestamp" :1556258400
		},
	"2019-04-26T21:00:00+12:00" : {
		"windSpeed" : 2.4,
		"windDir" : 257,
		"rain" : 1,
		"cloudbase" : null,
		"flyability" : -0,
		"reason" : "orientationsUnknown, rain",
		"timestamp" :1556269200
		},
	"2019-04-27T00:00:00+12:00" : {
		"windSpeed" : 1.8,
		"windDir" : 330,
		"rain" : 1,
		"cloudbase" : null,
		"flyability" : -0,
		"reason" : "orientationsUnknown, rain",
		"timestamp" :1556280000
		}
	}
}