{
"site" : "Griswold ",
"id" : 20035,
"orientations" : "22100012",
"forecasts" : { 
	"2019-04-02T20:00:00-07:00" : {
		"windSpeed" : 3.5,
		"windDir" : 263,
		"rain" : 1,
		"cloudbase" : null,
		"flyability" : 0,
		"reason" : "rain",
		"timestamp" :1554264000
		},
	"2019-04-02T23:00:00-07:00" : {
		"windSpeed" : 2.2,
		"windDir" : 248,
		"rain" : 0,
		"cloudbase" : null,
		"flyability" : 100,
		"reason" : "",
		"timestamp" :1554274800
		},
	"2019-04-03T02:00:00-07:00" : {
		"windSpeed" : 2.1,
		"windDir" : 237,
		"rain" : 0,
		"cloudbase" : 91.649999999995,
		"flyability" : 0,
		"reason" : "windDir, cloudbase",
		"timestamp" :1554285600
		},
	"2019-04-03T05:00:00-07:00" : {
		"windSpeed" : 1.8,
		"windDir" : 239,
		"rain" : 0,
		"cloudbase" : 3548.5779999995,
		"flyability" : 0,
		"reason" : "windDir",
		"timestamp" :1554296400
		},
	"2019-04-03T08:00:00-07:00" : {
		"windSpeed" : 1.5,
		"windDir" : 233,
		"rain" : 0,
		"cloudbase" : 10614.9,
		"flyability" : 0,
		"reason" : "windDir",
		"timestamp" :1554307200
		},
	"2019-04-03T11:00:00-07:00" : {
		"windSpeed" : 1.6,
		"windDir" : 209,
		"rain" : 0,
		"cloudbase" : 948.58999999998,
		"flyability" : 0,
		"reason" : "windDir",
		"timestamp" :1554318000
		},
	"2019-04-03T14:00:00-07:00" : {
		"windSpeed" : 0.6,
		"windDir" : 38,
		"rain" : 0,
		"cloudbase" : 1287.25,
		"flyability" : 100,
		"reason" : "",
		"timestamp" :1554328800
		},
	"2019-04-03T17:00:00-07:00" : {
		"windSpeed" : 0.5,
		"windDir" : 1,
		"rain" : 0,
		"cloudbase" : 5455.9999999999,
		"flyability" : 100,
		"reason" : "",
		"timestamp" :1554339600
		},
	"2019-04-03T20:00:00-07:00" : {
		"windSpeed" : 1,
		"windDir" : 353,
		"rain" : 0,
		"cloudbase" : 5490.6999999998,
		"flyability" : 100,
		"reason" : "",
		"timestamp" :1554350400
		},
	"2019-04-03T23:00:00-07:00" : {
		"windSpeed" : 1.3,
		"windDir" : 234,
		"rain" : 0,
		"cloudbase" : 8886.5799999997,
		"flyability" : 0,
		"reason" : "windDir",
		"timestamp" :1554361200
		},
	"2019-04-04T02:00:00-07:00" : {
		"windSpeed" : 2.1,
		"windDir" : 226,
		"rain" : 0,
		"cloudbase" : 9071.06,
		"flyability" : 0,
		"reason" : "windDir",
		"timestamp" :1554372000
		},
	"2019-04-04T05:00:00-07:00" : {
		"windSpeed" : 2.7,
		"windDir" : 226,
		"rain" : 0,
		"cloudbase" : 7800.8799999999,
		"flyability" : 0,
		"reason" : "windDir",
		"timestamp" :1554382800
		},
	"2019-04-04T08:00:00-07:00" : {
		"windSpeed" : 2.1,
		"windDir" : 214,
		"rain" : 0,
		"cloudbase" : 6318.74,
		"flyability" : 0,
		"reason" : "windDir",
		"timestamp" :1554393600
		},
	"2019-04-04T11:00:00-07:00" : {
		"windSpeed" : 2.9,
		"windDir" : 191,
		"rain" : 0,
		"cloudbase" : 2109.512,
		"flyability" : 0,
		"reason" : "windDir",
		"timestamp" :1554404400
		},
	"2019-04-04T14:00:00-07:00" : {
		"windSpeed" : 3.4,
		"windDir" : 214,
		"rain" : 0,
		"cloudbase" : 2982.08,
		"flyability" : 0,
		"reason" : "windDir",
		"timestamp" :1554415200
		},
	"2019-04-04T17:00:00-07:00" : {
		"windSpeed" : 4,
		"windDir" : 209,
		"rain" : 0,
		"cloudbase" : 3205.6299999999,
		"flyability" : 0,
		"reason" : "windDir",
		"timestamp" :1554426000
		},
	"2019-04-04T20:00:00-07:00" : {
		"windSpeed" : 4.1,
		"windDir" : 211,
		"rain" : 1,
		"cloudbase" : 2606.26,
		"flyability" : 0,
		"reason" : "windDir, rain",
		"timestamp" :1554436800
		},
	"2019-04-04T23:00:00-07:00" : {
		"windSpeed" : 3.5,
		"windDir" : 213,
		"rain" : 0,
		"cloudbase" : 1907.17,
		"flyability" : 0,
		"reason" : "windDir",
		"timestamp" :1554447600
		},
	"2019-04-05T02:00:00-07:00" : {
		"windSpeed" : 2.6,
		"windDir" : 208,
		"rain" : 0,
		"cloudbase" : 1608.66,
		"flyability" : 0,
		"reason" : "windDir",
		"timestamp" :1554458400
		},
	"2019-04-05T05:00:00-07:00" : {
		"windSpeed" : 2.6,
		"windDir" : 188,
		"rain" : 0,
		"cloudbase" : 6535.0600000001,
		"flyability" : 0,
		"reason" : "windDir",
		"timestamp" :1554469200
		},
	"2019-04-05T08:00:00-07:00" : {
		"windSpeed" : 3.7,
		"windDir" : 199,
		"rain" : 0,
		"cloudbase" : 206.13199999999,
		"flyability" : 0,
		"reason" : "windDir, cloudbase",
		"timestamp" :1554480000
		},
	"2019-04-05T11:00:00-07:00" : {
		"windSpeed" : 4.9,
		"windDir" : 210,
		"rain" : 0,
		"cloudbase" : 2534.2479999999,
		"flyability" : 0,
		"reason" : "windDir",
		"timestamp" :1554490800
		},
	"2019-04-05T14:00:00-07:00" : {
		"windSpeed" : 3.8,
		"windDir" : 231,
		"rain" : 1,
		"cloudbase" : 1844.7479999999,
		"flyability" : 0,
		"reason" : "windDir, rain",
		"timestamp" :1554501600
		},
	"2019-04-05T17:00:00-07:00" : {
		"windSpeed" : 1.3,
		"windDir" : 305,
		"rain" : 1,
		"cloudbase" : 1873.93,
		"flyability" : 0,
		"reason" : "rain",
		"timestamp" :1554512400
		},
	"2019-04-05T20:00:00-07:00" : {
		"windSpeed" : 0.7,
		"windDir" : 183,
		"rain" : 1,
		"cloudbase" : 2310.5060000004,
		"flyability" : 0,
		"reason" : "windDir, rain",
		"timestamp" :1554523200
		},
	"2019-04-05T23:00:00-07:00" : {
		"windSpeed" : 1.1,
		"windDir" : 195,
		"rain" : 0,
		"cloudbase" : 7484.56,
		"flyability" : 0,
		"reason" : "windDir",
		"timestamp" :1554534000
		},
	"2019-04-06T02:00:00-07:00" : {
		"windSpeed" : 2.2,
		"windDir" : 208,
		"rain" : 0,
		"cloudbase" : 8700,
		"flyability" : 0,
		"reason" : "windDir",
		"timestamp" :1554544800
		},
	"2019-04-06T05:00:00-07:00" : {
		"windSpeed" : 1.4,
		"windDir" : 224,
		"rain" : 0,
		"cloudbase" : 3378.9,
		"flyability" : 0,
		"reason" : "windDir",
		"timestamp" :1554555600
		},
	"2019-04-06T08:00:00-07:00" : {
		"windSpeed" : 1.3,
		"windDir" : 187,
		"rain" : 1,
		"cloudbase" : 2188.64,
		"flyability" : 0,
		"reason" : "windDir, rain",
		"timestamp" :1554566400
		},
	"2019-04-06T11:00:00-07:00" : {
		"windSpeed" : 1.6,
		"windDir" : 172,
		"rain" : 1,
		"cloudbase" : 1192.28,
		"flyability" : 0,
		"reason" : "windDir, rain",
		"timestamp" :1554577200
		},
	"2019-04-06T14:00:00-07:00" : {
		"windSpeed" : 2.7,
		"windDir" : 196,
		"rain" : 1,
		"cloudbase" : 913.70199999995,
		"flyability" : 0,
		"reason" : "windDir, rain",
		"timestamp" :1554588000
		},
	"2019-04-06T17:00:00-07:00" : {
		"windSpeed" : 2.8,
		"windDir" : 241,
		"rain" : 1,
		"cloudbase" : 5694.24,
		"flyability" : 0,
		"reason" : "windDir, rain",
		"timestamp" :1554598800
		},
	"2019-04-06T20:00:00-07:00" : {
		"windSpeed" : 1.3,
		"windDir" : 230,
		"rain" : 1,
		"cloudbase" : 9496.88,
		"flyability" : 0,
		"reason" : "windDir, rain",
		"timestamp" :1554609600
		},
	"2019-04-06T23:00:00-07:00" : {
		"windSpeed" : 1.3,
		"windDir" : 217,
		"rain" : 0,
		"cloudbase" : 9000.28,
		"flyability" : 0,
		"reason" : "windDir",
		"timestamp" :1554620400
		},
	"2019-04-07T02:00:00-07:00" : {
		"windSpeed" : 1.8,
		"windDir" : 217,
		"rain" : 0,
		"cloudbase" : 8748.1399999999,
		"flyability" : 0,
		"reason" : "windDir",
		"timestamp" :1554631200
		},
	"2019-04-07T05:00:00-07:00" : {
		"windSpeed" : 1.8,
		"windDir" : 224,
		"rain" : 0,
		"cloudbase" : 4792.7859999999,
		"flyability" : 0,
		"reason" : "windDir",
		"timestamp" :1554642000
		},
	"2019-04-07T08:00:00-07:00" : {
		"windSpeed" : 1.7,
		"windDir" : 238,
		"rain" : 0,
		"cloudbase" : 5543.606,
		"flyability" : 0,
		"reason" : "windDir",
		"timestamp" :1554652800
		},
	"2019-04-07T11:00:00-07:00" : {
		"windSpeed" : 1.5,
		"windDir" : 338,
		"rain" : 0,
		"cloudbase" : 8753.34,
		"flyability" : 100,
		"reason" : "",
		"timestamp" :1554663600
		},
	"2019-04-07T14:00:00-07:00" : {
		"windSpeed" : 1.6,
		"windDir" : 348,
		"rain" : 0,
		"cloudbase" : 9763.78,
		"flyability" : 100,
		"reason" : "",
		"timestamp" :1554674400
		},
	"2019-04-07T17:00:00-07:00" : {
		"windSpeed" : 1.7,
		"windDir" : 327,
		"rain" : 0,
		"cloudbase" : 9763.78,
		"flyability" : 100,
		"reason" : "",
		"timestamp" :1554685200
		},
	"2019-04-07T20:00:00-07:00" : {
		"windSpeed" : 1.5,
		"windDir" : 300,
		"rain" : 0,
		"cloudbase" : 9756.22,
		"flyability" : 100,
		"reason" : "",
		"timestamp" :1554696000
		},
	"2019-04-07T23:00:00-07:00" : {
		"windSpeed" : 1.6,
		"windDir" : 241,
		"rain" : 0,
		"cloudbase" : 10545,
		"flyability" : 0,
		"reason" : "windDir",
		"timestamp" :1554706800
		},
	"2019-04-08T02:00:00-07:00" : {
		"windSpeed" : 0.7,
		"windDir" : 199,
		"rain" : 0,
		"cloudbase" : 11272.5,
		"flyability" : 0,
		"reason" : "windDir",
		"timestamp" :1554717600
		},
	"2019-04-08T05:00:00-07:00" : {
		"windSpeed" : 0.9,
		"windDir" : 238,
		"rain" : 0,
		"cloudbase" : 11500,
		"flyability" : 0,
		"reason" : "windDir",
		"timestamp" :1554728400
		},
	"2019-04-08T08:00:00-07:00" : {
		"windSpeed" : 0.5,
		"windDir" : 205,
		"rain" : 0,
		"cloudbase" : 8284,
		"flyability" : 0,
		"reason" : "windDir",
		"timestamp" :1554739200
		},
	"2019-04-08T11:00:00-07:00" : {
		"windSpeed" : 1.2,
		"windDir" : 356,
		"rain" : 0,
		"cloudbase" : 7645.78,
		"flyability" : 100,
		"reason" : "",
		"timestamp" :1554750000
		},
	"2019-04-08T14:00:00-07:00" : {
		"windSpeed" : 2.7,
		"windDir" : 11,
		"rain" : 0,
		"cloudbase" : 7637.06,
		"flyability" : 100,
		"reason" : "",
		"timestamp" :1554760800
		},
	"2019-04-08T17:00:00-07:00" : {
		"windSpeed" : 2.9,
		"windDir" : 357,
		"rain" : 0,
		"cloudbase" : 4551.2200000001,
		"flyability" : 100,
		"reason" : "",
		"timestamp" :1554771600
		}
	}
}