{
"site" : "South Temple",
"id" : 20044,
"orientations" : "00000000",
"forecasts" : { 
	"2019-04-10T03:00:00+12:00" : {
		"windSpeed" : 1.5,
		"windDir" : 336,
		"rain" : 1,
		"cloudbase" : 2851.3351999975,
		"flyability" : -0,
		"reason" : "orientationsUnknown, rain",
		"timestamp" :1554822000
		},
	"2019-04-10T06:00:00+12:00" : {
		"windSpeed" : 1.8,
		"windDir" : 332,
		"rain" : 1,
		"cloudbase" : null,
		"flyability" : -0,
		"reason" : "orientationsUnknown, rain",
		"timestamp" :1554832800
		},
	"2019-04-10T09:00:00+12:00" : {
		"windSpeed" : 3.6,
		"windDir" : 335,
		"rain" : 1,
		"cloudbase" : 1941.8239999997,
		"flyability" : -0,
		"reason" : "orientationsUnknown, rain",
		"timestamp" :1554843600
		},
	"2019-04-10T12:00:00+12:00" : {
		"windSpeed" : 3.7,
		"windDir" : 327,
		"rain" : 1,
		"cloudbase" : 1169.1479999994,
		"flyability" : -0,
		"reason" : "orientationsUnknown, rain, cloudbase",
		"timestamp" :1554854400
		},
	"2019-04-10T15:00:00+12:00" : {
		"windSpeed" : 2.9,
		"windDir" : 335,
		"rain" : 1,
		"cloudbase" : 1851.1999999994,
		"flyability" : -0,
		"reason" : "orientationsUnknown, rain",
		"timestamp" :1554865200
		},
	"2019-04-10T18:00:00+12:00" : {
		"windSpeed" : 0.9,
		"windDir" : 38,
		"rain" : 1,
		"cloudbase" : 660.32639999973,
		"flyability" : -0,
		"reason" : "orientationsUnknown, rain, cloudbase",
		"timestamp" :1554876000
		},
	"2019-04-10T21:00:00+12:00" : {
		"windSpeed" : 1,
		"windDir" : 81,
		"rain" : 1,
		"cloudbase" : 650.94399999995,
		"flyability" : -0,
		"reason" : "orientationsUnknown, rain, cloudbase",
		"timestamp" :1554886800
		},
	"2019-04-11T00:00:00+12:00" : {
		"windSpeed" : 1.3,
		"windDir" : 114,
		"rain" : 1,
		"cloudbase" : 349.97880000025,
		"flyability" : -0,
		"reason" : "orientationsUnknown, rain, cloudbase",
		"timestamp" :1554897600
		},
	"2019-04-11T03:00:00+12:00" : {
		"windSpeed" : 1.6,
		"windDir" : 108,
		"rain" : 1,
		"cloudbase" : 59.903999999966,
		"flyability" : -0,
		"reason" : "orientationsUnknown, rain, cloudbase",
		"timestamp" :1554908400
		},
	"2019-04-11T06:00:00+12:00" : {
		"windSpeed" : 1.5,
		"windDir" : 94,
		"rain" : 1,
		"cloudbase" : 64.069199999964,
		"flyability" : -0,
		"reason" : "orientationsUnknown, rain, cloudbase",
		"timestamp" :1554919200
		},
	"2019-04-11T09:00:00+12:00" : {
		"windSpeed" : 1.1,
		"windDir" : 109,
		"rain" : 1,
		"cloudbase" : 58.023999999979,
		"flyability" : -0,
		"reason" : "orientationsUnknown, rain, cloudbase",
		"timestamp" :1554930000
		},
	"2019-04-11T12:00:00+12:00" : {
		"windSpeed" : 1.2,
		"windDir" : 126,
		"rain" : 1,
		"cloudbase" : 72.019999999975,
		"flyability" : -0,
		"reason" : "orientationsUnknown, rain, cloudbase",
		"timestamp" :1554940800
		},
	"2019-04-11T15:00:00+12:00" : {
		"windSpeed" : 1.5,
		"windDir" : 144,
		"rain" : 0,
		"cloudbase" : 169.37840000002,
		"flyability" : -0,
		"reason" : "orientationsUnknown, cloudbase",
		"timestamp" :1554951600
		},
	"2019-04-11T18:00:00+12:00" : {
		"windSpeed" : 1.3,
		"windDir" : 163,
		"rain" : 0,
		"cloudbase" : 117.35999999997,
		"flyability" : -0,
		"reason" : "orientationsUnknown, cloudbase",
		"timestamp" :1554962400
		},
	"2019-04-11T21:00:00+12:00" : {
		"windSpeed" : 1.1,
		"windDir" : 188,
		"rain" : 1,
		"cloudbase" : 1350.6968,
		"flyability" : -0,
		"reason" : "orientationsUnknown, rain, cloudbase",
		"timestamp" :1554973200
		},
	"2019-04-12T00:00:00+12:00" : {
		"windSpeed" : 0.5,
		"windDir" : 233,
		"rain" : 0,
		"cloudbase" : 904.35839999991,
		"flyability" : -0,
		"reason" : "orientationsUnknown, cloudbase",
		"timestamp" :1554984000
		},
	"2019-04-12T03:00:00+12:00" : {
		"windSpeed" : 0.7,
		"windDir" : 229,
		"rain" : 1,
		"cloudbase" : null,
		"flyability" : -0,
		"reason" : "orientationsUnknown, rain",
		"timestamp" :1554994800
		},
	"2019-04-12T06:00:00+12:00" : {
		"windSpeed" : 0.9,
		"windDir" : 217,
		"rain" : 0,
		"cloudbase" : 1000,
		"flyability" : -0,
		"reason" : "orientationsUnknown, cloudbase",
		"timestamp" :1555005600
		},
	"2019-04-12T09:00:00+12:00" : {
		"windSpeed" : 1.9,
		"windDir" : 149,
		"rain" : 1,
		"cloudbase" : 260,
		"flyability" : -0,
		"reason" : "orientationsUnknown, rain, cloudbase",
		"timestamp" :1555016400
		},
	"2019-04-12T12:00:00+12:00" : {
		"windSpeed" : 3.4,
		"windDir" : 152,
		"rain" : 0,
		"cloudbase" : 961.41599999998,
		"flyability" : -0,
		"reason" : "orientationsUnknown, cloudbase",
		"timestamp" :1555027200
		},
	"2019-04-12T15:00:00+12:00" : {
		"windSpeed" : 4,
		"windDir" : 147,
		"rain" : 0,
		"cloudbase" : 1080.5031999999,
		"flyability" : -0,
		"reason" : "orientationsUnknown, cloudbase",
		"timestamp" :1555038000
		},
	"2019-04-12T18:00:00+12:00" : {
		"windSpeed" : 2.2,
		"windDir" : 138,
		"rain" : 0,
		"cloudbase" : 1150,
		"flyability" : -0,
		"reason" : "orientationsUnknown, cloudbase",
		"timestamp" :1555048800
		},
	"2019-04-12T21:00:00+12:00" : {
		"windSpeed" : 1.6,
		"windDir" : 143,
		"rain" : 0,
		"cloudbase" : null,
		"flyability" : -50,
		"reason" : "orientationsUnknown",
		"timestamp" :1555059600
		},
	"2019-04-13T00:00:00+12:00" : {
		"windSpeed" : 0.8,
		"windDir" : 157,
		"rain" : 0,
		"cloudbase" : null,
		"flyability" : -50,
		"reason" : "orientationsUnknown",
		"timestamp" :1555070400
		},
	"2019-04-13T03:00:00+12:00" : {
		"windSpeed" : 0.6,
		"windDir" : 75,
		"rain" : 0,
		"cloudbase" : null,
		"flyability" : -50,
		"reason" : "orientationsUnknown",
		"timestamp" :1555081200
		},
	"2019-04-13T06:00:00+12:00" : {
		"windSpeed" : 0.6,
		"windDir" : 315,
		"rain" : 0,
		"cloudbase" : null,
		"flyability" : -50,
		"reason" : "orientationsUnknown",
		"timestamp" :1555092000
		},
	"2019-04-13T09:00:00+12:00" : {
		"windSpeed" : 0.7,
		"windDir" : 331,
		"rain" : 0,
		"cloudbase" : null,
		"flyability" : -50,
		"reason" : "orientationsUnknown",
		"timestamp" :1555102800
		},
	"2019-04-13T12:00:00+12:00" : {
		"windSpeed" : 0.2,
		"windDir" : 297,
		"rain" : 0,
		"cloudbase" : null,
		"flyability" : -50,
		"reason" : "orientationsUnknown",
		"timestamp" :1555113600
		},
	"2019-04-13T15:00:00+12:00" : {
		"windSpeed" : 0.3,
		"windDir" : 231,
		"rain" : 0,
		"cloudbase" : null,
		"flyability" : -50,
		"reason" : "orientationsUnknown",
		"timestamp" :1555124400
		},
	"2019-04-13T18:00:00+12:00" : {
		"windSpeed" : 0.1,
		"windDir" : 241,
		"rain" : 0,
		"cloudbase" : null,
		"flyability" : -50,
		"reason" : "orientationsUnknown",
		"timestamp" :1555135200
		},
	"2019-04-13T21:00:00+12:00" : {
		"windSpeed" : 0.9,
		"windDir" : 286,
		"rain" : 0,
		"cloudbase" : 9597.9039999998,
		"flyability" : -50,
		"reason" : "orientationsUnknown",
		"timestamp" :1555146000
		},
	"2019-04-14T00:00:00+12:00" : {
		"windSpeed" : 0.5,
		"windDir" : 285,
		"rain" : 0,
		"cloudbase" : 50,
		"flyability" : -0,
		"reason" : "orientationsUnknown, cloudbase",
		"timestamp" :1555156800
		},
	"2019-04-14T03:00:00+12:00" : {
		"windSpeed" : 1.3,
		"windDir" : 223,
		"rain" : 0,
		"cloudbase" : 6082.3360000019,
		"flyability" : -50,
		"reason" : "orientationsUnknown",
		"timestamp" :1555167600
		},
	"2019-04-14T06:00:00+12:00" : {
		"windSpeed" : 0.6,
		"windDir" : 274,
		"rain" : 0,
		"cloudbase" : 4525.4559999999,
		"flyability" : -50,
		"reason" : "orientationsUnknown",
		"timestamp" :1555178400
		},
	"2019-04-14T09:00:00+12:00" : {
		"windSpeed" : 0.4,
		"windDir" : 255,
		"rain" : 0,
		"cloudbase" : null,
		"flyability" : -50,
		"reason" : "orientationsUnknown",
		"timestamp" :1555189200
		},
	"2019-04-14T12:00:00+12:00" : {
		"windSpeed" : 2,
		"windDir" : 169,
		"rain" : 0,
		"cloudbase" : 1003.1327999999,
		"flyability" : -0,
		"reason" : "orientationsUnknown, cloudbase",
		"timestamp" :1555200000
		},
	"2019-04-14T15:00:00+12:00" : {
		"windSpeed" : 2.1,
		"windDir" : 160,
		"rain" : 0,
		"cloudbase" : 1117.4503999999,
		"flyability" : -0,
		"reason" : "orientationsUnknown, cloudbase",
		"timestamp" :1555210800
		},
	"2019-04-14T18:00:00+12:00" : {
		"windSpeed" : 1.2,
		"windDir" : 126,
		"rain" : 0,
		"cloudbase" : 754.20799999992,
		"flyability" : -0,
		"reason" : "orientationsUnknown, cloudbase",
		"timestamp" :1555221600
		},
	"2019-04-14T21:00:00+12:00" : {
		"windSpeed" : 1,
		"windDir" : 136,
		"rain" : 0,
		"cloudbase" : 152.15079999994,
		"flyability" : -0,
		"reason" : "orientationsUnknown, cloudbase",
		"timestamp" :1555232400
		},
	"2019-04-15T00:00:00+12:00" : {
		"windSpeed" : 1.2,
		"windDir" : 135,
		"rain" : 0,
		"cloudbase" : 151.59360000002,
		"flyability" : -0,
		"reason" : "orientationsUnknown, cloudbase",
		"timestamp" :1555243200
		},
	"2019-04-15T03:00:00+12:00" : {
		"windSpeed" : 1,
		"windDir" : 150,
		"rain" : 0,
		"cloudbase" : 90.448399999978,
		"flyability" : -0,
		"reason" : "orientationsUnknown, cloudbase",
		"timestamp" :1555254000
		},
	"2019-04-15T06:00:00+12:00" : {
		"windSpeed" : 1,
		"windDir" : 131,
		"rain" : 0,
		"cloudbase" : 41.961599999986,
		"flyability" : -0,
		"reason" : "orientationsUnknown, cloudbase",
		"timestamp" :1555264800
		},
	"2019-04-15T09:00:00+12:00" : {
		"windSpeed" : 0.7,
		"windDir" : 138,
		"rain" : 0,
		"cloudbase" : 55.097599999992,
		"flyability" : -0,
		"reason" : "orientationsUnknown, cloudbase",
		"timestamp" :1555275600
		},
	"2019-04-15T12:00:00+12:00" : {
		"windSpeed" : 1.3,
		"windDir" : 130,
		"rain" : 0,
		"cloudbase" : 316.2992,
		"flyability" : -0,
		"reason" : "orientationsUnknown, cloudbase",
		"timestamp" :1555286400
		},
	"2019-04-15T15:00:00+12:00" : {
		"windSpeed" : 2,
		"windDir" : 125,
		"rain" : 0,
		"cloudbase" : null,
		"flyability" : -50,
		"reason" : "orientationsUnknown",
		"timestamp" :1555297200
		},
	"2019-04-15T18:00:00+12:00" : {
		"windSpeed" : 1.3,
		"windDir" : 112,
		"rain" : 1,
		"cloudbase" : null,
		"flyability" : -0,
		"reason" : "orientationsUnknown, rain",
		"timestamp" :1555308000
		},
	"2019-04-15T21:00:00+12:00" : {
		"windSpeed" : 0.9,
		"windDir" : 105,
		"rain" : 1,
		"cloudbase" : null,
		"flyability" : -0,
		"reason" : "orientationsUnknown, rain",
		"timestamp" :1555318800
		},
	"2019-04-16T00:00:00+12:00" : {
		"windSpeed" : 0.5,
		"windDir" : 138,
		"rain" : 0,
		"cloudbase" : null,
		"flyability" : -50,
		"reason" : "orientationsUnknown",
		"timestamp" :1555329600
		}
	}
}