{
"site" : "Amedzofe (southeast launch)",
"id" : 21409,
"orientations" : "00000000",
"forecasts" : { 
	"2019-04-08T15:00:00Z" : {
		"windSpeed" : 1.2,
		"windDir" : 222,
		"rain" : 0,
		"cloudbase" : 6380.1330867019,
		"flyability" : -50,
		"reason" : "orientationsUnknown",
		"timestamp" :1554735600
		},
	"2019-04-08T18:00:00Z" : {
		"windSpeed" : 0.3,
		"windDir" : 108,
		"rain" : 0,
		"cloudbase" : 10758.898921,
		"flyability" : -50,
		"reason" : "orientationsUnknown",
		"timestamp" :1554746400
		},
	"2019-04-08T21:00:00Z" : {
		"windSpeed" : 1.7,
		"windDir" : 139,
		"rain" : 0,
		"cloudbase" : 11491.286763,
		"flyability" : -50,
		"reason" : "orientationsUnknown",
		"timestamp" :1554757200
		},
	"2019-04-09T00:00:00Z" : {
		"windSpeed" : 1.6,
		"windDir" : 146,
		"rain" : 0,
		"cloudbase" : 12500,
		"flyability" : -50,
		"reason" : "orientationsUnknown",
		"timestamp" :1554768000
		},
	"2019-04-09T03:00:00Z" : {
		"windSpeed" : 1.3,
		"windDir" : 184,
		"rain" : 0,
		"cloudbase" : 14500,
		"flyability" : -50,
		"reason" : "orientationsUnknown",
		"timestamp" :1554778800
		},
	"2019-04-09T06:00:00Z" : {
		"windSpeed" : 0.8,
		"windDir" : 187,
		"rain" : 0,
		"cloudbase" : 12000,
		"flyability" : -50,
		"reason" : "orientationsUnknown",
		"timestamp" :1554789600
		},
	"2019-04-09T09:00:00Z" : {
		"windSpeed" : 0.9,
		"windDir" : 236,
		"rain" : 0,
		"cloudbase" : null,
		"flyability" : -50,
		"reason" : "orientationsUnknown",
		"timestamp" :1554800400
		},
	"2019-04-09T12:00:00Z" : {
		"windSpeed" : 1.5,
		"windDir" : 146,
		"rain" : 0,
		"cloudbase" : 12500,
		"flyability" : -50,
		"reason" : "orientationsUnknown",
		"timestamp" :1554811200
		},
	"2019-04-09T15:00:00Z" : {
		"windSpeed" : 1.5,
		"windDir" : 23,
		"rain" : 0,
		"cloudbase" : 10182.1894104,
		"flyability" : -50,
		"reason" : "orientationsUnknown",
		"timestamp" :1554822000
		},
	"2019-04-09T18:00:00Z" : {
		"windSpeed" : 0.9,
		"windDir" : 158,
		"rain" : 0,
		"cloudbase" : 9450.01,
		"flyability" : -50,
		"reason" : "orientationsUnknown",
		"timestamp" :1554832800
		},
	"2019-04-09T21:00:00Z" : {
		"windSpeed" : 1.9,
		"windDir" : 160,
		"rain" : 0,
		"cloudbase" : 9900,
		"flyability" : -50,
		"reason" : "orientationsUnknown",
		"timestamp" :1554843600
		},
	"2019-04-10T00:00:00Z" : {
		"windSpeed" : 2.3,
		"windDir" : 156,
		"rain" : 0,
		"cloudbase" : 10500,
		"flyability" : -50,
		"reason" : "orientationsUnknown",
		"timestamp" :1554854400
		},
	"2019-04-10T03:00:00Z" : {
		"windSpeed" : 2.6,
		"windDir" : 169,
		"rain" : 0,
		"cloudbase" : 3806.6735607118,
		"flyability" : -50,
		"reason" : "orientationsUnknown",
		"timestamp" :1554865200
		},
	"2019-04-10T06:00:00Z" : {
		"windSpeed" : 2.3,
		"windDir" : 178,
		"rain" : 0,
		"cloudbase" : 3867.5710558919,
		"flyability" : -50,
		"reason" : "orientationsUnknown",
		"timestamp" :1554876000
		},
	"2019-04-10T09:00:00Z" : {
		"windSpeed" : 2.9,
		"windDir" : 177,
		"rain" : 0,
		"cloudbase" : 6744.9523738018,
		"flyability" : -50,
		"reason" : "orientationsUnknown",
		"timestamp" :1554886800
		},
	"2019-04-10T12:00:00Z" : {
		"windSpeed" : 2,
		"windDir" : 138,
		"rain" : 0,
		"cloudbase" : null,
		"flyability" : -50,
		"reason" : "orientationsUnknown",
		"timestamp" :1554897600
		},
	"2019-04-10T15:00:00Z" : {
		"windSpeed" : 1.9,
		"windDir" : 159,
		"rain" : 0,
		"cloudbase" : 1150,
		"flyability" : -50,
		"reason" : "orientationsUnknown",
		"timestamp" :1554908400
		},
	"2019-04-10T18:00:00Z" : {
		"windSpeed" : 2.6,
		"windDir" : 165,
		"rain" : 0,
		"cloudbase" : 13500,
		"flyability" : -50,
		"reason" : "orientationsUnknown",
		"timestamp" :1554919200
		},
	"2019-04-10T21:00:00Z" : {
		"windSpeed" : 2.4,
		"windDir" : 168,
		"rain" : 0,
		"cloudbase" : 13669.638921,
		"flyability" : -50,
		"reason" : "orientationsUnknown",
		"timestamp" :1554930000
		},
	"2019-04-11T00:00:00Z" : {
		"windSpeed" : 2.3,
		"windDir" : 180,
		"rain" : 0,
		"cloudbase" : 4041.0007630018,
		"flyability" : -50,
		"reason" : "orientationsUnknown",
		"timestamp" :1554940800
		},
	"2019-04-11T03:00:00Z" : {
		"windSpeed" : 2.6,
		"windDir" : 193,
		"rain" : 0,
		"cloudbase" : 90,
		"flyability" : -0,
		"reason" : "orientationsUnknown, cloudbase",
		"timestamp" :1554951600
		},
	"2019-04-11T06:00:00Z" : {
		"windSpeed" : 1.7,
		"windDir" : 178,
		"rain" : 1,
		"cloudbase" : 142.44131079006,
		"flyability" : -0,
		"reason" : "orientationsUnknown, rain, cloudbase",
		"timestamp" :1554962400
		},
	"2019-04-11T09:00:00Z" : {
		"windSpeed" : 2.3,
		"windDir" : 197,
		"rain" : 1,
		"cloudbase" : 696.08507052,
		"flyability" : -0,
		"reason" : "orientationsUnknown, rain",
		"timestamp" :1554973200
		},
	"2019-04-11T12:00:00Z" : {
		"windSpeed" : 1.4,
		"windDir" : 215,
		"rain" : 0,
		"cloudbase" : 1400,
		"flyability" : -50,
		"reason" : "orientationsUnknown",
		"timestamp" :1554984000
		},
	"2019-04-11T15:00:00Z" : {
		"windSpeed" : 0.8,
		"windDir" : 271,
		"rain" : 0,
		"cloudbase" : null,
		"flyability" : -50,
		"reason" : "orientationsUnknown",
		"timestamp" :1554994800
		},
	"2019-04-11T18:00:00Z" : {
		"windSpeed" : 1.4,
		"windDir" : 130,
		"rain" : 0,
		"cloudbase" : 12580.411079,
		"flyability" : -50,
		"reason" : "orientationsUnknown",
		"timestamp" :1555005600
		},
	"2019-04-11T21:00:00Z" : {
		"windSpeed" : 1.5,
		"windDir" : 161,
		"rain" : 0,
		"cloudbase" : 13160.79,
		"flyability" : -50,
		"reason" : "orientationsUnknown",
		"timestamp" :1555016400
		},
	"2019-04-12T00:00:00Z" : {
		"windSpeed" : 1.8,
		"windDir" : 175,
		"rain" : 1,
		"cloudbase" : 11830.361079,
		"flyability" : -0,
		"reason" : "orientationsUnknown, rain",
		"timestamp" :1555027200
		},
	"2019-04-12T03:00:00Z" : {
		"windSpeed" : 1.4,
		"windDir" : 195,
		"rain" : 0,
		"cloudbase" : 12410.74,
		"flyability" : -50,
		"reason" : "orientationsUnknown",
		"timestamp" :1555038000
		},
	"2019-04-12T06:00:00Z" : {
		"windSpeed" : 1.8,
		"windDir" : 150,
		"rain" : 0,
		"cloudbase" : 12339.142158,
		"flyability" : -50,
		"reason" : "orientationsUnknown",
		"timestamp" :1555048800
		},
	"2019-04-12T09:00:00Z" : {
		"windSpeed" : 2.5,
		"windDir" : 195,
		"rain" : 0,
		"cloudbase" : 4121.0859422019,
		"flyability" : -50,
		"reason" : "orientationsUnknown",
		"timestamp" :1555059600
		},
	"2019-04-12T12:00:00Z" : {
		"windSpeed" : 2.5,
		"windDir" : 240,
		"rain" : 0,
		"cloudbase" : 7239.1243351986,
		"flyability" : -50,
		"reason" : "orientationsUnknown",
		"timestamp" :1555070400
		},
	"2019-04-12T15:00:00Z" : {
		"windSpeed" : 1.4,
		"windDir" : 230,
		"rain" : 0,
		"cloudbase" : 15839.31,
		"flyability" : -50,
		"reason" : "orientationsUnknown",
		"timestamp" :1555081200
		},
	"2019-04-12T18:00:00Z" : {
		"windSpeed" : 2.9,
		"windDir" : 168,
		"rain" : 0,
		"cloudbase" : 7957.2640000002,
		"flyability" : -50,
		"reason" : "orientationsUnknown",
		"timestamp" :1555092000
		},
	"2019-04-12T21:00:00Z" : {
		"windSpeed" : 2.1,
		"windDir" : 202,
		"rain" : 0,
		"cloudbase" : 9250.1685895998,
		"flyability" : -50,
		"reason" : "orientationsUnknown",
		"timestamp" :1555102800
		},
	"2019-04-13T00:00:00Z" : {
		"windSpeed" : 1.6,
		"windDir" : 215,
		"rain" : 0,
		"cloudbase" : 7810.5379999998,
		"flyability" : -50,
		"reason" : "orientationsUnknown",
		"timestamp" :1555113600
		},
	"2019-04-13T03:00:00Z" : {
		"windSpeed" : 0.9,
		"windDir" : 207,
		"rain" : 0,
		"cloudbase" : 7448.6766916996,
		"flyability" : -50,
		"reason" : "orientationsUnknown",
		"timestamp" :1555124400
		},
	"2019-04-13T06:00:00Z" : {
		"windSpeed" : 0.2,
		"windDir" : 270,
		"rain" : 0,
		"cloudbase" : 7867.8691367999,
		"flyability" : -50,
		"reason" : "orientationsUnknown",
		"timestamp" :1555135200
		},
	"2019-04-13T09:00:00Z" : {
		"windSpeed" : 0.9,
		"windDir" : 207,
		"rain" : 0,
		"cloudbase" : 11669.638921,
		"flyability" : -50,
		"reason" : "orientationsUnknown",
		"timestamp" :1555146000
		},
	"2019-04-13T12:00:00Z" : {
		"windSpeed" : 1.8,
		"windDir" : 221,
		"rain" : 0,
		"cloudbase" : null,
		"flyability" : -50,
		"reason" : "orientationsUnknown",
		"timestamp" :1555156800
		},
	"2019-04-13T15:00:00Z" : {
		"windSpeed" : 1.8,
		"windDir" : 172,
		"rain" : 0,
		"cloudbase" : 11580.378921,
		"flyability" : -50,
		"reason" : "orientationsUnknown",
		"timestamp" :1555167600
		},
	"2019-04-13T18:00:00Z" : {
		"windSpeed" : 2.4,
		"windDir" : 121,
		"rain" : 0,
		"cloudbase" : 12410.607842,
		"flyability" : -50,
		"reason" : "orientationsUnknown",
		"timestamp" :1555178400
		},
	"2019-04-13T21:00:00Z" : {
		"windSpeed" : 1.6,
		"windDir" : 141,
		"rain" : 0,
		"cloudbase" : 5205.6196686014,
		"flyability" : -50,
		"reason" : "orientationsUnknown",
		"timestamp" :1555189200
		},
	"2019-04-14T00:00:00Z" : {
		"windSpeed" : 2,
		"windDir" : 190,
		"rain" : 0,
		"cloudbase" : 3210.3874084915,
		"flyability" : -50,
		"reason" : "orientationsUnknown",
		"timestamp" :1555200000
		},
	"2019-04-14T03:00:00Z" : {
		"windSpeed" : 1.4,
		"windDir" : 198,
		"rain" : 0,
		"cloudbase" : 3569.1227167708,
		"flyability" : -50,
		"reason" : "orientationsUnknown",
		"timestamp" :1555210800
		},
	"2019-04-14T06:00:00Z" : {
		"windSpeed" : 1.5,
		"windDir" : 174,
		"rain" : 0,
		"cloudbase" : 45,
		"flyability" : -0,
		"reason" : "orientationsUnknown, cloudbase",
		"timestamp" :1555221600
		},
	"2019-04-14T09:00:00Z" : {
		"windSpeed" : 2.2,
		"windDir" : 195,
		"rain" : 0,
		"cloudbase" : null,
		"flyability" : -50,
		"reason" : "orientationsUnknown",
		"timestamp" :1555232400
		},
	"2019-04-14T12:00:00Z" : {
		"windSpeed" : 1.8,
		"windDir" : 217,
		"rain" : 0,
		"cloudbase" : 10000,
		"flyability" : -50,
		"reason" : "orientationsUnknown",
		"timestamp" :1555243200
		}
	}
}