{
"site" : "Godiva Rim",
"id" : 21485,
"orientations" : "00000000",
"forecasts" : { 
	"2019-04-21T21:00:00-06:00" : {
		"windSpeed" : 1,
		"windDir" : 34,
		"rain" : 1,
		"cloudbase" : 6127.1499999998,
		"flyability" : -0,
		"reason" : "orientationsUnknown, rain",
		"timestamp" :1555902000
		},
	"2019-04-22T00:00:00-06:00" : {
		"windSpeed" : 4.1,
		"windDir" : 8,
		"rain" : 0,
		"cloudbase" : null,
		"flyability" : -50,
		"reason" : "orientationsUnknown",
		"timestamp" :1555912800
		},
	"2019-04-22T03:00:00-06:00" : {
		"windSpeed" : 3,
		"windDir" : 354,
		"rain" : 0,
		"cloudbase" : null,
		"flyability" : -50,
		"reason" : "orientationsUnknown",
		"timestamp" :1555923600
		},
	"2019-04-22T06:00:00-06:00" : {
		"windSpeed" : 2.7,
		"windDir" : 350,
		"rain" : 0,
		"cloudbase" : 6174.226,
		"flyability" : -50,
		"reason" : "orientationsUnknown",
		"timestamp" :1555934400
		},
	"2019-04-22T09:00:00-06:00" : {
		"windSpeed" : 3.6,
		"windDir" : 1,
		"rain" : 0,
		"cloudbase" : 450,
		"flyability" : -0,
		"reason" : "orientationsUnknown, cloudbase",
		"timestamp" :1555945200
		},
	"2019-04-22T12:00:00-06:00" : {
		"windSpeed" : 5.1,
		"windDir" : 0,
		"rain" : 0,
		"cloudbase" : null,
		"flyability" : -0,
		"reason" : "windSpeed, orientationsUnknown",
		"timestamp" :1555956000
		},
	"2019-04-22T15:00:00-06:00" : {
		"windSpeed" : 5.9,
		"windDir" : 4,
		"rain" : 0,
		"cloudbase" : null,
		"flyability" : -0,
		"reason" : "windSpeed, orientationsUnknown",
		"timestamp" :1555966800
		},
	"2019-04-22T18:00:00-06:00" : {
		"windSpeed" : 5,
		"windDir" : 12,
		"rain" : 1,
		"cloudbase" : 7531.8,
		"flyability" : -0,
		"reason" : "orientationsUnknown, rain",
		"timestamp" :1555977600
		},
	"2019-04-22T21:00:00-06:00" : {
		"windSpeed" : 5.3,
		"windDir" : 349,
		"rain" : 0,
		"cloudbase" : null,
		"flyability" : -0,
		"reason" : "windSpeed, orientationsUnknown",
		"timestamp" :1555988400
		},
	"2019-04-23T00:00:00-06:00" : {
		"windSpeed" : 4.9,
		"windDir" : 0,
		"rain" : 0,
		"cloudbase" : null,
		"flyability" : -50,
		"reason" : "orientationsUnknown",
		"timestamp" :1555999200
		},
	"2019-04-23T03:00:00-06:00" : {
		"windSpeed" : 2.3,
		"windDir" : 344,
		"rain" : 0,
		"cloudbase" : null,
		"flyability" : -50,
		"reason" : "orientationsUnknown",
		"timestamp" :1556010000
		},
	"2019-04-23T06:00:00-06:00" : {
		"windSpeed" : 1.7,
		"windDir" : 15,
		"rain" : 0,
		"cloudbase" : null,
		"flyability" : -50,
		"reason" : "orientationsUnknown",
		"timestamp" :1556020800
		},
	"2019-04-23T09:00:00-06:00" : {
		"windSpeed" : 1.5,
		"windDir" : 90,
		"rain" : 0,
		"cloudbase" : null,
		"flyability" : -50,
		"reason" : "orientationsUnknown",
		"timestamp" :1556031600
		},
	"2019-04-23T12:00:00-06:00" : {
		"windSpeed" : 2.9,
		"windDir" : 13,
		"rain" : 0,
		"cloudbase" : null,
		"flyability" : -50,
		"reason" : "orientationsUnknown",
		"timestamp" :1556042400
		},
	"2019-04-23T15:00:00-06:00" : {
		"windSpeed" : 3,
		"windDir" : 7,
		"rain" : 0,
		"cloudbase" : null,
		"flyability" : -50,
		"reason" : "orientationsUnknown",
		"timestamp" :1556053200
		},
	"2019-04-23T18:00:00-06:00" : {
		"windSpeed" : 4.2,
		"windDir" : 339,
		"rain" : 0,
		"cloudbase" : null,
		"flyability" : -50,
		"reason" : "orientationsUnknown",
		"timestamp" :1556064000
		},
	"2019-04-23T21:00:00-06:00" : {
		"windSpeed" : 2.7,
		"windDir" : 346,
		"rain" : 0,
		"cloudbase" : null,
		"flyability" : -50,
		"reason" : "orientationsUnknown",
		"timestamp" :1556074800
		},
	"2019-04-24T00:00:00-06:00" : {
		"windSpeed" : 2.2,
		"windDir" : 339,
		"rain" : 0,
		"cloudbase" : null,
		"flyability" : -50,
		"reason" : "orientationsUnknown",
		"timestamp" :1556085600
		},
	"2019-04-24T03:00:00-06:00" : {
		"windSpeed" : 1.1,
		"windDir" : 86,
		"rain" : 0,
		"cloudbase" : null,
		"flyability" : -50,
		"reason" : "orientationsUnknown",
		"timestamp" :1556096400
		},
	"2019-04-24T06:00:00-06:00" : {
		"windSpeed" : 2,
		"windDir" : 118,
		"rain" : 0,
		"cloudbase" : null,
		"flyability" : -50,
		"reason" : "orientationsUnknown",
		"timestamp" :1556107200
		},
	"2019-04-24T09:00:00-06:00" : {
		"windSpeed" : 1.3,
		"windDir" : 138,
		"rain" : 0,
		"cloudbase" : 10311.99,
		"flyability" : -50,
		"reason" : "orientationsUnknown",
		"timestamp" :1556118000
		},
	"2019-04-24T12:00:00-06:00" : {
		"windSpeed" : 1.9,
		"windDir" : 284,
		"rain" : 0,
		"cloudbase" : null,
		"flyability" : -50,
		"reason" : "orientationsUnknown",
		"timestamp" :1556128800
		},
	"2019-04-24T15:00:00-06:00" : {
		"windSpeed" : 1.3,
		"windDir" : 298,
		"rain" : 0,
		"cloudbase" : 2171.539,
		"flyability" : -0,
		"reason" : "orientationsUnknown, cloudbase",
		"timestamp" :1556139600
		},
	"2019-04-24T18:00:00-06:00" : {
		"windSpeed" : 4,
		"windDir" : 310,
		"rain" : 1,
		"cloudbase" : null,
		"flyability" : -0,
		"reason" : "orientationsUnknown, rain",
		"timestamp" :1556150400
		},
	"2019-04-24T21:00:00-06:00" : {
		"windSpeed" : 2.4,
		"windDir" : 322,
		"rain" : 0,
		"cloudbase" : null,
		"flyability" : -50,
		"reason" : "orientationsUnknown",
		"timestamp" :1556161200
		},
	"2019-04-25T00:00:00-06:00" : {
		"windSpeed" : 1.5,
		"windDir" : 7,
		"rain" : 0,
		"cloudbase" : null,
		"flyability" : -50,
		"reason" : "orientationsUnknown",
		"timestamp" :1556172000
		},
	"2019-04-25T03:00:00-06:00" : {
		"windSpeed" : 1,
		"windDir" : 52,
		"rain" : 0,
		"cloudbase" : null,
		"flyability" : -50,
		"reason" : "orientationsUnknown",
		"timestamp" :1556182800
		},
	"2019-04-25T06:00:00-06:00" : {
		"windSpeed" : 1.9,
		"windDir" : 90,
		"rain" : 0,
		"cloudbase" : null,
		"flyability" : -50,
		"reason" : "orientationsUnknown",
		"timestamp" :1556193600
		},
	"2019-04-25T09:00:00-06:00" : {
		"windSpeed" : 1.4,
		"windDir" : 105,
		"rain" : 0,
		"cloudbase" : null,
		"flyability" : -50,
		"reason" : "orientationsUnknown",
		"timestamp" :1556204400
		},
	"2019-04-25T12:00:00-06:00" : {
		"windSpeed" : 1.1,
		"windDir" : 180,
		"rain" : 0,
		"cloudbase" : null,
		"flyability" : -50,
		"reason" : "orientationsUnknown",
		"timestamp" :1556215200
		},
	"2019-04-25T15:00:00-06:00" : {
		"windSpeed" : 1.8,
		"windDir" : 266,
		"rain" : 0,
		"cloudbase" : null,
		"flyability" : -50,
		"reason" : "orientationsUnknown",
		"timestamp" :1556226000
		},
	"2019-04-25T18:00:00-06:00" : {
		"windSpeed" : 3.2,
		"windDir" : 298,
		"rain" : 0,
		"cloudbase" : null,
		"flyability" : -50,
		"reason" : "orientationsUnknown",
		"timestamp" :1556236800
		},
	"2019-04-25T21:00:00-06:00" : {
		"windSpeed" : 1.1,
		"windDir" : 59,
		"rain" : 0,
		"cloudbase" : 7600,
		"flyability" : -50,
		"reason" : "orientationsUnknown",
		"timestamp" :1556247600
		},
	"2019-04-26T00:00:00-06:00" : {
		"windSpeed" : 1.8,
		"windDir" : 108,
		"rain" : 0,
		"cloudbase" : 7313.674,
		"flyability" : -50,
		"reason" : "orientationsUnknown",
		"timestamp" :1556258400
		},
	"2019-04-26T03:00:00-06:00" : {
		"windSpeed" : 2,
		"windDir" : 120,
		"rain" : 0,
		"cloudbase" : 6300,
		"flyability" : -50,
		"reason" : "orientationsUnknown",
		"timestamp" :1556269200
		},
	"2019-04-26T06:00:00-06:00" : {
		"windSpeed" : 2.1,
		"windDir" : 123,
		"rain" : 0,
		"cloudbase" : null,
		"flyability" : -50,
		"reason" : "orientationsUnknown",
		"timestamp" :1556280000
		},
	"2019-04-26T09:00:00-06:00" : {
		"windSpeed" : 2.3,
		"windDir" : 206,
		"rain" : 1,
		"cloudbase" : null,
		"flyability" : -0,
		"reason" : "orientationsUnknown, rain",
		"timestamp" :1556290800
		},
	"2019-04-26T12:00:00-06:00" : {
		"windSpeed" : 7.7,
		"windDir" : 242,
		"rain" : 0,
		"cloudbase" : 2495.5250000001,
		"flyability" : -0,
		"reason" : "windSpeed, orientationsUnknown",
		"timestamp" :1556301600
		},
	"2019-04-26T15:00:00-06:00" : {
		"windSpeed" : 4.6,
		"windDir" : 221,
		"rain" : 0,
		"cloudbase" : null,
		"flyability" : -50,
		"reason" : "orientationsUnknown",
		"timestamp" :1556312400
		},
	"2019-04-26T18:00:00-06:00" : {
		"windSpeed" : 6.2,
		"windDir" : 297,
		"rain" : 0,
		"cloudbase" : 7333.9389999999,
		"flyability" : -0,
		"reason" : "windSpeed, orientationsUnknown",
		"timestamp" :1556323200
		},
	"2019-04-26T21:00:00-06:00" : {
		"windSpeed" : 2.6,
		"windDir" : 202,
		"rain" : 0,
		"cloudbase" : 6179.378,
		"flyability" : -50,
		"reason" : "orientationsUnknown",
		"timestamp" :1556334000
		},
	"2019-04-27T00:00:00-06:00" : {
		"windSpeed" : 0.5,
		"windDir" : 351,
		"rain" : 0,
		"cloudbase" : 5796.8360000001,
		"flyability" : -50,
		"reason" : "orientationsUnknown",
		"timestamp" :1556344800
		},
	"2019-04-27T03:00:00-06:00" : {
		"windSpeed" : 1.1,
		"windDir" : 210,
		"rain" : 0,
		"cloudbase" : null,
		"flyability" : -50,
		"reason" : "orientationsUnknown",
		"timestamp" :1556355600
		},
	"2019-04-27T06:00:00-06:00" : {
		"windSpeed" : 1.6,
		"windDir" : 201,
		"rain" : 0,
		"cloudbase" : null,
		"flyability" : -50,
		"reason" : "orientationsUnknown",
		"timestamp" :1556366400
		},
	"2019-04-27T09:00:00-06:00" : {
		"windSpeed" : 1.8,
		"windDir" : 211,
		"rain" : 1,
		"cloudbase" : null,
		"flyability" : -0,
		"reason" : "orientationsUnknown, rain",
		"timestamp" :1556377200
		},
	"2019-04-27T12:00:00-06:00" : {
		"windSpeed" : 3.3,
		"windDir" : 236,
		"rain" : 1,
		"cloudbase" : null,
		"flyability" : -0,
		"reason" : "orientationsUnknown, rain",
		"timestamp" :1556388000
		},
	"2019-04-27T15:00:00-06:00" : {
		"windSpeed" : 4.1,
		"windDir" : 234,
		"rain" : 1,
		"cloudbase" : null,
		"flyability" : -0,
		"reason" : "orientationsUnknown, rain",
		"timestamp" :1556398800
		},
	"2019-04-27T18:00:00-06:00" : {
		"windSpeed" : 3.1,
		"windDir" : 271,
		"rain" : 0,
		"cloudbase" : null,
		"flyability" : -50,
		"reason" : "orientationsUnknown",
		"timestamp" :1556409600
		}
	}
}