{
"site" : "Horsefly",
"id" : 21650,
"orientations" : "00000000",
"forecasts" : { 
	"2019-04-10T08:00:00-07:00" : {
		"windSpeed" : 3,
		"windDir" : 198,
		"rain" : 1,
		"cloudbase" : 286.55619999997,
		"flyability" : -0,
		"reason" : "orientationsUnknown, rain, cloudbase",
		"timestamp" :1554912000
		},
	"2019-04-10T11:00:00-07:00" : {
		"windSpeed" : 2.1,
		"windDir" : 209,
		"rain" : 1,
		"cloudbase" : 313.03899999994,
		"flyability" : -0,
		"reason" : "orientationsUnknown, rain, cloudbase",
		"timestamp" :1554922800
		},
	"2019-04-10T14:00:00-07:00" : {
		"windSpeed" : 1.7,
		"windDir" : 245,
		"rain" : 1,
		"cloudbase" : 328.32979999995,
		"flyability" : -0,
		"reason" : "orientationsUnknown, rain, cloudbase",
		"timestamp" :1554933600
		},
	"2019-04-10T17:00:00-07:00" : {
		"windSpeed" : 1.7,
		"windDir" : 216,
		"rain" : 1,
		"cloudbase" : 485.87319999999,
		"flyability" : -0,
		"reason" : "orientationsUnknown, rain, cloudbase",
		"timestamp" :1554944400
		},
	"2019-04-10T20:00:00-07:00" : {
		"windSpeed" : 1.1,
		"windDir" : 203,
		"rain" : 1,
		"cloudbase" : 180,
		"flyability" : -0,
		"reason" : "orientationsUnknown, rain, cloudbase",
		"timestamp" :1554955200
		},
	"2019-04-10T23:00:00-07:00" : {
		"windSpeed" : 0.8,
		"windDir" : 231,
		"rain" : 1,
		"cloudbase" : 230,
		"flyability" : -0,
		"reason" : "orientationsUnknown, rain, cloudbase",
		"timestamp" :1554966000
		},
	"2019-04-11T02:00:00-07:00" : {
		"windSpeed" : 0.3,
		"windDir" : 253,
		"rain" : 1,
		"cloudbase" : 281.76599999996,
		"flyability" : -0,
		"reason" : "orientationsUnknown, rain, cloudbase",
		"timestamp" :1554976800
		},
	"2019-04-11T05:00:00-07:00" : {
		"windSpeed" : 0.4,
		"windDir" : 268,
		"rain" : 1,
		"cloudbase" : 471.81439999998,
		"flyability" : -0,
		"reason" : "orientationsUnknown, rain, cloudbase",
		"timestamp" :1554987600
		},
	"2019-04-11T08:00:00-07:00" : {
		"windSpeed" : 0.1,
		"windDir" : 360,
		"rain" : 1,
		"cloudbase" : 460.45559999994,
		"flyability" : -0,
		"reason" : "orientationsUnknown, rain, cloudbase",
		"timestamp" :1554998400
		},
	"2019-04-11T11:00:00-07:00" : {
		"windSpeed" : 0.9,
		"windDir" : 215,
		"rain" : 1,
		"cloudbase" : 520,
		"flyability" : -0,
		"reason" : "orientationsUnknown, rain, cloudbase",
		"timestamp" :1555009200
		},
	"2019-04-11T14:00:00-07:00" : {
		"windSpeed" : 1.1,
		"windDir" : 214,
		"rain" : 1,
		"cloudbase" : 755.17199999998,
		"flyability" : -0,
		"reason" : "orientationsUnknown, rain, cloudbase",
		"timestamp" :1555020000
		},
	"2019-04-11T17:00:00-07:00" : {
		"windSpeed" : 0.3,
		"windDir" : 270,
		"rain" : 1,
		"cloudbase" : 662.51839999998,
		"flyability" : -0,
		"reason" : "orientationsUnknown, rain, cloudbase",
		"timestamp" :1555030800
		},
	"2019-04-11T20:00:00-07:00" : {
		"windSpeed" : 0.8,
		"windDir" : 322,
		"rain" : 1,
		"cloudbase" : 1593.9749999999,
		"flyability" : -0,
		"reason" : "orientationsUnknown, rain",
		"timestamp" :1555041600
		},
	"2019-04-11T23:00:00-07:00" : {
		"windSpeed" : 1.2,
		"windDir" : 335,
		"rain" : 1,
		"cloudbase" : 1000,
		"flyability" : -0,
		"reason" : "orientationsUnknown, rain",
		"timestamp" :1555052400
		},
	"2019-04-12T02:00:00-07:00" : {
		"windSpeed" : 1,
		"windDir" : 342,
		"rain" : 0,
		"cloudbase" : null,
		"flyability" : -50,
		"reason" : "orientationsUnknown",
		"timestamp" :1555063200
		},
	"2019-04-12T05:00:00-07:00" : {
		"windSpeed" : 0.9,
		"windDir" : 6,
		"rain" : 0,
		"cloudbase" : 11000,
		"flyability" : -50,
		"reason" : "orientationsUnknown",
		"timestamp" :1555074000
		},
	"2019-04-12T08:00:00-07:00" : {
		"windSpeed" : 0.9,
		"windDir" : 340,
		"rain" : 0,
		"cloudbase" : null,
		"flyability" : -50,
		"reason" : "orientationsUnknown",
		"timestamp" :1555084800
		},
	"2019-04-12T11:00:00-07:00" : {
		"windSpeed" : 0.4,
		"windDir" : 144,
		"rain" : 1,
		"cloudbase" : null,
		"flyability" : -0,
		"reason" : "orientationsUnknown, rain",
		"timestamp" :1555095600
		},
	"2019-04-12T14:00:00-07:00" : {
		"windSpeed" : 2.8,
		"windDir" : 228,
		"rain" : 0,
		"cloudbase" : null,
		"flyability" : -50,
		"reason" : "orientationsUnknown",
		"timestamp" :1555106400
		},
	"2019-04-12T17:00:00-07:00" : {
		"windSpeed" : 3.3,
		"windDir" : 232,
		"rain" : 1,
		"cloudbase" : 6200,
		"flyability" : -0,
		"reason" : "orientationsUnknown, rain",
		"timestamp" :1555117200
		},
	"2019-04-12T20:00:00-07:00" : {
		"windSpeed" : 1.7,
		"windDir" : 238,
		"rain" : 0,
		"cloudbase" : 7200,
		"flyability" : -50,
		"reason" : "orientationsUnknown",
		"timestamp" :1555128000
		},
	"2019-04-12T23:00:00-07:00" : {
		"windSpeed" : 0.8,
		"windDir" : 289,
		"rain" : 1,
		"cloudbase" : null,
		"flyability" : -0,
		"reason" : "orientationsUnknown, rain",
		"timestamp" :1555138800
		},
	"2019-04-13T02:00:00-07:00" : {
		"windSpeed" : 0.6,
		"windDir" : 268,
		"rain" : 1,
		"cloudbase" : 1616.4451999997,
		"flyability" : -0,
		"reason" : "orientationsUnknown, rain",
		"timestamp" :1555149600
		},
	"2019-04-13T05:00:00-07:00" : {
		"windSpeed" : 0.6,
		"windDir" : 224,
		"rain" : 1,
		"cloudbase" : 722.65579999997,
		"flyability" : -0,
		"reason" : "orientationsUnknown, rain, cloudbase",
		"timestamp" :1555160400
		},
	"2019-04-13T08:00:00-07:00" : {
		"windSpeed" : 1.8,
		"windDir" : 226,
		"rain" : 1,
		"cloudbase" : 2390.294,
		"flyability" : -0,
		"reason" : "orientationsUnknown, rain",
		"timestamp" :1555171200
		},
	"2019-04-13T11:00:00-07:00" : {
		"windSpeed" : 1.6,
		"windDir" : 233,
		"rain" : 1,
		"cloudbase" : 721.98339999996,
		"flyability" : -0,
		"reason" : "orientationsUnknown, rain, cloudbase",
		"timestamp" :1555182000
		},
	"2019-04-13T14:00:00-07:00" : {
		"windSpeed" : 0.3,
		"windDir" : 265,
		"rain" : 1,
		"cloudbase" : 816.54339999994,
		"flyability" : -0,
		"reason" : "orientationsUnknown, rain, cloudbase",
		"timestamp" :1555192800
		},
	"2019-04-13T17:00:00-07:00" : {
		"windSpeed" : 1.5,
		"windDir" : 215,
		"rain" : 1,
		"cloudbase" : 335.81279999995,
		"flyability" : -0,
		"reason" : "orientationsUnknown, rain, cloudbase",
		"timestamp" :1555203600
		},
	"2019-04-13T20:00:00-07:00" : {
		"windSpeed" : 2,
		"windDir" : 222,
		"rain" : 1,
		"cloudbase" : 540,
		"flyability" : -0,
		"reason" : "orientationsUnknown, rain, cloudbase",
		"timestamp" :1555214400
		},
	"2019-04-13T23:00:00-07:00" : {
		"windSpeed" : 2.1,
		"windDir" : 222,
		"rain" : 1,
		"cloudbase" : 50,
		"flyability" : -0,
		"reason" : "orientationsUnknown, rain, cloudbase",
		"timestamp" :1555225200
		},
	"2019-04-14T02:00:00-07:00" : {
		"windSpeed" : 1.8,
		"windDir" : 214,
		"rain" : 1,
		"cloudbase" : 30,
		"flyability" : -0,
		"reason" : "orientationsUnknown, rain, cloudbase",
		"timestamp" :1555236000
		},
	"2019-04-14T05:00:00-07:00" : {
		"windSpeed" : 1.1,
		"windDir" : 244,
		"rain" : 1,
		"cloudbase" : 268.09239999992,
		"flyability" : -0,
		"reason" : "orientationsUnknown, rain, cloudbase",
		"timestamp" :1555246800
		},
	"2019-04-14T08:00:00-07:00" : {
		"windSpeed" : 1.1,
		"windDir" : 214,
		"rain" : 1,
		"cloudbase" : 786.60419999978,
		"flyability" : -0,
		"reason" : "orientationsUnknown, rain, cloudbase",
		"timestamp" :1555257600
		},
	"2019-04-14T11:00:00-07:00" : {
		"windSpeed" : 2.6,
		"windDir" : 194,
		"rain" : 1,
		"cloudbase" : 994.83019999976,
		"flyability" : -0,
		"reason" : "orientationsUnknown, rain",
		"timestamp" :1555268400
		},
	"2019-04-14T14:00:00-07:00" : {
		"windSpeed" : 2.9,
		"windDir" : 201,
		"rain" : 1,
		"cloudbase" : 560,
		"flyability" : -0,
		"reason" : "orientationsUnknown, rain, cloudbase",
		"timestamp" :1555279200
		},
	"2019-04-14T17:00:00-07:00" : {
		"windSpeed" : 2.6,
		"windDir" : 219,
		"rain" : 1,
		"cloudbase" : 3990.07,
		"flyability" : -0,
		"reason" : "orientationsUnknown, rain",
		"timestamp" :1555290000
		},
	"2019-04-14T20:00:00-07:00" : {
		"windSpeed" : 1.1,
		"windDir" : 245,
		"rain" : 1,
		"cloudbase" : 30,
		"flyability" : -0,
		"reason" : "orientationsUnknown, rain, cloudbase",
		"timestamp" :1555300800
		},
	"2019-04-14T23:00:00-07:00" : {
		"windSpeed" : 1.1,
		"windDir" : 298,
		"rain" : 1,
		"cloudbase" : 574.16219999997,
		"flyability" : -0,
		"reason" : "orientationsUnknown, rain, cloudbase",
		"timestamp" :1555311600
		},
	"2019-04-15T02:00:00-07:00" : {
		"windSpeed" : 0.8,
		"windDir" : 319,
		"rain" : 1,
		"cloudbase" : 407.16039999995,
		"flyability" : -0,
		"reason" : "orientationsUnknown, rain, cloudbase",
		"timestamp" :1555322400
		},
	"2019-04-15T05:00:00-07:00" : {
		"windSpeed" : 0.7,
		"windDir" : 316,
		"rain" : 0,
		"cloudbase" : 149.78299999997,
		"flyability" : -0,
		"reason" : "orientationsUnknown, cloudbase",
		"timestamp" :1555333200
		},
	"2019-04-15T08:00:00-07:00" : {
		"windSpeed" : 0.7,
		"windDir" : 330,
		"rain" : 1,
		"cloudbase" : 182.55809999996,
		"flyability" : -0,
		"reason" : "orientationsUnknown, rain, cloudbase",
		"timestamp" :1555344000
		},
	"2019-04-15T11:00:00-07:00" : {
		"windSpeed" : 0.9,
		"windDir" : 181,
		"rain" : 0,
		"cloudbase" : 100,
		"flyability" : -0,
		"reason" : "orientationsUnknown, cloudbase",
		"timestamp" :1555354800
		},
	"2019-04-15T14:00:00-07:00" : {
		"windSpeed" : 1.4,
		"windDir" : 205,
		"rain" : 1,
		"cloudbase" : 442.86639999999,
		"flyability" : -0,
		"reason" : "orientationsUnknown, rain, cloudbase",
		"timestamp" :1555365600
		},
	"2019-04-15T17:00:00-07:00" : {
		"windSpeed" : 2,
		"windDir" : 223,
		"rain" : 0,
		"cloudbase" : 6471.4259999999,
		"flyability" : -50,
		"reason" : "orientationsUnknown",
		"timestamp" :1555376400
		},
	"2019-04-15T20:00:00-07:00" : {
		"windSpeed" : 1.1,
		"windDir" : 215,
		"rain" : 0,
		"cloudbase" : null,
		"flyability" : -50,
		"reason" : "orientationsUnknown",
		"timestamp" :1555387200
		},
	"2019-04-15T23:00:00-07:00" : {
		"windSpeed" : 0.5,
		"windDir" : 322,
		"rain" : 0,
		"cloudbase" : null,
		"flyability" : -50,
		"reason" : "orientationsUnknown",
		"timestamp" :1555398000
		},
	"2019-04-16T02:00:00-07:00" : {
		"windSpeed" : 0.8,
		"windDir" : 276,
		"rain" : 0,
		"cloudbase" : null,
		"flyability" : -50,
		"reason" : "orientationsUnknown",
		"timestamp" :1555408800
		},
	"2019-04-16T05:00:00-07:00" : {
		"windSpeed" : 0.6,
		"windDir" : 346,
		"rain" : 1,
		"cloudbase" : 7953.966,
		"flyability" : -0,
		"reason" : "orientationsUnknown, rain",
		"timestamp" :1555419600
		}
	}
}