{
"site" : "ACC LZ",
"id" : 21687,
"orientations" : "00000000",
"forecasts" : { 
	"2019-04-08T10:00:00-05:00" : {
		"windSpeed" : 4.1,
		"windDir" : 295,
		"rain" : 0,
		"cloudbase" : 6532.9664,
		"flyability" : -50,
		"reason" : "orientationsUnknown",
		"timestamp" :1554732000
		},
	"2019-04-08T13:00:00-05:00" : {
		"windSpeed" : 4,
		"windDir" : 329,
		"rain" : 0,
		"cloudbase" : null,
		"flyability" : -50,
		"reason" : "orientationsUnknown",
		"timestamp" :1554742800
		},
	"2019-04-08T16:00:00-05:00" : {
		"windSpeed" : 4.4,
		"windDir" : 332,
		"rain" : 0,
		"cloudbase" : 9753.7664,
		"flyability" : -50,
		"reason" : "orientationsUnknown",
		"timestamp" :1554753600
		},
	"2019-04-08T19:00:00-05:00" : {
		"windSpeed" : 1.8,
		"windDir" : 327,
		"rain" : 0,
		"cloudbase" : null,
		"flyability" : -50,
		"reason" : "orientationsUnknown",
		"timestamp" :1554764400
		},
	"2019-04-08T22:00:00-05:00" : {
		"windSpeed" : 2.6,
		"windDir" : 332,
		"rain" : 0,
		"cloudbase" : null,
		"flyability" : -50,
		"reason" : "orientationsUnknown",
		"timestamp" :1554775200
		},
	"2019-04-09T01:00:00-05:00" : {
		"windSpeed" : 2.4,
		"windDir" : 341,
		"rain" : 0,
		"cloudbase" : null,
		"flyability" : -50,
		"reason" : "orientationsUnknown",
		"timestamp" :1554786000
		},
	"2019-04-09T04:00:00-05:00" : {
		"windSpeed" : 2.2,
		"windDir" : 353,
		"rain" : 0,
		"cloudbase" : null,
		"flyability" : -50,
		"reason" : "orientationsUnknown",
		"timestamp" :1554796800
		},
	"2019-04-09T07:00:00-05:00" : {
		"windSpeed" : 1.3,
		"windDir" : 323,
		"rain" : 0,
		"cloudbase" : null,
		"flyability" : -50,
		"reason" : "orientationsUnknown",
		"timestamp" :1554807600
		},
	"2019-04-09T10:00:00-05:00" : {
		"windSpeed" : 1.1,
		"windDir" : 155,
		"rain" : 0,
		"cloudbase" : null,
		"flyability" : -50,
		"reason" : "orientationsUnknown",
		"timestamp" :1554818400
		},
	"2019-04-09T13:00:00-05:00" : {
		"windSpeed" : 3.1,
		"windDir" : 165,
		"rain" : 0,
		"cloudbase" : null,
		"flyability" : -50,
		"reason" : "orientationsUnknown",
		"timestamp" :1554829200
		},
	"2019-04-09T16:00:00-05:00" : {
		"windSpeed" : 4.1,
		"windDir" : 169,
		"rain" : 0,
		"cloudbase" : null,
		"flyability" : -50,
		"reason" : "orientationsUnknown",
		"timestamp" :1554840000
		},
	"2019-04-09T19:00:00-05:00" : {
		"windSpeed" : 3.8,
		"windDir" : 157,
		"rain" : 0,
		"cloudbase" : null,
		"flyability" : -50,
		"reason" : "orientationsUnknown",
		"timestamp" :1554850800
		},
	"2019-04-09T22:00:00-05:00" : {
		"windSpeed" : 4.1,
		"windDir" : 165,
		"rain" : 0,
		"cloudbase" : null,
		"flyability" : -50,
		"reason" : "orientationsUnknown",
		"timestamp" :1554861600
		},
	"2019-04-10T01:00:00-05:00" : {
		"windSpeed" : 4.7,
		"windDir" : 179,
		"rain" : 0,
		"cloudbase" : null,
		"flyability" : -50,
		"reason" : "orientationsUnknown",
		"timestamp" :1554872400
		},
	"2019-04-10T04:00:00-05:00" : {
		"windSpeed" : 5.3,
		"windDir" : 190,
		"rain" : 0,
		"cloudbase" : null,
		"flyability" : -0,
		"reason" : "windSpeed, orientationsUnknown",
		"timestamp" :1554883200
		},
	"2019-04-10T07:00:00-05:00" : {
		"windSpeed" : 5.8,
		"windDir" : 189,
		"rain" : 0,
		"cloudbase" : null,
		"flyability" : -0,
		"reason" : "windSpeed, orientationsUnknown",
		"timestamp" :1554894000
		},
	"2019-04-10T10:00:00-05:00" : {
		"windSpeed" : 6.2,
		"windDir" : 188,
		"rain" : 0,
		"cloudbase" : null,
		"flyability" : -0,
		"reason" : "windSpeed, orientationsUnknown",
		"timestamp" :1554904800
		},
	"2019-04-10T13:00:00-05:00" : {
		"windSpeed" : 7.7,
		"windDir" : 183,
		"rain" : 0,
		"cloudbase" : null,
		"flyability" : -0,
		"reason" : "windSpeed, orientationsUnknown",
		"timestamp" :1554915600
		},
	"2019-04-10T16:00:00-05:00" : {
		"windSpeed" : 8.5,
		"windDir" : 173,
		"rain" : 0,
		"cloudbase" : null,
		"flyability" : -0,
		"reason" : "windSpeed, orientationsUnknown",
		"timestamp" :1554926400
		},
	"2019-04-10T19:00:00-05:00" : {
		"windSpeed" : 7.8,
		"windDir" : 169,
		"rain" : 0,
		"cloudbase" : null,
		"flyability" : -0,
		"reason" : "windSpeed, orientationsUnknown",
		"timestamp" :1554937200
		},
	"2019-04-10T22:00:00-05:00" : {
		"windSpeed" : 8.2,
		"windDir" : 167,
		"rain" : 0,
		"cloudbase" : null,
		"flyability" : -0,
		"reason" : "windSpeed, orientationsUnknown",
		"timestamp" :1554948000
		},
	"2019-04-11T01:00:00-05:00" : {
		"windSpeed" : 7.3,
		"windDir" : 180,
		"rain" : 0,
		"cloudbase" : null,
		"flyability" : -0,
		"reason" : "windSpeed, orientationsUnknown",
		"timestamp" :1554958800
		},
	"2019-04-11T04:00:00-05:00" : {
		"windSpeed" : 3.6,
		"windDir" : 190,
		"rain" : 0,
		"cloudbase" : null,
		"flyability" : -50,
		"reason" : "orientationsUnknown",
		"timestamp" :1554969600
		},
	"2019-04-11T07:00:00-05:00" : {
		"windSpeed" : 2.7,
		"windDir" : 273,
		"rain" : 0,
		"cloudbase" : null,
		"flyability" : -50,
		"reason" : "orientationsUnknown",
		"timestamp" :1554980400
		},
	"2019-04-11T10:00:00-05:00" : {
		"windSpeed" : 4,
		"windDir" : 274,
		"rain" : 0,
		"cloudbase" : null,
		"flyability" : -50,
		"reason" : "orientationsUnknown",
		"timestamp" :1554991200
		},
	"2019-04-11T13:00:00-05:00" : {
		"windSpeed" : 5.9,
		"windDir" : 285,
		"rain" : 0,
		"cloudbase" : 8700,
		"flyability" : -0,
		"reason" : "windSpeed, orientationsUnknown",
		"timestamp" :1555002000
		},
	"2019-04-11T16:00:00-05:00" : {
		"windSpeed" : 6.2,
		"windDir" : 273,
		"rain" : 0,
		"cloudbase" : null,
		"flyability" : -0,
		"reason" : "windSpeed, orientationsUnknown",
		"timestamp" :1555012800
		},
	"2019-04-11T19:00:00-05:00" : {
		"windSpeed" : 4.8,
		"windDir" : 292,
		"rain" : 0,
		"cloudbase" : null,
		"flyability" : -50,
		"reason" : "orientationsUnknown",
		"timestamp" :1555023600
		},
	"2019-04-11T22:00:00-05:00" : {
		"windSpeed" : 4.2,
		"windDir" : 42,
		"rain" : 0,
		"cloudbase" : null,
		"flyability" : -50,
		"reason" : "orientationsUnknown",
		"timestamp" :1555034400
		},
	"2019-04-12T01:00:00-05:00" : {
		"windSpeed" : 2.7,
		"windDir" : 68,
		"rain" : 0,
		"cloudbase" : null,
		"flyability" : -50,
		"reason" : "orientationsUnknown",
		"timestamp" :1555045200
		},
	"2019-04-12T04:00:00-05:00" : {
		"windSpeed" : 2.3,
		"windDir" : 78,
		"rain" : 0,
		"cloudbase" : null,
		"flyability" : -50,
		"reason" : "orientationsUnknown",
		"timestamp" :1555056000
		},
	"2019-04-12T07:00:00-05:00" : {
		"windSpeed" : 2.1,
		"windDir" : 134,
		"rain" : 0,
		"cloudbase" : null,
		"flyability" : -50,
		"reason" : "orientationsUnknown",
		"timestamp" :1555066800
		},
	"2019-04-12T10:00:00-05:00" : {
		"windSpeed" : 3.9,
		"windDir" : 63,
		"rain" : 0,
		"cloudbase" : 10201.0656,
		"flyability" : -50,
		"reason" : "orientationsUnknown",
		"timestamp" :1555077600
		},
	"2019-04-12T13:00:00-05:00" : {
		"windSpeed" : 5,
		"windDir" : 87,
		"rain" : 0,
		"cloudbase" : null,
		"flyability" : -50,
		"reason" : "orientationsUnknown",
		"timestamp" :1555088400
		},
	"2019-04-12T16:00:00-05:00" : {
		"windSpeed" : 5.1,
		"windDir" : 104,
		"rain" : 0,
		"cloudbase" : null,
		"flyability" : -0,
		"reason" : "windSpeed, orientationsUnknown",
		"timestamp" :1555099200
		},
	"2019-04-12T19:00:00-05:00" : {
		"windSpeed" : 5.6,
		"windDir" : 100,
		"rain" : 0,
		"cloudbase" : null,
		"flyability" : -0,
		"reason" : "windSpeed, orientationsUnknown",
		"timestamp" :1555110000
		},
	"2019-04-12T22:00:00-05:00" : {
		"windSpeed" : 4.8,
		"windDir" : 101,
		"rain" : 0,
		"cloudbase" : null,
		"flyability" : -50,
		"reason" : "orientationsUnknown",
		"timestamp" :1555120800
		},
	"2019-04-13T01:00:00-05:00" : {
		"windSpeed" : 5.1,
		"windDir" : 84,
		"rain" : 0,
		"cloudbase" : null,
		"flyability" : -0,
		"reason" : "windSpeed, orientationsUnknown",
		"timestamp" :1555131600
		},
	"2019-04-13T04:00:00-05:00" : {
		"windSpeed" : 4.2,
		"windDir" : 73,
		"rain" : 1,
		"cloudbase" : 720,
		"flyability" : -0,
		"reason" : "orientationsUnknown, rain",
		"timestamp" :1555142400
		},
	"2019-04-13T07:00:00-05:00" : {
		"windSpeed" : 4,
		"windDir" : 61,
		"rain" : 1,
		"cloudbase" : 389.24672,
		"flyability" : -0,
		"reason" : "orientationsUnknown, rain",
		"timestamp" :1555153200
		},
	"2019-04-13T10:00:00-05:00" : {
		"windSpeed" : 3.2,
		"windDir" : 52,
		"rain" : 0,
		"cloudbase" : 91.01328,
		"flyability" : -0,
		"reason" : "orientationsUnknown, cloudbase",
		"timestamp" :1555164000
		},
	"2019-04-13T13:00:00-05:00" : {
		"windSpeed" : 3.7,
		"windDir" : 19,
		"rain" : 0,
		"cloudbase" : 82.879679999992,
		"flyability" : -0,
		"reason" : "orientationsUnknown, cloudbase",
		"timestamp" :1555174800
		},
	"2019-04-13T16:00:00-05:00" : {
		"windSpeed" : 5,
		"windDir" : 360,
		"rain" : 1,
		"cloudbase" : 378.50016,
		"flyability" : -0,
		"reason" : "orientationsUnknown, rain",
		"timestamp" :1555185600
		},
	"2019-04-13T19:00:00-05:00" : {
		"windSpeed" : 6,
		"windDir" : 357,
		"rain" : 1,
		"cloudbase" : 520,
		"flyability" : -0,
		"reason" : "windSpeed, orientationsUnknown, rain",
		"timestamp" :1555196400
		},
	"2019-04-13T22:00:00-05:00" : {
		"windSpeed" : 7,
		"windDir" : 345,
		"rain" : 0,
		"cloudbase" : null,
		"flyability" : -0,
		"reason" : "windSpeed, orientationsUnknown",
		"timestamp" :1555207200
		},
	"2019-04-14T01:00:00-05:00" : {
		"windSpeed" : 7.1,
		"windDir" : 323,
		"rain" : 0,
		"cloudbase" : null,
		"flyability" : -0,
		"reason" : "windSpeed, orientationsUnknown",
		"timestamp" :1555218000
		},
	"2019-04-14T04:00:00-05:00" : {
		"windSpeed" : 6.5,
		"windDir" : 317,
		"rain" : 0,
		"cloudbase" : 4454.6496,
		"flyability" : -0,
		"reason" : "windSpeed, orientationsUnknown",
		"timestamp" :1555228800
		},
	"2019-04-14T07:00:00-05:00" : {
		"windSpeed" : 5.5,
		"windDir" : 321,
		"rain" : 0,
		"cloudbase" : null,
		"flyability" : -0,
		"reason" : "windSpeed, orientationsUnknown",
		"timestamp" :1555239600
		}
	}
}