{
"site" : "Mount Evans",
"id" : 21693,
"orientations" : "22222121",
"forecasts" : { 
	"2019-04-06T21:00:00-06:00" : {
		"windSpeed" : 3.3,
		"windDir" : 274,
		"rain" : 0,
		"cloudbase" : null,
		"flyability" : 100,
		"reason" : "",
		"timestamp" :1554606000
		},
	"2019-04-07T00:00:00-06:00" : {
		"windSpeed" : 4.6,
		"windDir" : 298,
		"rain" : 0,
		"cloudbase" : 91.732999999991,
		"flyability" : 0,
		"reason" : "cloudbase",
		"timestamp" :1554616800
		},
	"2019-04-07T03:00:00-06:00" : {
		"windSpeed" : 4.7,
		"windDir" : 284,
		"rain" : 0,
		"cloudbase" : null,
		"flyability" : 100,
		"reason" : "",
		"timestamp" :1554627600
		},
	"2019-04-07T06:00:00-06:00" : {
		"windSpeed" : 3.5,
		"windDir" : 276,
		"rain" : 0,
		"cloudbase" : null,
		"flyability" : 100,
		"reason" : "",
		"timestamp" :1554638400
		},
	"2019-04-07T09:00:00-06:00" : {
		"windSpeed" : 2,
		"windDir" : 273,
		"rain" : 0,
		"cloudbase" : null,
		"flyability" : 100,
		"reason" : "",
		"timestamp" :1554649200
		},
	"2019-04-07T12:00:00-06:00" : {
		"windSpeed" : 2.3,
		"windDir" : 288,
		"rain" : 0,
		"cloudbase" : 8200,
		"flyability" : 100,
		"reason" : "",
		"timestamp" :1554660000
		},
	"2019-04-07T15:00:00-06:00" : {
		"windSpeed" : 2.3,
		"windDir" : 294,
		"rain" : 0,
		"cloudbase" : 7225.5,
		"flyability" : 100,
		"reason" : "",
		"timestamp" :1554670800
		},
	"2019-04-07T18:00:00-06:00" : {
		"windSpeed" : 2.9,
		"windDir" : 270,
		"rain" : 0,
		"cloudbase" : 4861.64,
		"flyability" : 100,
		"reason" : "",
		"timestamp" :1554681600
		},
	"2019-04-07T21:00:00-06:00" : {
		"windSpeed" : 2.6,
		"windDir" : 265,
		"rain" : 0,
		"cloudbase" : null,
		"flyability" : 100,
		"reason" : "",
		"timestamp" :1554692400
		},
	"2019-04-08T00:00:00-06:00" : {
		"windSpeed" : 3.6,
		"windDir" : 274,
		"rain" : 0,
		"cloudbase" : 7930.445,
		"flyability" : 100,
		"reason" : "",
		"timestamp" :1554703200
		},
	"2019-04-08T03:00:00-06:00" : {
		"windSpeed" : 4.8,
		"windDir" : 283,
		"rain" : 0,
		"cloudbase" : null,
		"flyability" : 100,
		"reason" : "",
		"timestamp" :1554714000
		},
	"2019-04-08T06:00:00-06:00" : {
		"windSpeed" : 2.9,
		"windDir" : 283,
		"rain" : 0,
		"cloudbase" : 7800,
		"flyability" : 100,
		"reason" : "",
		"timestamp" :1554724800
		},
	"2019-04-08T09:00:00-06:00" : {
		"windSpeed" : 3.7,
		"windDir" : 281,
		"rain" : 0,
		"cloudbase" : 6625.5,
		"flyability" : 100,
		"reason" : "",
		"timestamp" :1554735600
		},
	"2019-04-08T12:00:00-06:00" : {
		"windSpeed" : 2.4,
		"windDir" : 270,
		"rain" : 0,
		"cloudbase" : 7342.06,
		"flyability" : 100,
		"reason" : "",
		"timestamp" :1554746400
		},
	"2019-04-08T15:00:00-06:00" : {
		"windSpeed" : 2.9,
		"windDir" : 280,
		"rain" : 0,
		"cloudbase" : 6194,
		"flyability" : 100,
		"reason" : "",
		"timestamp" :1554757200
		},
	"2019-04-08T18:00:00-06:00" : {
		"windSpeed" : 2.6,
		"windDir" : 271,
		"rain" : 0,
		"cloudbase" : null,
		"flyability" : 100,
		"reason" : "",
		"timestamp" :1554768000
		},
	"2019-04-08T21:00:00-06:00" : {
		"windSpeed" : 2.1,
		"windDir" : 238,
		"rain" : 0,
		"cloudbase" : null,
		"flyability" : 100,
		"reason" : "",
		"timestamp" :1554778800
		},
	"2019-04-09T00:00:00-06:00" : {
		"windSpeed" : 2.3,
		"windDir" : 236,
		"rain" : 0,
		"cloudbase" : null,
		"flyability" : 100,
		"reason" : "",
		"timestamp" :1554789600
		},
	"2019-04-09T03:00:00-06:00" : {
		"windSpeed" : 2.7,
		"windDir" : 246,
		"rain" : 0,
		"cloudbase" : null,
		"flyability" : 100,
		"reason" : "",
		"timestamp" :1554800400
		},
	"2019-04-09T06:00:00-06:00" : {
		"windSpeed" : 3.3,
		"windDir" : 259,
		"rain" : 0,
		"cloudbase" : null,
		"flyability" : 100,
		"reason" : "",
		"timestamp" :1554811200
		},
	"2019-04-09T09:00:00-06:00" : {
		"windSpeed" : 4.1,
		"windDir" : 256,
		"rain" : 0,
		"cloudbase" : 8400,
		"flyability" : 100,
		"reason" : "",
		"timestamp" :1554822000
		},
	"2019-04-09T12:00:00-06:00" : {
		"windSpeed" : 4.3,
		"windDir" : 258,
		"rain" : 0,
		"cloudbase" : null,
		"flyability" : 100,
		"reason" : "",
		"timestamp" :1554832800
		},
	"2019-04-09T15:00:00-06:00" : {
		"windSpeed" : 3.7,
		"windDir" : 249,
		"rain" : 0,
		"cloudbase" : 7567.445,
		"flyability" : 100,
		"reason" : "",
		"timestamp" :1554843600
		},
	"2019-04-09T18:00:00-06:00" : {
		"windSpeed" : 2.9,
		"windDir" : 246,
		"rain" : 0,
		"cloudbase" : 5469.535,
		"flyability" : 100,
		"reason" : "",
		"timestamp" :1554854400
		},
	"2019-04-09T21:00:00-06:00" : {
		"windSpeed" : 2.8,
		"windDir" : 211,
		"rain" : 0,
		"cloudbase" : 4049.195,
		"flyability" : 0,
		"reason" : "cloudbase",
		"timestamp" :1554865200
		},
	"2019-04-10T00:00:00-06:00" : {
		"windSpeed" : 2.2,
		"windDir" : 224,
		"rain" : 0,
		"cloudbase" : null,
		"flyability" : 100,
		"reason" : "",
		"timestamp" :1554876000
		},
	"2019-04-10T03:00:00-06:00" : {
		"windSpeed" : 2.2,
		"windDir" : 241,
		"rain" : 0,
		"cloudbase" : null,
		"flyability" : 100,
		"reason" : "",
		"timestamp" :1554886800
		},
	"2019-04-10T06:00:00-06:00" : {
		"windSpeed" : 1.6,
		"windDir" : 223,
		"rain" : 0,
		"cloudbase" : null,
		"flyability" : 100,
		"reason" : "",
		"timestamp" :1554897600
		},
	"2019-04-10T09:00:00-06:00" : {
		"windSpeed" : 3.1,
		"windDir" : 208,
		"rain" : 0,
		"cloudbase" : null,
		"flyability" : 100,
		"reason" : "",
		"timestamp" :1554908400
		},
	"2019-04-10T12:00:00-06:00" : {
		"windSpeed" : 2.2,
		"windDir" : 127,
		"rain" : 0,
		"cloudbase" : 4050,
		"flyability" : 0,
		"reason" : "cloudbase",
		"timestamp" :1554919200
		},
	"2019-04-10T15:00:00-06:00" : {
		"windSpeed" : 1.9,
		"windDir" : 54,
		"rain" : 0,
		"cloudbase" : 391.49449999999,
		"flyability" : 0,
		"reason" : "cloudbase",
		"timestamp" :1554930000
		},
	"2019-04-10T18:00:00-06:00" : {
		"windSpeed" : 1.9,
		"windDir" : 14,
		"rain" : 0,
		"cloudbase" : 199.65099999999,
		"flyability" : 0,
		"reason" : "cloudbase",
		"timestamp" :1554940800
		},
	"2019-04-10T21:00:00-06:00" : {
		"windSpeed" : 2.8,
		"windDir" : 359,
		"rain" : 0,
		"cloudbase" : 85.305999999999,
		"flyability" : 0,
		"reason" : "cloudbase",
		"timestamp" :1554951600
		},
	"2019-04-11T00:00:00-06:00" : {
		"windSpeed" : 3.6,
		"windDir" : 333,
		"rain" : 0,
		"cloudbase" : 244.43499999999,
		"flyability" : 0,
		"reason" : "cloudbase",
		"timestamp" :1554962400
		},
	"2019-04-11T03:00:00-06:00" : {
		"windSpeed" : 4.5,
		"windDir" : 320,
		"rain" : 0,
		"cloudbase" : 238.40049999999,
		"flyability" : 0,
		"reason" : "cloudbase",
		"timestamp" :1554973200
		},
	"2019-04-11T06:00:00-06:00" : {
		"windSpeed" : 4.7,
		"windDir" : 313,
		"rain" : 0,
		"cloudbase" : 224.19949999998,
		"flyability" : 0,
		"reason" : "cloudbase",
		"timestamp" :1554984000
		},
	"2019-04-11T09:00:00-06:00" : {
		"windSpeed" : 5.8,
		"windDir" : 313,
		"rain" : 0,
		"cloudbase" : 335.61049999997,
		"flyability" : 0,
		"reason" : "windSpeed, cloudbase",
		"timestamp" :1554994800
		},
	"2019-04-11T12:00:00-06:00" : {
		"windSpeed" : 5.8,
		"windDir" : 319,
		"rain" : 0,
		"cloudbase" : 555.19999999998,
		"flyability" : 0,
		"reason" : "windSpeed, cloudbase",
		"timestamp" :1555005600
		},
	"2019-04-11T15:00:00-06:00" : {
		"windSpeed" : 5.5,
		"windDir" : 315,
		"rain" : 0,
		"cloudbase" : null,
		"flyability" : 0,
		"reason" : "windSpeed",
		"timestamp" :1555016400
		},
	"2019-04-11T18:00:00-06:00" : {
		"windSpeed" : 3.2,
		"windDir" : 313,
		"rain" : 0,
		"cloudbase" : 760,
		"flyability" : 0,
		"reason" : "cloudbase",
		"timestamp" :1555027200
		},
	"2019-04-11T21:00:00-06:00" : {
		"windSpeed" : 1.3,
		"windDir" : 303,
		"rain" : 0,
		"cloudbase" : null,
		"flyability" : 100,
		"reason" : "",
		"timestamp" :1555038000
		},
	"2019-04-12T00:00:00-06:00" : {
		"windSpeed" : 1.9,
		"windDir" : 277,
		"rain" : 0,
		"cloudbase" : null,
		"flyability" : 100,
		"reason" : "",
		"timestamp" :1555048800
		},
	"2019-04-12T03:00:00-06:00" : {
		"windSpeed" : 1.7,
		"windDir" : 272,
		"rain" : 0,
		"cloudbase" : 140,
		"flyability" : 0,
		"reason" : "cloudbase",
		"timestamp" :1555059600
		},
	"2019-04-12T06:00:00-06:00" : {
		"windSpeed" : 1.2,
		"windDir" : 262,
		"rain" : 0,
		"cloudbase" : null,
		"flyability" : 100,
		"reason" : "",
		"timestamp" :1555070400
		},
	"2019-04-12T09:00:00-06:00" : {
		"windSpeed" : 1.1,
		"windDir" : 118,
		"rain" : 0,
		"cloudbase" : null,
		"flyability" : 100,
		"reason" : "",
		"timestamp" :1555081200
		},
	"2019-04-12T12:00:00-06:00" : {
		"windSpeed" : 3,
		"windDir" : 130,
		"rain" : 0,
		"cloudbase" : 270,
		"flyability" : 0,
		"reason" : "cloudbase",
		"timestamp" :1555092000
		},
	"2019-04-12T15:00:00-06:00" : {
		"windSpeed" : 3,
		"windDir" : 117,
		"rain" : 0,
		"cloudbase" : 164.389,
		"flyability" : 0,
		"reason" : "cloudbase",
		"timestamp" :1555102800
		},
	"2019-04-12T18:00:00-06:00" : {
		"windSpeed" : 2.9,
		"windDir" : 98,
		"rain" : 0,
		"cloudbase" : 56.013999999995,
		"flyability" : 0,
		"reason" : "cloudbase",
		"timestamp" :1555113600
		}
	}
}