{
"site" : "Shaws Bank",
"id" : 21804,
"orientations" : "00000200",
"forecasts" : { 
	"2019-04-05T00:00:00-03:00" : {
		"windSpeed" : 13.6,
		"windDir" : 286,
		"rain" : 0,
		"cloudbase" : 6800,
		"flyability" : 0,
		"reason" : "windSpeed, windDir",
		"timestamp" :1554433200
		},
	"2019-04-05T03:00:00-03:00" : {
		"windSpeed" : 11.5,
		"windDir" : 283,
		"rain" : 0,
		"cloudbase" : null,
		"flyability" : 0,
		"reason" : "windSpeed, windDir",
		"timestamp" :1554444000
		},
	"2019-04-05T06:00:00-03:00" : {
		"windSpeed" : 11.8,
		"windDir" : 291,
		"rain" : 0,
		"cloudbase" : null,
		"flyability" : 0,
		"reason" : "windSpeed, windDir",
		"timestamp" :1554454800
		},
	"2019-04-05T09:00:00-03:00" : {
		"windSpeed" : 11.4,
		"windDir" : 294,
		"rain" : 0,
		"cloudbase" : null,
		"flyability" : 0,
		"reason" : "windSpeed, windDir",
		"timestamp" :1554465600
		},
	"2019-04-05T12:00:00-03:00" : {
		"windSpeed" : 10,
		"windDir" : 285,
		"rain" : 0,
		"cloudbase" : null,
		"flyability" : 0,
		"reason" : "windSpeed, windDir",
		"timestamp" :1554476400
		},
	"2019-04-05T15:00:00-03:00" : {
		"windSpeed" : 8.6,
		"windDir" : 293,
		"rain" : 0,
		"cloudbase" : null,
		"flyability" : 0,
		"reason" : "windSpeed, windDir",
		"timestamp" :1554487200
		},
	"2019-04-05T18:00:00-03:00" : {
		"windSpeed" : 6.2,
		"windDir" : 293,
		"rain" : 0,
		"cloudbase" : null,
		"flyability" : 0,
		"reason" : "windSpeed, windDir",
		"timestamp" :1554498000
		},
	"2019-04-05T21:00:00-03:00" : {
		"windSpeed" : 5.3,
		"windDir" : 254,
		"rain" : 0,
		"cloudbase" : null,
		"flyability" : 0,
		"reason" : "windSpeed, windDir",
		"timestamp" :1554508800
		},
	"2019-04-06T00:00:00-03:00" : {
		"windSpeed" : 5.2,
		"windDir" : 236,
		"rain" : 0,
		"cloudbase" : 6355.162,
		"flyability" : 0,
		"reason" : "windSpeed",
		"timestamp" :1554519600
		},
	"2019-04-06T03:00:00-03:00" : {
		"windSpeed" : 6.6,
		"windDir" : 219,
		"rain" : 0,
		"cloudbase" : 4921.376,
		"flyability" : 0,
		"reason" : "windSpeed",
		"timestamp" :1554530400
		},
	"2019-04-06T06:00:00-03:00" : {
		"windSpeed" : 6.2,
		"windDir" : 214,
		"rain" : 0,
		"cloudbase" : 2634.5595,
		"flyability" : 0,
		"reason" : "windSpeed",
		"timestamp" :1554541200
		},
	"2019-04-06T09:00:00-03:00" : {
		"windSpeed" : 7.1,
		"windDir" : 211,
		"rain" : 0,
		"cloudbase" : 1085.581,
		"flyability" : 0,
		"reason" : "windSpeed",
		"timestamp" :1554552000
		},
	"2019-04-06T12:00:00-03:00" : {
		"windSpeed" : 8.6,
		"windDir" : 226,
		"rain" : 1,
		"cloudbase" : 525.0938,
		"flyability" : 0,
		"reason" : "windSpeed, rain",
		"timestamp" :1554562800
		},
	"2019-04-06T15:00:00-03:00" : {
		"windSpeed" : 7.1,
		"windDir" : 231,
		"rain" : 1,
		"cloudbase" : 1069.6258,
		"flyability" : 0,
		"reason" : "windSpeed, rain",
		"timestamp" :1554573600
		},
	"2019-04-06T18:00:00-03:00" : {
		"windSpeed" : 5.6,
		"windDir" : 252,
		"rain" : 1,
		"cloudbase" : 381.9905,
		"flyability" : 0,
		"reason" : "windSpeed, windDir, rain",
		"timestamp" :1554584400
		},
	"2019-04-06T21:00:00-03:00" : {
		"windSpeed" : 4.7,
		"windDir" : 259,
		"rain" : 1,
		"cloudbase" : 1263.7905,
		"flyability" : 0,
		"reason" : "windDir, rain",
		"timestamp" :1554595200
		},
	"2019-04-07T00:00:00-03:00" : {
		"windSpeed" : 4,
		"windDir" : 300,
		"rain" : 0,
		"cloudbase" : null,
		"flyability" : 0,
		"reason" : "windDir",
		"timestamp" :1554606000
		},
	"2019-04-07T03:00:00-03:00" : {
		"windSpeed" : 4.1,
		"windDir" : 310,
		"rain" : 0,
		"cloudbase" : null,
		"flyability" : 0,
		"reason" : "windDir",
		"timestamp" :1554616800
		},
	"2019-04-07T06:00:00-03:00" : {
		"windSpeed" : 3.2,
		"windDir" : 280,
		"rain" : 0,
		"cloudbase" : null,
		"flyability" : 0,
		"reason" : "windDir",
		"timestamp" :1554627600
		},
	"2019-04-07T09:00:00-03:00" : {
		"windSpeed" : 4.5,
		"windDir" : 266,
		"rain" : 0,
		"cloudbase" : null,
		"flyability" : 0,
		"reason" : "windDir",
		"timestamp" :1554638400
		},
	"2019-04-07T12:00:00-03:00" : {
		"windSpeed" : 7,
		"windDir" : 292,
		"rain" : 0,
		"cloudbase" : null,
		"flyability" : 0,
		"reason" : "windSpeed, windDir",
		"timestamp" :1554649200
		},
	"2019-04-07T15:00:00-03:00" : {
		"windSpeed" : 6.9,
		"windDir" : 309,
		"rain" : 0,
		"cloudbase" : null,
		"flyability" : 0,
		"reason" : "windSpeed, windDir",
		"timestamp" :1554660000
		},
	"2019-04-07T18:00:00-03:00" : {
		"windSpeed" : 5.6,
		"windDir" : 352,
		"rain" : 0,
		"cloudbase" : 2200,
		"flyability" : 0,
		"reason" : "windSpeed, windDir",
		"timestamp" :1554670800
		},
	"2019-04-07T21:00:00-03:00" : {
		"windSpeed" : 7.2,
		"windDir" : 15,
		"rain" : 0,
		"cloudbase" : null,
		"flyability" : 0,
		"reason" : "windSpeed, windDir",
		"timestamp" :1554681600
		},
	"2019-04-08T00:00:00-03:00" : {
		"windSpeed" : 1.1,
		"windDir" : 37,
		"rain" : 0,
		"cloudbase" : 8199.681,
		"flyability" : 0,
		"reason" : "windDir",
		"timestamp" :1554692400
		},
	"2019-04-08T03:00:00-03:00" : {
		"windSpeed" : 2.8,
		"windDir" : 291,
		"rain" : 0,
		"cloudbase" : null,
		"flyability" : 0,
		"reason" : "windDir",
		"timestamp" :1554703200
		},
	"2019-04-08T06:00:00-03:00" : {
		"windSpeed" : 5.6,
		"windDir" : 348,
		"rain" : 0,
		"cloudbase" : null,
		"flyability" : 0,
		"reason" : "windSpeed, windDir",
		"timestamp" :1554714000
		},
	"2019-04-08T09:00:00-03:00" : {
		"windSpeed" : 3.1,
		"windDir" : 23,
		"rain" : 0,
		"cloudbase" : 5105.1849999999,
		"flyability" : 0,
		"reason" : "windDir",
		"timestamp" :1554724800
		},
	"2019-04-08T12:00:00-03:00" : {
		"windSpeed" : 4.2,
		"windDir" : 63,
		"rain" : 0,
		"cloudbase" : 3200,
		"flyability" : 0,
		"reason" : "windDir",
		"timestamp" :1554735600
		},
	"2019-04-08T15:00:00-03:00" : {
		"windSpeed" : 5.2,
		"windDir" : 136,
		"rain" : 0,
		"cloudbase" : 1980.5144999999,
		"flyability" : 0,
		"reason" : "windSpeed, windDir",
		"timestamp" :1554746400
		},
	"2019-04-08T18:00:00-03:00" : {
		"windSpeed" : 6.5,
		"windDir" : 96,
		"rain" : 0,
		"cloudbase" : 2350,
		"flyability" : 0,
		"reason" : "windSpeed, windDir",
		"timestamp" :1554757200
		},
	"2019-04-08T21:00:00-03:00" : {
		"windSpeed" : 7.6,
		"windDir" : 95,
		"rain" : 0,
		"cloudbase" : 1650,
		"flyability" : 0,
		"reason" : "windSpeed, windDir",
		"timestamp" :1554768000
		},
	"2019-04-09T00:00:00-03:00" : {
		"windSpeed" : 8.7,
		"windDir" : 92,
		"rain" : 0,
		"cloudbase" : 973.10000000002,
		"flyability" : 0,
		"reason" : "windSpeed, windDir",
		"timestamp" :1554778800
		},
	"2019-04-09T03:00:00-03:00" : {
		"windSpeed" : 8.6,
		"windDir" : 91,
		"rain" : 0,
		"cloudbase" : 429.96520000001,
		"flyability" : 0,
		"reason" : "windSpeed, windDir",
		"timestamp" :1554789600
		},
	"2019-04-09T06:00:00-03:00" : {
		"windSpeed" : 9.1,
		"windDir" : 88,
		"rain" : 0,
		"cloudbase" : 318.7,
		"flyability" : 0,
		"reason" : "windSpeed, windDir",
		"timestamp" :1554800400
		},
	"2019-04-09T09:00:00-03:00" : {
		"windSpeed" : 7.9,
		"windDir" : 70,
		"rain" : 0,
		"cloudbase" : 288.4481,
		"flyability" : 0,
		"reason" : "windSpeed, windDir",
		"timestamp" :1554811200
		},
	"2019-04-09T12:00:00-03:00" : {
		"windSpeed" : 6.5,
		"windDir" : 66,
		"rain" : 0,
		"cloudbase" : 385.5481,
		"flyability" : 0,
		"reason" : "windSpeed, windDir",
		"timestamp" :1554822000
		},
	"2019-04-09T15:00:00-03:00" : {
		"windSpeed" : 5.4,
		"windDir" : 42,
		"rain" : 0,
		"cloudbase" : 397.6219,
		"flyability" : 0,
		"reason" : "windSpeed, windDir",
		"timestamp" :1554832800
		},
	"2019-04-09T18:00:00-03:00" : {
		"windSpeed" : 5.7,
		"windDir" : 33,
		"rain" : 0,
		"cloudbase" : 310,
		"flyability" : 0,
		"reason" : "windSpeed, windDir",
		"timestamp" :1554843600
		},
	"2019-04-09T21:00:00-03:00" : {
		"windSpeed" : 5.8,
		"windDir" : 34,
		"rain" : 0,
		"cloudbase" : 388.4,
		"flyability" : 0,
		"reason" : "windSpeed, windDir",
		"timestamp" :1554854400
		},
	"2019-04-10T00:00:00-03:00" : {
		"windSpeed" : 3.9,
		"windDir" : 33,
		"rain" : 0,
		"cloudbase" : 600,
		"flyability" : 0,
		"reason" : "windDir",
		"timestamp" :1554865200
		},
	"2019-04-10T03:00:00-03:00" : {
		"windSpeed" : 2.9,
		"windDir" : 16,
		"rain" : 0,
		"cloudbase" : 611.6,
		"flyability" : 0,
		"reason" : "windDir",
		"timestamp" :1554876000
		},
	"2019-04-10T06:00:00-03:00" : {
		"windSpeed" : 2.7,
		"windDir" : 11,
		"rain" : 0,
		"cloudbase" : null,
		"flyability" : 0,
		"reason" : "windDir",
		"timestamp" :1554886800
		},
	"2019-04-10T09:00:00-03:00" : {
		"windSpeed" : 1.7,
		"windDir" : 343,
		"rain" : 0,
		"cloudbase" : null,
		"flyability" : 0,
		"reason" : "windDir",
		"timestamp" :1554897600
		},
	"2019-04-10T12:00:00-03:00" : {
		"windSpeed" : 3.5,
		"windDir" : 6,
		"rain" : 0,
		"cloudbase" : 919.7162,
		"flyability" : 0,
		"reason" : "windDir",
		"timestamp" :1554908400
		},
	"2019-04-10T15:00:00-03:00" : {
		"windSpeed" : 4.5,
		"windDir" : 360,
		"rain" : 0,
		"cloudbase" : null,
		"flyability" : 0,
		"reason" : "windDir",
		"timestamp" :1554919200
		},
	"2019-04-10T18:00:00-03:00" : {
		"windSpeed" : 3.8,
		"windDir" : 358,
		"rain" : 0,
		"cloudbase" : null,
		"flyability" : 0,
		"reason" : "windDir",
		"timestamp" :1554930000
		},
	"2019-04-10T21:00:00-03:00" : {
		"windSpeed" : 1.6,
		"windDir" : 19,
		"rain" : 0,
		"cloudbase" : 2700,
		"flyability" : 0,
		"reason" : "windDir",
		"timestamp" :1554940800
		}
	}
}