{
"site" : "Montagne de Ruy",
"id" : 21981,
"orientations" : "00000000",
"forecasts" : { 
	"2019-04-18T05:00:00+02:00" : {
		"windSpeed" : 1.4,
		"windDir" : 114,
		"rain" : 0,
		"cloudbase" : null,
		"flyability" : -50,
		"reason" : "orientationsUnknown",
		"timestamp" :1555560000
		},
	"2019-04-18T08:00:00+02:00" : {
		"windSpeed" : 1.1,
		"windDir" : 166,
		"rain" : 0,
		"cloudbase" : null,
		"flyability" : -50,
		"reason" : "orientationsUnknown",
		"timestamp" :1555570800
		},
	"2019-04-18T11:00:00+02:00" : {
		"windSpeed" : 2.3,
		"windDir" : 186,
		"rain" : 0,
		"cloudbase" : 11465.5,
		"flyability" : -50,
		"reason" : "orientationsUnknown",
		"timestamp" :1555581600
		},
	"2019-04-18T14:00:00+02:00" : {
		"windSpeed" : 4.4,
		"windDir" : 196,
		"rain" : 0,
		"cloudbase" : 10044.47857,
		"flyability" : -50,
		"reason" : "orientationsUnknown",
		"timestamp" :1555592400
		},
	"2019-04-18T17:00:00+02:00" : {
		"windSpeed" : 4.8,
		"windDir" : 205,
		"rain" : 0,
		"cloudbase" : 10479.19305,
		"flyability" : -50,
		"reason" : "orientationsUnknown",
		"timestamp" :1555603200
		},
	"2019-04-18T20:00:00+02:00" : {
		"windSpeed" : 2.2,
		"windDir" : 220,
		"rain" : 0,
		"cloudbase" : 7969.72112,
		"flyability" : -50,
		"reason" : "orientationsUnknown",
		"timestamp" :1555614000
		},
	"2019-04-18T23:00:00+02:00" : {
		"windSpeed" : 0.5,
		"windDir" : 98,
		"rain" : 0,
		"cloudbase" : 7760.39,
		"flyability" : -50,
		"reason" : "orientationsUnknown",
		"timestamp" :1555624800
		},
	"2019-04-19T02:00:00+02:00" : {
		"windSpeed" : 0.6,
		"windDir" : 48,
		"rain" : 0,
		"cloudbase" : 7927.39278,
		"flyability" : -50,
		"reason" : "orientationsUnknown",
		"timestamp" :1555635600
		},
	"2019-04-19T05:00:00+02:00" : {
		"windSpeed" : 0.3,
		"windDir" : 161,
		"rain" : 0,
		"cloudbase" : 7739.69,
		"flyability" : -50,
		"reason" : "orientationsUnknown",
		"timestamp" :1555646400
		},
	"2019-04-19T08:00:00+02:00" : {
		"windSpeed" : 0.8,
		"windDir" : 304,
		"rain" : 0,
		"cloudbase" : 7946.1552899999,
		"flyability" : -50,
		"reason" : "orientationsUnknown",
		"timestamp" :1555657200
		},
	"2019-04-19T11:00:00+02:00" : {
		"windSpeed" : 0.3,
		"windDir" : 168,
		"rain" : 0,
		"cloudbase" : 7913.59278,
		"flyability" : -50,
		"reason" : "orientationsUnknown",
		"timestamp" :1555668000
		},
	"2019-04-19T14:00:00+02:00" : {
		"windSpeed" : 1.7,
		"windDir" : 212,
		"rain" : 0,
		"cloudbase" : 7668.66556,
		"flyability" : -50,
		"reason" : "orientationsUnknown",
		"timestamp" :1555678800
		},
	"2019-04-19T17:00:00+02:00" : {
		"windSpeed" : 2.6,
		"windDir" : 241,
		"rain" : 0,
		"cloudbase" : null,
		"flyability" : -50,
		"reason" : "orientationsUnknown",
		"timestamp" :1555689600
		},
	"2019-04-19T20:00:00+02:00" : {
		"windSpeed" : 1.4,
		"windDir" : 249,
		"rain" : 0,
		"cloudbase" : null,
		"flyability" : -50,
		"reason" : "orientationsUnknown",
		"timestamp" :1555700400
		},
	"2019-04-19T23:00:00+02:00" : {
		"windSpeed" : 1.3,
		"windDir" : 258,
		"rain" : 0,
		"cloudbase" : null,
		"flyability" : -50,
		"reason" : "orientationsUnknown",
		"timestamp" :1555711200
		},
	"2019-04-20T02:00:00+02:00" : {
		"windSpeed" : 0.9,
		"windDir" : 35,
		"rain" : 0,
		"cloudbase" : null,
		"flyability" : -50,
		"reason" : "orientationsUnknown",
		"timestamp" :1555722000
		},
	"2019-04-20T05:00:00+02:00" : {
		"windSpeed" : 1.6,
		"windDir" : 28,
		"rain" : 0,
		"cloudbase" : 2750,
		"flyability" : -50,
		"reason" : "orientationsUnknown",
		"timestamp" :1555732800
		},
	"2019-04-20T08:00:00+02:00" : {
		"windSpeed" : 1.5,
		"windDir" : 54,
		"rain" : 1,
		"cloudbase" : 1800,
		"flyability" : -0,
		"reason" : "orientationsUnknown, rain",
		"timestamp" :1555743600
		},
	"2019-04-20T11:00:00+02:00" : {
		"windSpeed" : 1.2,
		"windDir" : 351,
		"rain" : 1,
		"cloudbase" : null,
		"flyability" : -0,
		"reason" : "orientationsUnknown, rain",
		"timestamp" :1555754400
		},
	"2019-04-20T14:00:00+02:00" : {
		"windSpeed" : 1.7,
		"windDir" : 280,
		"rain" : 1,
		"cloudbase" : 1450,
		"flyability" : -0,
		"reason" : "orientationsUnknown, rain",
		"timestamp" :1555765200
		},
	"2019-04-20T17:00:00+02:00" : {
		"windSpeed" : 1.8,
		"windDir" : 41,
		"rain" : 0,
		"cloudbase" : null,
		"flyability" : -50,
		"reason" : "orientationsUnknown",
		"timestamp" :1555776000
		},
	"2019-04-20T20:00:00+02:00" : {
		"windSpeed" : 1,
		"windDir" : 91,
		"rain" : 1,
		"cloudbase" : null,
		"flyability" : -0,
		"reason" : "orientationsUnknown, rain",
		"timestamp" :1555786800
		},
	"2019-04-20T23:00:00+02:00" : {
		"windSpeed" : 1.4,
		"windDir" : 163,
		"rain" : 0,
		"cloudbase" : 8990.44139,
		"flyability" : -50,
		"reason" : "orientationsUnknown",
		"timestamp" :1555797600
		},
	"2019-04-21T02:00:00+02:00" : {
		"windSpeed" : 0.8,
		"windDir" : 58,
		"rain" : 0,
		"cloudbase" : 7337.03139,
		"flyability" : -50,
		"reason" : "orientationsUnknown",
		"timestamp" :1555808400
		},
	"2019-04-21T05:00:00+02:00" : {
		"windSpeed" : 1.8,
		"windDir" : 77,
		"rain" : 0,
		"cloudbase" : 5927.39278,
		"flyability" : -50,
		"reason" : "orientationsUnknown",
		"timestamp" :1555819200
		},
	"2019-04-21T08:00:00+02:00" : {
		"windSpeed" : 1.3,
		"windDir" : 92,
		"rain" : 0,
		"cloudbase" : 4688.464305,
		"flyability" : -50,
		"reason" : "orientationsUnknown",
		"timestamp" :1555830000
		},
	"2019-04-21T11:00:00+02:00" : {
		"windSpeed" : 0.5,
		"windDir" : 85,
		"rain" : 0,
		"cloudbase" : 3579.393475,
		"flyability" : -50,
		"reason" : "orientationsUnknown",
		"timestamp" :1555840800
		},
	"2019-04-21T14:00:00+02:00" : {
		"windSpeed" : 1.9,
		"windDir" : 69,
		"rain" : 1,
		"cloudbase" : 3160.20639,
		"flyability" : -0,
		"reason" : "orientationsUnknown, rain",
		"timestamp" :1555851600
		},
	"2019-04-21T17:00:00+02:00" : {
		"windSpeed" : 1.8,
		"windDir" : 75,
		"rain" : 1,
		"cloudbase" : 8064.31807,
		"flyability" : -0,
		"reason" : "orientationsUnknown, rain",
		"timestamp" :1555862400
		},
	"2019-04-21T20:00:00+02:00" : {
		"windSpeed" : 1.9,
		"windDir" : 52,
		"rain" : 0,
		"cloudbase" : null,
		"flyability" : -50,
		"reason" : "orientationsUnknown",
		"timestamp" :1555873200
		},
	"2019-04-21T23:00:00+02:00" : {
		"windSpeed" : 2.4,
		"windDir" : 93,
		"rain" : 0,
		"cloudbase" : null,
		"flyability" : -50,
		"reason" : "orientationsUnknown",
		"timestamp" :1555884000
		},
	"2019-04-22T02:00:00+02:00" : {
		"windSpeed" : 2,
		"windDir" : 106,
		"rain" : 1,
		"cloudbase" : 5577.38251,
		"flyability" : -0,
		"reason" : "orientationsUnknown, rain",
		"timestamp" :1555894800
		},
	"2019-04-22T05:00:00+02:00" : {
		"windSpeed" : 2.3,
		"windDir" : 61,
		"rain" : 1,
		"cloudbase" : 4643.624305,
		"flyability" : -0,
		"reason" : "orientationsUnknown, rain",
		"timestamp" :1555905600
		},
	"2019-04-22T08:00:00+02:00" : {
		"windSpeed" : 1.6,
		"windDir" : 47,
		"rain" : 0,
		"cloudbase" : 7511.31583,
		"flyability" : -50,
		"reason" : "orientationsUnknown",
		"timestamp" :1555916400
		},
	"2019-04-22T11:00:00+02:00" : {
		"windSpeed" : 1.2,
		"windDir" : 350,
		"rain" : 1,
		"cloudbase" : 7972.48,
		"flyability" : -0,
		"reason" : "orientationsUnknown, rain",
		"timestamp" :1555927200
		},
	"2019-04-22T14:00:00+02:00" : {
		"windSpeed" : 2.1,
		"windDir" : 70,
		"rain" : 1,
		"cloudbase" : null,
		"flyability" : -0,
		"reason" : "orientationsUnknown, rain",
		"timestamp" :1555938000
		},
	"2019-04-22T17:00:00+02:00" : {
		"windSpeed" : 3.3,
		"windDir" : 112,
		"rain" : 0,
		"cloudbase" : 8109.5738600002,
		"flyability" : -50,
		"reason" : "orientationsUnknown",
		"timestamp" :1555948800
		},
	"2019-04-22T20:00:00+02:00" : {
		"windSpeed" : 3.6,
		"windDir" : 107,
		"rain" : 0,
		"cloudbase" : 5778.174595,
		"flyability" : -50,
		"reason" : "orientationsUnknown",
		"timestamp" :1555959600
		},
	"2019-04-22T23:00:00+02:00" : {
		"windSpeed" : 1.1,
		"windDir" : 121,
		"rain" : 1,
		"cloudbase" : 8125.89,
		"flyability" : -0,
		"reason" : "orientationsUnknown, rain",
		"timestamp" :1555970400
		},
	"2019-04-23T02:00:00+02:00" : {
		"windSpeed" : 2.7,
		"windDir" : 65,
		"rain" : 1,
		"cloudbase" : null,
		"flyability" : -0,
		"reason" : "orientationsUnknown, rain",
		"timestamp" :1555981200
		},
	"2019-04-23T05:00:00+02:00" : {
		"windSpeed" : 1.9,
		"windDir" : 71,
		"rain" : 0,
		"cloudbase" : null,
		"flyability" : -50,
		"reason" : "orientationsUnknown",
		"timestamp" :1555992000
		},
	"2019-04-23T08:00:00+02:00" : {
		"windSpeed" : 1.7,
		"windDir" : 50,
		"rain" : 1,
		"cloudbase" : null,
		"flyability" : -0,
		"reason" : "orientationsUnknown, rain",
		"timestamp" :1556002800
		},
	"2019-04-23T11:00:00+02:00" : {
		"windSpeed" : 1.4,
		"windDir" : 111,
		"rain" : 1,
		"cloudbase" : 9100.22749,
		"flyability" : -0,
		"reason" : "orientationsUnknown, rain",
		"timestamp" :1556013600
		},
	"2019-04-23T14:00:00+02:00" : {
		"windSpeed" : 1.3,
		"windDir" : 177,
		"rain" : 1,
		"cloudbase" : 2802.595,
		"flyability" : -0,
		"reason" : "orientationsUnknown, rain",
		"timestamp" :1556024400
		},
	"2019-04-23T17:00:00+02:00" : {
		"windSpeed" : 3.5,
		"windDir" : 148,
		"rain" : 1,
		"cloudbase" : 1534.35639,
		"flyability" : -0,
		"reason" : "orientationsUnknown, rain",
		"timestamp" :1556035200
		},
	"2019-04-23T20:00:00+02:00" : {
		"windSpeed" : 2.6,
		"windDir" : 149,
		"rain" : 0,
		"cloudbase" : null,
		"flyability" : -50,
		"reason" : "orientationsUnknown",
		"timestamp" :1556046000
		},
	"2019-04-23T23:00:00+02:00" : {
		"windSpeed" : 4.4,
		"windDir" : 137,
		"rain" : 1,
		"cloudbase" : 3100,
		"flyability" : -0,
		"reason" : "orientationsUnknown, rain",
		"timestamp" :1556056800
		},
	"2019-04-24T02:00:00+02:00" : {
		"windSpeed" : 5.3,
		"windDir" : 139,
		"rain" : 1,
		"cloudbase" : 1102.935695,
		"flyability" : -0,
		"reason" : "windSpeed, orientationsUnknown, rain",
		"timestamp" :1556067600
		}
	}
}