{
"site" : "Auron",
"id" : 2555,
"orientations" : "00002000",
"forecasts" : { 
	"2019-04-21T05:00:00+02:00" : {
		"windSpeed" : 2.6,
		"windDir" : 46,
		"rain" : 1,
		"cloudbase" : 2504.7366900001,
		"flyability" : 0,
		"reason" : "windDir, rain",
		"timestamp" :1555819200
		},
	"2019-04-21T08:00:00+02:00" : {
		"windSpeed" : 3.6,
		"windDir" : 44,
		"rain" : 1,
		"cloudbase" : 7033.82,
		"flyability" : 0,
		"reason" : "windDir, rain",
		"timestamp" :1555830000
		},
	"2019-04-21T11:00:00+02:00" : {
		"windSpeed" : 3.7,
		"windDir" : 60,
		"rain" : 1,
		"cloudbase" : 6191.81974,
		"flyability" : 0,
		"reason" : "windDir, rain",
		"timestamp" :1555840800
		},
	"2019-04-21T14:00:00+02:00" : {
		"windSpeed" : 3.6,
		"windDir" : 56,
		"rain" : 1,
		"cloudbase" : 4634.9313950005,
		"flyability" : 0,
		"reason" : "windDir, rain",
		"timestamp" :1555851600
		},
	"2019-04-21T17:00:00+02:00" : {
		"windSpeed" : 3.3,
		"windDir" : 56,
		"rain" : 1,
		"cloudbase" : 1777.128475,
		"flyability" : 0,
		"reason" : "windDir, rain, cloudbase",
		"timestamp" :1555862400
		},
	"2019-04-21T20:00:00+02:00" : {
		"windSpeed" : 1.7,
		"windDir" : 39,
		"rain" : 0,
		"cloudbase" : 8063.3,
		"flyability" : 0,
		"reason" : "windDir",
		"timestamp" :1555873200
		},
	"2019-04-21T23:00:00+02:00" : {
		"windSpeed" : 1.8,
		"windDir" : 28,
		"rain" : 0,
		"cloudbase" : 5723.35461,
		"flyability" : 0,
		"reason" : "windDir",
		"timestamp" :1555884000
		},
	"2019-04-22T02:00:00+02:00" : {
		"windSpeed" : 2.4,
		"windDir" : 35,
		"rain" : 0,
		"cloudbase" : 5565.1887700002,
		"flyability" : 0,
		"reason" : "windDir",
		"timestamp" :1555894800
		},
	"2019-04-22T05:00:00+02:00" : {
		"windSpeed" : 2.6,
		"windDir" : 36,
		"rain" : 0,
		"cloudbase" : 290,
		"flyability" : 0,
		"reason" : "windDir, cloudbase",
		"timestamp" :1555905600
		},
	"2019-04-22T08:00:00+02:00" : {
		"windSpeed" : 3.9,
		"windDir" : 38,
		"rain" : 0,
		"cloudbase" : 126.03335700002,
		"flyability" : 0,
		"reason" : "windDir, cloudbase",
		"timestamp" :1555916400
		},
	"2019-04-22T11:00:00+02:00" : {
		"windSpeed" : 4.5,
		"windDir" : 46,
		"rain" : 0,
		"cloudbase" : 400,
		"flyability" : 0,
		"reason" : "windDir, cloudbase",
		"timestamp" :1555927200
		},
	"2019-04-22T14:00:00+02:00" : {
		"windSpeed" : 4.7,
		"windDir" : 43,
		"rain" : 0,
		"cloudbase" : null,
		"flyability" : 0,
		"reason" : "windDir",
		"timestamp" :1555938000
		},
	"2019-04-22T17:00:00+02:00" : {
		"windSpeed" : 4.5,
		"windDir" : 46,
		"rain" : 0,
		"cloudbase" : 1974.4941590003,
		"flyability" : 0,
		"reason" : "windDir, cloudbase",
		"timestamp" :1555948800
		},
	"2019-04-22T20:00:00+02:00" : {
		"windSpeed" : 3.9,
		"windDir" : 41,
		"rain" : 0,
		"cloudbase" : 208.555409,
		"flyability" : 0,
		"reason" : "windDir, cloudbase",
		"timestamp" :1555959600
		},
	"2019-04-22T23:00:00+02:00" : {
		"windSpeed" : 3.1,
		"windDir" : 31,
		"rain" : 0,
		"cloudbase" : 622.49288900006,
		"flyability" : 0,
		"reason" : "windDir, cloudbase",
		"timestamp" :1555970400
		},
	"2019-04-23T02:00:00+02:00" : {
		"windSpeed" : 3.3,
		"windDir" : 38,
		"rain" : 0,
		"cloudbase" : 509.50813250005,
		"flyability" : 0,
		"reason" : "windDir, cloudbase",
		"timestamp" :1555981200
		},
	"2019-04-23T05:00:00+02:00" : {
		"windSpeed" : 2.6,
		"windDir" : 36,
		"rain" : 0,
		"cloudbase" : 760.90018199997,
		"flyability" : 0,
		"reason" : "windDir, cloudbase",
		"timestamp" :1555992000
		},
	"2019-04-23T08:00:00+02:00" : {
		"windSpeed" : 2.4,
		"windDir" : 40,
		"rain" : 0,
		"cloudbase" : 525.30537349999,
		"flyability" : 0,
		"reason" : "windDir, cloudbase",
		"timestamp" :1556002800
		},
	"2019-04-23T11:00:00+02:00" : {
		"windSpeed" : 2.7,
		"windDir" : 48,
		"rain" : 0,
		"cloudbase" : 744.35746100003,
		"flyability" : 0,
		"reason" : "windDir, cloudbase",
		"timestamp" :1556013600
		},
	"2019-04-23T14:00:00+02:00" : {
		"windSpeed" : 2.9,
		"windDir" : 59,
		"rain" : 1,
		"cloudbase" : 1654.5102599999,
		"flyability" : 0,
		"reason" : "windDir, rain, cloudbase",
		"timestamp" :1556024400
		},
	"2019-04-23T17:00:00+02:00" : {
		"windSpeed" : 2.3,
		"windDir" : 54,
		"rain" : 1,
		"cloudbase" : 775.43016550004,
		"flyability" : 0,
		"reason" : "windDir, rain, cloudbase",
		"timestamp" :1556035200
		},
	"2019-04-23T20:00:00+02:00" : {
		"windSpeed" : 1.6,
		"windDir" : 47,
		"rain" : 1,
		"cloudbase" : 525.46151299997,
		"flyability" : 0,
		"reason" : "windDir, rain, cloudbase",
		"timestamp" :1556046000
		},
	"2019-04-23T23:00:00+02:00" : {
		"windSpeed" : 0.9,
		"windDir" : 47,
		"rain" : 1,
		"cloudbase" : 158.01653899999,
		"flyability" : 0,
		"reason" : "windDir, rain, cloudbase",
		"timestamp" :1556056800
		},
	"2019-04-24T02:00:00+02:00" : {
		"windSpeed" : 1.3,
		"windDir" : 181,
		"rain" : 1,
		"cloudbase" : 42.628039000002,
		"flyability" : 0,
		"reason" : "rain, cloudbase",
		"timestamp" :1556067600
		},
	"2019-04-24T05:00:00+02:00" : {
		"windSpeed" : 1.6,
		"windDir" : 187,
		"rain" : 1,
		"cloudbase" : 30,
		"flyability" : 0,
		"reason" : "rain, cloudbase",
		"timestamp" :1556078400
		},
	"2019-04-24T08:00:00+02:00" : {
		"windSpeed" : 1.9,
		"windDir" : 161,
		"rain" : 1,
		"cloudbase" : 30,
		"flyability" : 0,
		"reason" : "rain, cloudbase",
		"timestamp" :1556089200
		},
	"2019-04-24T11:00:00+02:00" : {
		"windSpeed" : 2.1,
		"windDir" : 151,
		"rain" : 1,
		"cloudbase" : 30.331217499998,
		"flyability" : 0,
		"reason" : "windDir, rain, cloudbase",
		"timestamp" :1556100000
		},
	"2019-04-24T14:00:00+02:00" : {
		"windSpeed" : 3,
		"windDir" : 151,
		"rain" : 1,
		"cloudbase" : 35.306269500001,
		"flyability" : 0,
		"reason" : "windDir, rain, cloudbase",
		"timestamp" :1556110800
		},
	"2019-04-24T17:00:00+02:00" : {
		"windSpeed" : 3,
		"windDir" : 140,
		"rain" : 0,
		"cloudbase" : 59.624974,
		"flyability" : 0,
		"reason" : "windDir, cloudbase",
		"timestamp" :1556121600
		},
	"2019-04-24T20:00:00+02:00" : {
		"windSpeed" : 1.9,
		"windDir" : 201,
		"rain" : 0,
		"cloudbase" : 63.655973999998,
		"flyability" : 0,
		"reason" : "cloudbase",
		"timestamp" :1556132400
		},
	"2019-04-24T23:00:00+02:00" : {
		"windSpeed" : 0.5,
		"windDir" : 225,
		"rain" : 0,
		"cloudbase" : 30,
		"flyability" : 0,
		"reason" : "windDir, cloudbase",
		"timestamp" :1556143200
		},
	"2019-04-25T02:00:00+02:00" : {
		"windSpeed" : 0.8,
		"windDir" : 226,
		"rain" : 1,
		"cloudbase" : null,
		"flyability" : 0,
		"reason" : "windDir, rain",
		"timestamp" :1556154000
		},
	"2019-04-25T05:00:00+02:00" : {
		"windSpeed" : 2,
		"windDir" : 147,
		"rain" : 1,
		"cloudbase" : 6702.0548699999,
		"flyability" : 0,
		"reason" : "windDir, rain",
		"timestamp" :1556164800
		},
	"2019-04-25T08:00:00+02:00" : {
		"windSpeed" : 1.8,
		"windDir" : 124,
		"rain" : 1,
		"cloudbase" : 5871.84487,
		"flyability" : 0,
		"reason" : "windDir, rain",
		"timestamp" :1556175600
		},
	"2019-04-25T11:00:00+02:00" : {
		"windSpeed" : 2.2,
		"windDir" : 154,
		"rain" : 1,
		"cloudbase" : 6200,
		"flyability" : 0,
		"reason" : "windDir, rain",
		"timestamp" :1556186400
		},
	"2019-04-25T14:00:00+02:00" : {
		"windSpeed" : 3,
		"windDir" : 154,
		"rain" : 1,
		"cloudbase" : null,
		"flyability" : 0,
		"reason" : "windDir, rain",
		"timestamp" :1556197200
		},
	"2019-04-25T17:00:00+02:00" : {
		"windSpeed" : 2.6,
		"windDir" : 162,
		"rain" : 1,
		"cloudbase" : 7265.58513,
		"flyability" : 0,
		"reason" : "rain",
		"timestamp" :1556208000
		},
	"2019-04-25T20:00:00+02:00" : {
		"windSpeed" : 1.8,
		"windDir" : 164,
		"rain" : 0,
		"cloudbase" : 2350,
		"flyability" : 100,
		"reason" : "",
		"timestamp" :1556218800
		},
	"2019-04-25T23:00:00+02:00" : {
		"windSpeed" : 1.9,
		"windDir" : 154,
		"rain" : 0,
		"cloudbase" : 1081.9941419999,
		"flyability" : 0,
		"reason" : "windDir, cloudbase",
		"timestamp" :1556229600
		},
	"2019-04-26T02:00:00+02:00" : {
		"windSpeed" : 2.1,
		"windDir" : 158,
		"rain" : 0,
		"cloudbase" : 102.15692199999,
		"flyability" : 0,
		"reason" : "cloudbase",
		"timestamp" :1556240400
		},
	"2019-04-26T05:00:00+02:00" : {
		"windSpeed" : 2,
		"windDir" : 177,
		"rain" : 0,
		"cloudbase" : 35.637487,
		"flyability" : 0,
		"reason" : "cloudbase",
		"timestamp" :1556251200
		},
	"2019-04-26T08:00:00+02:00" : {
		"windSpeed" : 1.2,
		"windDir" : 198,
		"rain" : 0,
		"cloudbase" : 46.316269500002,
		"flyability" : 0,
		"reason" : "cloudbase",
		"timestamp" :1556262000
		},
	"2019-04-26T11:00:00+02:00" : {
		"windSpeed" : 2,
		"windDir" : 175,
		"rain" : 1,
		"cloudbase" : 30,
		"flyability" : 0,
		"reason" : "rain, cloudbase",
		"timestamp" :1556272800
		},
	"2019-04-26T14:00:00+02:00" : {
		"windSpeed" : 0.9,
		"windDir" : 269,
		"rain" : 1,
		"cloudbase" : 390,
		"flyability" : 0,
		"reason" : "windDir, rain, cloudbase",
		"timestamp" :1556283600
		},
	"2019-04-26T17:00:00+02:00" : {
		"windSpeed" : 2.2,
		"windDir" : 302,
		"rain" : 0,
		"cloudbase" : null,
		"flyability" : 0,
		"reason" : "windDir",
		"timestamp" :1556294400
		},
	"2019-04-26T20:00:00+02:00" : {
		"windSpeed" : 2.4,
		"windDir" : 320,
		"rain" : 1,
		"cloudbase" : null,
		"flyability" : 0,
		"reason" : "windDir, rain",
		"timestamp" :1556305200
		},
	"2019-04-26T23:00:00+02:00" : {
		"windSpeed" : 2.1,
		"windDir" : 331,
		"rain" : 1,
		"cloudbase" : null,
		"flyability" : 0,
		"reason" : "windDir, rain",
		"timestamp" :1556316000
		},
	"2019-04-27T02:00:00+02:00" : {
		"windSpeed" : 1.7,
		"windDir" : 343,
		"rain" : 0,
		"cloudbase" : null,
		"flyability" : 0,
		"reason" : "windDir",
		"timestamp" :1556326800
		}
	}
}