{
"site" : "Col de la core",
"id" : 2582,
"orientations" : "00000002",
"forecasts" : { 
	"2019-04-17T05:00:00+02:00" : {
		"windSpeed" : 3.7,
		"windDir" : 194,
		"rain" : 0,
		"cloudbase" : 30,
		"flyability" : 0,
		"reason" : "windDir",
		"timestamp" :1555473600
		},
	"2019-04-17T08:00:00+02:00" : {
		"windSpeed" : 4.2,
		"windDir" : 191,
		"rain" : 0,
		"cloudbase" : 7000,
		"flyability" : 0,
		"reason" : "windDir",
		"timestamp" :1555484400
		},
	"2019-04-17T11:00:00+02:00" : {
		"windSpeed" : 1.7,
		"windDir" : 181,
		"rain" : 0,
		"cloudbase" : null,
		"flyability" : 0,
		"reason" : "windDir",
		"timestamp" :1555495200
		},
	"2019-04-17T14:00:00+02:00" : {
		"windSpeed" : 1.4,
		"windDir" : 179,
		"rain" : 0,
		"cloudbase" : 6657.15,
		"flyability" : 0,
		"reason" : "windDir",
		"timestamp" :1555506000
		},
	"2019-04-17T17:00:00+02:00" : {
		"windSpeed" : 0.6,
		"windDir" : 165,
		"rain" : 0,
		"cloudbase" : 9002.24145,
		"flyability" : 0,
		"reason" : "windDir",
		"timestamp" :1555516800
		},
	"2019-04-17T20:00:00+02:00" : {
		"windSpeed" : 1.7,
		"windDir" : 175,
		"rain" : 0,
		"cloudbase" : 8232.35285,
		"flyability" : 0,
		"reason" : "windDir",
		"timestamp" :1555527600
		},
	"2019-04-17T23:00:00+02:00" : {
		"windSpeed" : 3.7,
		"windDir" : 195,
		"rain" : 0,
		"cloudbase" : 8494.07565,
		"flyability" : 0,
		"reason" : "windDir",
		"timestamp" :1555538400
		},
	"2019-04-18T02:00:00+02:00" : {
		"windSpeed" : 3.3,
		"windDir" : 197,
		"rain" : 0,
		"cloudbase" : 7157.15,
		"flyability" : 0,
		"reason" : "windDir",
		"timestamp" :1555549200
		},
	"2019-04-18T05:00:00+02:00" : {
		"windSpeed" : 3.6,
		"windDir" : 195,
		"rain" : 0,
		"cloudbase" : 6287.7443,
		"flyability" : 0,
		"reason" : "windDir",
		"timestamp" :1555560000
		},
	"2019-04-18T08:00:00+02:00" : {
		"windSpeed" : 4.1,
		"windDir" : 197,
		"rain" : 0,
		"cloudbase" : 7032.1556999999,
		"flyability" : 0,
		"reason" : "windDir",
		"timestamp" :1555570800
		},
	"2019-04-18T11:00:00+02:00" : {
		"windSpeed" : 0.9,
		"windDir" : 172,
		"rain" : 0,
		"cloudbase" : 5361.401425,
		"flyability" : 0,
		"reason" : "windDir",
		"timestamp" :1555581600
		},
	"2019-04-18T14:00:00+02:00" : {
		"windSpeed" : 1,
		"windDir" : 162,
		"rain" : 1,
		"cloudbase" : 4045.1479249999,
		"flyability" : 0,
		"reason" : "windDir, rain",
		"timestamp" :1555592400
		},
	"2019-04-18T17:00:00+02:00" : {
		"windSpeed" : 0.7,
		"windDir" : 95,
		"rain" : 1,
		"cloudbase" : 5557.15,
		"flyability" : 0,
		"reason" : "windDir, rain",
		"timestamp" :1555603200
		},
	"2019-04-18T20:00:00+02:00" : {
		"windSpeed" : 0.9,
		"windDir" : 215,
		"rain" : 0,
		"cloudbase" : 8322.2499999999,
		"flyability" : 0,
		"reason" : "windDir",
		"timestamp" :1555614000
		},
	"2019-04-18T23:00:00+02:00" : {
		"windSpeed" : 2.8,
		"windDir" : 196,
		"rain" : 0,
		"cloudbase" : 6606.06425,
		"flyability" : 0,
		"reason" : "windDir",
		"timestamp" :1555624800
		},
	"2019-04-19T02:00:00+02:00" : {
		"windSpeed" : 2.4,
		"windDir" : 196,
		"rain" : 0,
		"cloudbase" : 7827.24145,
		"flyability" : 0,
		"reason" : "windDir",
		"timestamp" :1555635600
		},
	"2019-04-19T05:00:00+02:00" : {
		"windSpeed" : 1.9,
		"windDir" : 210,
		"rain" : 0,
		"cloudbase" : 7265.16995,
		"flyability" : 0,
		"reason" : "windDir",
		"timestamp" :1555646400
		},
	"2019-04-19T08:00:00+02:00" : {
		"windSpeed" : 0.9,
		"windDir" : 190,
		"rain" : 0,
		"cloudbase" : 5294.85,
		"flyability" : 0,
		"reason" : "windDir",
		"timestamp" :1555657200
		},
	"2019-04-19T11:00:00+02:00" : {
		"windSpeed" : 0.4,
		"windDir" : 48,
		"rain" : 0,
		"cloudbase" : 5473.8299249998,
		"flyability" : 0,
		"reason" : "windDir",
		"timestamp" :1555668000
		},
	"2019-04-19T14:00:00+02:00" : {
		"windSpeed" : 1.6,
		"windDir" : 36,
		"rain" : 0,
		"cloudbase" : 6175.3556999999,
		"flyability" : 0,
		"reason" : "windDir",
		"timestamp" :1555678800
		},
	"2019-04-19T17:00:00+02:00" : {
		"windSpeed" : 1.9,
		"windDir" : 20,
		"rain" : 0,
		"cloudbase" : 11000,
		"flyability" : 0,
		"reason" : "windDir",
		"timestamp" :1555689600
		},
	"2019-04-19T20:00:00+02:00" : {
		"windSpeed" : 0.5,
		"windDir" : 177,
		"rain" : 0,
		"cloudbase" : 9477.54715,
		"flyability" : 0,
		"reason" : "windDir",
		"timestamp" :1555700400
		},
	"2019-04-19T23:00:00+02:00" : {
		"windSpeed" : 0.7,
		"windDir" : 220,
		"rain" : 0,
		"cloudbase" : 8480.6059500003,
		"flyability" : 0,
		"reason" : "windDir",
		"timestamp" :1555711200
		},
	"2019-04-20T02:00:00+02:00" : {
		"windSpeed" : 1,
		"windDir" : 217,
		"rain" : 0,
		"cloudbase" : 8381.5528499999,
		"flyability" : 0,
		"reason" : "windDir",
		"timestamp" :1555722000
		},
	"2019-04-20T05:00:00+02:00" : {
		"windSpeed" : 0.9,
		"windDir" : 257,
		"rain" : 0,
		"cloudbase" : 8271.64715,
		"flyability" : 0,
		"reason" : "windDir",
		"timestamp" :1555732800
		},
	"2019-04-20T08:00:00+02:00" : {
		"windSpeed" : 0.8,
		"windDir" : 246,
		"rain" : 0,
		"cloudbase" : 8400,
		"flyability" : 0,
		"reason" : "windDir",
		"timestamp" :1555743600
		},
	"2019-04-20T11:00:00+02:00" : {
		"windSpeed" : 1.5,
		"windDir" : 31,
		"rain" : 0,
		"cloudbase" : 9230.5613999999,
		"flyability" : 0,
		"reason" : "windDir",
		"timestamp" :1555754400
		},
	"2019-04-20T14:00:00+02:00" : {
		"windSpeed" : 2.1,
		"windDir" : 37,
		"rain" : 0,
		"cloudbase" : 6280.15,
		"flyability" : 0,
		"reason" : "windDir",
		"timestamp" :1555765200
		},
	"2019-04-20T17:00:00+02:00" : {
		"windSpeed" : 1.9,
		"windDir" : 14,
		"rain" : 0,
		"cloudbase" : 8015.05,
		"flyability" : 0,
		"reason" : "windDir",
		"timestamp" :1555776000
		},
	"2019-04-20T20:00:00+02:00" : {
		"windSpeed" : 0.5,
		"windDir" : 250,
		"rain" : 0,
		"cloudbase" : 7406.35,
		"flyability" : 0,
		"reason" : "windDir",
		"timestamp" :1555786800
		},
	"2019-04-20T23:00:00+02:00" : {
		"windSpeed" : 1.1,
		"windDir" : 205,
		"rain" : 1,
		"cloudbase" : 3272.1664499993,
		"flyability" : 0,
		"reason" : "windDir, rain",
		"timestamp" :1555797600
		},
	"2019-04-21T02:00:00+02:00" : {
		"windSpeed" : 1.3,
		"windDir" : 201,
		"rain" : 1,
		"cloudbase" : 4323.3187749997,
		"flyability" : 0,
		"reason" : "windDir, rain",
		"timestamp" :1555808400
		},
	"2019-04-21T05:00:00+02:00" : {
		"windSpeed" : 0.9,
		"windDir" : 181,
		"rain" : 1,
		"cloudbase" : 2419.790025,
		"flyability" : 0,
		"reason" : "windDir, rain",
		"timestamp" :1555819200
		},
	"2019-04-21T08:00:00+02:00" : {
		"windSpeed" : 0.5,
		"windDir" : 182,
		"rain" : 1,
		"cloudbase" : 3185.626425,
		"flyability" : 0,
		"reason" : "windDir, rain",
		"timestamp" :1555830000
		},
	"2019-04-21T11:00:00+02:00" : {
		"windSpeed" : 0.8,
		"windDir" : 13,
		"rain" : 0,
		"cloudbase" : 2569.351425,
		"flyability" : 0,
		"reason" : "windDir",
		"timestamp" :1555840800
		},
	"2019-04-21T14:00:00+02:00" : {
		"windSpeed" : 1.9,
		"windDir" : 48,
		"rain" : 1,
		"cloudbase" : 3847.8686499999,
		"flyability" : 0,
		"reason" : "windDir, rain",
		"timestamp" :1555851600
		},
	"2019-04-21T17:00:00+02:00" : {
		"windSpeed" : 1.4,
		"windDir" : 26,
		"rain" : 1,
		"cloudbase" : 6987.7443,
		"flyability" : 0,
		"reason" : "windDir, rain",
		"timestamp" :1555862400
		},
	"2019-04-21T20:00:00+02:00" : {
		"windSpeed" : 0.8,
		"windDir" : 347,
		"rain" : 1,
		"cloudbase" : 7464.1528499999,
		"flyability" : 0,
		"reason" : "windDir, rain",
		"timestamp" :1555873200
		},
	"2019-04-21T23:00:00+02:00" : {
		"windSpeed" : 0.7,
		"windDir" : 223,
		"rain" : 1,
		"cloudbase" : 7373.0499999999,
		"flyability" : 0,
		"reason" : "windDir, rain",
		"timestamp" :1555884000
		},
	"2019-04-22T02:00:00+02:00" : {
		"windSpeed" : 0.9,
		"windDir" : 234,
		"rain" : 1,
		"cloudbase" : 9000,
		"flyability" : 0,
		"reason" : "windDir, rain",
		"timestamp" :1555894800
		},
	"2019-04-22T05:00:00+02:00" : {
		"windSpeed" : 0.4,
		"windDir" : 209,
		"rain" : 0,
		"cloudbase" : 8865.1,
		"flyability" : 0,
		"reason" : "windDir",
		"timestamp" :1555905600
		},
	"2019-04-22T08:00:00+02:00" : {
		"windSpeed" : 0.3,
		"windDir" : 206,
		"rain" : 0,
		"cloudbase" : 6398.1670100004,
		"flyability" : 0,
		"reason" : "windDir",
		"timestamp" :1555916400
		},
	"2019-04-22T11:00:00+02:00" : {
		"windSpeed" : 0.7,
		"windDir" : 44,
		"rain" : 1,
		"cloudbase" : 5040.9393450008,
		"flyability" : 0,
		"reason" : "windDir, rain",
		"timestamp" :1555927200
		},
	"2019-04-22T14:00:00+02:00" : {
		"windSpeed" : 1.4,
		"windDir" : 9,
		"rain" : 0,
		"cloudbase" : 5197.0102250007,
		"flyability" : 0,
		"reason" : "windDir",
		"timestamp" :1555938000
		},
	"2019-04-22T17:00:00+02:00" : {
		"windSpeed" : 1.6,
		"windDir" : 328,
		"rain" : 0,
		"cloudbase" : 5684.4918250005,
		"flyability" : 100,
		"reason" : "",
		"timestamp" :1555948800
		},
	"2019-04-22T20:00:00+02:00" : {
		"windSpeed" : 1.4,
		"windDir" : 324,
		"rain" : 1,
		"cloudbase" : 3495.7240149999,
		"flyability" : 0,
		"reason" : "rain",
		"timestamp" :1555959600
		},
	"2019-04-22T23:00:00+02:00" : {
		"windSpeed" : 0.5,
		"windDir" : 287,
		"rain" : 1,
		"cloudbase" : 3586.3286249999,
		"flyability" : 0,
		"reason" : "windDir, rain",
		"timestamp" :1555970400
		},
	"2019-04-23T02:00:00+02:00" : {
		"windSpeed" : 0.8,
		"windDir" : 214,
		"rain" : 1,
		"cloudbase" : null,
		"flyability" : 0,
		"reason" : "windDir, rain",
		"timestamp" :1555981200
		}
	}
}