{
"site" : "Millau - Brunas",
"id" : 2597,
"orientations" : "20000002",
"forecasts" : { 
	"2019-04-21T05:00:00+02:00" : {
		"windSpeed" : 2,
		"windDir" : 19,
		"rain" : 1,
		"cloudbase" : 3047.86424,
		"flyability" : 0,
		"reason" : "rain",
		"timestamp" :1555819200
		},
	"2019-04-21T08:00:00+02:00" : {
		"windSpeed" : 3.3,
		"windDir" : 37,
		"rain" : 1,
		"cloudbase" : 3020.34886,
		"flyability" : 0,
		"reason" : "windDir, rain",
		"timestamp" :1555830000
		},
	"2019-04-21T11:00:00+02:00" : {
		"windSpeed" : 3,
		"windDir" : 36,
		"rain" : 1,
		"cloudbase" : 3747.3081,
		"flyability" : 0,
		"reason" : "windDir, rain",
		"timestamp" :1555840800
		},
	"2019-04-21T14:00:00+02:00" : {
		"windSpeed" : 5.4,
		"windDir" : 108,
		"rain" : 1,
		"cloudbase" : 1429.9781,
		"flyability" : 0,
		"reason" : "windSpeed, windDir, rain",
		"timestamp" :1555851600
		},
	"2019-04-21T17:00:00+02:00" : {
		"windSpeed" : 2.6,
		"windDir" : 89,
		"rain" : 1,
		"cloudbase" : 2327.29924,
		"flyability" : 0,
		"reason" : "windDir, rain",
		"timestamp" :1555862400
		},
	"2019-04-21T20:00:00+02:00" : {
		"windSpeed" : 1.2,
		"windDir" : 66,
		"rain" : 0,
		"cloudbase" : 6900.4198599994,
		"flyability" : 0,
		"reason" : "windDir",
		"timestamp" :1555873200
		},
	"2019-04-21T23:00:00+02:00" : {
		"windSpeed" : 1.8,
		"windDir" : 55,
		"rain" : 0,
		"cloudbase" : 9000.49924,
		"flyability" : 0,
		"reason" : "windDir",
		"timestamp" :1555884000
		},
	"2019-04-22T02:00:00+02:00" : {
		"windSpeed" : 2.3,
		"windDir" : 64,
		"rain" : 0,
		"cloudbase" : null,
		"flyability" : 0,
		"reason" : "windDir",
		"timestamp" :1555894800
		},
	"2019-04-22T05:00:00+02:00" : {
		"windSpeed" : 2.8,
		"windDir" : 33,
		"rain" : 0,
		"cloudbase" : 7700,
		"flyability" : 0,
		"reason" : "windDir",
		"timestamp" :1555905600
		},
	"2019-04-22T08:00:00+02:00" : {
		"windSpeed" : 2.6,
		"windDir" : 33,
		"rain" : 1,
		"cloudbase" : 8889.87152,
		"flyability" : 0,
		"reason" : "windDir, rain",
		"timestamp" :1555916400
		},
	"2019-04-22T11:00:00+02:00" : {
		"windSpeed" : 3.9,
		"windDir" : 101,
		"rain" : 1,
		"cloudbase" : 8036.42924,
		"flyability" : 0,
		"reason" : "windDir, rain",
		"timestamp" :1555927200
		},
	"2019-04-22T14:00:00+02:00" : {
		"windSpeed" : 4.9,
		"windDir" : 126,
		"rain" : 1,
		"cloudbase" : 7700,
		"flyability" : 0,
		"reason" : "windDir, rain",
		"timestamp" :1555938000
		},
	"2019-04-22T17:00:00+02:00" : {
		"windSpeed" : 3.8,
		"windDir" : 124,
		"rain" : 1,
		"cloudbase" : 2950,
		"flyability" : 0,
		"reason" : "windDir, rain",
		"timestamp" :1555948800
		},
	"2019-04-22T20:00:00+02:00" : {
		"windSpeed" : 2.7,
		"windDir" : 165,
		"rain" : 0,
		"cloudbase" : 7867.9300000001,
		"flyability" : 0,
		"reason" : "windDir",
		"timestamp" :1555959600
		},
	"2019-04-22T23:00:00+02:00" : {
		"windSpeed" : 2.7,
		"windDir" : 125,
		"rain" : 0,
		"cloudbase" : 6134.5900000001,
		"flyability" : 0,
		"reason" : "windDir",
		"timestamp" :1555970400
		},
	"2019-04-23T02:00:00+02:00" : {
		"windSpeed" : 1.5,
		"windDir" : 64,
		"rain" : 1,
		"cloudbase" : 1359.37962,
		"flyability" : 0,
		"reason" : "windDir, rain",
		"timestamp" :1555981200
		},
	"2019-04-23T05:00:00+02:00" : {
		"windSpeed" : 1.5,
		"windDir" : 56,
		"rain" : 0,
		"cloudbase" : 2873.6682199997,
		"flyability" : 0,
		"reason" : "windDir",
		"timestamp" :1555992000
		},
	"2019-04-23T08:00:00+02:00" : {
		"windSpeed" : 3.3,
		"windDir" : 100,
		"rain" : 0,
		"cloudbase" : 7472.85848,
		"flyability" : 0,
		"reason" : "windDir",
		"timestamp" :1556002800
		},
	"2019-04-23T11:00:00+02:00" : {
		"windSpeed" : 6.1,
		"windDir" : 121,
		"rain" : 0,
		"cloudbase" : 4022.4690999994,
		"flyability" : 0,
		"reason" : "windSpeed, windDir",
		"timestamp" :1556013600
		},
	"2019-04-23T14:00:00+02:00" : {
		"windSpeed" : 4.7,
		"windDir" : 117,
		"rain" : 1,
		"cloudbase" : 3250,
		"flyability" : 0,
		"reason" : "windDir, rain",
		"timestamp" :1556024400
		},
	"2019-04-23T17:00:00+02:00" : {
		"windSpeed" : 3.2,
		"windDir" : 105,
		"rain" : 1,
		"cloudbase" : 1135.7435400001,
		"flyability" : 0,
		"reason" : "windDir, rain",
		"timestamp" :1556035200
		},
	"2019-04-23T20:00:00+02:00" : {
		"windSpeed" : 4.3,
		"windDir" : 110,
		"rain" : 1,
		"cloudbase" : 620,
		"flyability" : 0,
		"reason" : "windDir, rain, cloudbase",
		"timestamp" :1556046000
		},
	"2019-04-23T23:00:00+02:00" : {
		"windSpeed" : 4.8,
		"windDir" : 119,
		"rain" : 1,
		"cloudbase" : 391.454632,
		"flyability" : 0,
		"reason" : "windDir, rain, cloudbase",
		"timestamp" :1556056800
		},
	"2019-04-24T02:00:00+02:00" : {
		"windSpeed" : 6.7,
		"windDir" : 136,
		"rain" : 1,
		"cloudbase" : 40.079424000003,
		"flyability" : 0,
		"reason" : "windSpeed, windDir, rain, cloudbase",
		"timestamp" :1556067600
		},
	"2019-04-24T05:00:00+02:00" : {
		"windSpeed" : 7,
		"windDir" : 138,
		"rain" : 1,
		"cloudbase" : 30,
		"flyability" : 0,
		"reason" : "windSpeed, windDir, rain, cloudbase",
		"timestamp" :1556078400
		},
	"2019-04-24T08:00:00+02:00" : {
		"windSpeed" : 6.1,
		"windDir" : 155,
		"rain" : 1,
		"cloudbase" : 207.25407600003,
		"flyability" : 0,
		"reason" : "windSpeed, windDir, rain, cloudbase",
		"timestamp" :1556089200
		},
	"2019-04-24T11:00:00+02:00" : {
		"windSpeed" : 3.9,
		"windDir" : 162,
		"rain" : 1,
		"cloudbase" : 1752.0044819993,
		"flyability" : 0,
		"reason" : "windDir, rain",
		"timestamp" :1556100000
		},
	"2019-04-24T14:00:00+02:00" : {
		"windSpeed" : 8.1,
		"windDir" : 166,
		"rain" : 1,
		"cloudbase" : 4300,
		"flyability" : 0,
		"reason" : "windSpeed, windDir, rain",
		"timestamp" :1556110800
		},
	"2019-04-24T17:00:00+02:00" : {
		"windSpeed" : 5.9,
		"windDir" : 148,
		"rain" : 0,
		"cloudbase" : null,
		"flyability" : 0,
		"reason" : "windSpeed, windDir",
		"timestamp" :1556121600
		},
	"2019-04-24T20:00:00+02:00" : {
		"windSpeed" : 5.7,
		"windDir" : 134,
		"rain" : 1,
		"cloudbase" : null,
		"flyability" : 0,
		"reason" : "windSpeed, windDir, rain",
		"timestamp" :1556132400
		},
	"2019-04-24T23:00:00+02:00" : {
		"windSpeed" : 5.9,
		"windDir" : 120,
		"rain" : 0,
		"cloudbase" : 95,
		"flyability" : 0,
		"reason" : "windSpeed, windDir, cloudbase",
		"timestamp" :1556143200
		},
	"2019-04-25T02:00:00+02:00" : {
		"windSpeed" : 8.1,
		"windDir" : 128,
		"rain" : 0,
		"cloudbase" : 1950,
		"flyability" : 0,
		"reason" : "windSpeed, windDir",
		"timestamp" :1556154000
		},
	"2019-04-25T05:00:00+02:00" : {
		"windSpeed" : 8.1,
		"windDir" : 137,
		"rain" : 0,
		"cloudbase" : 3710.4798000002,
		"flyability" : 0,
		"reason" : "windSpeed, windDir",
		"timestamp" :1556164800
		},
	"2019-04-25T08:00:00+02:00" : {
		"windSpeed" : 8.4,
		"windDir" : 143,
		"rain" : 1,
		"cloudbase" : 157.68762000001,
		"flyability" : 0,
		"reason" : "windSpeed, windDir, rain, cloudbase",
		"timestamp" :1556175600
		},
	"2019-04-25T11:00:00+02:00" : {
		"windSpeed" : 9.1,
		"windDir" : 144,
		"rain" : 1,
		"cloudbase" : 325.67769600001,
		"flyability" : 0,
		"reason" : "windSpeed, windDir, rain, cloudbase",
		"timestamp" :1556186400
		},
	"2019-04-25T14:00:00+02:00" : {
		"windSpeed" : 7.6,
		"windDir" : 154,
		"rain" : 1,
		"cloudbase" : 451.84362000005,
		"flyability" : 0,
		"reason" : "windSpeed, windDir, rain, cloudbase",
		"timestamp" :1556197200
		},
	"2019-04-25T17:00:00+02:00" : {
		"windSpeed" : 2.4,
		"windDir" : 190,
		"rain" : 1,
		"cloudbase" : 514.73300000006,
		"flyability" : 0,
		"reason" : "windDir, rain, cloudbase",
		"timestamp" :1556208000
		},
	"2019-04-25T20:00:00+02:00" : {
		"windSpeed" : 1.1,
		"windDir" : 249,
		"rain" : 0,
		"cloudbase" : 123.90188599999,
		"flyability" : 0,
		"reason" : "windDir, cloudbase",
		"timestamp" :1556218800
		},
	"2019-04-25T23:00:00+02:00" : {
		"windSpeed" : 1.1,
		"windDir" : 57,
		"rain" : 1,
		"cloudbase" : 110,
		"flyability" : 0,
		"reason" : "windDir, rain, cloudbase",
		"timestamp" :1556229600
		},
	"2019-04-26T02:00:00+02:00" : {
		"windSpeed" : 1.2,
		"windDir" : 65,
		"rain" : 0,
		"cloudbase" : 30,
		"flyability" : 0,
		"reason" : "windDir, cloudbase",
		"timestamp" :1556240400
		},
	"2019-04-26T05:00:00+02:00" : {
		"windSpeed" : 1.2,
		"windDir" : 312,
		"rain" : 0,
		"cloudbase" : 460,
		"flyability" : 0,
		"reason" : "cloudbase",
		"timestamp" :1556251200
		},
	"2019-04-26T08:00:00+02:00" : {
		"windSpeed" : 1.1,
		"windDir" : 248,
		"rain" : 1,
		"cloudbase" : 5100,
		"flyability" : 0,
		"reason" : "windDir, rain",
		"timestamp" :1556262000
		},
	"2019-04-26T11:00:00+02:00" : {
		"windSpeed" : 4.5,
		"windDir" : 303,
		"rain" : 1,
		"cloudbase" : null,
		"flyability" : 0,
		"reason" : "rain",
		"timestamp" :1556272800
		},
	"2019-04-26T14:00:00+02:00" : {
		"windSpeed" : 5.1,
		"windDir" : 286,
		"rain" : 1,
		"cloudbase" : null,
		"flyability" : 0,
		"reason" : "windSpeed, windDir, rain",
		"timestamp" :1556283600
		},
	"2019-04-26T17:00:00+02:00" : {
		"windSpeed" : 6.1,
		"windDir" : 278,
		"rain" : 0,
		"cloudbase" : null,
		"flyability" : 0,
		"reason" : "windSpeed, windDir",
		"timestamp" :1556294400
		},
	"2019-04-26T20:00:00+02:00" : {
		"windSpeed" : 4.1,
		"windDir" : 279,
		"rain" : 1,
		"cloudbase" : 2350,
		"flyability" : 0,
		"reason" : "windDir, rain",
		"timestamp" :1556305200
		},
	"2019-04-26T23:00:00+02:00" : {
		"windSpeed" : 1.7,
		"windDir" : 307,
		"rain" : 1,
		"cloudbase" : null,
		"flyability" : 0,
		"reason" : "rain",
		"timestamp" :1556316000
		},
	"2019-04-27T02:00:00+02:00" : {
		"windSpeed" : 2.3,
		"windDir" : 301,
		"rain" : 0,
		"cloudbase" : 9100,
		"flyability" : 100,
		"reason" : "",
		"timestamp" :1556326800
		}
	}
}