{
"site" : "Rosemont",
"id" : 2704,
"orientations" : "00002220",
"forecasts" : { 
	"2019-04-07T05:00:00+02:00" : {
		"windSpeed" : 2.7,
		"windDir" : 217,
		"rain" : 1,
		"cloudbase" : 3830.65,
		"flyability" : 0,
		"reason" : "rain",
		"timestamp" :1554609600
		},
	"2019-04-07T08:00:00+02:00" : {
		"windSpeed" : 2.6,
		"windDir" : 194,
		"rain" : 1,
		"cloudbase" : 1890.6,
		"flyability" : 0,
		"reason" : "rain",
		"timestamp" :1554620400
		},
	"2019-04-07T11:00:00+02:00" : {
		"windSpeed" : 2.2,
		"windDir" : 207,
		"rain" : 1,
		"cloudbase" : 1780.2,
		"flyability" : 0,
		"reason" : "rain",
		"timestamp" :1554631200
		},
	"2019-04-07T14:00:00+02:00" : {
		"windSpeed" : 1.9,
		"windDir" : 231,
		"rain" : 1,
		"cloudbase" : 1022.93,
		"flyability" : 0,
		"reason" : "rain",
		"timestamp" :1554642000
		},
	"2019-04-07T17:00:00+02:00" : {
		"windSpeed" : 1.8,
		"windDir" : 246,
		"rain" : 1,
		"cloudbase" : 866.04,
		"flyability" : 0,
		"reason" : "rain",
		"timestamp" :1554652800
		},
	"2019-04-07T20:00:00+02:00" : {
		"windSpeed" : 2,
		"windDir" : 215,
		"rain" : 1,
		"cloudbase" : 860,
		"flyability" : 0,
		"reason" : "rain",
		"timestamp" :1554663600
		},
	"2019-04-07T23:00:00+02:00" : {
		"windSpeed" : 2.4,
		"windDir" : 208,
		"rain" : 1,
		"cloudbase" : 721.7,
		"flyability" : 0,
		"reason" : "rain",
		"timestamp" :1554674400
		},
	"2019-04-08T02:00:00+02:00" : {
		"windSpeed" : 2.9,
		"windDir" : 211,
		"rain" : 1,
		"cloudbase" : 884.34,
		"flyability" : 0,
		"reason" : "rain",
		"timestamp" :1554685200
		},
	"2019-04-08T05:00:00+02:00" : {
		"windSpeed" : 2.8,
		"windDir" : 223,
		"rain" : 1,
		"cloudbase" : 788.68,
		"flyability" : 0,
		"reason" : "rain",
		"timestamp" :1554696000
		},
	"2019-04-08T08:00:00+02:00" : {
		"windSpeed" : 3,
		"windDir" : 213,
		"rain" : 1,
		"cloudbase" : 786.04,
		"flyability" : 0,
		"reason" : "rain",
		"timestamp" :1554706800
		},
	"2019-04-08T11:00:00+02:00" : {
		"windSpeed" : 3.4,
		"windDir" : 242,
		"rain" : 1,
		"cloudbase" : 1108.77,
		"flyability" : 0,
		"reason" : "rain",
		"timestamp" :1554717600
		},
	"2019-04-08T14:00:00+02:00" : {
		"windSpeed" : 2,
		"windDir" : 267,
		"rain" : 1,
		"cloudbase" : 671.32,
		"flyability" : 0,
		"reason" : "rain",
		"timestamp" :1554728400
		},
	"2019-04-08T17:00:00+02:00" : {
		"windSpeed" : 1,
		"windDir" : 322,
		"rain" : 0,
		"cloudbase" : 1013.11,
		"flyability" : 0,
		"reason" : "windDir",
		"timestamp" :1554739200
		},
	"2019-04-08T20:00:00+02:00" : {
		"windSpeed" : 1.5,
		"windDir" : 340,
		"rain" : 0,
		"cloudbase" : 1100,
		"flyability" : 0,
		"reason" : "windDir",
		"timestamp" :1554750000
		},
	"2019-04-08T23:00:00+02:00" : {
		"windSpeed" : 1,
		"windDir" : 119,
		"rain" : 0,
		"cloudbase" : 1200,
		"flyability" : 0,
		"reason" : "windDir",
		"timestamp" :1554760800
		},
	"2019-04-09T02:00:00+02:00" : {
		"windSpeed" : 1.3,
		"windDir" : 142,
		"rain" : 0,
		"cloudbase" : 6269.8,
		"flyability" : 0,
		"reason" : "windDir",
		"timestamp" :1554771600
		},
	"2019-04-09T05:00:00+02:00" : {
		"windSpeed" : 1.3,
		"windDir" : 138,
		"rain" : 0,
		"cloudbase" : null,
		"flyability" : 0,
		"reason" : "windDir",
		"timestamp" :1554782400
		},
	"2019-04-09T08:00:00+02:00" : {
		"windSpeed" : 1.3,
		"windDir" : 142,
		"rain" : 0,
		"cloudbase" : 1050,
		"flyability" : 0,
		"reason" : "windDir",
		"timestamp" :1554793200
		},
	"2019-04-09T11:00:00+02:00" : {
		"windSpeed" : 1.7,
		"windDir" : 324,
		"rain" : 1,
		"cloudbase" : 1452.35,
		"flyability" : 0,
		"reason" : "windDir, rain",
		"timestamp" :1554804000
		},
	"2019-04-09T14:00:00+02:00" : {
		"windSpeed" : 2.1,
		"windDir" : 14,
		"rain" : 0,
		"cloudbase" : 2050,
		"flyability" : 0,
		"reason" : "windDir",
		"timestamp" :1554814800
		},
	"2019-04-09T17:00:00+02:00" : {
		"windSpeed" : 2.7,
		"windDir" : 20,
		"rain" : 0,
		"cloudbase" : null,
		"flyability" : 0,
		"reason" : "windDir",
		"timestamp" :1554825600
		},
	"2019-04-09T20:00:00+02:00" : {
		"windSpeed" : 2.1,
		"windDir" : 25,
		"rain" : 1,
		"cloudbase" : null,
		"flyability" : 0,
		"reason" : "windDir, rain",
		"timestamp" :1554836400
		},
	"2019-04-09T23:00:00+02:00" : {
		"windSpeed" : 1.7,
		"windDir" : 64,
		"rain" : 0,
		"cloudbase" : null,
		"flyability" : 0,
		"reason" : "windDir",
		"timestamp" :1554847200
		},
	"2019-04-10T02:00:00+02:00" : {
		"windSpeed" : 1.2,
		"windDir" : 114,
		"rain" : 0,
		"cloudbase" : null,
		"flyability" : 0,
		"reason" : "windDir",
		"timestamp" :1554858000
		},
	"2019-04-10T05:00:00+02:00" : {
		"windSpeed" : 0.6,
		"windDir" : 80,
		"rain" : 1,
		"cloudbase" : null,
		"flyability" : 0,
		"reason" : "windDir, rain",
		"timestamp" :1554868800
		},
	"2019-04-10T08:00:00+02:00" : {
		"windSpeed" : 1,
		"windDir" : 84,
		"rain" : 0,
		"cloudbase" : 5096.0100000001,
		"flyability" : 0,
		"reason" : "windDir",
		"timestamp" :1554879600
		},
	"2019-04-10T11:00:00+02:00" : {
		"windSpeed" : 1.6,
		"windDir" : 345,
		"rain" : 1,
		"cloudbase" : 1279.5199999999,
		"flyability" : 0,
		"reason" : "windDir, rain",
		"timestamp" :1554890400
		},
	"2019-04-10T14:00:00+02:00" : {
		"windSpeed" : 2.3,
		"windDir" : 36,
		"rain" : 1,
		"cloudbase" : 1724.05,
		"flyability" : 0,
		"reason" : "windDir, rain",
		"timestamp" :1554901200
		},
	"2019-04-10T17:00:00+02:00" : {
		"windSpeed" : 2,
		"windDir" : 3,
		"rain" : 1,
		"cloudbase" : 4980.1000000001,
		"flyability" : 0,
		"reason" : "windDir, rain",
		"timestamp" :1554912000
		},
	"2019-04-10T20:00:00+02:00" : {
		"windSpeed" : 2.1,
		"windDir" : 28,
		"rain" : 1,
		"cloudbase" : 2694.4,
		"flyability" : 0,
		"reason" : "windDir, rain",
		"timestamp" :1554922800
		},
	"2019-04-10T23:00:00+02:00" : {
		"windSpeed" : 1.7,
		"windDir" : 54,
		"rain" : 0,
		"cloudbase" : 2813.2,
		"flyability" : 0,
		"reason" : "windDir",
		"timestamp" :1554933600
		},
	"2019-04-11T02:00:00+02:00" : {
		"windSpeed" : 2.4,
		"windDir" : 52,
		"rain" : 0,
		"cloudbase" : 8486.8,
		"flyability" : 0,
		"reason" : "windDir",
		"timestamp" :1554944400
		},
	"2019-04-11T05:00:00+02:00" : {
		"windSpeed" : 3.1,
		"windDir" : 50,
		"rain" : 0,
		"cloudbase" : 8900,
		"flyability" : 0,
		"reason" : "windDir",
		"timestamp" :1554955200
		},
	"2019-04-11T08:00:00+02:00" : {
		"windSpeed" : 3.6,
		"windDir" : 44,
		"rain" : 0,
		"cloudbase" : 9265.1,
		"flyability" : 0,
		"reason" : "windDir",
		"timestamp" :1554966000
		},
	"2019-04-11T11:00:00+02:00" : {
		"windSpeed" : 4.6,
		"windDir" : 43,
		"rain" : 1,
		"cloudbase" : 9121.7,
		"flyability" : 0,
		"reason" : "windDir, rain",
		"timestamp" :1554976800
		},
	"2019-04-11T14:00:00+02:00" : {
		"windSpeed" : 5.2,
		"windDir" : 41,
		"rain" : 1,
		"cloudbase" : 9400,
		"flyability" : 0,
		"reason" : "windSpeed, windDir, rain",
		"timestamp" :1554987600
		},
	"2019-04-11T17:00:00+02:00" : {
		"windSpeed" : 4.3,
		"windDir" : 56,
		"rain" : 0,
		"cloudbase" : null,
		"flyability" : 0,
		"reason" : "windDir",
		"timestamp" :1554998400
		},
	"2019-04-11T20:00:00+02:00" : {
		"windSpeed" : 2.7,
		"windDir" : 22,
		"rain" : 1,
		"cloudbase" : null,
		"flyability" : 0,
		"reason" : "windDir, rain",
		"timestamp" :1555009200
		},
	"2019-04-11T23:00:00+02:00" : {
		"windSpeed" : 3.4,
		"windDir" : 54,
		"rain" : 0,
		"cloudbase" : null,
		"flyability" : 0,
		"reason" : "windDir",
		"timestamp" :1555020000
		},
	"2019-04-12T02:00:00+02:00" : {
		"windSpeed" : 3.1,
		"windDir" : 50,
		"rain" : 0,
		"cloudbase" : null,
		"flyability" : 0,
		"reason" : "windDir",
		"timestamp" :1555030800
		},
	"2019-04-12T05:00:00+02:00" : {
		"windSpeed" : 3.8,
		"windDir" : 49,
		"rain" : 0,
		"cloudbase" : null,
		"flyability" : 0,
		"reason" : "windDir",
		"timestamp" :1555041600
		},
	"2019-04-12T08:00:00+02:00" : {
		"windSpeed" : 3.9,
		"windDir" : 50,
		"rain" : 0,
		"cloudbase" : null,
		"flyability" : 0,
		"reason" : "windDir",
		"timestamp" :1555052400
		},
	"2019-04-12T11:00:00+02:00" : {
		"windSpeed" : 4.5,
		"windDir" : 30,
		"rain" : 0,
		"cloudbase" : null,
		"flyability" : 0,
		"reason" : "windDir",
		"timestamp" :1555063200
		},
	"2019-04-12T14:00:00+02:00" : {
		"windSpeed" : 4.4,
		"windDir" : 27,
		"rain" : 0,
		"cloudbase" : null,
		"flyability" : 0,
		"reason" : "windDir",
		"timestamp" :1555074000
		},
	"2019-04-12T17:00:00+02:00" : {
		"windSpeed" : 4.1,
		"windDir" : 12,
		"rain" : 1,
		"cloudbase" : 2117.45,
		"flyability" : 0,
		"reason" : "windDir, rain",
		"timestamp" :1555084800
		},
	"2019-04-12T20:00:00+02:00" : {
		"windSpeed" : 5.5,
		"windDir" : 45,
		"rain" : 0,
		"cloudbase" : null,
		"flyability" : 0,
		"reason" : "windSpeed, windDir",
		"timestamp" :1555095600
		},
	"2019-04-12T23:00:00+02:00" : {
		"windSpeed" : 4.9,
		"windDir" : 45,
		"rain" : 1,
		"cloudbase" : 1260.85,
		"flyability" : 0,
		"reason" : "windDir, rain",
		"timestamp" :1555106400
		},
	"2019-04-13T02:00:00+02:00" : {
		"windSpeed" : 4.5,
		"windDir" : 40,
		"rain" : 1,
		"cloudbase" : 2213.2,
		"flyability" : 0,
		"reason" : "windDir, rain",
		"timestamp" :1555117200
		}
	}
}