{
"site" : "St samson de la roque",
"id" : 2745,
"orientations" : "00000200",
"forecasts" : { 
	"2019-04-22T17:00:00+02:00" : {
		"windSpeed" : 1.1,
		"windDir" : 201,
		"rain" : 1,
		"cloudbase" : 6041.6151999999,
		"flyability" : 0,
		"reason" : "windDir, rain",
		"timestamp" :1555948800
		},
	"2019-04-22T20:00:00+02:00" : {
		"windSpeed" : 2.8,
		"windDir" : 23,
		"rain" : 0,
		"cloudbase" : null,
		"flyability" : 0,
		"reason" : "windDir",
		"timestamp" :1555959600
		},
	"2019-04-22T23:00:00+02:00" : {
		"windSpeed" : 3.3,
		"windDir" : 61,
		"rain" : 0,
		"cloudbase" : 6989.9,
		"flyability" : 0,
		"reason" : "windDir",
		"timestamp" :1555970400
		},
	"2019-04-23T02:00:00+02:00" : {
		"windSpeed" : 2.1,
		"windDir" : 115,
		"rain" : 1,
		"cloudbase" : null,
		"flyability" : 0,
		"reason" : "windDir, rain",
		"timestamp" :1555981200
		},
	"2019-04-23T05:00:00+02:00" : {
		"windSpeed" : 2.1,
		"windDir" : 129,
		"rain" : 0,
		"cloudbase" : 8217.7152,
		"flyability" : 0,
		"reason" : "windDir",
		"timestamp" :1555992000
		},
	"2019-04-23T08:00:00+02:00" : {
		"windSpeed" : 1.8,
		"windDir" : 116,
		"rain" : 0,
		"cloudbase" : 8905.6848,
		"flyability" : 0,
		"reason" : "windDir",
		"timestamp" :1556002800
		},
	"2019-04-23T11:00:00+02:00" : {
		"windSpeed" : 0.6,
		"windDir" : 50,
		"rain" : 0,
		"cloudbase" : 9500,
		"flyability" : 0,
		"reason" : "windDir",
		"timestamp" :1556013600
		},
	"2019-04-23T14:00:00+02:00" : {
		"windSpeed" : 2.2,
		"windDir" : 339,
		"rain" : 0,
		"cloudbase" : 9645.6456,
		"flyability" : 0,
		"reason" : "windDir",
		"timestamp" :1556024400
		},
	"2019-04-23T17:00:00+02:00" : {
		"windSpeed" : 2.6,
		"windDir" : 16,
		"rain" : 0,
		"cloudbase" : 4915.2152,
		"flyability" : 0,
		"reason" : "windDir",
		"timestamp" :1556035200
		},
	"2019-04-23T20:00:00+02:00" : {
		"windSpeed" : 2.5,
		"windDir" : 86,
		"rain" : 0,
		"cloudbase" : 7452.5152,
		"flyability" : 0,
		"reason" : "windDir",
		"timestamp" :1556046000
		},
	"2019-04-23T23:00:00+02:00" : {
		"windSpeed" : 2.1,
		"windDir" : 129,
		"rain" : 0,
		"cloudbase" : null,
		"flyability" : 0,
		"reason" : "windDir",
		"timestamp" :1556056800
		},
	"2019-04-24T02:00:00+02:00" : {
		"windSpeed" : 2.8,
		"windDir" : 181,
		"rain" : 1,
		"cloudbase" : 2513.3152,
		"flyability" : 0,
		"reason" : "windDir, rain",
		"timestamp" :1556067600
		},
	"2019-04-24T05:00:00+02:00" : {
		"windSpeed" : 2.8,
		"windDir" : 145,
		"rain" : 0,
		"cloudbase" : null,
		"flyability" : 0,
		"reason" : "windDir",
		"timestamp" :1556078400
		},
	"2019-04-24T08:00:00+02:00" : {
		"windSpeed" : 4,
		"windDir" : 148,
		"rain" : 0,
		"cloudbase" : 471.50424000001,
		"flyability" : 0,
		"reason" : "windDir",
		"timestamp" :1556089200
		},
	"2019-04-24T11:00:00+02:00" : {
		"windSpeed" : 6.1,
		"windDir" : 182,
		"rain" : 1,
		"cloudbase" : 1113.78848,
		"flyability" : 0,
		"reason" : "windSpeed, windDir, rain",
		"timestamp" :1556100000
		},
	"2019-04-24T14:00:00+02:00" : {
		"windSpeed" : 3.6,
		"windDir" : 227,
		"rain" : 1,
		"cloudbase" : 1932.5576,
		"flyability" : 0,
		"reason" : "rain",
		"timestamp" :1556110800
		},
	"2019-04-24T17:00:00+02:00" : {
		"windSpeed" : 6.1,
		"windDir" : 180,
		"rain" : 1,
		"cloudbase" : 2663.0423999999,
		"flyability" : 0,
		"reason" : "windSpeed, windDir, rain",
		"timestamp" :1556121600
		},
	"2019-04-24T20:00:00+02:00" : {
		"windSpeed" : 4.5,
		"windDir" : 178,
		"rain" : 0,
		"cloudbase" : 5342.2312,
		"flyability" : 0,
		"reason" : "windDir",
		"timestamp" :1556132400
		},
	"2019-04-24T23:00:00+02:00" : {
		"windSpeed" : 4.2,
		"windDir" : 147,
		"rain" : 0,
		"cloudbase" : null,
		"flyability" : 0,
		"reason" : "windDir",
		"timestamp" :1556143200
		},
	"2019-04-25T02:00:00+02:00" : {
		"windSpeed" : 6.6,
		"windDir" : 143,
		"rain" : 0,
		"cloudbase" : 2371.2076,
		"flyability" : 0,
		"reason" : "windSpeed, windDir",
		"timestamp" :1556154000
		},
	"2019-04-25T05:00:00+02:00" : {
		"windSpeed" : 5.6,
		"windDir" : 151,
		"rain" : 1,
		"cloudbase" : 4252.6519999997,
		"flyability" : 0,
		"reason" : "windSpeed, windDir, rain",
		"timestamp" :1556164800
		},
	"2019-04-25T08:00:00+02:00" : {
		"windSpeed" : 5.3,
		"windDir" : 158,
		"rain" : 1,
		"cloudbase" : 5915.0248,
		"flyability" : 0,
		"reason" : "windSpeed, windDir, rain",
		"timestamp" :1556175600
		},
	"2019-04-25T11:00:00+02:00" : {
		"windSpeed" : 5.1,
		"windDir" : 191,
		"rain" : 1,
		"cloudbase" : 3309.2,
		"flyability" : 0,
		"reason" : "windSpeed, windDir, rain",
		"timestamp" :1556186400
		},
	"2019-04-25T14:00:00+02:00" : {
		"windSpeed" : 6.4,
		"windDir" : 203,
		"rain" : 1,
		"cloudbase" : 5709.5304,
		"flyability" : 0,
		"reason" : "windSpeed, rain",
		"timestamp" :1556197200
		},
	"2019-04-25T17:00:00+02:00" : {
		"windSpeed" : 7,
		"windDir" : 203,
		"rain" : 1,
		"cloudbase" : null,
		"flyability" : 0,
		"reason" : "windSpeed, rain",
		"timestamp" :1556208000
		},
	"2019-04-25T20:00:00+02:00" : {
		"windSpeed" : 6,
		"windDir" : 194,
		"rain" : 0,
		"cloudbase" : null,
		"flyability" : 0,
		"reason" : "windSpeed, windDir",
		"timestamp" :1556218800
		},
	"2019-04-25T23:00:00+02:00" : {
		"windSpeed" : 4.5,
		"windDir" : 186,
		"rain" : 0,
		"cloudbase" : null,
		"flyability" : 0,
		"reason" : "windDir",
		"timestamp" :1556229600
		},
	"2019-04-26T02:00:00+02:00" : {
		"windSpeed" : 5,
		"windDir" : 175,
		"rain" : 0,
		"cloudbase" : null,
		"flyability" : 0,
		"reason" : "windDir",
		"timestamp" :1556240400
		},
	"2019-04-26T05:00:00+02:00" : {
		"windSpeed" : 5.4,
		"windDir" : 180,
		"rain" : 0,
		"cloudbase" : null,
		"flyability" : 0,
		"reason" : "windSpeed, windDir",
		"timestamp" :1556251200
		},
	"2019-04-26T08:00:00+02:00" : {
		"windSpeed" : 5.9,
		"windDir" : 180,
		"rain" : 0,
		"cloudbase" : 6317.7152,
		"flyability" : 0,
		"reason" : "windSpeed, windDir",
		"timestamp" :1556262000
		},
	"2019-04-26T11:00:00+02:00" : {
		"windSpeed" : 4.7,
		"windDir" : 193,
		"rain" : 1,
		"cloudbase" : 2600,
		"flyability" : 0,
		"reason" : "windDir, rain",
		"timestamp" :1556272800
		},
	"2019-04-26T14:00:00+02:00" : {
		"windSpeed" : 4.9,
		"windDir" : 269,
		"rain" : 1,
		"cloudbase" : null,
		"flyability" : 0,
		"reason" : "windDir, rain",
		"timestamp" :1556283600
		},
	"2019-04-26T17:00:00+02:00" : {
		"windSpeed" : 8.9,
		"windDir" : 279,
		"rain" : 1,
		"cloudbase" : null,
		"flyability" : 0,
		"reason" : "windSpeed, windDir, rain",
		"timestamp" :1556294400
		},
	"2019-04-26T20:00:00+02:00" : {
		"windSpeed" : 7.4,
		"windDir" : 273,
		"rain" : 1,
		"cloudbase" : null,
		"flyability" : 0,
		"reason" : "windSpeed, windDir, rain",
		"timestamp" :1556305200
		},
	"2019-04-26T23:00:00+02:00" : {
		"windSpeed" : 5.9,
		"windDir" : 251,
		"rain" : 1,
		"cloudbase" : null,
		"flyability" : 0,
		"reason" : "windSpeed, windDir, rain",
		"timestamp" :1556316000
		},
	"2019-04-27T02:00:00+02:00" : {
		"windSpeed" : 5.4,
		"windDir" : 208,
		"rain" : 0,
		"cloudbase" : 3750,
		"flyability" : 0,
		"reason" : "windSpeed",
		"timestamp" :1556326800
		},
	"2019-04-27T05:00:00+02:00" : {
		"windSpeed" : 8.5,
		"windDir" : 211,
		"rain" : 0,
		"cloudbase" : 1071.2076,
		"flyability" : 0,
		"reason" : "windSpeed",
		"timestamp" :1556337600
		},
	"2019-04-27T08:00:00+02:00" : {
		"windSpeed" : 8.2,
		"windDir" : 256,
		"rain" : 1,
		"cloudbase" : 1423.1076,
		"flyability" : 0,
		"reason" : "windSpeed, windDir, rain",
		"timestamp" :1556348400
		},
	"2019-04-27T11:00:00+02:00" : {
		"windSpeed" : 9.8,
		"windDir" : 258,
		"rain" : 0,
		"cloudbase" : 3661.0768000002,
		"flyability" : 0,
		"reason" : "windSpeed, windDir",
		"timestamp" :1556359200
		},
	"2019-04-27T14:00:00+02:00" : {
		"windSpeed" : 10,
		"windDir" : 266,
		"rain" : 1,
		"cloudbase" : null,
		"flyability" : 0,
		"reason" : "windSpeed, windDir, rain",
		"timestamp" :1556370000
		},
	"2019-04-27T17:00:00+02:00" : {
		"windSpeed" : 8.7,
		"windDir" : 266,
		"rain" : 0,
		"cloudbase" : 3000,
		"flyability" : 0,
		"reason" : "windSpeed, windDir",
		"timestamp" :1556380800
		},
	"2019-04-27T20:00:00+02:00" : {
		"windSpeed" : 7.5,
		"windDir" : 265,
		"rain" : 1,
		"cloudbase" : 3750,
		"flyability" : 0,
		"reason" : "windSpeed, windDir, rain",
		"timestamp" :1556391600
		},
	"2019-04-27T23:00:00+02:00" : {
		"windSpeed" : 7.3,
		"windDir" : 242,
		"rain" : 1,
		"cloudbase" : 2789.2424,
		"flyability" : 0,
		"reason" : "windSpeed, rain",
		"timestamp" :1556402400
		},
	"2019-04-28T02:00:00+02:00" : {
		"windSpeed" : 6.5,
		"windDir" : 263,
		"rain" : 1,
		"cloudbase" : 779.38624000009,
		"flyability" : 0,
		"reason" : "windSpeed, windDir, rain",
		"timestamp" :1556413200
		},
	"2019-04-28T05:00:00+02:00" : {
		"windSpeed" : 5.3,
		"windDir" : 269,
		"rain" : 1,
		"cloudbase" : 3253.1728,
		"flyability" : 0,
		"reason" : "windSpeed, windDir, rain",
		"timestamp" :1556424000
		},
	"2019-04-28T08:00:00+02:00" : {
		"windSpeed" : 4.6,
		"windDir" : 257,
		"rain" : 1,
		"cloudbase" : null,
		"flyability" : 0,
		"reason" : "windDir, rain",
		"timestamp" :1556434800
		},
	"2019-04-28T11:00:00+02:00" : {
		"windSpeed" : 5.5,
		"windDir" : 264,
		"rain" : 1,
		"cloudbase" : null,
		"flyability" : 0,
		"reason" : "windSpeed, windDir, rain",
		"timestamp" :1556445600
		},
	"2019-04-28T14:00:00+02:00" : {
		"windSpeed" : 4.7,
		"windDir" : 257,
		"rain" : 0,
		"cloudbase" : 1774.8212000002,
		"flyability" : 0,
		"reason" : "windDir",
		"timestamp" :1556456400
		}
	}
}