{
"site" : "Abbaretz",
"id" : 2824,
"orientations" : "02000000",
"forecasts" : { 
	"2019-04-15T05:00:00+02:00" : {
		"windSpeed" : 5.6,
		"windDir" : 100,
		"rain" : 0,
		"cloudbase" : 7386.3000000001,
		"flyability" : 0,
		"reason" : "windSpeed, windDir",
		"timestamp" :1555300800
		},
	"2019-04-15T08:00:00+02:00" : {
		"windSpeed" : 6.6,
		"windDir" : 104,
		"rain" : 0,
		"cloudbase" : 9596.6399999999,
		"flyability" : 0,
		"reason" : "windSpeed, windDir",
		"timestamp" :1555311600
		},
	"2019-04-15T11:00:00+02:00" : {
		"windSpeed" : 8,
		"windDir" : 107,
		"rain" : 0,
		"cloudbase" : 8237.32,
		"flyability" : 0,
		"reason" : "windSpeed, windDir",
		"timestamp" :1555322400
		},
	"2019-04-15T14:00:00+02:00" : {
		"windSpeed" : 7.2,
		"windDir" : 115,
		"rain" : 0,
		"cloudbase" : 6469.28,
		"flyability" : 0,
		"reason" : "windSpeed, windDir",
		"timestamp" :1555333200
		},
	"2019-04-15T17:00:00+02:00" : {
		"windSpeed" : 5.1,
		"windDir" : 111,
		"rain" : 0,
		"cloudbase" : 4365.26,
		"flyability" : 0,
		"reason" : "windSpeed, windDir",
		"timestamp" :1555344000
		},
	"2019-04-15T20:00:00+02:00" : {
		"windSpeed" : 2.3,
		"windDir" : 124,
		"rain" : 1,
		"cloudbase" : 1671.72,
		"flyability" : 0,
		"reason" : "windDir, rain",
		"timestamp" :1555354800
		},
	"2019-04-15T23:00:00+02:00" : {
		"windSpeed" : 2,
		"windDir" : 146,
		"rain" : 1,
		"cloudbase" : 3410,
		"flyability" : 0,
		"reason" : "windDir, rain",
		"timestamp" :1555365600
		},
	"2019-04-16T02:00:00+02:00" : {
		"windSpeed" : 2.1,
		"windDir" : 225,
		"rain" : 0,
		"cloudbase" : 5924.7599999999,
		"flyability" : 0,
		"reason" : "windDir",
		"timestamp" :1555376400
		},
	"2019-04-16T05:00:00+02:00" : {
		"windSpeed" : 3.7,
		"windDir" : 283,
		"rain" : 0,
		"cloudbase" : 343.76,
		"flyability" : 0,
		"reason" : "windDir",
		"timestamp" :1555387200
		},
	"2019-04-16T08:00:00+02:00" : {
		"windSpeed" : 4.1,
		"windDir" : 284,
		"rain" : 0,
		"cloudbase" : null,
		"flyability" : 0,
		"reason" : "windDir",
		"timestamp" :1555398000
		},
	"2019-04-16T11:00:00+02:00" : {
		"windSpeed" : 5.1,
		"windDir" : 299,
		"rain" : 1,
		"cloudbase" : 690.928,
		"flyability" : 0,
		"reason" : "windSpeed, windDir, rain",
		"timestamp" :1555408800
		},
	"2019-04-16T14:00:00+02:00" : {
		"windSpeed" : 5.2,
		"windDir" : 285,
		"rain" : 0,
		"cloudbase" : 1450,
		"flyability" : 0,
		"reason" : "windSpeed, windDir",
		"timestamp" :1555419600
		},
	"2019-04-16T17:00:00+02:00" : {
		"windSpeed" : 4.6,
		"windDir" : 256,
		"rain" : 1,
		"cloudbase" : 2450,
		"flyability" : 0,
		"reason" : "windDir, rain",
		"timestamp" :1555430400
		},
	"2019-04-16T20:00:00+02:00" : {
		"windSpeed" : 2.9,
		"windDir" : 250,
		"rain" : 0,
		"cloudbase" : null,
		"flyability" : 0,
		"reason" : "windDir",
		"timestamp" :1555441200
		},
	"2019-04-16T23:00:00+02:00" : {
		"windSpeed" : 2,
		"windDir" : 259,
		"rain" : 0,
		"cloudbase" : 8579.8,
		"flyability" : 0,
		"reason" : "windDir",
		"timestamp" :1555452000
		},
	"2019-04-17T02:00:00+02:00" : {
		"windSpeed" : 1.4,
		"windDir" : 70,
		"rain" : 0,
		"cloudbase" : 7026.32,
		"flyability" : 0,
		"reason" : "windDir",
		"timestamp" :1555462800
		},
	"2019-04-17T05:00:00+02:00" : {
		"windSpeed" : 3.5,
		"windDir" : 90,
		"rain" : 0,
		"cloudbase" : 6517.24,
		"flyability" : 0,
		"reason" : "windDir",
		"timestamp" :1555473600
		},
	"2019-04-17T08:00:00+02:00" : {
		"windSpeed" : 4.5,
		"windDir" : 98,
		"rain" : 0,
		"cloudbase" : 6100,
		"flyability" : 0,
		"reason" : "windDir",
		"timestamp" :1555484400
		},
	"2019-04-17T11:00:00+02:00" : {
		"windSpeed" : 5.3,
		"windDir" : 101,
		"rain" : 0,
		"cloudbase" : 7981.64,
		"flyability" : 0,
		"reason" : "windSpeed, windDir",
		"timestamp" :1555495200
		},
	"2019-04-17T14:00:00+02:00" : {
		"windSpeed" : 7,
		"windDir" : 102,
		"rain" : 0,
		"cloudbase" : 6700,
		"flyability" : 0,
		"reason" : "windSpeed, windDir",
		"timestamp" :1555506000
		},
	"2019-04-17T17:00:00+02:00" : {
		"windSpeed" : 6.7,
		"windDir" : 103,
		"rain" : 0,
		"cloudbase" : 7900,
		"flyability" : 0,
		"reason" : "windSpeed, windDir",
		"timestamp" :1555516800
		},
	"2019-04-17T20:00:00+02:00" : {
		"windSpeed" : 6,
		"windDir" : 91,
		"rain" : 0,
		"cloudbase" : 8200,
		"flyability" : 0,
		"reason" : "windSpeed, windDir",
		"timestamp" :1555527600
		},
	"2019-04-17T23:00:00+02:00" : {
		"windSpeed" : 5.5,
		"windDir" : 92,
		"rain" : 0,
		"cloudbase" : 10500,
		"flyability" : 0,
		"reason" : "windSpeed, windDir",
		"timestamp" :1555538400
		},
	"2019-04-18T02:00:00+02:00" : {
		"windSpeed" : 5.5,
		"windDir" : 96,
		"rain" : 0,
		"cloudbase" : 6620,
		"flyability" : 0,
		"reason" : "windSpeed, windDir",
		"timestamp" :1555549200
		},
	"2019-04-18T05:00:00+02:00" : {
		"windSpeed" : 5.1,
		"windDir" : 101,
		"rain" : 0,
		"cloudbase" : 6000,
		"flyability" : 0,
		"reason" : "windSpeed, windDir",
		"timestamp" :1555560000
		},
	"2019-04-18T08:00:00+02:00" : {
		"windSpeed" : 4.3,
		"windDir" : 111,
		"rain" : 0,
		"cloudbase" : 9000,
		"flyability" : 0,
		"reason" : "windDir",
		"timestamp" :1555570800
		},
	"2019-04-18T11:00:00+02:00" : {
		"windSpeed" : 3.6,
		"windDir" : 124,
		"rain" : 0,
		"cloudbase" : 9900,
		"flyability" : 0,
		"reason" : "windDir",
		"timestamp" :1555581600
		},
	"2019-04-18T14:00:00+02:00" : {
		"windSpeed" : 2,
		"windDir" : 139,
		"rain" : 0,
		"cloudbase" : 9600,
		"flyability" : 0,
		"reason" : "windDir",
		"timestamp" :1555592400
		},
	"2019-04-18T17:00:00+02:00" : {
		"windSpeed" : 2.1,
		"windDir" : 160,
		"rain" : 0,
		"cloudbase" : 2274.1400000001,
		"flyability" : 0,
		"reason" : "windDir",
		"timestamp" :1555603200
		},
	"2019-04-18T20:00:00+02:00" : {
		"windSpeed" : 2.8,
		"windDir" : 221,
		"rain" : 1,
		"cloudbase" : 1012.44,
		"flyability" : 0,
		"reason" : "windDir, rain",
		"timestamp" :1555614000
		},
	"2019-04-18T23:00:00+02:00" : {
		"windSpeed" : 1.1,
		"windDir" : 264,
		"rain" : 1,
		"cloudbase" : 4350,
		"flyability" : 0,
		"reason" : "windDir, rain",
		"timestamp" :1555624800
		},
	"2019-04-19T02:00:00+02:00" : {
		"windSpeed" : 1.7,
		"windDir" : 36,
		"rain" : 1,
		"cloudbase" : null,
		"flyability" : 0,
		"reason" : "rain",
		"timestamp" :1555635600
		},
	"2019-04-19T05:00:00+02:00" : {
		"windSpeed" : 2.6,
		"windDir" : 87,
		"rain" : 0,
		"cloudbase" : 30,
		"flyability" : 0,
		"reason" : "windDir, cloudbase",
		"timestamp" :1555646400
		},
	"2019-04-19T08:00:00+02:00" : {
		"windSpeed" : 2.6,
		"windDir" : 44,
		"rain" : 0,
		"cloudbase" : 2333.3,
		"flyability" : 100,
		"reason" : "",
		"timestamp" :1555657200
		},
	"2019-04-19T11:00:00+02:00" : {
		"windSpeed" : 4.1,
		"windDir" : 74,
		"rain" : 0,
		"cloudbase" : 2268.18,
		"flyability" : 0,
		"reason" : "windDir",
		"timestamp" :1555668000
		},
	"2019-04-19T14:00:00+02:00" : {
		"windSpeed" : 4.7,
		"windDir" : 125,
		"rain" : 0,
		"cloudbase" : 3005.6,
		"flyability" : 0,
		"reason" : "windDir",
		"timestamp" :1555678800
		},
	"2019-04-19T17:00:00+02:00" : {
		"windSpeed" : 4.1,
		"windDir" : 112,
		"rain" : 0,
		"cloudbase" : 9054.64,
		"flyability" : 0,
		"reason" : "windDir",
		"timestamp" :1555689600
		},
	"2019-04-19T20:00:00+02:00" : {
		"windSpeed" : 1.8,
		"windDir" : 144,
		"rain" : 0,
		"cloudbase" : 8999.04,
		"flyability" : 0,
		"reason" : "windDir",
		"timestamp" :1555700400
		},
	"2019-04-19T23:00:00+02:00" : {
		"windSpeed" : 1.1,
		"windDir" : 60,
		"rain" : 0,
		"cloudbase" : 10000,
		"flyability" : 100,
		"reason" : "",
		"timestamp" :1555711200
		},
	"2019-04-20T02:00:00+02:00" : {
		"windSpeed" : 2.3,
		"windDir" : 26,
		"rain" : 0,
		"cloudbase" : null,
		"flyability" : 100,
		"reason" : "",
		"timestamp" :1555722000
		},
	"2019-04-20T05:00:00+02:00" : {
		"windSpeed" : 2.1,
		"windDir" : 28,
		"rain" : 0,
		"cloudbase" : null,
		"flyability" : 100,
		"reason" : "",
		"timestamp" :1555732800
		},
	"2019-04-20T08:00:00+02:00" : {
		"windSpeed" : 3.2,
		"windDir" : 22,
		"rain" : 0,
		"cloudbase" : null,
		"flyability" : 0,
		"reason" : "windDir",
		"timestamp" :1555743600
		},
	"2019-04-20T11:00:00+02:00" : {
		"windSpeed" : 2.9,
		"windDir" : 31,
		"rain" : 0,
		"cloudbase" : null,
		"flyability" : 100,
		"reason" : "",
		"timestamp" :1555754400
		},
	"2019-04-20T14:00:00+02:00" : {
		"windSpeed" : 4.1,
		"windDir" : 25,
		"rain" : 0,
		"cloudbase" : null,
		"flyability" : 100,
		"reason" : "",
		"timestamp" :1555765200
		},
	"2019-04-20T17:00:00+02:00" : {
		"windSpeed" : 4.5,
		"windDir" : 34,
		"rain" : 0,
		"cloudbase" : null,
		"flyability" : 100,
		"reason" : "",
		"timestamp" :1555776000
		},
	"2019-04-20T20:00:00+02:00" : {
		"windSpeed" : 3.4,
		"windDir" : 27,
		"rain" : 0,
		"cloudbase" : null,
		"flyability" : 100,
		"reason" : "",
		"timestamp" :1555786800
		},
	"2019-04-20T23:00:00+02:00" : {
		"windSpeed" : 5.1,
		"windDir" : 29,
		"rain" : 0,
		"cloudbase" : null,
		"flyability" : 0,
		"reason" : "windSpeed",
		"timestamp" :1555797600
		},
	"2019-04-21T02:00:00+02:00" : {
		"windSpeed" : 4.4,
		"windDir" : 27,
		"rain" : 0,
		"cloudbase" : null,
		"flyability" : 100,
		"reason" : "",
		"timestamp" :1555808400
		}
	}
}