{
"site" : "Brain sur l\\'authion",
"id" : 2845,
"orientations" : "20002000",
"forecasts" : { 
	"2019-04-15T05:00:00+02:00" : {
		"windSpeed" : 4.5,
		"windDir" : 107,
		"rain" : 0,
		"cloudbase" : null,
		"flyability" : 0,
		"reason" : "windDir",
		"timestamp" :1555300800
		},
	"2019-04-15T08:00:00+02:00" : {
		"windSpeed" : 5.5,
		"windDir" : 104,
		"rain" : 0,
		"cloudbase" : 1800,
		"flyability" : 0,
		"reason" : "windSpeed, windDir",
		"timestamp" :1555311600
		},
	"2019-04-15T11:00:00+02:00" : {
		"windSpeed" : 6.2,
		"windDir" : 109,
		"rain" : 0,
		"cloudbase" : 8500,
		"flyability" : 0,
		"reason" : "windSpeed, windDir",
		"timestamp" :1555322400
		},
	"2019-04-15T14:00:00+02:00" : {
		"windSpeed" : 7.3,
		"windDir" : 110,
		"rain" : 0,
		"cloudbase" : 7400,
		"flyability" : 0,
		"reason" : "windSpeed, windDir",
		"timestamp" :1555333200
		},
	"2019-04-15T17:00:00+02:00" : {
		"windSpeed" : 6,
		"windDir" : 104,
		"rain" : 0,
		"cloudbase" : 5932,
		"flyability" : 0,
		"reason" : "windSpeed, windDir",
		"timestamp" :1555344000
		},
	"2019-04-15T20:00:00+02:00" : {
		"windSpeed" : 3.1,
		"windDir" : 106,
		"rain" : 0,
		"cloudbase" : 3698.9999999999,
		"flyability" : 0,
		"reason" : "windDir",
		"timestamp" :1555354800
		},
	"2019-04-15T23:00:00+02:00" : {
		"windSpeed" : 2.7,
		"windDir" : 133,
		"rain" : 1,
		"cloudbase" : 1683.5,
		"flyability" : 0,
		"reason" : "windDir, rain",
		"timestamp" :1555365600
		},
	"2019-04-16T02:00:00+02:00" : {
		"windSpeed" : 2.2,
		"windDir" : 189,
		"rain" : 1,
		"cloudbase" : 3266.5,
		"flyability" : 0,
		"reason" : "rain",
		"timestamp" :1555376400
		},
	"2019-04-16T05:00:00+02:00" : {
		"windSpeed" : 2.1,
		"windDir" : 252,
		"rain" : 1,
		"cloudbase" : 2485.9999999997,
		"flyability" : 0,
		"reason" : "windDir, rain",
		"timestamp" :1555387200
		},
	"2019-04-16T08:00:00+02:00" : {
		"windSpeed" : 4.3,
		"windDir" : 274,
		"rain" : 0,
		"cloudbase" : 559.29999999998,
		"flyability" : 0,
		"reason" : "windDir",
		"timestamp" :1555398000
		},
	"2019-04-16T11:00:00+02:00" : {
		"windSpeed" : 5.8,
		"windDir" : 294,
		"rain" : 1,
		"cloudbase" : 526.60000000001,
		"flyability" : 0,
		"reason" : "windSpeed, windDir, rain",
		"timestamp" :1555408800
		},
	"2019-04-16T14:00:00+02:00" : {
		"windSpeed" : 5.2,
		"windDir" : 292,
		"rain" : 0,
		"cloudbase" : 1266.5,
		"flyability" : 0,
		"reason" : "windSpeed, windDir",
		"timestamp" :1555419600
		},
	"2019-04-16T17:00:00+02:00" : {
		"windSpeed" : 4.7,
		"windDir" : 287,
		"rain" : 0,
		"cloudbase" : 1833,
		"flyability" : 0,
		"reason" : "windDir",
		"timestamp" :1555430400
		},
	"2019-04-16T20:00:00+02:00" : {
		"windSpeed" : 2.2,
		"windDir" : 274,
		"rain" : 0,
		"cloudbase" : null,
		"flyability" : 0,
		"reason" : "windDir",
		"timestamp" :1555441200
		},
	"2019-04-16T23:00:00+02:00" : {
		"windSpeed" : 2,
		"windDir" : 260,
		"rain" : 0,
		"cloudbase" : null,
		"flyability" : 0,
		"reason" : "windDir",
		"timestamp" :1555452000
		},
	"2019-04-17T02:00:00+02:00" : {
		"windSpeed" : 1.5,
		"windDir" : 319,
		"rain" : 0,
		"cloudbase" : 8133,
		"flyability" : 0,
		"reason" : "windDir",
		"timestamp" :1555462800
		},
	"2019-04-17T05:00:00+02:00" : {
		"windSpeed" : 2,
		"windDir" : 100,
		"rain" : 0,
		"cloudbase" : 6263,
		"flyability" : 0,
		"reason" : "windDir",
		"timestamp" :1555473600
		},
	"2019-04-17T08:00:00+02:00" : {
		"windSpeed" : 3.1,
		"windDir" : 106,
		"rain" : 0,
		"cloudbase" : 8364.9999999999,
		"flyability" : 0,
		"reason" : "windDir",
		"timestamp" :1555484400
		},
	"2019-04-17T11:00:00+02:00" : {
		"windSpeed" : 4.1,
		"windDir" : 111,
		"rain" : 1,
		"cloudbase" : 5934,
		"flyability" : 0,
		"reason" : "windDir, rain",
		"timestamp" :1555495200
		},
	"2019-04-17T14:00:00+02:00" : {
		"windSpeed" : 5.4,
		"windDir" : 101,
		"rain" : 0,
		"cloudbase" : 6566,
		"flyability" : 0,
		"reason" : "windSpeed, windDir",
		"timestamp" :1555506000
		},
	"2019-04-17T17:00:00+02:00" : {
		"windSpeed" : 5.9,
		"windDir" : 100,
		"rain" : 1,
		"cloudbase" : 9333,
		"flyability" : 0,
		"reason" : "windSpeed, windDir, rain",
		"timestamp" :1555516800
		},
	"2019-04-17T20:00:00+02:00" : {
		"windSpeed" : 4.8,
		"windDir" : 90,
		"rain" : 0,
		"cloudbase" : 8133,
		"flyability" : 0,
		"reason" : "windDir",
		"timestamp" :1555527600
		},
	"2019-04-17T23:00:00+02:00" : {
		"windSpeed" : 4.8,
		"windDir" : 94,
		"rain" : 0,
		"cloudbase" : 10835,
		"flyability" : 0,
		"reason" : "windDir",
		"timestamp" :1555538400
		},
	"2019-04-18T02:00:00+02:00" : {
		"windSpeed" : 4.4,
		"windDir" : 101,
		"rain" : 0,
		"cloudbase" : 7300,
		"flyability" : 0,
		"reason" : "windDir",
		"timestamp" :1555549200
		},
	"2019-04-18T05:00:00+02:00" : {
		"windSpeed" : 3.5,
		"windDir" : 95,
		"rain" : 0,
		"cloudbase" : 7729,
		"flyability" : 0,
		"reason" : "windDir",
		"timestamp" :1555560000
		},
	"2019-04-18T08:00:00+02:00" : {
		"windSpeed" : 2.4,
		"windDir" : 124,
		"rain" : 0,
		"cloudbase" : 11835,
		"flyability" : 0,
		"reason" : "windDir",
		"timestamp" :1555570800
		},
	"2019-04-18T11:00:00+02:00" : {
		"windSpeed" : 3.2,
		"windDir" : 129,
		"rain" : 0,
		"cloudbase" : 9300,
		"flyability" : 0,
		"reason" : "windDir",
		"timestamp" :1555581600
		},
	"2019-04-18T14:00:00+02:00" : {
		"windSpeed" : 1.6,
		"windDir" : 108,
		"rain" : 0,
		"cloudbase" : 9400,
		"flyability" : 0,
		"reason" : "windDir",
		"timestamp" :1555592400
		},
	"2019-04-18T17:00:00+02:00" : {
		"windSpeed" : 2.2,
		"windDir" : 148,
		"rain" : 0,
		"cloudbase" : 1566.5,
		"flyability" : 0,
		"reason" : "windDir",
		"timestamp" :1555603200
		},
	"2019-04-18T20:00:00+02:00" : {
		"windSpeed" : 3.5,
		"windDir" : 221,
		"rain" : 0,
		"cloudbase" : 5597.4999999994,
		"flyability" : 0,
		"reason" : "windDir",
		"timestamp" :1555614000
		},
	"2019-04-18T23:00:00+02:00" : {
		"windSpeed" : 1.1,
		"windDir" : 297,
		"rain" : 1,
		"cloudbase" : 6434,
		"flyability" : 0,
		"reason" : "windDir, rain",
		"timestamp" :1555624800
		},
	"2019-04-19T02:00:00+02:00" : {
		"windSpeed" : 1.9,
		"windDir" : 31,
		"rain" : 0,
		"cloudbase" : null,
		"flyability" : 0,
		"reason" : "windDir",
		"timestamp" :1555635600
		},
	"2019-04-19T05:00:00+02:00" : {
		"windSpeed" : 1.5,
		"windDir" : 84,
		"rain" : 0,
		"cloudbase" : null,
		"flyability" : 0,
		"reason" : "windDir",
		"timestamp" :1555646400
		},
	"2019-04-19T08:00:00+02:00" : {
		"windSpeed" : 3.1,
		"windDir" : 49,
		"rain" : 0,
		"cloudbase" : 2566,
		"flyability" : 0,
		"reason" : "windDir",
		"timestamp" :1555657200
		},
	"2019-04-19T11:00:00+02:00" : {
		"windSpeed" : 3.5,
		"windDir" : 125,
		"rain" : 0,
		"cloudbase" : 2450.5,
		"flyability" : 0,
		"reason" : "windDir",
		"timestamp" :1555668000
		},
	"2019-04-19T14:00:00+02:00" : {
		"windSpeed" : 3.6,
		"windDir" : 152,
		"rain" : 0,
		"cloudbase" : 9100,
		"flyability" : 0,
		"reason" : "windDir",
		"timestamp" :1555678800
		},
	"2019-04-19T17:00:00+02:00" : {
		"windSpeed" : 3.2,
		"windDir" : 118,
		"rain" : 0,
		"cloudbase" : 8800,
		"flyability" : 0,
		"reason" : "windDir",
		"timestamp" :1555689600
		},
	"2019-04-19T20:00:00+02:00" : {
		"windSpeed" : 1.7,
		"windDir" : 127,
		"rain" : 0,
		"cloudbase" : 8500,
		"flyability" : 0,
		"reason" : "windDir",
		"timestamp" :1555700400
		},
	"2019-04-19T23:00:00+02:00" : {
		"windSpeed" : 1.1,
		"windDir" : 153,
		"rain" : 0,
		"cloudbase" : 9633.0000000001,
		"flyability" : 0,
		"reason" : "windDir",
		"timestamp" :1555711200
		},
	"2019-04-20T02:00:00+02:00" : {
		"windSpeed" : 2.2,
		"windDir" : 351,
		"rain" : 0,
		"cloudbase" : null,
		"flyability" : 100,
		"reason" : "",
		"timestamp" :1555722000
		},
	"2019-04-20T05:00:00+02:00" : {
		"windSpeed" : 2.1,
		"windDir" : 14,
		"rain" : 0,
		"cloudbase" : null,
		"flyability" : 100,
		"reason" : "",
		"timestamp" :1555732800
		},
	"2019-04-20T08:00:00+02:00" : {
		"windSpeed" : 2.4,
		"windDir" : 25,
		"rain" : 0,
		"cloudbase" : null,
		"flyability" : 0,
		"reason" : "windDir",
		"timestamp" :1555743600
		},
	"2019-04-20T11:00:00+02:00" : {
		"windSpeed" : 2.7,
		"windDir" : 22,
		"rain" : 0,
		"cloudbase" : null,
		"flyability" : 100,
		"reason" : "",
		"timestamp" :1555754400
		},
	"2019-04-20T14:00:00+02:00" : {
		"windSpeed" : 4.3,
		"windDir" : 36,
		"rain" : 0,
		"cloudbase" : null,
		"flyability" : 0,
		"reason" : "windDir",
		"timestamp" :1555765200
		},
	"2019-04-20T17:00:00+02:00" : {
		"windSpeed" : 4.7,
		"windDir" : 32,
		"rain" : 0,
		"cloudbase" : null,
		"flyability" : 0,
		"reason" : "windDir",
		"timestamp" :1555776000
		},
	"2019-04-20T20:00:00+02:00" : {
		"windSpeed" : 3.4,
		"windDir" : 27,
		"rain" : 0,
		"cloudbase" : null,
		"flyability" : 0,
		"reason" : "windDir",
		"timestamp" :1555786800
		},
	"2019-04-20T23:00:00+02:00" : {
		"windSpeed" : 3.8,
		"windDir" : 23,
		"rain" : 0,
		"cloudbase" : null,
		"flyability" : 0,
		"reason" : "windDir",
		"timestamp" :1555797600
		},
	"2019-04-21T02:00:00+02:00" : {
		"windSpeed" : 4.3,
		"windDir" : 23,
		"rain" : 0,
		"cloudbase" : null,
		"flyability" : 0,
		"reason" : "windDir",
		"timestamp" :1555808400
		}
	}
}