{
"site" : "Chauffourt",
"id" : 2865,
"orientations" : "00220000",
"forecasts" : { 
	"2019-04-22T17:00:00+02:00" : {
		"windSpeed" : 4,
		"windDir" : 60,
		"rain" : 0,
		"cloudbase" : null,
		"flyability" : 0,
		"reason" : "windDir",
		"timestamp" :1555948800
		},
	"2019-04-22T20:00:00+02:00" : {
		"windSpeed" : 2.5,
		"windDir" : 63,
		"rain" : 0,
		"cloudbase" : null,
		"flyability" : 0,
		"reason" : "windDir",
		"timestamp" :1555959600
		},
	"2019-04-22T23:00:00+02:00" : {
		"windSpeed" : 2.9,
		"windDir" : 68,
		"rain" : 0,
		"cloudbase" : 9100,
		"flyability" : 100,
		"reason" : "",
		"timestamp" :1555970400
		},
	"2019-04-23T02:00:00+02:00" : {
		"windSpeed" : 2.8,
		"windDir" : 69,
		"rain" : 0,
		"cloudbase" : 7636.7,
		"flyability" : 100,
		"reason" : "",
		"timestamp" :1555981200
		},
	"2019-04-23T05:00:00+02:00" : {
		"windSpeed" : 2.4,
		"windDir" : 84,
		"rain" : 0,
		"cloudbase" : 6500,
		"flyability" : 100,
		"reason" : "",
		"timestamp" :1555992000
		},
	"2019-04-23T08:00:00+02:00" : {
		"windSpeed" : 3.1,
		"windDir" : 105,
		"rain" : 0,
		"cloudbase" : 8700,
		"flyability" : 100,
		"reason" : "",
		"timestamp" :1556002800
		},
	"2019-04-23T11:00:00+02:00" : {
		"windSpeed" : 2.6,
		"windDir" : 144,
		"rain" : 0,
		"cloudbase" : 5845,
		"flyability" : 100,
		"reason" : "",
		"timestamp" :1556013600
		},
	"2019-04-23T14:00:00+02:00" : {
		"windSpeed" : 3,
		"windDir" : 171,
		"rain" : 0,
		"cloudbase" : 3927.1,
		"flyability" : 0,
		"reason" : "windDir",
		"timestamp" :1556024400
		},
	"2019-04-23T17:00:00+02:00" : {
		"windSpeed" : 3,
		"windDir" : 180,
		"rain" : 0,
		"cloudbase" : 6350.3649999999,
		"flyability" : 0,
		"reason" : "windDir",
		"timestamp" :1556035200
		},
	"2019-04-23T20:00:00+02:00" : {
		"windSpeed" : 1.5,
		"windDir" : 194,
		"rain" : 1,
		"cloudbase" : 8100,
		"flyability" : 0,
		"reason" : "windDir, rain",
		"timestamp" :1556046000
		},
	"2019-04-23T23:00:00+02:00" : {
		"windSpeed" : 2.5,
		"windDir" : 171,
		"rain" : 0,
		"cloudbase" : null,
		"flyability" : 0,
		"reason" : "windDir",
		"timestamp" :1556056800
		},
	"2019-04-24T02:00:00+02:00" : {
		"windSpeed" : 4.5,
		"windDir" : 188,
		"rain" : 0,
		"cloudbase" : 4750,
		"flyability" : 0,
		"reason" : "windDir",
		"timestamp" :1556067600
		},
	"2019-04-24T05:00:00+02:00" : {
		"windSpeed" : 5.9,
		"windDir" : 186,
		"rain" : 0,
		"cloudbase" : null,
		"flyability" : 0,
		"reason" : "windSpeed, windDir",
		"timestamp" :1556078400
		},
	"2019-04-24T08:00:00+02:00" : {
		"windSpeed" : 6.9,
		"windDir" : 183,
		"rain" : 0,
		"cloudbase" : null,
		"flyability" : 0,
		"reason" : "windSpeed, windDir",
		"timestamp" :1556089200
		},
	"2019-04-24T11:00:00+02:00" : {
		"windSpeed" : 5.9,
		"windDir" : 173,
		"rain" : 0,
		"cloudbase" : 8626.6075,
		"flyability" : 0,
		"reason" : "windSpeed, windDir",
		"timestamp" :1556100000
		},
	"2019-04-24T14:00:00+02:00" : {
		"windSpeed" : 9.8,
		"windDir" : 194,
		"rain" : 1,
		"cloudbase" : 2609.6325,
		"flyability" : 0,
		"reason" : "windSpeed, windDir, rain",
		"timestamp" :1556110800
		},
	"2019-04-24T17:00:00+02:00" : {
		"windSpeed" : 5.5,
		"windDir" : 190,
		"rain" : 1,
		"cloudbase" : 3139.95375,
		"flyability" : 0,
		"reason" : "windSpeed, windDir, rain",
		"timestamp" :1556121600
		},
	"2019-04-24T20:00:00+02:00" : {
		"windSpeed" : 4.7,
		"windDir" : 148,
		"rain" : 1,
		"cloudbase" : 5253.0137499999,
		"flyability" : 0,
		"reason" : "rain",
		"timestamp" :1556132400
		},
	"2019-04-24T23:00:00+02:00" : {
		"windSpeed" : 6.8,
		"windDir" : 179,
		"rain" : 0,
		"cloudbase" : 6108.3,
		"flyability" : 0,
		"reason" : "windSpeed, windDir",
		"timestamp" :1556143200
		},
	"2019-04-25T02:00:00+02:00" : {
		"windSpeed" : 6.5,
		"windDir" : 181,
		"rain" : 0,
		"cloudbase" : null,
		"flyability" : 0,
		"reason" : "windSpeed, windDir",
		"timestamp" :1556154000
		},
	"2019-04-25T05:00:00+02:00" : {
		"windSpeed" : 7.8,
		"windDir" : 176,
		"rain" : 0,
		"cloudbase" : 5357.6850000001,
		"flyability" : 0,
		"reason" : "windSpeed, windDir",
		"timestamp" :1556164800
		},
	"2019-04-25T08:00:00+02:00" : {
		"windSpeed" : 6.5,
		"windDir" : 164,
		"rain" : 1,
		"cloudbase" : 2554.05375,
		"flyability" : 0,
		"reason" : "windSpeed, windDir, rain",
		"timestamp" :1556175600
		},
	"2019-04-25T11:00:00+02:00" : {
		"windSpeed" : 6.9,
		"windDir" : 168,
		"rain" : 1,
		"cloudbase" : 2408.6575,
		"flyability" : 0,
		"reason" : "windSpeed, windDir, rain",
		"timestamp" :1556186400
		},
	"2019-04-25T14:00:00+02:00" : {
		"windSpeed" : 5.2,
		"windDir" : 181,
		"rain" : 1,
		"cloudbase" : 3570.62375,
		"flyability" : 0,
		"reason" : "windSpeed, windDir, rain",
		"timestamp" :1556197200
		},
	"2019-04-25T17:00:00+02:00" : {
		"windSpeed" : 3,
		"windDir" : 242,
		"rain" : 1,
		"cloudbase" : 1686.5150000001,
		"flyability" : 0,
		"reason" : "windDir, rain",
		"timestamp" :1556208000
		},
	"2019-04-25T20:00:00+02:00" : {
		"windSpeed" : 2.2,
		"windDir" : 170,
		"rain" : 1,
		"cloudbase" : 2241.75,
		"flyability" : 0,
		"reason" : "windDir, rain",
		"timestamp" :1556218800
		},
	"2019-04-25T23:00:00+02:00" : {
		"windSpeed" : 3.5,
		"windDir" : 194,
		"rain" : 1,
		"cloudbase" : 2927.1,
		"flyability" : 0,
		"reason" : "windDir, rain",
		"timestamp" :1556229600
		},
	"2019-04-26T02:00:00+02:00" : {
		"windSpeed" : 4.1,
		"windDir" : 191,
		"rain" : 1,
		"cloudbase" : 4568.38875,
		"flyability" : 0,
		"reason" : "windDir, rain",
		"timestamp" :1556240400
		},
	"2019-04-26T05:00:00+02:00" : {
		"windSpeed" : 4.1,
		"windDir" : 189,
		"rain" : 0,
		"cloudbase" : 4900.04625,
		"flyability" : 0,
		"reason" : "windDir",
		"timestamp" :1556251200
		},
	"2019-04-26T08:00:00+02:00" : {
		"windSpeed" : 5,
		"windDir" : 185,
		"rain" : 0,
		"cloudbase" : 1129.1319999999,
		"flyability" : 0,
		"reason" : "windDir",
		"timestamp" :1556262000
		},
	"2019-04-26T11:00:00+02:00" : {
		"windSpeed" : 5.2,
		"windDir" : 212,
		"rain" : 1,
		"cloudbase" : null,
		"flyability" : 0,
		"reason" : "windSpeed, windDir, rain",
		"timestamp" :1556272800
		},
	"2019-04-26T14:00:00+02:00" : {
		"windSpeed" : 5.1,
		"windDir" : 186,
		"rain" : 0,
		"cloudbase" : 1063.30375,
		"flyability" : 0,
		"reason" : "windSpeed, windDir",
		"timestamp" :1556283600
		},
	"2019-04-26T17:00:00+02:00" : {
		"windSpeed" : 5.6,
		"windDir" : 210,
		"rain" : 0,
		"cloudbase" : 6681.6075,
		"flyability" : 0,
		"reason" : "windSpeed, windDir",
		"timestamp" :1556294400
		},
	"2019-04-26T20:00:00+02:00" : {
		"windSpeed" : 5.9,
		"windDir" : 236,
		"rain" : 1,
		"cloudbase" : 4918.35,
		"flyability" : 0,
		"reason" : "windSpeed, windDir, rain",
		"timestamp" :1556305200
		},
	"2019-04-26T23:00:00+02:00" : {
		"windSpeed" : 5.3,
		"windDir" : 254,
		"rain" : 1,
		"cloudbase" : 1777.6197499998,
		"flyability" : 0,
		"reason" : "windSpeed, windDir, rain",
		"timestamp" :1556316000
		},
	"2019-04-27T02:00:00+02:00" : {
		"windSpeed" : 4.7,
		"windDir" : 253,
		"rain" : 1,
		"cloudbase" : 1150,
		"flyability" : 0,
		"reason" : "windDir, rain",
		"timestamp" :1556326800
		},
	"2019-04-27T05:00:00+02:00" : {
		"windSpeed" : 4,
		"windDir" : 248,
		"rain" : 0,
		"cloudbase" : null,
		"flyability" : 0,
		"reason" : "windDir",
		"timestamp" :1556337600
		},
	"2019-04-27T08:00:00+02:00" : {
		"windSpeed" : 4.9,
		"windDir" : 233,
		"rain" : 0,
		"cloudbase" : null,
		"flyability" : 0,
		"reason" : "windDir",
		"timestamp" :1556348400
		},
	"2019-04-27T11:00:00+02:00" : {
		"windSpeed" : 6.9,
		"windDir" : 223,
		"rain" : 0,
		"cloudbase" : 725.30150000001,
		"flyability" : 0,
		"reason" : "windSpeed, windDir",
		"timestamp" :1556359200
		},
	"2019-04-27T14:00:00+02:00" : {
		"windSpeed" : 4.9,
		"windDir" : 216,
		"rain" : 1,
		"cloudbase" : 876.50000000001,
		"flyability" : 0,
		"reason" : "windDir, rain",
		"timestamp" :1556370000
		},
	"2019-04-27T17:00:00+02:00" : {
		"windSpeed" : 5,
		"windDir" : 221,
		"rain" : 1,
		"cloudbase" : 838.1585,
		"flyability" : 0,
		"reason" : "windDir, rain",
		"timestamp" :1556380800
		},
	"2019-04-27T20:00:00+02:00" : {
		"windSpeed" : 5.1,
		"windDir" : 236,
		"rain" : 1,
		"cloudbase" : 984.14425000008,
		"flyability" : 0,
		"reason" : "windSpeed, windDir, rain",
		"timestamp" :1556391600
		},
	"2019-04-27T23:00:00+02:00" : {
		"windSpeed" : 3.4,
		"windDir" : 256,
		"rain" : 1,
		"cloudbase" : 1418.89625,
		"flyability" : 0,
		"reason" : "windDir, rain",
		"timestamp" :1556402400
		},
	"2019-04-28T02:00:00+02:00" : {
		"windSpeed" : 3.2,
		"windDir" : 231,
		"rain" : 0,
		"cloudbase" : 3140.87375,
		"flyability" : 0,
		"reason" : "windDir",
		"timestamp" :1556413200
		},
	"2019-04-28T05:00:00+02:00" : {
		"windSpeed" : 3.6,
		"windDir" : 242,
		"rain" : 0,
		"cloudbase" : 1478.45,
		"flyability" : 0,
		"reason" : "windDir",
		"timestamp" :1556424000
		},
	"2019-04-28T08:00:00+02:00" : {
		"windSpeed" : 3.9,
		"windDir" : 255,
		"rain" : 0,
		"cloudbase" : null,
		"flyability" : 0,
		"reason" : "windDir",
		"timestamp" :1556434800
		},
	"2019-04-28T11:00:00+02:00" : {
		"windSpeed" : 4.4,
		"windDir" : 257,
		"rain" : 1,
		"cloudbase" : 178.43925,
		"flyability" : 0,
		"reason" : "windDir, rain, cloudbase",
		"timestamp" :1556445600
		},
	"2019-04-28T14:00:00+02:00" : {
		"windSpeed" : 4,
		"windDir" : 269,
		"rain" : 1,
		"cloudbase" : 1081.65375,
		"flyability" : 0,
		"reason" : "windDir, rain",
		"timestamp" :1556456400
		}
	}
}