{
"site" : "Haselbourg-neustadtmuhle",
"id" : 2871,
"orientations" : "00000020",
"forecasts" : { 
	"2019-04-22T05:00:00+02:00" : {
		"windSpeed" : 2.5,
		"windDir" : 125,
		"rain" : 0,
		"cloudbase" : null,
		"flyability" : 0,
		"reason" : "windDir",
		"timestamp" :1555905600
		},
	"2019-04-22T08:00:00+02:00" : {
		"windSpeed" : 2.5,
		"windDir" : 100,
		"rain" : 0,
		"cloudbase" : null,
		"flyability" : 0,
		"reason" : "windDir",
		"timestamp" :1555916400
		},
	"2019-04-22T11:00:00+02:00" : {
		"windSpeed" : 3.2,
		"windDir" : 85,
		"rain" : 0,
		"cloudbase" : 8016.65,
		"flyability" : 0,
		"reason" : "windDir",
		"timestamp" :1555927200
		},
	"2019-04-22T14:00:00+02:00" : {
		"windSpeed" : 4.5,
		"windDir" : 71,
		"rain" : 0,
		"cloudbase" : 8800,
		"flyability" : 0,
		"reason" : "windDir",
		"timestamp" :1555938000
		},
	"2019-04-22T17:00:00+02:00" : {
		"windSpeed" : 4.6,
		"windDir" : 69,
		"rain" : 0,
		"cloudbase" : 7600,
		"flyability" : 0,
		"reason" : "windDir",
		"timestamp" :1555948800
		},
	"2019-04-22T20:00:00+02:00" : {
		"windSpeed" : 4.4,
		"windDir" : 70,
		"rain" : 0,
		"cloudbase" : 7366.75,
		"flyability" : 0,
		"reason" : "windDir",
		"timestamp" :1555959600
		},
	"2019-04-22T23:00:00+02:00" : {
		"windSpeed" : 4.1,
		"windDir" : 81,
		"rain" : 0,
		"cloudbase" : 10000,
		"flyability" : 0,
		"reason" : "windDir",
		"timestamp" :1555970400
		},
	"2019-04-23T02:00:00+02:00" : {
		"windSpeed" : 3.3,
		"windDir" : 87,
		"rain" : 0,
		"cloudbase" : 10500,
		"flyability" : 0,
		"reason" : "windDir",
		"timestamp" :1555981200
		},
	"2019-04-23T05:00:00+02:00" : {
		"windSpeed" : 3.3,
		"windDir" : 87,
		"rain" : 0,
		"cloudbase" : 8950,
		"flyability" : 0,
		"reason" : "windDir",
		"timestamp" :1555992000
		},
	"2019-04-23T08:00:00+02:00" : {
		"windSpeed" : 2.6,
		"windDir" : 96,
		"rain" : 0,
		"cloudbase" : 9433.35,
		"flyability" : 0,
		"reason" : "windDir",
		"timestamp" :1556002800
		},
	"2019-04-23T11:00:00+02:00" : {
		"windSpeed" : 1.7,
		"windDir" : 107,
		"rain" : 0,
		"cloudbase" : 9166.5499999999,
		"flyability" : 0,
		"reason" : "windDir",
		"timestamp" :1556013600
		},
	"2019-04-23T14:00:00+02:00" : {
		"windSpeed" : 2.6,
		"windDir" : 94,
		"rain" : 0,
		"cloudbase" : 4724.975,
		"flyability" : 0,
		"reason" : "windDir",
		"timestamp" :1556024400
		},
	"2019-04-23T17:00:00+02:00" : {
		"windSpeed" : 2.5,
		"windDir" : 107,
		"rain" : 1,
		"cloudbase" : 4708.35,
		"flyability" : 0,
		"reason" : "windDir, rain",
		"timestamp" :1556035200
		},
	"2019-04-23T20:00:00+02:00" : {
		"windSpeed" : 1.3,
		"windDir" : 117,
		"rain" : 0,
		"cloudbase" : 6150,
		"flyability" : 0,
		"reason" : "windDir",
		"timestamp" :1556046000
		},
	"2019-04-23T23:00:00+02:00" : {
		"windSpeed" : 1.7,
		"windDir" : 174,
		"rain" : 0,
		"cloudbase" : 9000,
		"flyability" : 0,
		"reason" : "windDir",
		"timestamp" :1556056800
		},
	"2019-04-24T02:00:00+02:00" : {
		"windSpeed" : 1.8,
		"windDir" : 204,
		"rain" : 0,
		"cloudbase" : null,
		"flyability" : 0,
		"reason" : "windDir",
		"timestamp" :1556067600
		},
	"2019-04-24T05:00:00+02:00" : {
		"windSpeed" : 5,
		"windDir" : 226,
		"rain" : 0,
		"cloudbase" : 6700,
		"flyability" : 0,
		"reason" : "windDir",
		"timestamp" :1556078400
		},
	"2019-04-24T08:00:00+02:00" : {
		"windSpeed" : 2.7,
		"windDir" : 220,
		"rain" : 0,
		"cloudbase" : null,
		"flyability" : 0,
		"reason" : "windDir",
		"timestamp" :1556089200
		},
	"2019-04-24T11:00:00+02:00" : {
		"windSpeed" : 0.8,
		"windDir" : 169,
		"rain" : 0,
		"cloudbase" : null,
		"flyability" : 0,
		"reason" : "windDir",
		"timestamp" :1556100000
		},
	"2019-04-24T14:00:00+02:00" : {
		"windSpeed" : 4.1,
		"windDir" : 115,
		"rain" : 0,
		"cloudbase" : 8866.6,
		"flyability" : 0,
		"reason" : "windDir",
		"timestamp" :1556110800
		},
	"2019-04-24T17:00:00+02:00" : {
		"windSpeed" : 2.2,
		"windDir" : 233,
		"rain" : 0,
		"cloudbase" : 8183.7000000002,
		"flyability" : 0,
		"reason" : "windDir",
		"timestamp" :1556121600
		},
	"2019-04-24T20:00:00+02:00" : {
		"windSpeed" : 7,
		"windDir" : 243,
		"rain" : 0,
		"cloudbase" : 5098.8499999995,
		"flyability" : 0,
		"reason" : "windSpeed, windDir",
		"timestamp" :1556132400
		},
	"2019-04-24T23:00:00+02:00" : {
		"windSpeed" : 7.2,
		"windDir" : 240,
		"rain" : 0,
		"cloudbase" : 1625.025,
		"flyability" : 0,
		"reason" : "windSpeed, windDir",
		"timestamp" :1556143200
		},
	"2019-04-25T02:00:00+02:00" : {
		"windSpeed" : 2.3,
		"windDir" : 145,
		"rain" : 1,
		"cloudbase" : 3741.9500000001,
		"flyability" : 0,
		"reason" : "windDir, rain",
		"timestamp" :1556154000
		},
	"2019-04-25T05:00:00+02:00" : {
		"windSpeed" : 2.2,
		"windDir" : 137,
		"rain" : 0,
		"cloudbase" : null,
		"flyability" : 0,
		"reason" : "windDir",
		"timestamp" :1556164800
		},
	"2019-04-25T08:00:00+02:00" : {
		"windSpeed" : 4.2,
		"windDir" : 128,
		"rain" : 1,
		"cloudbase" : null,
		"flyability" : 0,
		"reason" : "windDir, rain",
		"timestamp" :1556175600
		},
	"2019-04-25T11:00:00+02:00" : {
		"windSpeed" : 4.6,
		"windDir" : 123,
		"rain" : 0,
		"cloudbase" : null,
		"flyability" : 0,
		"reason" : "windDir",
		"timestamp" :1556186400
		},
	"2019-04-25T14:00:00+02:00" : {
		"windSpeed" : 2.9,
		"windDir" : 128,
		"rain" : 0,
		"cloudbase" : null,
		"flyability" : 0,
		"reason" : "windDir",
		"timestamp" :1556197200
		},
	"2019-04-25T17:00:00+02:00" : {
		"windSpeed" : 2.1,
		"windDir" : 146,
		"rain" : 1,
		"cloudbase" : null,
		"flyability" : 0,
		"reason" : "windDir, rain",
		"timestamp" :1556208000
		},
	"2019-04-25T20:00:00+02:00" : {
		"windSpeed" : 4.9,
		"windDir" : 273,
		"rain" : 0,
		"cloudbase" : null,
		"flyability" : 100,
		"reason" : "",
		"timestamp" :1556218800
		},
	"2019-04-25T23:00:00+02:00" : {
		"windSpeed" : 4.8,
		"windDir" : 267,
		"rain" : 1,
		"cloudbase" : null,
		"flyability" : 0,
		"reason" : "rain",
		"timestamp" :1556229600
		},
	"2019-04-26T02:00:00+02:00" : {
		"windSpeed" : 5.7,
		"windDir" : 262,
		"rain" : 1,
		"cloudbase" : 1650.05,
		"flyability" : 0,
		"reason" : "windSpeed, rain",
		"timestamp" :1556240400
		},
	"2019-04-26T05:00:00+02:00" : {
		"windSpeed" : 4.9,
		"windDir" : 240,
		"rain" : 1,
		"cloudbase" : 2533.425,
		"flyability" : 0,
		"reason" : "windDir, rain",
		"timestamp" :1556251200
		},
	"2019-04-26T08:00:00+02:00" : {
		"windSpeed" : 3.5,
		"windDir" : 236,
		"rain" : 1,
		"cloudbase" : 3858.375,
		"flyability" : 0,
		"reason" : "windDir, rain",
		"timestamp" :1556262000
		},
	"2019-04-26T11:00:00+02:00" : {
		"windSpeed" : 3.9,
		"windDir" : 254,
		"rain" : 0,
		"cloudbase" : 576.63999999999,
		"flyability" : 100,
		"reason" : "",
		"timestamp" :1556272800
		},
	"2019-04-26T14:00:00+02:00" : {
		"windSpeed" : 3.6,
		"windDir" : 252,
		"rain" : 0,
		"cloudbase" : 5266.7,
		"flyability" : 100,
		"reason" : "",
		"timestamp" :1556283600
		},
	"2019-04-26T17:00:00+02:00" : {
		"windSpeed" : 3.8,
		"windDir" : 252,
		"rain" : 0,
		"cloudbase" : 4015.9499999997,
		"flyability" : 100,
		"reason" : "",
		"timestamp" :1556294400
		},
	"2019-04-26T20:00:00+02:00" : {
		"windSpeed" : 1.6,
		"windDir" : 238,
		"rain" : 1,
		"cloudbase" : 5900,
		"flyability" : 0,
		"reason" : "windDir, rain",
		"timestamp" :1556305200
		},
	"2019-04-26T23:00:00+02:00" : {
		"windSpeed" : 2.9,
		"windDir" : 209,
		"rain" : 0,
		"cloudbase" : null,
		"flyability" : 0,
		"reason" : "windDir",
		"timestamp" :1556316000
		},
	"2019-04-27T02:00:00+02:00" : {
		"windSpeed" : 4,
		"windDir" : 223,
		"rain" : 0,
		"cloudbase" : null,
		"flyability" : 0,
		"reason" : "windDir",
		"timestamp" :1556326800
		},
	"2019-04-27T05:00:00+02:00" : {
		"windSpeed" : 3.8,
		"windDir" : 226,
		"rain" : 0,
		"cloudbase" : null,
		"flyability" : 0,
		"reason" : "windDir",
		"timestamp" :1556337600
		},
	"2019-04-27T08:00:00+02:00" : {
		"windSpeed" : 3.9,
		"windDir" : 227,
		"rain" : 1,
		"cloudbase" : 2324.3249999997,
		"flyability" : 0,
		"reason" : "windDir, rain",
		"timestamp" :1556348400
		},
	"2019-04-27T11:00:00+02:00" : {
		"windSpeed" : 6,
		"windDir" : 250,
		"rain" : 1,
		"cloudbase" : 1073.245,
		"flyability" : 0,
		"reason" : "windSpeed, rain",
		"timestamp" :1556359200
		},
	"2019-04-27T14:00:00+02:00" : {
		"windSpeed" : 6.9,
		"windDir" : 230,
		"rain" : 1,
		"cloudbase" : 979.93999999997,
		"flyability" : 0,
		"reason" : "windSpeed, windDir, rain",
		"timestamp" :1556370000
		},
	"2019-04-27T17:00:00+02:00" : {
		"windSpeed" : 7,
		"windDir" : 218,
		"rain" : 1,
		"cloudbase" : 2450,
		"flyability" : 0,
		"reason" : "windSpeed, windDir, rain",
		"timestamp" :1556380800
		},
	"2019-04-27T20:00:00+02:00" : {
		"windSpeed" : 7.7,
		"windDir" : 253,
		"rain" : 1,
		"cloudbase" : 2641.75,
		"flyability" : 0,
		"reason" : "windSpeed, rain",
		"timestamp" :1556391600
		},
	"2019-04-27T23:00:00+02:00" : {
		"windSpeed" : 8.4,
		"windDir" : 246,
		"rain" : 1,
		"cloudbase" : 573.33,
		"flyability" : 0,
		"reason" : "windSpeed, windDir, rain",
		"timestamp" :1556402400
		},
	"2019-04-28T02:00:00+02:00" : {
		"windSpeed" : 8.1,
		"windDir" : 251,
		"rain" : 1,
		"cloudbase" : 346.63999999999,
		"flyability" : 0,
		"reason" : "windSpeed, rain",
		"timestamp" :1556413200
		}
	}
}