{
"site" : "Puy de st romain",
"id" : 2894,
"orientations" : "00002220",
"forecasts" : { 
	"2019-04-21T17:00:00+02:00" : {
		"windSpeed" : 2.5,
		"windDir" : 94,
		"rain" : 1,
		"cloudbase" : 3200.3495999996,
		"flyability" : 0,
		"reason" : "windDir, rain",
		"timestamp" :1555862400
		},
	"2019-04-21T20:00:00+02:00" : {
		"windSpeed" : 1.4,
		"windDir" : 182,
		"rain" : 1,
		"cloudbase" : 3311.6,
		"flyability" : 0,
		"reason" : "rain",
		"timestamp" :1555873200
		},
	"2019-04-21T23:00:00+02:00" : {
		"windSpeed" : 0.7,
		"windDir" : 287,
		"rain" : 0,
		"cloudbase" : 4738.9988400006,
		"flyability" : 100,
		"reason" : "",
		"timestamp" :1555884000
		},
	"2019-04-22T02:00:00+02:00" : {
		"windSpeed" : 0.9,
		"windDir" : 210,
		"rain" : 0,
		"cloudbase" : 9491.09312,
		"flyability" : 100,
		"reason" : "",
		"timestamp" :1555894800
		},
	"2019-04-22T05:00:00+02:00" : {
		"windSpeed" : 0.7,
		"windDir" : 184,
		"rain" : 0,
		"cloudbase" : 3516.6328799999,
		"flyability" : 100,
		"reason" : "",
		"timestamp" :1555905600
		},
	"2019-04-22T08:00:00+02:00" : {
		"windSpeed" : 1.5,
		"windDir" : 190,
		"rain" : 1,
		"cloudbase" : 6203.52064,
		"flyability" : 0,
		"reason" : "rain",
		"timestamp" :1555916400
		},
	"2019-04-22T11:00:00+02:00" : {
		"windSpeed" : 0.7,
		"windDir" : 72,
		"rain" : 1,
		"cloudbase" : 6661.7468800001,
		"flyability" : 0,
		"reason" : "windDir, rain",
		"timestamp" :1555927200
		},
	"2019-04-22T14:00:00+02:00" : {
		"windSpeed" : 1.4,
		"windDir" : 40,
		"rain" : 1,
		"cloudbase" : 8300,
		"flyability" : 0,
		"reason" : "windDir, rain",
		"timestamp" :1555938000
		},
	"2019-04-22T17:00:00+02:00" : {
		"windSpeed" : 2.1,
		"windDir" : 18,
		"rain" : 0,
		"cloudbase" : 2438.17624,
		"flyability" : 0,
		"reason" : "windDir",
		"timestamp" :1555948800
		},
	"2019-04-22T20:00:00+02:00" : {
		"windSpeed" : 1.9,
		"windDir" : 89,
		"rain" : 0,
		"cloudbase" : 9137.48312,
		"flyability" : 0,
		"reason" : "windDir",
		"timestamp" :1555959600
		},
	"2019-04-22T23:00:00+02:00" : {
		"windSpeed" : 1.4,
		"windDir" : 203,
		"rain" : 1,
		"cloudbase" : 2445.93156,
		"flyability" : 0,
		"reason" : "rain",
		"timestamp" :1555970400
		},
	"2019-04-23T02:00:00+02:00" : {
		"windSpeed" : 2.8,
		"windDir" : 187,
		"rain" : 1,
		"cloudbase" : 2469.1265599999,
		"flyability" : 0,
		"reason" : "rain",
		"timestamp" :1555981200
		},
	"2019-04-23T05:00:00+02:00" : {
		"windSpeed" : 0.8,
		"windDir" : 193,
		"rain" : 1,
		"cloudbase" : 5771.4460799998,
		"flyability" : 0,
		"reason" : "rain",
		"timestamp" :1555992000
		},
	"2019-04-23T08:00:00+02:00" : {
		"windSpeed" : 2.5,
		"windDir" : 190,
		"rain" : 0,
		"cloudbase" : 2841.47812,
		"flyability" : 100,
		"reason" : "",
		"timestamp" :1556002800
		},
	"2019-04-23T11:00:00+02:00" : {
		"windSpeed" : 0.4,
		"windDir" : 96,
		"rain" : 1,
		"cloudbase" : 3266.1412399999,
		"flyability" : 0,
		"reason" : "windDir, rain",
		"timestamp" :1556013600
		},
	"2019-04-23T14:00:00+02:00" : {
		"windSpeed" : 1.8,
		"windDir" : 64,
		"rain" : 1,
		"cloudbase" : 2150,
		"flyability" : 0,
		"reason" : "windDir, rain",
		"timestamp" :1556024400
		},
	"2019-04-23T17:00:00+02:00" : {
		"windSpeed" : 3.3,
		"windDir" : 144,
		"rain" : 0,
		"cloudbase" : 3500,
		"flyability" : 0,
		"reason" : "windDir",
		"timestamp" :1556035200
		},
	"2019-04-23T20:00:00+02:00" : {
		"windSpeed" : 2.2,
		"windDir" : 171,
		"rain" : 0,
		"cloudbase" : 2800,
		"flyability" : 100,
		"reason" : "",
		"timestamp" :1556046000
		},
	"2019-04-23T23:00:00+02:00" : {
		"windSpeed" : 2,
		"windDir" : 166,
		"rain" : 1,
		"cloudbase" : 8600,
		"flyability" : 0,
		"reason" : "rain",
		"timestamp" :1556056800
		},
	"2019-04-24T02:00:00+02:00" : {
		"windSpeed" : 2.7,
		"windDir" : 168,
		"rain" : 1,
		"cloudbase" : 700,
		"flyability" : 0,
		"reason" : "rain, cloudbase",
		"timestamp" :1556067600
		},
	"2019-04-24T05:00:00+02:00" : {
		"windSpeed" : 4.8,
		"windDir" : 179,
		"rain" : 0,
		"cloudbase" : null,
		"flyability" : 100,
		"reason" : "",
		"timestamp" :1556078400
		},
	"2019-04-24T08:00:00+02:00" : {
		"windSpeed" : 4.8,
		"windDir" : 174,
		"rain" : 0,
		"cloudbase" : 2750,
		"flyability" : 100,
		"reason" : "",
		"timestamp" :1556089200
		},
	"2019-04-24T11:00:00+02:00" : {
		"windSpeed" : 7.6,
		"windDir" : 187,
		"rain" : 1,
		"cloudbase" : 4725.2239999994,
		"flyability" : 0,
		"reason" : "windSpeed, rain",
		"timestamp" :1556100000
		},
	"2019-04-24T14:00:00+02:00" : {
		"windSpeed" : 3.2,
		"windDir" : 246,
		"rain" : 1,
		"cloudbase" : 1139.546424,
		"flyability" : 0,
		"reason" : "rain",
		"timestamp" :1556110800
		},
	"2019-04-24T17:00:00+02:00" : {
		"windSpeed" : 1.7,
		"windDir" : 188,
		"rain" : 1,
		"cloudbase" : 1325.9599999999,
		"flyability" : 0,
		"reason" : "rain",
		"timestamp" :1556121600
		},
	"2019-04-24T20:00:00+02:00" : {
		"windSpeed" : 6.2,
		"windDir" : 177,
		"rain" : 1,
		"cloudbase" : null,
		"flyability" : 0,
		"reason" : "windSpeed, rain",
		"timestamp" :1556132400
		},
	"2019-04-24T23:00:00+02:00" : {
		"windSpeed" : 6,
		"windDir" : 175,
		"rain" : 0,
		"cloudbase" : null,
		"flyability" : 0,
		"reason" : "windSpeed",
		"timestamp" :1556143200
		},
	"2019-04-25T02:00:00+02:00" : {
		"windSpeed" : 7,
		"windDir" : 177,
		"rain" : 0,
		"cloudbase" : 6400,
		"flyability" : 0,
		"reason" : "windSpeed",
		"timestamp" :1556154000
		},
	"2019-04-25T05:00:00+02:00" : {
		"windSpeed" : 8.6,
		"windDir" : 174,
		"rain" : 1,
		"cloudbase" : 6560.8605599997,
		"flyability" : 0,
		"reason" : "windSpeed, rain",
		"timestamp" :1556164800
		},
	"2019-04-25T08:00:00+02:00" : {
		"windSpeed" : 8.6,
		"windDir" : 173,
		"rain" : 1,
		"cloudbase" : 6400,
		"flyability" : 0,
		"reason" : "windSpeed, rain",
		"timestamp" :1556175600
		},
	"2019-04-25T11:00:00+02:00" : {
		"windSpeed" : 9.5,
		"windDir" : 176,
		"rain" : 1,
		"cloudbase" : 4980.57624,
		"flyability" : 0,
		"reason" : "windSpeed, rain",
		"timestamp" :1556186400
		},
	"2019-04-25T14:00:00+02:00" : {
		"windSpeed" : 5.4,
		"windDir" : 234,
		"rain" : 1,
		"cloudbase" : 1178.34156,
		"flyability" : 0,
		"reason" : "windSpeed, rain",
		"timestamp" :1556197200
		},
	"2019-04-25T17:00:00+02:00" : {
		"windSpeed" : 4,
		"windDir" : 130,
		"rain" : 1,
		"cloudbase" : 3074.1953200001,
		"flyability" : 0,
		"reason" : "windDir, rain",
		"timestamp" :1556208000
		},
	"2019-04-25T20:00:00+02:00" : {
		"windSpeed" : 3.4,
		"windDir" : 142,
		"rain" : 0,
		"cloudbase" : 4842.7756400001,
		"flyability" : 0,
		"reason" : "windDir",
		"timestamp" :1556218800
		},
	"2019-04-25T23:00:00+02:00" : {
		"windSpeed" : 2.3,
		"windDir" : 178,
		"rain" : 0,
		"cloudbase" : null,
		"flyability" : 100,
		"reason" : "",
		"timestamp" :1556229600
		},
	"2019-04-26T02:00:00+02:00" : {
		"windSpeed" : 2.2,
		"windDir" : 189,
		"rain" : 0,
		"cloudbase" : null,
		"flyability" : 100,
		"reason" : "",
		"timestamp" :1556240400
		},
	"2019-04-26T05:00:00+02:00" : {
		"windSpeed" : 2.9,
		"windDir" : 192,
		"rain" : 0,
		"cloudbase" : 5289.7187199999,
		"flyability" : 100,
		"reason" : "",
		"timestamp" :1556251200
		},
	"2019-04-26T08:00:00+02:00" : {
		"windSpeed" : 3.7,
		"windDir" : 178,
		"rain" : 1,
		"cloudbase" : 5900,
		"flyability" : 0,
		"reason" : "rain",
		"timestamp" :1556262000
		},
	"2019-04-26T11:00:00+02:00" : {
		"windSpeed" : 5,
		"windDir" : 233,
		"rain" : 0,
		"cloudbase" : null,
		"flyability" : 100,
		"reason" : "",
		"timestamp" :1556272800
		},
	"2019-04-26T14:00:00+02:00" : {
		"windSpeed" : 5.7,
		"windDir" : 236,
		"rain" : 0,
		"cloudbase" : 6488.9200799999,
		"flyability" : 0,
		"reason" : "windSpeed",
		"timestamp" :1556283600
		},
	"2019-04-26T17:00:00+02:00" : {
		"windSpeed" : 2.7,
		"windDir" : 166,
		"rain" : 1,
		"cloudbase" : 4842.015,
		"flyability" : 0,
		"reason" : "rain",
		"timestamp" :1556294400
		},
	"2019-04-26T20:00:00+02:00" : {
		"windSpeed" : 2.7,
		"windDir" : 206,
		"rain" : 1,
		"cloudbase" : null,
		"flyability" : 0,
		"reason" : "rain",
		"timestamp" :1556305200
		},
	"2019-04-26T23:00:00+02:00" : {
		"windSpeed" : 2.2,
		"windDir" : 195,
		"rain" : 1,
		"cloudbase" : 689.28,
		"flyability" : 0,
		"reason" : "rain, cloudbase",
		"timestamp" :1556316000
		},
	"2019-04-27T02:00:00+02:00" : {
		"windSpeed" : 1.9,
		"windDir" : 181,
		"rain" : 0,
		"cloudbase" : 1114.5463679999,
		"flyability" : 100,
		"reason" : "",
		"timestamp" :1556326800
		},
	"2019-04-27T05:00:00+02:00" : {
		"windSpeed" : 2.6,
		"windDir" : 245,
		"rain" : 0,
		"cloudbase" : 904.43037600002,
		"flyability" : 100,
		"reason" : "",
		"timestamp" :1556337600
		},
	"2019-04-27T08:00:00+02:00" : {
		"windSpeed" : 2.2,
		"windDir" : 187,
		"rain" : 0,
		"cloudbase" : 820,
		"flyability" : 100,
		"reason" : "",
		"timestamp" :1556348400
		},
	"2019-04-27T11:00:00+02:00" : {
		"windSpeed" : 2.5,
		"windDir" : 205,
		"rain" : 1,
		"cloudbase" : 728.26524799997,
		"flyability" : 0,
		"reason" : "rain",
		"timestamp" :1556359200
		},
	"2019-04-27T14:00:00+02:00" : {
		"windSpeed" : 4.9,
		"windDir" : 252,
		"rain" : 0,
		"cloudbase" : 1546.23968,
		"flyability" : 100,
		"reason" : "",
		"timestamp" :1556370000
		}
	}
}