{
"site" : "La Roche d'Aujoux",
"id" : 2978,
"orientations" : "00000002",
"forecasts" : { 
	"2019-04-18T05:00:00+02:00" : {
		"windSpeed" : 3.6,
		"windDir" : 150,
		"rain" : 0,
		"cloudbase" : 6767.14886,
		"flyability" : 0,
		"reason" : "windDir",
		"timestamp" :1555560000
		},
	"2019-04-18T08:00:00+02:00" : {
		"windSpeed" : 4.1,
		"windDir" : 167,
		"rain" : 0,
		"cloudbase" : 11000,
		"flyability" : 0,
		"reason" : "windDir",
		"timestamp" :1555570800
		},
	"2019-04-18T11:00:00+02:00" : {
		"windSpeed" : 3.4,
		"windDir" : 154,
		"rain" : 0,
		"cloudbase" : 10000,
		"flyability" : 0,
		"reason" : "windDir",
		"timestamp" :1555581600
		},
	"2019-04-18T14:00:00+02:00" : {
		"windSpeed" : 4.3,
		"windDir" : 146,
		"rain" : 0,
		"cloudbase" : 9800,
		"flyability" : 0,
		"reason" : "windDir",
		"timestamp" :1555592400
		},
	"2019-04-18T17:00:00+02:00" : {
		"windSpeed" : 3.8,
		"windDir" : 158,
		"rain" : 0,
		"cloudbase" : 9232.46456,
		"flyability" : 0,
		"reason" : "windDir",
		"timestamp" :1555603200
		},
	"2019-04-18T20:00:00+02:00" : {
		"windSpeed" : 2.6,
		"windDir" : 113,
		"rain" : 0,
		"cloudbase" : 10044.29342,
		"flyability" : 0,
		"reason" : "windDir",
		"timestamp" :1555614000
		},
	"2019-04-18T23:00:00+02:00" : {
		"windSpeed" : 2.4,
		"windDir" : 145,
		"rain" : 0,
		"cloudbase" : 10073.9557,
		"flyability" : 0,
		"reason" : "windDir",
		"timestamp" :1555624800
		},
	"2019-04-19T02:00:00+02:00" : {
		"windSpeed" : 1.9,
		"windDir" : 188,
		"rain" : 0,
		"cloudbase" : 10500,
		"flyability" : 0,
		"reason" : "windDir",
		"timestamp" :1555635600
		},
	"2019-04-19T05:00:00+02:00" : {
		"windSpeed" : 1.7,
		"windDir" : 194,
		"rain" : 0,
		"cloudbase" : null,
		"flyability" : 0,
		"reason" : "windDir",
		"timestamp" :1555646400
		},
	"2019-04-19T08:00:00+02:00" : {
		"windSpeed" : 2.1,
		"windDir" : 178,
		"rain" : 0,
		"cloudbase" : null,
		"flyability" : 0,
		"reason" : "windDir",
		"timestamp" :1555657200
		},
	"2019-04-19T11:00:00+02:00" : {
		"windSpeed" : 1.9,
		"windDir" : 148,
		"rain" : 0,
		"cloudbase" : 2650,
		"flyability" : 0,
		"reason" : "windDir",
		"timestamp" :1555668000
		},
	"2019-04-19T14:00:00+02:00" : {
		"windSpeed" : 2.1,
		"windDir" : 137,
		"rain" : 0,
		"cloudbase" : null,
		"flyability" : 0,
		"reason" : "windDir",
		"timestamp" :1555678800
		},
	"2019-04-19T17:00:00+02:00" : {
		"windSpeed" : 2.2,
		"windDir" : 116,
		"rain" : 0,
		"cloudbase" : null,
		"flyability" : 0,
		"reason" : "windDir",
		"timestamp" :1555689600
		},
	"2019-04-19T20:00:00+02:00" : {
		"windSpeed" : 2.1,
		"windDir" : 90,
		"rain" : 0,
		"cloudbase" : null,
		"flyability" : 0,
		"reason" : "windDir",
		"timestamp" :1555700400
		},
	"2019-04-19T23:00:00+02:00" : {
		"windSpeed" : 1.6,
		"windDir" : 79,
		"rain" : 0,
		"cloudbase" : null,
		"flyability" : 0,
		"reason" : "windDir",
		"timestamp" :1555711200
		},
	"2019-04-20T02:00:00+02:00" : {
		"windSpeed" : 1.6,
		"windDir" : 78,
		"rain" : 1,
		"cloudbase" : 7600,
		"flyability" : 0,
		"reason" : "windDir, rain",
		"timestamp" :1555722000
		},
	"2019-04-20T05:00:00+02:00" : {
		"windSpeed" : 1.7,
		"windDir" : 198,
		"rain" : 1,
		"cloudbase" : 6463.88,
		"flyability" : 0,
		"reason" : "windDir, rain",
		"timestamp" :1555732800
		},
	"2019-04-20T08:00:00+02:00" : {
		"windSpeed" : 1.1,
		"windDir" : 71,
		"rain" : 0,
		"cloudbase" : null,
		"flyability" : 0,
		"reason" : "windDir",
		"timestamp" :1555743600
		},
	"2019-04-20T11:00:00+02:00" : {
		"windSpeed" : 0.1,
		"windDir" : 51,
		"rain" : 0,
		"cloudbase" : null,
		"flyability" : 0,
		"reason" : "windDir",
		"timestamp" :1555754400
		},
	"2019-04-20T14:00:00+02:00" : {
		"windSpeed" : 1.6,
		"windDir" : 19,
		"rain" : 0,
		"cloudbase" : null,
		"flyability" : 0,
		"reason" : "windDir",
		"timestamp" :1555765200
		},
	"2019-04-20T17:00:00+02:00" : {
		"windSpeed" : 3.5,
		"windDir" : 75,
		"rain" : 0,
		"cloudbase" : 8300,
		"flyability" : 0,
		"reason" : "windDir",
		"timestamp" :1555776000
		},
	"2019-04-20T20:00:00+02:00" : {
		"windSpeed" : 1.5,
		"windDir" : 341,
		"rain" : 1,
		"cloudbase" : 7500,
		"flyability" : 0,
		"reason" : "windDir, rain",
		"timestamp" :1555786800
		},
	"2019-04-20T23:00:00+02:00" : {
		"windSpeed" : 1.7,
		"windDir" : 288,
		"rain" : 0,
		"cloudbase" : null,
		"flyability" : 0,
		"reason" : "windDir",
		"timestamp" :1555797600
		},
	"2019-04-21T02:00:00+02:00" : {
		"windSpeed" : 2,
		"windDir" : 355,
		"rain" : 0,
		"cloudbase" : null,
		"flyability" : 0,
		"reason" : "windDir",
		"timestamp" :1555808400
		},
	"2019-04-21T05:00:00+02:00" : {
		"windSpeed" : 1.6,
		"windDir" : 336,
		"rain" : 0,
		"cloudbase" : null,
		"flyability" : 100,
		"reason" : "",
		"timestamp" :1555819200
		},
	"2019-04-21T08:00:00+02:00" : {
		"windSpeed" : 2,
		"windDir" : 343,
		"rain" : 0,
		"cloudbase" : 8667.06886,
		"flyability" : 0,
		"reason" : "windDir",
		"timestamp" :1555830000
		},
	"2019-04-21T11:00:00+02:00" : {
		"windSpeed" : 1.3,
		"windDir" : 1,
		"rain" : 0,
		"cloudbase" : null,
		"flyability" : 0,
		"reason" : "windDir",
		"timestamp" :1555840800
		},
	"2019-04-21T14:00:00+02:00" : {
		"windSpeed" : 1.7,
		"windDir" : 36,
		"rain" : 0,
		"cloudbase" : 9200,
		"flyability" : 0,
		"reason" : "windDir",
		"timestamp" :1555851600
		},
	"2019-04-21T17:00:00+02:00" : {
		"windSpeed" : 1.1,
		"windDir" : 63,
		"rain" : 0,
		"cloudbase" : null,
		"flyability" : 0,
		"reason" : "windDir",
		"timestamp" :1555862400
		},
	"2019-04-21T20:00:00+02:00" : {
		"windSpeed" : 1.3,
		"windDir" : 25,
		"rain" : 0,
		"cloudbase" : 6900,
		"flyability" : 0,
		"reason" : "windDir",
		"timestamp" :1555873200
		},
	"2019-04-21T23:00:00+02:00" : {
		"windSpeed" : 1.6,
		"windDir" : 288,
		"rain" : 0,
		"cloudbase" : null,
		"flyability" : 0,
		"reason" : "windDir",
		"timestamp" :1555884000
		},
	"2019-04-22T02:00:00+02:00" : {
		"windSpeed" : 2.2,
		"windDir" : 291,
		"rain" : 0,
		"cloudbase" : null,
		"flyability" : 0,
		"reason" : "windDir",
		"timestamp" :1555894800
		},
	"2019-04-22T05:00:00+02:00" : {
		"windSpeed" : 1.6,
		"windDir" : 274,
		"rain" : 0,
		"cloudbase" : 9196.69114,
		"flyability" : 0,
		"reason" : "windDir",
		"timestamp" :1555905600
		},
	"2019-04-22T08:00:00+02:00" : {
		"windSpeed" : 1.7,
		"windDir" : 279,
		"rain" : 0,
		"cloudbase" : 6917.86,
		"flyability" : 0,
		"reason" : "windDir",
		"timestamp" :1555916400
		},
	"2019-04-22T11:00:00+02:00" : {
		"windSpeed" : 1.2,
		"windDir" : 335,
		"rain" : 0,
		"cloudbase" : 8367.10886,
		"flyability" : 100,
		"reason" : "",
		"timestamp" :1555927200
		},
	"2019-04-22T14:00:00+02:00" : {
		"windSpeed" : 1.5,
		"windDir" : 360,
		"rain" : 0,
		"cloudbase" : 8381.82,
		"flyability" : 0,
		"reason" : "windDir",
		"timestamp" :1555938000
		},
	"2019-04-22T17:00:00+02:00" : {
		"windSpeed" : 2.1,
		"windDir" : 18,
		"rain" : 0,
		"cloudbase" : 9032.89114,
		"flyability" : 0,
		"reason" : "windDir",
		"timestamp" :1555948800
		},
	"2019-04-22T20:00:00+02:00" : {
		"windSpeed" : 2,
		"windDir" : 356,
		"rain" : 0,
		"cloudbase" : null,
		"flyability" : 0,
		"reason" : "windDir",
		"timestamp" :1555959600
		},
	"2019-04-22T23:00:00+02:00" : {
		"windSpeed" : 1.7,
		"windDir" : 340,
		"rain" : 0,
		"cloudbase" : 9824.37114,
		"flyability" : 0,
		"reason" : "windDir",
		"timestamp" :1555970400
		},
	"2019-04-23T02:00:00+02:00" : {
		"windSpeed" : 2.3,
		"windDir" : 178,
		"rain" : 0,
		"cloudbase" : 8424.37114,
		"flyability" : 0,
		"reason" : "windDir",
		"timestamp" :1555981200
		},
	"2019-04-23T05:00:00+02:00" : {
		"windSpeed" : 2.2,
		"windDir" : 191,
		"rain" : 0,
		"cloudbase" : 3839.29557,
		"flyability" : 0,
		"reason" : "windDir",
		"timestamp" :1555992000
		},
	"2019-04-23T08:00:00+02:00" : {
		"windSpeed" : 1.8,
		"windDir" : 240,
		"rain" : 0,
		"cloudbase" : 6203.26886,
		"flyability" : 0,
		"reason" : "windDir",
		"timestamp" :1556002800
		},
	"2019-04-23T11:00:00+02:00" : {
		"windSpeed" : 0.6,
		"windDir" : 16,
		"rain" : 0,
		"cloudbase" : null,
		"flyability" : 0,
		"reason" : "windDir",
		"timestamp" :1556013600
		},
	"2019-04-23T14:00:00+02:00" : {
		"windSpeed" : 1.2,
		"windDir" : 114,
		"rain" : 0,
		"cloudbase" : null,
		"flyability" : 0,
		"reason" : "windDir",
		"timestamp" :1556024400
		},
	"2019-04-23T17:00:00+02:00" : {
		"windSpeed" : 3.3,
		"windDir" : 132,
		"rain" : 0,
		"cloudbase" : null,
		"flyability" : 0,
		"reason" : "windDir",
		"timestamp" :1556035200
		},
	"2019-04-23T20:00:00+02:00" : {
		"windSpeed" : 3.7,
		"windDir" : 205,
		"rain" : 0,
		"cloudbase" : 5316.79684,
		"flyability" : 0,
		"reason" : "windDir",
		"timestamp" :1556046000
		},
	"2019-04-23T23:00:00+02:00" : {
		"windSpeed" : 3,
		"windDir" : 172,
		"rain" : 0,
		"cloudbase" : 6983.4157,
		"flyability" : 0,
		"reason" : "windDir",
		"timestamp" :1556056800
		},
	"2019-04-24T02:00:00+02:00" : {
		"windSpeed" : 3,
		"windDir" : 164,
		"rain" : 1,
		"cloudbase" : null,
		"flyability" : 0,
		"reason" : "windDir, rain",
		"timestamp" :1556067600
		}
	}
}