{
"site" : "La rosiere - la sevoliere",
"id" : 3000,
"orientations" : "00000002",
"forecasts" : { 
	"2019-04-20T05:00:00+02:00" : {
		"windSpeed" : 1.9,
		"windDir" : 72,
		"rain" : 0,
		"cloudbase" : null,
		"flyability" : 0,
		"reason" : "windDir",
		"timestamp" :1555732800
		},
	"2019-04-20T08:00:00+02:00" : {
		"windSpeed" : 1.5,
		"windDir" : 70,
		"rain" : 0,
		"cloudbase" : null,
		"flyability" : 0,
		"reason" : "windDir",
		"timestamp" :1555743600
		},
	"2019-04-20T11:00:00+02:00" : {
		"windSpeed" : 2.8,
		"windDir" : 85,
		"rain" : 0,
		"cloudbase" : null,
		"flyability" : 0,
		"reason" : "windDir",
		"timestamp" :1555754400
		},
	"2019-04-20T14:00:00+02:00" : {
		"windSpeed" : 2.5,
		"windDir" : 101,
		"rain" : 0,
		"cloudbase" : null,
		"flyability" : 0,
		"reason" : "windDir",
		"timestamp" :1555765200
		},
	"2019-04-20T17:00:00+02:00" : {
		"windSpeed" : 1.9,
		"windDir" : 102,
		"rain" : 0,
		"cloudbase" : null,
		"flyability" : 0,
		"reason" : "windDir",
		"timestamp" :1555776000
		},
	"2019-04-20T20:00:00+02:00" : {
		"windSpeed" : 2,
		"windDir" : 99,
		"rain" : 0,
		"cloudbase" : 7800,
		"flyability" : 0,
		"reason" : "windDir",
		"timestamp" :1555786800
		},
	"2019-04-20T23:00:00+02:00" : {
		"windSpeed" : 2.2,
		"windDir" : 79,
		"rain" : 0,
		"cloudbase" : 7457.672,
		"flyability" : 0,
		"reason" : "windDir",
		"timestamp" :1555797600
		},
	"2019-04-21T02:00:00+02:00" : {
		"windSpeed" : 2.3,
		"windDir" : 73,
		"rain" : 0,
		"cloudbase" : 5997.672,
		"flyability" : 0,
		"reason" : "windDir",
		"timestamp" :1555808400
		},
	"2019-04-21T05:00:00+02:00" : {
		"windSpeed" : 2.3,
		"windDir" : 71,
		"rain" : 0,
		"cloudbase" : 7000,
		"flyability" : 0,
		"reason" : "windDir",
		"timestamp" :1555819200
		},
	"2019-04-21T08:00:00+02:00" : {
		"windSpeed" : 1.8,
		"windDir" : 69,
		"rain" : 0,
		"cloudbase" : 4000,
		"flyability" : 0,
		"reason" : "windDir",
		"timestamp" :1555830000
		},
	"2019-04-21T11:00:00+02:00" : {
		"windSpeed" : 2.7,
		"windDir" : 79,
		"rain" : 0,
		"cloudbase" : 4617.3720000001,
		"flyability" : 0,
		"reason" : "windDir",
		"timestamp" :1555840800
		},
	"2019-04-21T14:00:00+02:00" : {
		"windSpeed" : 2.1,
		"windDir" : 98,
		"rain" : 0,
		"cloudbase" : 4858.6240000002,
		"flyability" : 0,
		"reason" : "windDir",
		"timestamp" :1555851600
		},
	"2019-04-21T17:00:00+02:00" : {
		"windSpeed" : 1.7,
		"windDir" : 95,
		"rain" : 0,
		"cloudbase" : 3198.836,
		"flyability" : 0,
		"reason" : "windDir",
		"timestamp" :1555862400
		},
	"2019-04-21T20:00:00+02:00" : {
		"windSpeed" : 2,
		"windDir" : 80,
		"rain" : 0,
		"cloudbase" : 6560.3520000004,
		"flyability" : 0,
		"reason" : "windDir",
		"timestamp" :1555873200
		},
	"2019-04-21T23:00:00+02:00" : {
		"windSpeed" : 2,
		"windDir" : 79,
		"rain" : 0,
		"cloudbase" : 8176.896,
		"flyability" : 0,
		"reason" : "windDir",
		"timestamp" :1555884000
		},
	"2019-04-22T02:00:00+02:00" : {
		"windSpeed" : 2.1,
		"windDir" : 79,
		"rain" : 0,
		"cloudbase" : 5853.492,
		"flyability" : 0,
		"reason" : "windDir",
		"timestamp" :1555894800
		},
	"2019-04-22T05:00:00+02:00" : {
		"windSpeed" : 2.1,
		"windDir" : 79,
		"rain" : 0,
		"cloudbase" : 6385.1320000001,
		"flyability" : 0,
		"reason" : "windDir",
		"timestamp" :1555905600
		},
	"2019-04-22T08:00:00+02:00" : {
		"windSpeed" : 2.5,
		"windDir" : 81,
		"rain" : 0,
		"cloudbase" : 4798.836,
		"flyability" : 0,
		"reason" : "windDir",
		"timestamp" :1555916400
		},
	"2019-04-22T11:00:00+02:00" : {
		"windSpeed" : 3.4,
		"windDir" : 83,
		"rain" : 0,
		"cloudbase" : null,
		"flyability" : 0,
		"reason" : "windDir",
		"timestamp" :1555927200
		},
	"2019-04-22T14:00:00+02:00" : {
		"windSpeed" : 3.7,
		"windDir" : 86,
		"rain" : 0,
		"cloudbase" : null,
		"flyability" : 0,
		"reason" : "windDir",
		"timestamp" :1555938000
		},
	"2019-04-22T17:00:00+02:00" : {
		"windSpeed" : 3.1,
		"windDir" : 88,
		"rain" : 0,
		"cloudbase" : null,
		"flyability" : 0,
		"reason" : "windDir",
		"timestamp" :1555948800
		},
	"2019-04-22T20:00:00+02:00" : {
		"windSpeed" : 2.3,
		"windDir" : 80,
		"rain" : 0,
		"cloudbase" : null,
		"flyability" : 0,
		"reason" : "windDir",
		"timestamp" :1555959600
		},
	"2019-04-22T23:00:00+02:00" : {
		"windSpeed" : 2.5,
		"windDir" : 84,
		"rain" : 0,
		"cloudbase" : 3790.8999999999,
		"flyability" : 0,
		"reason" : "windDir",
		"timestamp" :1555970400
		},
	"2019-04-23T02:00:00+02:00" : {
		"windSpeed" : 2.3,
		"windDir" : 80,
		"rain" : 0,
		"cloudbase" : 100,
		"flyability" : 0,
		"reason" : "windDir, cloudbase",
		"timestamp" :1555981200
		},
	"2019-04-23T05:00:00+02:00" : {
		"windSpeed" : 2.7,
		"windDir" : 78,
		"rain" : 0,
		"cloudbase" : 2207.9335999998,
		"flyability" : 0,
		"reason" : "windDir",
		"timestamp" :1555992000
		},
	"2019-04-23T08:00:00+02:00" : {
		"windSpeed" : 2.4,
		"windDir" : 72,
		"rain" : 0,
		"cloudbase" : 2437.6571999995,
		"flyability" : 0,
		"reason" : "windDir",
		"timestamp" :1556002800
		},
	"2019-04-23T11:00:00+02:00" : {
		"windSpeed" : 3.1,
		"windDir" : 73,
		"rain" : 0,
		"cloudbase" : 2275.4719999995,
		"flyability" : 0,
		"reason" : "windDir",
		"timestamp" :1556013600
		},
	"2019-04-23T14:00:00+02:00" : {
		"windSpeed" : 3.1,
		"windDir" : 78,
		"rain" : 0,
		"cloudbase" : 3692.8375999993,
		"flyability" : 0,
		"reason" : "windDir",
		"timestamp" :1556024400
		},
	"2019-04-23T17:00:00+02:00" : {
		"windSpeed" : 2.7,
		"windDir" : 77,
		"rain" : 0,
		"cloudbase" : null,
		"flyability" : 0,
		"reason" : "windDir",
		"timestamp" :1556035200
		},
	"2019-04-23T20:00:00+02:00" : {
		"windSpeed" : 1.9,
		"windDir" : 67,
		"rain" : 0,
		"cloudbase" : 326.08999999996,
		"flyability" : 0,
		"reason" : "windDir, cloudbase",
		"timestamp" :1556046000
		},
	"2019-04-23T23:00:00+02:00" : {
		"windSpeed" : 1.9,
		"windDir" : 74,
		"rain" : 0,
		"cloudbase" : 1748.3783999995,
		"flyability" : 0,
		"reason" : "windDir, cloudbase",
		"timestamp" :1556056800
		},
	"2019-04-24T02:00:00+02:00" : {
		"windSpeed" : 1.5,
		"windDir" : 75,
		"rain" : 0,
		"cloudbase" : 1913.1191999995,
		"flyability" : 0,
		"reason" : "windDir, cloudbase",
		"timestamp" :1556067600
		},
	"2019-04-24T05:00:00+02:00" : {
		"windSpeed" : 1.8,
		"windDir" : 74,
		"rain" : 0,
		"cloudbase" : 280,
		"flyability" : 0,
		"reason" : "windDir, cloudbase",
		"timestamp" :1556078400
		},
	"2019-04-24T08:00:00+02:00" : {
		"windSpeed" : 2.1,
		"windDir" : 79,
		"rain" : 0,
		"cloudbase" : 1493.2547999996,
		"flyability" : 0,
		"reason" : "windDir, cloudbase",
		"timestamp" :1556089200
		},
	"2019-04-24T11:00:00+02:00" : {
		"windSpeed" : 2.7,
		"windDir" : 90,
		"rain" : 1,
		"cloudbase" : 1997.3571999996,
		"flyability" : 0,
		"reason" : "windDir, rain, cloudbase",
		"timestamp" :1556100000
		},
	"2019-04-24T14:00:00+02:00" : {
		"windSpeed" : 2.9,
		"windDir" : 94,
		"rain" : 0,
		"cloudbase" : 1745.8807999997,
		"flyability" : 0,
		"reason" : "windDir, cloudbase",
		"timestamp" :1556110800
		},
	"2019-04-24T17:00:00+02:00" : {
		"windSpeed" : 2.4,
		"windDir" : 80,
		"rain" : 0,
		"cloudbase" : 491.24879999995,
		"flyability" : 0,
		"reason" : "windDir, cloudbase",
		"timestamp" :1556121600
		},
	"2019-04-24T20:00:00+02:00" : {
		"windSpeed" : 2.2,
		"windDir" : 78,
		"rain" : 0,
		"cloudbase" : 462.73559999993,
		"flyability" : 0,
		"reason" : "windDir, cloudbase",
		"timestamp" :1556132400
		},
	"2019-04-24T23:00:00+02:00" : {
		"windSpeed" : 2.1,
		"windDir" : 71,
		"rain" : 0,
		"cloudbase" : 424.65799999993,
		"flyability" : 0,
		"reason" : "windDir, cloudbase",
		"timestamp" :1556143200
		},
	"2019-04-25T02:00:00+02:00" : {
		"windSpeed" : 2.1,
		"windDir" : 67,
		"rain" : 0,
		"cloudbase" : 620.09719999992,
		"flyability" : 0,
		"reason" : "windDir, cloudbase",
		"timestamp" :1556154000
		},
	"2019-04-25T05:00:00+02:00" : {
		"windSpeed" : 1.6,
		"windDir" : 60,
		"rain" : 0,
		"cloudbase" : 529.02839999992,
		"flyability" : 0,
		"reason" : "windDir, cloudbase",
		"timestamp" :1556164800
		},
	"2019-04-25T08:00:00+02:00" : {
		"windSpeed" : 2.1,
		"windDir" : 76,
		"rain" : 0,
		"cloudbase" : 1437.0323999997,
		"flyability" : 0,
		"reason" : "windDir, cloudbase",
		"timestamp" :1556175600
		},
	"2019-04-25T11:00:00+02:00" : {
		"windSpeed" : 1.8,
		"windDir" : 80,
		"rain" : 0,
		"cloudbase" : 2122.5387999996,
		"flyability" : 0,
		"reason" : "windDir",
		"timestamp" :1556186400
		},
	"2019-04-25T14:00:00+02:00" : {
		"windSpeed" : 1.6,
		"windDir" : 79,
		"rain" : 0,
		"cloudbase" : 1014.8679999999,
		"flyability" : 0,
		"reason" : "windDir, cloudbase",
		"timestamp" :1556197200
		},
	"2019-04-25T17:00:00+02:00" : {
		"windSpeed" : 0.9,
		"windDir" : 80,
		"rain" : 0,
		"cloudbase" : null,
		"flyability" : 0,
		"reason" : "windDir",
		"timestamp" :1556208000
		},
	"2019-04-25T20:00:00+02:00" : {
		"windSpeed" : 0.4,
		"windDir" : 233,
		"rain" : 0,
		"cloudbase" : null,
		"flyability" : 0,
		"reason" : "windDir",
		"timestamp" :1556218800
		},
	"2019-04-25T23:00:00+02:00" : {
		"windSpeed" : 1.6,
		"windDir" : 261,
		"rain" : 0,
		"cloudbase" : 135.16660000003,
		"flyability" : 0,
		"reason" : "windDir, cloudbase",
		"timestamp" :1556229600
		},
	"2019-04-26T02:00:00+02:00" : {
		"windSpeed" : 2.3,
		"windDir" : 261,
		"rain" : 0,
		"cloudbase" : 110.48320000002,
		"flyability" : 0,
		"reason" : "windDir, cloudbase",
		"timestamp" :1556240400
		}
	}
}