{
"site" : "La grande decouverte",
"id" : 3059,
"orientations" : "00000000",
"forecasts" : { 
	"2019-04-18T05:00:00+02:00" : {
		"windSpeed" : 5.8,
		"windDir" : 97,
		"rain" : 0,
		"cloudbase" : 6110.0000000003,
		"flyability" : -0,
		"reason" : "windSpeed, orientationsUnknown",
		"timestamp" :1555560000
		},
	"2019-04-18T08:00:00+02:00" : {
		"windSpeed" : 5.8,
		"windDir" : 100,
		"rain" : 0,
		"cloudbase" : 6900,
		"flyability" : -0,
		"reason" : "windSpeed, orientationsUnknown",
		"timestamp" :1555570800
		},
	"2019-04-18T11:00:00+02:00" : {
		"windSpeed" : 6.3,
		"windDir" : 109,
		"rain" : 0,
		"cloudbase" : 6943.44,
		"flyability" : -0,
		"reason" : "windSpeed, orientationsUnknown",
		"timestamp" :1555581600
		},
	"2019-04-18T14:00:00+02:00" : {
		"windSpeed" : 6.8,
		"windDir" : 121,
		"rain" : 0,
		"cloudbase" : 9438.56,
		"flyability" : -0,
		"reason" : "windSpeed, orientationsUnknown",
		"timestamp" :1555592400
		},
	"2019-04-18T17:00:00+02:00" : {
		"windSpeed" : 6.5,
		"windDir" : 118,
		"rain" : 0,
		"cloudbase" : 10037.2,
		"flyability" : -0,
		"reason" : "windSpeed, orientationsUnknown",
		"timestamp" :1555603200
		},
	"2019-04-18T20:00:00+02:00" : {
		"windSpeed" : 5,
		"windDir" : 110,
		"rain" : 0,
		"cloudbase" : 6607.44,
		"flyability" : -50,
		"reason" : "orientationsUnknown",
		"timestamp" :1555614000
		},
	"2019-04-18T23:00:00+02:00" : {
		"windSpeed" : 6.1,
		"windDir" : 106,
		"rain" : 0,
		"cloudbase" : 8209.4399999997,
		"flyability" : -0,
		"reason" : "windSpeed, orientationsUnknown",
		"timestamp" :1555624800
		},
	"2019-04-19T02:00:00+02:00" : {
		"windSpeed" : 5.2,
		"windDir" : 113,
		"rain" : 0,
		"cloudbase" : 5072,
		"flyability" : -0,
		"reason" : "windSpeed, orientationsUnknown",
		"timestamp" :1555635600
		},
	"2019-04-19T05:00:00+02:00" : {
		"windSpeed" : 4.4,
		"windDir" : 104,
		"rain" : 0,
		"cloudbase" : 9361.68,
		"flyability" : -50,
		"reason" : "orientationsUnknown",
		"timestamp" :1555646400
		},
	"2019-04-19T08:00:00+02:00" : {
		"windSpeed" : 4.6,
		"windDir" : 108,
		"rain" : 0,
		"cloudbase" : 6670.2399999998,
		"flyability" : -50,
		"reason" : "orientationsUnknown",
		"timestamp" :1555657200
		},
	"2019-04-19T11:00:00+02:00" : {
		"windSpeed" : 7.2,
		"windDir" : 114,
		"rain" : 0,
		"cloudbase" : 10000,
		"flyability" : -0,
		"reason" : "windSpeed, orientationsUnknown",
		"timestamp" :1555668000
		},
	"2019-04-19T14:00:00+02:00" : {
		"windSpeed" : 7.1,
		"windDir" : 120,
		"rain" : 0,
		"cloudbase" : 4950,
		"flyability" : -0,
		"reason" : "windSpeed, orientationsUnknown",
		"timestamp" :1555678800
		},
	"2019-04-19T17:00:00+02:00" : {
		"windSpeed" : 6.3,
		"windDir" : 119,
		"rain" : 0,
		"cloudbase" : null,
		"flyability" : -0,
		"reason" : "windSpeed, orientationsUnknown",
		"timestamp" :1555689600
		},
	"2019-04-19T20:00:00+02:00" : {
		"windSpeed" : 3.8,
		"windDir" : 105,
		"rain" : 0,
		"cloudbase" : null,
		"flyability" : -50,
		"reason" : "orientationsUnknown",
		"timestamp" :1555700400
		},
	"2019-04-19T23:00:00+02:00" : {
		"windSpeed" : 3,
		"windDir" : 75,
		"rain" : 0,
		"cloudbase" : null,
		"flyability" : -50,
		"reason" : "orientationsUnknown",
		"timestamp" :1555711200
		},
	"2019-04-20T02:00:00+02:00" : {
		"windSpeed" : 3.3,
		"windDir" : 76,
		"rain" : 0,
		"cloudbase" : null,
		"flyability" : -50,
		"reason" : "orientationsUnknown",
		"timestamp" :1555722000
		},
	"2019-04-20T05:00:00+02:00" : {
		"windSpeed" : 2.8,
		"windDir" : 74,
		"rain" : 0,
		"cloudbase" : null,
		"flyability" : -50,
		"reason" : "orientationsUnknown",
		"timestamp" :1555732800
		},
	"2019-04-20T08:00:00+02:00" : {
		"windSpeed" : 3.5,
		"windDir" : 84,
		"rain" : 0,
		"cloudbase" : null,
		"flyability" : -50,
		"reason" : "orientationsUnknown",
		"timestamp" :1555743600
		},
	"2019-04-20T11:00:00+02:00" : {
		"windSpeed" : 3.8,
		"windDir" : 114,
		"rain" : 0,
		"cloudbase" : null,
		"flyability" : -50,
		"reason" : "orientationsUnknown",
		"timestamp" :1555754400
		},
	"2019-04-20T14:00:00+02:00" : {
		"windSpeed" : 5.3,
		"windDir" : 119,
		"rain" : 0,
		"cloudbase" : 2100,
		"flyability" : -0,
		"reason" : "windSpeed, orientationsUnknown",
		"timestamp" :1555765200
		},
	"2019-04-20T17:00:00+02:00" : {
		"windSpeed" : 4.9,
		"windDir" : 125,
		"rain" : 0,
		"cloudbase" : 2250,
		"flyability" : -50,
		"reason" : "orientationsUnknown",
		"timestamp" :1555776000
		},
	"2019-04-20T20:00:00+02:00" : {
		"windSpeed" : 2.4,
		"windDir" : 139,
		"rain" : 0,
		"cloudbase" : null,
		"flyability" : -50,
		"reason" : "orientationsUnknown",
		"timestamp" :1555786800
		},
	"2019-04-20T23:00:00+02:00" : {
		"windSpeed" : 3.1,
		"windDir" : 73,
		"rain" : 0,
		"cloudbase" : null,
		"flyability" : -50,
		"reason" : "orientationsUnknown",
		"timestamp" :1555797600
		},
	"2019-04-21T02:00:00+02:00" : {
		"windSpeed" : 3,
		"windDir" : 80,
		"rain" : 0,
		"cloudbase" : 8142.56,
		"flyability" : -50,
		"reason" : "orientationsUnknown",
		"timestamp" :1555808400
		},
	"2019-04-21T05:00:00+02:00" : {
		"windSpeed" : 2.5,
		"windDir" : 79,
		"rain" : 0,
		"cloudbase" : 6300,
		"flyability" : -50,
		"reason" : "orientationsUnknown",
		"timestamp" :1555819200
		},
	"2019-04-21T08:00:00+02:00" : {
		"windSpeed" : 2.5,
		"windDir" : 100,
		"rain" : 0,
		"cloudbase" : 2500,
		"flyability" : -50,
		"reason" : "orientationsUnknown",
		"timestamp" :1555830000
		},
	"2019-04-21T11:00:00+02:00" : {
		"windSpeed" : 3.5,
		"windDir" : 80,
		"rain" : 1,
		"cloudbase" : 2800,
		"flyability" : -0,
		"reason" : "orientationsUnknown, rain",
		"timestamp" :1555840800
		},
	"2019-04-21T14:00:00+02:00" : {
		"windSpeed" : 4.1,
		"windDir" : 75,
		"rain" : 0,
		"cloudbase" : 4439.9999999999,
		"flyability" : -50,
		"reason" : "orientationsUnknown",
		"timestamp" :1555851600
		},
	"2019-04-21T17:00:00+02:00" : {
		"windSpeed" : 3.4,
		"windDir" : 80,
		"rain" : 1,
		"cloudbase" : 3948.1200000001,
		"flyability" : -0,
		"reason" : "orientationsUnknown, rain",
		"timestamp" :1555862400
		},
	"2019-04-21T20:00:00+02:00" : {
		"windSpeed" : 1.8,
		"windDir" : 55,
		"rain" : 1,
		"cloudbase" : 7770.0000000001,
		"flyability" : -0,
		"reason" : "orientationsUnknown, rain",
		"timestamp" :1555873200
		},
	"2019-04-21T23:00:00+02:00" : {
		"windSpeed" : 2.4,
		"windDir" : 55,
		"rain" : 1,
		"cloudbase" : 8507.44,
		"flyability" : -0,
		"reason" : "orientationsUnknown, rain",
		"timestamp" :1555884000
		},
	"2019-04-22T02:00:00+02:00" : {
		"windSpeed" : 2.4,
		"windDir" : 63,
		"rain" : 1,
		"cloudbase" : 7597.12,
		"flyability" : -0,
		"reason" : "orientationsUnknown, rain",
		"timestamp" :1555894800
		},
	"2019-04-22T05:00:00+02:00" : {
		"windSpeed" : 3.3,
		"windDir" : 44,
		"rain" : 1,
		"cloudbase" : 7257.44,
		"flyability" : -0,
		"reason" : "orientationsUnknown, rain",
		"timestamp" :1555905600
		},
	"2019-04-22T08:00:00+02:00" : {
		"windSpeed" : 2.8,
		"windDir" : 47,
		"rain" : 1,
		"cloudbase" : 6193.1199999998,
		"flyability" : -0,
		"reason" : "orientationsUnknown, rain",
		"timestamp" :1555916400
		},
	"2019-04-22T11:00:00+02:00" : {
		"windSpeed" : 3.4,
		"windDir" : 87,
		"rain" : 0,
		"cloudbase" : 2450,
		"flyability" : -50,
		"reason" : "orientationsUnknown",
		"timestamp" :1555927200
		},
	"2019-04-22T14:00:00+02:00" : {
		"windSpeed" : 3.6,
		"windDir" : 106,
		"rain" : 1,
		"cloudbase" : 9100,
		"flyability" : -0,
		"reason" : "orientationsUnknown, rain",
		"timestamp" :1555938000
		},
	"2019-04-22T17:00:00+02:00" : {
		"windSpeed" : 4.5,
		"windDir" : 124,
		"rain" : 0,
		"cloudbase" : 2150,
		"flyability" : -50,
		"reason" : "orientationsUnknown",
		"timestamp" :1555948800
		},
	"2019-04-22T20:00:00+02:00" : {
		"windSpeed" : 3.1,
		"windDir" : 154,
		"rain" : 0,
		"cloudbase" : 3034.9999999999,
		"flyability" : -50,
		"reason" : "orientationsUnknown",
		"timestamp" :1555959600
		},
	"2019-04-22T23:00:00+02:00" : {
		"windSpeed" : 1.2,
		"windDir" : 81,
		"rain" : 1,
		"cloudbase" : 6242.4000000002,
		"flyability" : -0,
		"reason" : "orientationsUnknown, rain",
		"timestamp" :1555970400
		},
	"2019-04-23T02:00:00+02:00" : {
		"windSpeed" : 2.7,
		"windDir" : 67,
		"rain" : 1,
		"cloudbase" : 2284,
		"flyability" : -0,
		"reason" : "orientationsUnknown, rain",
		"timestamp" :1555981200
		},
	"2019-04-23T05:00:00+02:00" : {
		"windSpeed" : 1.5,
		"windDir" : 30,
		"rain" : 1,
		"cloudbase" : 8550,
		"flyability" : -0,
		"reason" : "orientationsUnknown, rain",
		"timestamp" :1555992000
		},
	"2019-04-23T08:00:00+02:00" : {
		"windSpeed" : 4.3,
		"windDir" : 104,
		"rain" : 1,
		"cloudbase" : 6500,
		"flyability" : -0,
		"reason" : "orientationsUnknown, rain",
		"timestamp" :1556002800
		},
	"2019-04-23T11:00:00+02:00" : {
		"windSpeed" : 5.5,
		"windDir" : 105,
		"rain" : 1,
		"cloudbase" : 8200,
		"flyability" : -0,
		"reason" : "windSpeed, orientationsUnknown, rain",
		"timestamp" :1556013600
		},
	"2019-04-23T14:00:00+02:00" : {
		"windSpeed" : 6.8,
		"windDir" : 116,
		"rain" : 1,
		"cloudbase" : 3500,
		"flyability" : -0,
		"reason" : "windSpeed, orientationsUnknown, rain",
		"timestamp" :1556024400
		},
	"2019-04-23T17:00:00+02:00" : {
		"windSpeed" : 8.1,
		"windDir" : 127,
		"rain" : 0,
		"cloudbase" : 2450.64,
		"flyability" : -0,
		"reason" : "windSpeed, orientationsUnknown",
		"timestamp" :1556035200
		},
	"2019-04-23T20:00:00+02:00" : {
		"windSpeed" : 4.9,
		"windDir" : 114,
		"rain" : 0,
		"cloudbase" : null,
		"flyability" : -50,
		"reason" : "orientationsUnknown",
		"timestamp" :1556046000
		},
	"2019-04-23T23:00:00+02:00" : {
		"windSpeed" : 6.1,
		"windDir" : 104,
		"rain" : 0,
		"cloudbase" : 8978.56,
		"flyability" : -0,
		"reason" : "windSpeed, orientationsUnknown",
		"timestamp" :1556056800
		},
	"2019-04-24T02:00:00+02:00" : {
		"windSpeed" : 3.1,
		"windDir" : 94,
		"rain" : 0,
		"cloudbase" : 450.224,
		"flyability" : -50,
		"reason" : "orientationsUnknown",
		"timestamp" :1556067600
		}
	}
}