{
"site" : "Saulxures - cornimont",
"id" : 3088,
"orientations" : "00020000",
"forecasts" : { 
	"2019-04-20T17:00:00+02:00" : {
		"windSpeed" : 3.6,
		"windDir" : 77,
		"rain" : 0,
		"cloudbase" : null,
		"flyability" : 0,
		"reason" : "windDir",
		"timestamp" :1555776000
		},
	"2019-04-20T20:00:00+02:00" : {
		"windSpeed" : 2.7,
		"windDir" : 48,
		"rain" : 0,
		"cloudbase" : null,
		"flyability" : 0,
		"reason" : "windDir",
		"timestamp" :1555786800
		},
	"2019-04-20T23:00:00+02:00" : {
		"windSpeed" : 2.9,
		"windDir" : 80,
		"rain" : 0,
		"cloudbase" : null,
		"flyability" : 0,
		"reason" : "windDir",
		"timestamp" :1555797600
		},
	"2019-04-21T02:00:00+02:00" : {
		"windSpeed" : 2.8,
		"windDir" : 82,
		"rain" : 0,
		"cloudbase" : null,
		"flyability" : 0,
		"reason" : "windDir",
		"timestamp" :1555808400
		},
	"2019-04-21T05:00:00+02:00" : {
		"windSpeed" : 2.3,
		"windDir" : 85,
		"rain" : 0,
		"cloudbase" : null,
		"flyability" : 0,
		"reason" : "windDir",
		"timestamp" :1555819200
		},
	"2019-04-21T08:00:00+02:00" : {
		"windSpeed" : 2.3,
		"windDir" : 85,
		"rain" : 0,
		"cloudbase" : 8195.56,
		"flyability" : 0,
		"reason" : "windDir",
		"timestamp" :1555830000
		},
	"2019-04-21T11:00:00+02:00" : {
		"windSpeed" : 1.1,
		"windDir" : 99,
		"rain" : 0,
		"cloudbase" : null,
		"flyability" : 0,
		"reason" : "windDir",
		"timestamp" :1555840800
		},
	"2019-04-21T14:00:00+02:00" : {
		"windSpeed" : 2.5,
		"windDir" : 94,
		"rain" : 0,
		"cloudbase" : null,
		"flyability" : 0,
		"reason" : "windDir",
		"timestamp" :1555851600
		},
	"2019-04-21T17:00:00+02:00" : {
		"windSpeed" : 2.6,
		"windDir" : 101,
		"rain" : 0,
		"cloudbase" : null,
		"flyability" : 0,
		"reason" : "windDir",
		"timestamp" :1555862400
		},
	"2019-04-21T20:00:00+02:00" : {
		"windSpeed" : 1.4,
		"windDir" : 76,
		"rain" : 0,
		"cloudbase" : 8200,
		"flyability" : 0,
		"reason" : "windDir",
		"timestamp" :1555873200
		},
	"2019-04-21T23:00:00+02:00" : {
		"windSpeed" : 2.3,
		"windDir" : 85,
		"rain" : 0,
		"cloudbase" : 7856.32128,
		"flyability" : 0,
		"reason" : "windDir",
		"timestamp" :1555884000
		},
	"2019-04-22T02:00:00+02:00" : {
		"windSpeed" : 2,
		"windDir" : 99,
		"rain" : 0,
		"cloudbase" : null,
		"flyability" : 0,
		"reason" : "windDir",
		"timestamp" :1555894800
		},
	"2019-04-22T05:00:00+02:00" : {
		"windSpeed" : 2,
		"windDir" : 89,
		"rain" : 0,
		"cloudbase" : 9227.52128,
		"flyability" : 0,
		"reason" : "windDir",
		"timestamp" :1555905600
		},
	"2019-04-22T08:00:00+02:00" : {
		"windSpeed" : 2,
		"windDir" : 99,
		"rain" : 0,
		"cloudbase" : 8090.34064,
		"flyability" : 0,
		"reason" : "windDir",
		"timestamp" :1555916400
		},
	"2019-04-22T11:00:00+02:00" : {
		"windSpeed" : 1.2,
		"windDir" : 98,
		"rain" : 0,
		"cloudbase" : 8271.2,
		"flyability" : 0,
		"reason" : "windDir",
		"timestamp" :1555927200
		},
	"2019-04-22T14:00:00+02:00" : {
		"windSpeed" : 2.6,
		"windDir" : 124,
		"rain" : 0,
		"cloudbase" : 7324.36,
		"flyability" : 100,
		"reason" : "",
		"timestamp" :1555938000
		},
	"2019-04-22T17:00:00+02:00" : {
		"windSpeed" : 3,
		"windDir" : 90,
		"rain" : 0,
		"cloudbase" : 5416.17936,
		"flyability" : 0,
		"reason" : "windDir",
		"timestamp" :1555948800
		},
	"2019-04-22T20:00:00+02:00" : {
		"windSpeed" : 1.5,
		"windDir" : 95,
		"rain" : 0,
		"cloudbase" : 6600,
		"flyability" : 0,
		"reason" : "windDir",
		"timestamp" :1555959600
		},
	"2019-04-22T23:00:00+02:00" : {
		"windSpeed" : 2.5,
		"windDir" : 90,
		"rain" : 0,
		"cloudbase" : null,
		"flyability" : 0,
		"reason" : "windDir",
		"timestamp" :1555970400
		},
	"2019-04-23T02:00:00+02:00" : {
		"windSpeed" : 3.7,
		"windDir" : 110,
		"rain" : 0,
		"cloudbase" : 8402.85936,
		"flyability" : 0,
		"reason" : "windDir",
		"timestamp" :1555981200
		},
	"2019-04-23T05:00:00+02:00" : {
		"windSpeed" : 3.4,
		"windDir" : 119,
		"rain" : 0,
		"cloudbase" : 8397.14064,
		"flyability" : 100,
		"reason" : "",
		"timestamp" :1555992000
		},
	"2019-04-23T08:00:00+02:00" : {
		"windSpeed" : 2,
		"windDir" : 145,
		"rain" : 0,
		"cloudbase" : 8697.14064,
		"flyability" : 100,
		"reason" : "",
		"timestamp" :1556002800
		},
	"2019-04-23T11:00:00+02:00" : {
		"windSpeed" : 2.4,
		"windDir" : 214,
		"rain" : 0,
		"cloudbase" : 8766.17296,
		"flyability" : 0,
		"reason" : "windDir",
		"timestamp" :1556013600
		},
	"2019-04-23T14:00:00+02:00" : {
		"windSpeed" : 2.3,
		"windDir" : 187,
		"rain" : 0,
		"cloudbase" : 4443.74064,
		"flyability" : 0,
		"reason" : "windDir",
		"timestamp" :1556024400
		},
	"2019-04-23T17:00:00+02:00" : {
		"windSpeed" : 1.9,
		"windDir" : 159,
		"rain" : 0,
		"cloudbase" : 6739.54064,
		"flyability" : 0,
		"reason" : "windDir",
		"timestamp" :1556035200
		},
	"2019-04-23T20:00:00+02:00" : {
		"windSpeed" : 1.5,
		"windDir" : 102,
		"rain" : 0,
		"cloudbase" : 9200,
		"flyability" : 0,
		"reason" : "windDir",
		"timestamp" :1556046000
		},
	"2019-04-23T23:00:00+02:00" : {
		"windSpeed" : 3,
		"windDir" : 112,
		"rain" : 0,
		"cloudbase" : null,
		"flyability" : 0,
		"reason" : "windDir",
		"timestamp" :1556056800
		},
	"2019-04-24T02:00:00+02:00" : {
		"windSpeed" : 1.9,
		"windDir" : 110,
		"rain" : 0,
		"cloudbase" : 8661.54064,
		"flyability" : 0,
		"reason" : "windDir",
		"timestamp" :1556067600
		},
	"2019-04-24T05:00:00+02:00" : {
		"windSpeed" : 2.5,
		"windDir" : 213,
		"rain" : 0,
		"cloudbase" : null,
		"flyability" : 0,
		"reason" : "windDir",
		"timestamp" :1556078400
		},
	"2019-04-24T08:00:00+02:00" : {
		"windSpeed" : 1.6,
		"windDir" : 206,
		"rain" : 0,
		"cloudbase" : null,
		"flyability" : 0,
		"reason" : "windDir",
		"timestamp" :1556089200
		},
	"2019-04-24T11:00:00+02:00" : {
		"windSpeed" : 2,
		"windDir" : 189,
		"rain" : 0,
		"cloudbase" : null,
		"flyability" : 0,
		"reason" : "windDir",
		"timestamp" :1556100000
		},
	"2019-04-24T14:00:00+02:00" : {
		"windSpeed" : 3.1,
		"windDir" : 150,
		"rain" : 0,
		"cloudbase" : null,
		"flyability" : 100,
		"reason" : "",
		"timestamp" :1556110800
		},
	"2019-04-24T17:00:00+02:00" : {
		"windSpeed" : 1.3,
		"windDir" : 233,
		"rain" : 0,
		"cloudbase" : 6825.41936,
		"flyability" : 0,
		"reason" : "windDir",
		"timestamp" :1556121600
		},
	"2019-04-24T20:00:00+02:00" : {
		"windSpeed" : 3.5,
		"windDir" : 252,
		"rain" : 1,
		"cloudbase" : 7807.27744,
		"flyability" : 0,
		"reason" : "windDir, rain",
		"timestamp" :1556132400
		},
	"2019-04-24T23:00:00+02:00" : {
		"windSpeed" : 3.2,
		"windDir" : 253,
		"rain" : 1,
		"cloudbase" : 1150.630976,
		"flyability" : 0,
		"reason" : "windDir, rain",
		"timestamp" :1556143200
		},
	"2019-04-25T02:00:00+02:00" : {
		"windSpeed" : 4.1,
		"windDir" : 231,
		"rain" : 1,
		"cloudbase" : 1705.52,
		"flyability" : 0,
		"reason" : "windDir, rain",
		"timestamp" :1556154000
		},
	"2019-04-25T05:00:00+02:00" : {
		"windSpeed" : 3.3,
		"windDir" : 150,
		"rain" : 1,
		"cloudbase" : 3256.53808,
		"flyability" : 0,
		"reason" : "rain",
		"timestamp" :1556164800
		},
	"2019-04-25T08:00:00+02:00" : {
		"windSpeed" : 3.9,
		"windDir" : 126,
		"rain" : 0,
		"cloudbase" : null,
		"flyability" : 100,
		"reason" : "",
		"timestamp" :1556175600
		},
	"2019-04-25T11:00:00+02:00" : {
		"windSpeed" : 4.5,
		"windDir" : 135,
		"rain" : 1,
		"cloudbase" : null,
		"flyability" : 0,
		"reason" : "rain",
		"timestamp" :1556186400
		},
	"2019-04-25T14:00:00+02:00" : {
		"windSpeed" : 3.2,
		"windDir" : 137,
		"rain" : 0,
		"cloudbase" : 2371.2,
		"flyability" : 100,
		"reason" : "",
		"timestamp" :1556197200
		},
	"2019-04-25T17:00:00+02:00" : {
		"windSpeed" : 2.6,
		"windDir" : 256,
		"rain" : 0,
		"cloudbase" : 1733.42,
		"flyability" : 0,
		"reason" : "windDir",
		"timestamp" :1556208000
		},
	"2019-04-25T20:00:00+02:00" : {
		"windSpeed" : 3.9,
		"windDir" : 288,
		"rain" : 1,
		"cloudbase" : 305.082192,
		"flyability" : 0,
		"reason" : "windDir, rain, cloudbase",
		"timestamp" :1556218800
		},
	"2019-04-25T23:00:00+02:00" : {
		"windSpeed" : 3,
		"windDir" : 252,
		"rain" : 1,
		"cloudbase" : 162.633808,
		"flyability" : 0,
		"reason" : "windDir, rain, cloudbase",
		"timestamp" :1556229600
		},
	"2019-04-26T02:00:00+02:00" : {
		"windSpeed" : 2.5,
		"windDir" : 184,
		"rain" : 1,
		"cloudbase" : 3454.20768,
		"flyability" : 0,
		"reason" : "windDir, rain",
		"timestamp" :1556240400
		},
	"2019-04-26T05:00:00+02:00" : {
		"windSpeed" : 2.8,
		"windDir" : 177,
		"rain" : 1,
		"cloudbase" : 1983.063904,
		"flyability" : 0,
		"reason" : "windDir, rain",
		"timestamp" :1556251200
		},
	"2019-04-26T08:00:00+02:00" : {
		"windSpeed" : 2.4,
		"windDir" : 169,
		"rain" : 1,
		"cloudbase" : 4643.34,
		"flyability" : 0,
		"reason" : "windDir, rain",
		"timestamp" :1556262000
		},
	"2019-04-26T11:00:00+02:00" : {
		"windSpeed" : 4.1,
		"windDir" : 223,
		"rain" : 1,
		"cloudbase" : 4924.11032,
		"flyability" : 0,
		"reason" : "windDir, rain",
		"timestamp" :1556272800
		},
	"2019-04-26T14:00:00+02:00" : {
		"windSpeed" : 3.9,
		"windDir" : 227,
		"rain" : 1,
		"cloudbase" : 4556.392976,
		"flyability" : 0,
		"reason" : "windDir, rain",
		"timestamp" :1556283600
		}
	}
}