{
"site" : "Saulxures - les bruches",
"id" : 3089,
"orientations" : "00000200",
"forecasts" : { 
	"2019-04-20T17:00:00+02:00" : {
		"windSpeed" : 3.6,
		"windDir" : 78,
		"rain" : 0,
		"cloudbase" : null,
		"flyability" : 0,
		"reason" : "windDir",
		"timestamp" :1555776000
		},
	"2019-04-20T20:00:00+02:00" : {
		"windSpeed" : 2.6,
		"windDir" : 48,
		"rain" : 0,
		"cloudbase" : null,
		"flyability" : 0,
		"reason" : "windDir",
		"timestamp" :1555786800
		},
	"2019-04-20T23:00:00+02:00" : {
		"windSpeed" : 2.8,
		"windDir" : 80,
		"rain" : 0,
		"cloudbase" : null,
		"flyability" : 0,
		"reason" : "windDir",
		"timestamp" :1555797600
		},
	"2019-04-21T02:00:00+02:00" : {
		"windSpeed" : 2.8,
		"windDir" : 80,
		"rain" : 0,
		"cloudbase" : null,
		"flyability" : 0,
		"reason" : "windDir",
		"timestamp" :1555808400
		},
	"2019-04-21T05:00:00+02:00" : {
		"windSpeed" : 2.3,
		"windDir" : 84,
		"rain" : 0,
		"cloudbase" : null,
		"flyability" : 0,
		"reason" : "windDir",
		"timestamp" :1555819200
		},
	"2019-04-21T08:00:00+02:00" : {
		"windSpeed" : 2.3,
		"windDir" : 84,
		"rain" : 0,
		"cloudbase" : 8203.44918,
		"flyability" : 0,
		"reason" : "windDir",
		"timestamp" :1555830000
		},
	"2019-04-21T11:00:00+02:00" : {
		"windSpeed" : 0.9,
		"windDir" : 104,
		"rain" : 0,
		"cloudbase" : null,
		"flyability" : 0,
		"reason" : "windDir",
		"timestamp" :1555840800
		},
	"2019-04-21T14:00:00+02:00" : {
		"windSpeed" : 2.5,
		"windDir" : 96,
		"rain" : 0,
		"cloudbase" : null,
		"flyability" : 0,
		"reason" : "windDir",
		"timestamp" :1555851600
		},
	"2019-04-21T17:00:00+02:00" : {
		"windSpeed" : 2.6,
		"windDir" : 102,
		"rain" : 0,
		"cloudbase" : null,
		"flyability" : 0,
		"reason" : "windDir",
		"timestamp" :1555862400
		},
	"2019-04-21T20:00:00+02:00" : {
		"windSpeed" : 1.3,
		"windDir" : 80,
		"rain" : 0,
		"cloudbase" : 8203.44918,
		"flyability" : 0,
		"reason" : "windDir",
		"timestamp" :1555873200
		},
	"2019-04-21T23:00:00+02:00" : {
		"windSpeed" : 2.3,
		"windDir" : 84,
		"rain" : 0,
		"cloudbase" : 7802.29082,
		"flyability" : 0,
		"reason" : "windDir",
		"timestamp" :1555884000
		},
	"2019-04-22T02:00:00+02:00" : {
		"windSpeed" : 2,
		"windDir" : 97,
		"rain" : 0,
		"cloudbase" : null,
		"flyability" : 0,
		"reason" : "windDir",
		"timestamp" :1555894800
		},
	"2019-04-22T05:00:00+02:00" : {
		"windSpeed" : 2,
		"windDir" : 90,
		"rain" : 0,
		"cloudbase" : 9202.84918,
		"flyability" : 0,
		"reason" : "windDir",
		"timestamp" :1555905600
		},
	"2019-04-22T08:00:00+02:00" : {
		"windSpeed" : 2,
		"windDir" : 97,
		"rain" : 0,
		"cloudbase" : 8056.04,
		"flyability" : 0,
		"reason" : "windDir",
		"timestamp" :1555916400
		},
	"2019-04-22T11:00:00+02:00" : {
		"windSpeed" : 1.2,
		"windDir" : 101,
		"rain" : 0,
		"cloudbase" : 8307.54,
		"flyability" : 0,
		"reason" : "windDir",
		"timestamp" :1555927200
		},
	"2019-04-22T14:00:00+02:00" : {
		"windSpeed" : 2.7,
		"windDir" : 124,
		"rain" : 0,
		"cloudbase" : 7309.83082,
		"flyability" : 0,
		"reason" : "windDir",
		"timestamp" :1555938000
		},
	"2019-04-22T17:00:00+02:00" : {
		"windSpeed" : 3,
		"windDir" : 90,
		"rain" : 0,
		"cloudbase" : 5410.43082,
		"flyability" : 0,
		"reason" : "windDir",
		"timestamp" :1555948800
		},
	"2019-04-22T20:00:00+02:00" : {
		"windSpeed" : 1.5,
		"windDir" : 90,
		"rain" : 0,
		"cloudbase" : null,
		"flyability" : 0,
		"reason" : "windDir",
		"timestamp" :1555959600
		},
	"2019-04-22T23:00:00+02:00" : {
		"windSpeed" : 2.5,
		"windDir" : 90,
		"rain" : 0,
		"cloudbase" : null,
		"flyability" : 0,
		"reason" : "windDir",
		"timestamp" :1555970400
		},
	"2019-04-23T02:00:00+02:00" : {
		"windSpeed" : 3.7,
		"windDir" : 110,
		"rain" : 0,
		"cloudbase" : 8400,
		"flyability" : 0,
		"reason" : "windDir",
		"timestamp" :1555981200
		},
	"2019-04-23T05:00:00+02:00" : {
		"windSpeed" : 3.4,
		"windDir" : 117,
		"rain" : 0,
		"cloudbase" : 8406.94,
		"flyability" : 0,
		"reason" : "windDir",
		"timestamp" :1555992000
		},
	"2019-04-23T08:00:00+02:00" : {
		"windSpeed" : 2,
		"windDir" : 140,
		"rain" : 0,
		"cloudbase" : 8706.94,
		"flyability" : 0,
		"reason" : "windDir",
		"timestamp" :1556002800
		},
	"2019-04-23T11:00:00+02:00" : {
		"windSpeed" : 2.4,
		"windDir" : 212,
		"rain" : 0,
		"cloudbase" : 8553.3023000001,
		"flyability" : 100,
		"reason" : "",
		"timestamp" :1556013600
		},
	"2019-04-23T14:00:00+02:00" : {
		"windSpeed" : 2.3,
		"windDir" : 186,
		"rain" : 0,
		"cloudbase" : 4434.91836,
		"flyability" : 0,
		"reason" : "windDir",
		"timestamp" :1556024400
		},
	"2019-04-23T17:00:00+02:00" : {
		"windSpeed" : 1.9,
		"windDir" : 158,
		"rain" : 0,
		"cloudbase" : 6804.69082,
		"flyability" : 0,
		"reason" : "windDir",
		"timestamp" :1556035200
		},
	"2019-04-23T20:00:00+02:00" : {
		"windSpeed" : 1.5,
		"windDir" : 99,
		"rain" : 0,
		"cloudbase" : null,
		"flyability" : 0,
		"reason" : "windDir",
		"timestamp" :1556046000
		},
	"2019-04-23T23:00:00+02:00" : {
		"windSpeed" : 2.9,
		"windDir" : 110,
		"rain" : 0,
		"cloudbase" : null,
		"flyability" : 0,
		"reason" : "windDir",
		"timestamp" :1556056800
		},
	"2019-04-24T02:00:00+02:00" : {
		"windSpeed" : 1.9,
		"windDir" : 107,
		"rain" : 0,
		"cloudbase" : 8663.53836,
		"flyability" : 0,
		"reason" : "windDir",
		"timestamp" :1556067600
		},
	"2019-04-24T05:00:00+02:00" : {
		"windSpeed" : 2.5,
		"windDir" : 216,
		"rain" : 0,
		"cloudbase" : null,
		"flyability" : 100,
		"reason" : "",
		"timestamp" :1556078400
		},
	"2019-04-24T08:00:00+02:00" : {
		"windSpeed" : 1.4,
		"windDir" : 208,
		"rain" : 0,
		"cloudbase" : null,
		"flyability" : 100,
		"reason" : "",
		"timestamp" :1556089200
		},
	"2019-04-24T11:00:00+02:00" : {
		"windSpeed" : 2,
		"windDir" : 187,
		"rain" : 0,
		"cloudbase" : null,
		"flyability" : 0,
		"reason" : "windDir",
		"timestamp" :1556100000
		},
	"2019-04-24T14:00:00+02:00" : {
		"windSpeed" : 3.1,
		"windDir" : 153,
		"rain" : 0,
		"cloudbase" : null,
		"flyability" : 0,
		"reason" : "windDir",
		"timestamp" :1556110800
		},
	"2019-04-24T17:00:00+02:00" : {
		"windSpeed" : 1.1,
		"windDir" : 242,
		"rain" : 0,
		"cloudbase" : 7014.4767200001,
		"flyability" : 100,
		"reason" : "",
		"timestamp" :1556121600
		},
	"2019-04-24T20:00:00+02:00" : {
		"windSpeed" : 3.7,
		"windDir" : 253,
		"rain" : 1,
		"cloudbase" : 7922.70328,
		"flyability" : 0,
		"reason" : "windDir, rain",
		"timestamp" :1556132400
		},
	"2019-04-24T23:00:00+02:00" : {
		"windSpeed" : 3.1,
		"windDir" : 255,
		"rain" : 1,
		"cloudbase" : 1112.76328,
		"flyability" : 0,
		"reason" : "windDir, rain",
		"timestamp" :1556143200
		},
	"2019-04-25T02:00:00+02:00" : {
		"windSpeed" : 4.1,
		"windDir" : 232,
		"rain" : 1,
		"cloudbase" : 1711.85541,
		"flyability" : 0,
		"reason" : "rain",
		"timestamp" :1556154000
		},
	"2019-04-25T05:00:00+02:00" : {
		"windSpeed" : 3.3,
		"windDir" : 147,
		"rain" : 1,
		"cloudbase" : 3325.98754,
		"flyability" : 0,
		"reason" : "windDir, rain",
		"timestamp" :1556164800
		},
	"2019-04-25T08:00:00+02:00" : {
		"windSpeed" : 4,
		"windDir" : 125,
		"rain" : 0,
		"cloudbase" : null,
		"flyability" : 0,
		"reason" : "windDir",
		"timestamp" :1556175600
		},
	"2019-04-25T11:00:00+02:00" : {
		"windSpeed" : 4.4,
		"windDir" : 133,
		"rain" : 1,
		"cloudbase" : null,
		"flyability" : 0,
		"reason" : "windDir, rain",
		"timestamp" :1556186400
		},
	"2019-04-25T14:00:00+02:00" : {
		"windSpeed" : 3.2,
		"windDir" : 135,
		"rain" : 0,
		"cloudbase" : 2405.79459,
		"flyability" : 0,
		"reason" : "windDir",
		"timestamp" :1556197200
		},
	"2019-04-25T17:00:00+02:00" : {
		"windSpeed" : 2.5,
		"windDir" : 258,
		"rain" : 0,
		"cloudbase" : 1843.0421300001,
		"flyability" : 0,
		"reason" : "windDir",
		"timestamp" :1556208000
		},
	"2019-04-25T20:00:00+02:00" : {
		"windSpeed" : 3.9,
		"windDir" : 288,
		"rain" : 1,
		"cloudbase" : 372.50393400001,
		"flyability" : 0,
		"reason" : "windDir, rain, cloudbase",
		"timestamp" :1556218800
		},
	"2019-04-25T23:00:00+02:00" : {
		"windSpeed" : 3.1,
		"windDir" : 255,
		"rain" : 1,
		"cloudbase" : 160.685672,
		"flyability" : 0,
		"reason" : "windDir, rain, cloudbase",
		"timestamp" :1556229600
		},
	"2019-04-26T02:00:00+02:00" : {
		"windSpeed" : 2.5,
		"windDir" : 185,
		"rain" : 1,
		"cloudbase" : 3839.4714700001,
		"flyability" : 0,
		"reason" : "windDir, rain",
		"timestamp" :1556240400
		},
	"2019-04-26T05:00:00+02:00" : {
		"windSpeed" : 2.8,
		"windDir" : 174,
		"rain" : 1,
		"cloudbase" : 2121.2186900002,
		"flyability" : 0,
		"reason" : "windDir, rain",
		"timestamp" :1556251200
		},
	"2019-04-26T08:00:00+02:00" : {
		"windSpeed" : 2.3,
		"windDir" : 167,
		"rain" : 1,
		"cloudbase" : 4665.60459,
		"flyability" : 0,
		"reason" : "windDir, rain",
		"timestamp" :1556262000
		},
	"2019-04-26T11:00:00+02:00" : {
		"windSpeed" : 4.1,
		"windDir" : 222,
		"rain" : 1,
		"cloudbase" : 4940.45459,
		"flyability" : 0,
		"reason" : "rain",
		"timestamp" :1556272800
		},
	"2019-04-26T14:00:00+02:00" : {
		"windSpeed" : 3.7,
		"windDir" : 227,
		"rain" : 1,
		"cloudbase" : 4282.6675500002,
		"flyability" : 0,
		"reason" : "rain",
		"timestamp" :1556283600
		}
	}
}