{
"site" : "Canberra, Pig Hill",
"id" : 4638,
"orientations" : "01100000",
"forecasts" : { 
	"2019-04-04T14:00:00+11:00" : {
		"windSpeed" : 1.9,
		"windDir" : 102,
		"rain" : 0,
		"cloudbase" : 6557.5679999996,
		"flyability" : 100,
		"reason" : "",
		"timestamp" :1554350400
		},
	"2019-04-04T17:00:00+11:00" : {
		"windSpeed" : 2.4,
		"windDir" : 102,
		"rain" : 1,
		"cloudbase" : 3185.2985,
		"flyability" : 0,
		"reason" : "rain",
		"timestamp" :1554361200
		},
	"2019-04-04T20:00:00+11:00" : {
		"windSpeed" : 1.8,
		"windDir" : 151,
		"rain" : 1,
		"cloudbase" : 780,
		"flyability" : 0,
		"reason" : "windDir, rain, cloudbase",
		"timestamp" :1554372000
		},
	"2019-04-04T23:00:00+11:00" : {
		"windSpeed" : 1.7,
		"windDir" : 143,
		"rain" : 0,
		"cloudbase" : null,
		"flyability" : 0,
		"reason" : "windDir",
		"timestamp" :1554382800
		},
	"2019-04-05T02:00:00+11:00" : {
		"windSpeed" : 2.2,
		"windDir" : 156,
		"rain" : 0,
		"cloudbase" : 260,
		"flyability" : 0,
		"reason" : "windDir, cloudbase",
		"timestamp" :1554393600
		},
	"2019-04-05T05:00:00+11:00" : {
		"windSpeed" : 2.1,
		"windDir" : 154,
		"rain" : 0,
		"cloudbase" : 340,
		"flyability" : 0,
		"reason" : "windDir, cloudbase",
		"timestamp" :1554404400
		},
	"2019-04-05T08:00:00+11:00" : {
		"windSpeed" : 2.1,
		"windDir" : 154,
		"rain" : 0,
		"cloudbase" : 350,
		"flyability" : 0,
		"reason" : "windDir, cloudbase",
		"timestamp" :1554415200
		},
	"2019-04-05T11:00:00+11:00" : {
		"windSpeed" : 3,
		"windDir" : 78,
		"rain" : 1,
		"cloudbase" : 812.91959999996,
		"flyability" : 0,
		"reason" : "rain, cloudbase",
		"timestamp" :1554426000
		},
	"2019-04-05T14:00:00+11:00" : {
		"windSpeed" : 1.8,
		"windDir" : 34,
		"rain" : 1,
		"cloudbase" : 1150,
		"flyability" : 0,
		"reason" : "rain",
		"timestamp" :1554436800
		},
	"2019-04-05T17:00:00+11:00" : {
		"windSpeed" : 1.3,
		"windDir" : 57,
		"rain" : 0,
		"cloudbase" : 7700.3595000007,
		"flyability" : 100,
		"reason" : "",
		"timestamp" :1554447600
		},
	"2019-04-05T20:00:00+11:00" : {
		"windSpeed" : 1.6,
		"windDir" : 72,
		"rain" : 0,
		"cloudbase" : 9627.1,
		"flyability" : 100,
		"reason" : "",
		"timestamp" :1554458400
		},
	"2019-04-05T23:00:00+11:00" : {
		"windSpeed" : 0.9,
		"windDir" : 179,
		"rain" : 0,
		"cloudbase" : 7239.1495000003,
		"flyability" : 0,
		"reason" : "windDir",
		"timestamp" :1554469200
		},
	"2019-04-06T02:00:00+11:00" : {
		"windSpeed" : 0.7,
		"windDir" : 224,
		"rain" : 0,
		"cloudbase" : 8436.6529999997,
		"flyability" : 0,
		"reason" : "windDir",
		"timestamp" :1554480000
		},
	"2019-04-06T05:00:00+11:00" : {
		"windSpeed" : 0.8,
		"windDir" : 234,
		"rain" : 0,
		"cloudbase" : null,
		"flyability" : 0,
		"reason" : "windDir",
		"timestamp" :1554490800
		},
	"2019-04-06T08:00:00+11:00" : {
		"windSpeed" : 1.2,
		"windDir" : 246,
		"rain" : 0,
		"cloudbase" : 2883.5649,
		"flyability" : 0,
		"reason" : "windDir",
		"timestamp" :1554501600
		},
	"2019-04-06T11:00:00+11:00" : {
		"windSpeed" : 4.2,
		"windDir" : 313,
		"rain" : 0,
		"cloudbase" : null,
		"flyability" : 0,
		"reason" : "windDir",
		"timestamp" :1554512400
		},
	"2019-04-06T14:00:00+11:00" : {
		"windSpeed" : 4.7,
		"windDir" : 300,
		"rain" : 0,
		"cloudbase" : null,
		"flyability" : 0,
		"reason" : "windDir",
		"timestamp" :1554523200
		},
	"2019-04-06T17:00:00+11:00" : {
		"windSpeed" : 3.7,
		"windDir" : 307,
		"rain" : 1,
		"cloudbase" : null,
		"flyability" : 0,
		"reason" : "windDir, rain",
		"timestamp" :1554534000
		},
	"2019-04-06T20:00:00+11:00" : {
		"windSpeed" : 0.6,
		"windDir" : 306,
		"rain" : 0,
		"cloudbase" : null,
		"flyability" : 0,
		"reason" : "windDir",
		"timestamp" :1554544800
		},
	"2019-04-06T23:00:00+11:00" : {
		"windSpeed" : 1.5,
		"windDir" : 204,
		"rain" : 0,
		"cloudbase" : null,
		"flyability" : 0,
		"reason" : "windDir",
		"timestamp" :1554555600
		},
	"2019-04-07T02:00:00+11:00" : {
		"windSpeed" : 1.6,
		"windDir" : 161,
		"rain" : 0,
		"cloudbase" : null,
		"flyability" : 0,
		"reason" : "windDir",
		"timestamp" :1554566400
		},
	"2019-04-07T05:00:00+11:00" : {
		"windSpeed" : 1.3,
		"windDir" : 185,
		"rain" : 0,
		"cloudbase" : 69.405949999999,
		"flyability" : 0,
		"reason" : "windDir, cloudbase",
		"timestamp" :1554577200
		},
	"2019-04-07T08:00:00+11:00" : {
		"windSpeed" : 1.3,
		"windDir" : 179,
		"rain" : 1,
		"cloudbase" : 37.110099999998,
		"flyability" : 0,
		"reason" : "windDir, rain, cloudbase",
		"timestamp" :1554588000
		},
	"2019-04-07T11:00:00+11:00" : {
		"windSpeed" : 1.8,
		"windDir" : 326,
		"rain" : 1,
		"cloudbase" : null,
		"flyability" : 0,
		"reason" : "windDir, rain",
		"timestamp" :1554598800
		},
	"2019-04-07T14:00:00+11:00" : {
		"windSpeed" : 4.5,
		"windDir" : 300,
		"rain" : 0,
		"cloudbase" : null,
		"flyability" : 0,
		"reason" : "windDir",
		"timestamp" :1554609600
		},
	"2019-04-07T17:00:00+11:00" : {
		"windSpeed" : 4.2,
		"windDir" : 303,
		"rain" : 0,
		"cloudbase" : null,
		"flyability" : 0,
		"reason" : "windDir",
		"timestamp" :1554620400
		},
	"2019-04-07T20:00:00+11:00" : {
		"windSpeed" : 2,
		"windDir" : 280,
		"rain" : 0,
		"cloudbase" : 9900,
		"flyability" : 0,
		"reason" : "windDir",
		"timestamp" :1554631200
		},
	"2019-04-07T23:00:00+11:00" : {
		"windSpeed" : 1.7,
		"windDir" : 228,
		"rain" : 0,
		"cloudbase" : null,
		"flyability" : 0,
		"reason" : "windDir",
		"timestamp" :1554642000
		},
	"2019-04-08T02:00:00+11:00" : {
		"windSpeed" : 1.2,
		"windDir" : 258,
		"rain" : 0,
		"cloudbase" : 10000,
		"flyability" : 0,
		"reason" : "windDir",
		"timestamp" :1554652800
		},
	"2019-04-08T05:00:00+11:00" : {
		"windSpeed" : 1.9,
		"windDir" : 278,
		"rain" : 0,
		"cloudbase" : null,
		"flyability" : 0,
		"reason" : "windDir",
		"timestamp" :1554663600
		},
	"2019-04-08T08:00:00+11:00" : {
		"windSpeed" : 1.2,
		"windDir" : 258,
		"rain" : 0,
		"cloudbase" : null,
		"flyability" : 0,
		"reason" : "windDir",
		"timestamp" :1554674400
		},
	"2019-04-08T11:00:00+11:00" : {
		"windSpeed" : 3.5,
		"windDir" : 300,
		"rain" : 0,
		"cloudbase" : null,
		"flyability" : 0,
		"reason" : "windDir",
		"timestamp" :1554685200
		},
	"2019-04-08T14:00:00+11:00" : {
		"windSpeed" : 5,
		"windDir" : 296,
		"rain" : 0,
		"cloudbase" : null,
		"flyability" : 0,
		"reason" : "windDir",
		"timestamp" :1554696000
		},
	"2019-04-08T17:00:00+11:00" : {
		"windSpeed" : 4.7,
		"windDir" : 287,
		"rain" : 0,
		"cloudbase" : null,
		"flyability" : 0,
		"reason" : "windDir",
		"timestamp" :1554706800
		},
	"2019-04-08T20:00:00+11:00" : {
		"windSpeed" : 2.2,
		"windDir" : 294,
		"rain" : 0,
		"cloudbase" : null,
		"flyability" : 0,
		"reason" : "windDir",
		"timestamp" :1554717600
		},
	"2019-04-08T23:00:00+11:00" : {
		"windSpeed" : 1.7,
		"windDir" : 283,
		"rain" : 0,
		"cloudbase" : null,
		"flyability" : 0,
		"reason" : "windDir",
		"timestamp" :1554728400
		},
	"2019-04-09T02:00:00+11:00" : {
		"windSpeed" : 1.7,
		"windDir" : 283,
		"rain" : 0,
		"cloudbase" : null,
		"flyability" : 0,
		"reason" : "windDir",
		"timestamp" :1554739200
		},
	"2019-04-09T05:00:00+11:00" : {
		"windSpeed" : 1.7,
		"windDir" : 292,
		"rain" : 0,
		"cloudbase" : null,
		"flyability" : 0,
		"reason" : "windDir",
		"timestamp" :1554750000
		},
	"2019-04-09T08:00:00+11:00" : {
		"windSpeed" : 1.1,
		"windDir" : 264,
		"rain" : 0,
		"cloudbase" : null,
		"flyability" : 0,
		"reason" : "windDir",
		"timestamp" :1554760800
		},
	"2019-04-09T11:00:00+11:00" : {
		"windSpeed" : 5.1,
		"windDir" : 280,
		"rain" : 0,
		"cloudbase" : null,
		"flyability" : 0,
		"reason" : "windSpeed, windDir",
		"timestamp" :1554771600
		},
	"2019-04-09T14:00:00+11:00" : {
		"windSpeed" : 4.5,
		"windDir" : 276,
		"rain" : 0,
		"cloudbase" : null,
		"flyability" : 0,
		"reason" : "windDir",
		"timestamp" :1554782400
		},
	"2019-04-09T17:00:00+11:00" : {
		"windSpeed" : 4.4,
		"windDir" : 270,
		"rain" : 0,
		"cloudbase" : null,
		"flyability" : 0,
		"reason" : "windDir",
		"timestamp" :1554793200
		},
	"2019-04-09T20:00:00+11:00" : {
		"windSpeed" : 2.5,
		"windDir" : 270,
		"rain" : 0,
		"cloudbase" : null,
		"flyability" : 0,
		"reason" : "windDir",
		"timestamp" :1554804000
		},
	"2019-04-09T23:00:00+11:00" : {
		"windSpeed" : 1.3,
		"windDir" : 241,
		"rain" : 0,
		"cloudbase" : null,
		"flyability" : 0,
		"reason" : "windDir",
		"timestamp" :1554814800
		},
	"2019-04-10T02:00:00+11:00" : {
		"windSpeed" : 1.2,
		"windDir" : 212,
		"rain" : 0,
		"cloudbase" : null,
		"flyability" : 0,
		"reason" : "windDir",
		"timestamp" :1554825600
		},
	"2019-04-10T05:00:00+11:00" : {
		"windSpeed" : 1.4,
		"windDir" : 169,
		"rain" : 0,
		"cloudbase" : null,
		"flyability" : 0,
		"reason" : "windDir",
		"timestamp" :1554836400
		},
	"2019-04-10T08:00:00+11:00" : {
		"windSpeed" : 2.1,
		"windDir" : 155,
		"rain" : 0,
		"cloudbase" : 840,
		"flyability" : 0,
		"reason" : "windDir, cloudbase",
		"timestamp" :1554847200
		},
	"2019-04-10T11:00:00+11:00" : {
		"windSpeed" : 2.1,
		"windDir" : 115,
		"rain" : 0,
		"cloudbase" : 1400,
		"flyability" : 0,
		"reason" : "windDir",
		"timestamp" :1554858000
		}
	}
}