{
"site" : "Injidup, Margaret River WA",
"id" : 4659,
"orientations" : "11000011",
"forecasts" : { 
	"2019-04-18T23:00:00+08:00" : {
		"windSpeed" : 14.2,
		"windDir" : 209,
		"rain" : 1,
		"cloudbase" : 1254.0950000001,
		"flyability" : 0,
		"reason" : "windSpeed, windDir, rain",
		"timestamp" :1555603200
		},
	"2019-04-19T02:00:00+08:00" : {
		"windSpeed" : 11.5,
		"windDir" : 210,
		"rain" : 1,
		"cloudbase" : 3294.2500000001,
		"flyability" : 0,
		"reason" : "windSpeed, windDir, rain",
		"timestamp" :1555614000
		},
	"2019-04-19T05:00:00+08:00" : {
		"windSpeed" : 11.5,
		"windDir" : 210,
		"rain" : 1,
		"cloudbase" : 4784.3549999999,
		"flyability" : 0,
		"reason" : "windSpeed, windDir, rain",
		"timestamp" :1555624800
		},
	"2019-04-19T08:00:00+08:00" : {
		"windSpeed" : 11.4,
		"windDir" : 215,
		"rain" : 1,
		"cloudbase" : null,
		"flyability" : 0,
		"reason" : "windSpeed, windDir, rain",
		"timestamp" :1555635600
		},
	"2019-04-19T11:00:00+08:00" : {
		"windSpeed" : 10.6,
		"windDir" : 218,
		"rain" : 1,
		"cloudbase" : 1300,
		"flyability" : 0,
		"reason" : "windSpeed, windDir, rain",
		"timestamp" :1555646400
		},
	"2019-04-19T14:00:00+08:00" : {
		"windSpeed" : 11.7,
		"windDir" : 225,
		"rain" : 1,
		"cloudbase" : null,
		"flyability" : 0,
		"reason" : "windSpeed, windDir, rain",
		"timestamp" :1555657200
		},
	"2019-04-19T17:00:00+08:00" : {
		"windSpeed" : 11.7,
		"windDir" : 213,
		"rain" : 1,
		"cloudbase" : 3750,
		"flyability" : 0,
		"reason" : "windSpeed, windDir, rain",
		"timestamp" :1555668000
		},
	"2019-04-19T20:00:00+08:00" : {
		"windSpeed" : 9.5,
		"windDir" : 203,
		"rain" : 0,
		"cloudbase" : null,
		"flyability" : 0,
		"reason" : "windSpeed, windDir",
		"timestamp" :1555678800
		},
	"2019-04-19T23:00:00+08:00" : {
		"windSpeed" : 10.3,
		"windDir" : 204,
		"rain" : 1,
		"cloudbase" : null,
		"flyability" : 0,
		"reason" : "windSpeed, windDir, rain",
		"timestamp" :1555689600
		},
	"2019-04-20T02:00:00+08:00" : {
		"windSpeed" : 10.1,
		"windDir" : 201,
		"rain" : 1,
		"cloudbase" : null,
		"flyability" : 0,
		"reason" : "windSpeed, windDir, rain",
		"timestamp" :1555700400
		},
	"2019-04-20T05:00:00+08:00" : {
		"windSpeed" : 8.7,
		"windDir" : 191,
		"rain" : 1,
		"cloudbase" : 2372.46,
		"flyability" : 0,
		"reason" : "windSpeed, windDir, rain",
		"timestamp" :1555711200
		},
	"2019-04-20T08:00:00+08:00" : {
		"windSpeed" : 7.1,
		"windDir" : 182,
		"rain" : 1,
		"cloudbase" : 1818.75,
		"flyability" : 0,
		"reason" : "windSpeed, windDir, rain",
		"timestamp" :1555722000
		},
	"2019-04-20T11:00:00+08:00" : {
		"windSpeed" : 5.9,
		"windDir" : 196,
		"rain" : 1,
		"cloudbase" : 1599.385,
		"flyability" : 0,
		"reason" : "windSpeed, windDir, rain",
		"timestamp" :1555732800
		},
	"2019-04-20T14:00:00+08:00" : {
		"windSpeed" : 5,
		"windDir" : 204,
		"rain" : 0,
		"cloudbase" : 1459,
		"flyability" : 0,
		"reason" : "windDir",
		"timestamp" :1555743600
		},
	"2019-04-20T17:00:00+08:00" : {
		"windSpeed" : 4.7,
		"windDir" : 185,
		"rain" : 1,
		"cloudbase" : 1450,
		"flyability" : 0,
		"reason" : "windDir, rain",
		"timestamp" :1555754400
		},
	"2019-04-20T20:00:00+08:00" : {
		"windSpeed" : 4.2,
		"windDir" : 140,
		"rain" : 0,
		"cloudbase" : null,
		"flyability" : 0,
		"reason" : "windDir",
		"timestamp" :1555765200
		},
	"2019-04-20T23:00:00+08:00" : {
		"windSpeed" : 2.7,
		"windDir" : 99,
		"rain" : 1,
		"cloudbase" : 11981.37,
		"flyability" : 0,
		"reason" : "windDir, rain",
		"timestamp" :1555776000
		},
	"2019-04-21T02:00:00+08:00" : {
		"windSpeed" : 3.2,
		"windDir" : 88,
		"rain" : 1,
		"cloudbase" : 10498.65,
		"flyability" : 0,
		"reason" : "windDir, rain",
		"timestamp" :1555786800
		},
	"2019-04-21T05:00:00+08:00" : {
		"windSpeed" : 3.4,
		"windDir" : 69,
		"rain" : 1,
		"cloudbase" : null,
		"flyability" : 0,
		"reason" : "windDir, rain",
		"timestamp" :1555797600
		},
	"2019-04-21T08:00:00+08:00" : {
		"windSpeed" : 4.2,
		"windDir" : 57,
		"rain" : 1,
		"cloudbase" : 12090,
		"flyability" : 0,
		"reason" : "rain",
		"timestamp" :1555808400
		},
	"2019-04-21T11:00:00+08:00" : {
		"windSpeed" : 3.7,
		"windDir" : 360,
		"rain" : 0,
		"cloudbase" : 1185.2450000005,
		"flyability" : 100,
		"reason" : "",
		"timestamp" :1555819200
		},
	"2019-04-21T14:00:00+08:00" : {
		"windSpeed" : 3.1,
		"windDir" : 352,
		"rain" : 1,
		"cloudbase" : 9619.5699999993,
		"flyability" : 0,
		"reason" : "rain",
		"timestamp" :1555830000
		},
	"2019-04-21T17:00:00+08:00" : {
		"windSpeed" : 2.9,
		"windDir" : 20,
		"rain" : 1,
		"cloudbase" : null,
		"flyability" : 0,
		"reason" : "rain",
		"timestamp" :1555840800
		},
	"2019-04-21T20:00:00+08:00" : {
		"windSpeed" : 1.5,
		"windDir" : 37,
		"rain" : 1,
		"cloudbase" : null,
		"flyability" : 0,
		"reason" : "rain",
		"timestamp" :1555851600
		},
	"2019-04-21T23:00:00+08:00" : {
		"windSpeed" : 1,
		"windDir" : 79,
		"rain" : 0,
		"cloudbase" : null,
		"flyability" : 0,
		"reason" : "windDir",
		"timestamp" :1555862400
		},
	"2019-04-22T02:00:00+08:00" : {
		"windSpeed" : 2.3,
		"windDir" : 59,
		"rain" : 1,
		"cloudbase" : null,
		"flyability" : 0,
		"reason" : "rain",
		"timestamp" :1555873200
		},
	"2019-04-22T05:00:00+08:00" : {
		"windSpeed" : 2.7,
		"windDir" : 64,
		"rain" : 1,
		"cloudbase" : null,
		"flyability" : 0,
		"reason" : "rain",
		"timestamp" :1555884000
		},
	"2019-04-22T08:00:00+08:00" : {
		"windSpeed" : 2.2,
		"windDir" : 37,
		"rain" : 0,
		"cloudbase" : null,
		"flyability" : 100,
		"reason" : "",
		"timestamp" :1555894800
		},
	"2019-04-22T11:00:00+08:00" : {
		"windSpeed" : 3.6,
		"windDir" : 314,
		"rain" : 0,
		"cloudbase" : null,
		"flyability" : 100,
		"reason" : "",
		"timestamp" :1555905600
		},
	"2019-04-22T14:00:00+08:00" : {
		"windSpeed" : 4.6,
		"windDir" : 270,
		"rain" : 0,
		"cloudbase" : null,
		"flyability" : 100,
		"reason" : "",
		"timestamp" :1555916400
		},
	"2019-04-22T17:00:00+08:00" : {
		"windSpeed" : 4.3,
		"windDir" : 262,
		"rain" : 0,
		"cloudbase" : 1500,
		"flyability" : 100,
		"reason" : "",
		"timestamp" :1555927200
		},
	"2019-04-22T20:00:00+08:00" : {
		"windSpeed" : 3.4,
		"windDir" : 251,
		"rain" : 0,
		"cloudbase" : null,
		"flyability" : 100,
		"reason" : "",
		"timestamp" :1555938000
		},
	"2019-04-22T23:00:00+08:00" : {
		"windSpeed" : 2.1,
		"windDir" : 233,
		"rain" : 0,
		"cloudbase" : 9985.2849999999,
		"flyability" : 0,
		"reason" : "windDir",
		"timestamp" :1555948800
		},
	"2019-04-23T02:00:00+08:00" : {
		"windSpeed" : 1.4,
		"windDir" : 219,
		"rain" : 0,
		"cloudbase" : null,
		"flyability" : 0,
		"reason" : "windDir",
		"timestamp" :1555959600
		},
	"2019-04-23T05:00:00+08:00" : {
		"windSpeed" : 0.9,
		"windDir" : 230,
		"rain" : 0,
		"cloudbase" : 640,
		"flyability" : 0,
		"reason" : "windDir",
		"timestamp" :1555970400
		},
	"2019-04-23T08:00:00+08:00" : {
		"windSpeed" : 0.4,
		"windDir" : 44,
		"rain" : 0,
		"cloudbase" : null,
		"flyability" : 100,
		"reason" : "",
		"timestamp" :1555981200
		},
	"2019-04-23T11:00:00+08:00" : {
		"windSpeed" : 3,
		"windDir" : 223,
		"rain" : 1,
		"cloudbase" : null,
		"flyability" : 0,
		"reason" : "windDir, rain",
		"timestamp" :1555992000
		},
	"2019-04-23T14:00:00+08:00" : {
		"windSpeed" : 4.7,
		"windDir" : 211,
		"rain" : 0,
		"cloudbase" : null,
		"flyability" : 0,
		"reason" : "windDir",
		"timestamp" :1556002800
		},
	"2019-04-23T17:00:00+08:00" : {
		"windSpeed" : 5.9,
		"windDir" : 195,
		"rain" : 0,
		"cloudbase" : null,
		"flyability" : 0,
		"reason" : "windSpeed, windDir",
		"timestamp" :1556013600
		},
	"2019-04-23T20:00:00+08:00" : {
		"windSpeed" : 4.3,
		"windDir" : 173,
		"rain" : 0,
		"cloudbase" : null,
		"flyability" : 0,
		"reason" : "windDir",
		"timestamp" :1556024400
		},
	"2019-04-23T23:00:00+08:00" : {
		"windSpeed" : 3.8,
		"windDir" : 135,
		"rain" : 0,
		"cloudbase" : null,
		"flyability" : 0,
		"reason" : "windDir",
		"timestamp" :1556035200
		},
	"2019-04-24T02:00:00+08:00" : {
		"windSpeed" : 3.4,
		"windDir" : 109,
		"rain" : 0,
		"cloudbase" : null,
		"flyability" : 0,
		"reason" : "windDir",
		"timestamp" :1556046000
		},
	"2019-04-24T05:00:00+08:00" : {
		"windSpeed" : 3.3,
		"windDir" : 107,
		"rain" : 0,
		"cloudbase" : null,
		"flyability" : 0,
		"reason" : "windDir",
		"timestamp" :1556056800
		},
	"2019-04-24T08:00:00+08:00" : {
		"windSpeed" : 3.7,
		"windDir" : 96,
		"rain" : 0,
		"cloudbase" : null,
		"flyability" : 0,
		"reason" : "windDir",
		"timestamp" :1556067600
		},
	"2019-04-24T11:00:00+08:00" : {
		"windSpeed" : 2.7,
		"windDir" : 112,
		"rain" : 0,
		"cloudbase" : null,
		"flyability" : 0,
		"reason" : "windDir",
		"timestamp" :1556078400
		},
	"2019-04-24T14:00:00+08:00" : {
		"windSpeed" : 2.9,
		"windDir" : 214,
		"rain" : 0,
		"cloudbase" : null,
		"flyability" : 0,
		"reason" : "windDir",
		"timestamp" :1556089200
		},
	"2019-04-24T17:00:00+08:00" : {
		"windSpeed" : 6.6,
		"windDir" : 196,
		"rain" : 0,
		"cloudbase" : 11500,
		"flyability" : 0,
		"reason" : "windSpeed, windDir",
		"timestamp" :1556100000
		},
	"2019-04-24T20:00:00+08:00" : {
		"windSpeed" : 6.8,
		"windDir" : 157,
		"rain" : 0,
		"cloudbase" : null,
		"flyability" : 0,
		"reason" : "windSpeed, windDir",
		"timestamp" :1556110800
		}
	}
}