{
"site" : "Hartbeespoortdam (Pretoria- Johannesburg)",
"id" : 6106,
"orientations" : "22012102",
"forecasts" : { 
	"2019-04-07T17:00:00+02:00" : {
		"windSpeed" : 1.6,
		"windDir" : 163,
		"rain" : 0,
		"cloudbase" : 9453.2024999992,
		"flyability" : 100,
		"reason" : "",
		"timestamp" :1554652800
		},
	"2019-04-07T20:00:00+02:00" : {
		"windSpeed" : 1.8,
		"windDir" : 149,
		"rain" : 0,
		"cloudbase" : 8670,
		"flyability" : 100,
		"reason" : "",
		"timestamp" :1554663600
		},
	"2019-04-07T23:00:00+02:00" : {
		"windSpeed" : 1.5,
		"windDir" : 117,
		"rain" : 0,
		"cloudbase" : null,
		"flyability" : 100,
		"reason" : "",
		"timestamp" :1554674400
		},
	"2019-04-08T02:00:00+02:00" : {
		"windSpeed" : 1.8,
		"windDir" : 96,
		"rain" : 0,
		"cloudbase" : 7896.67,
		"flyability" : 0,
		"reason" : "windDir",
		"timestamp" :1554685200
		},
	"2019-04-08T05:00:00+02:00" : {
		"windSpeed" : 2.1,
		"windDir" : 62,
		"rain" : 0,
		"cloudbase" : null,
		"flyability" : 100,
		"reason" : "",
		"timestamp" :1554696000
		},
	"2019-04-08T08:00:00+02:00" : {
		"windSpeed" : 3.1,
		"windDir" : 50,
		"rain" : 0,
		"cloudbase" : null,
		"flyability" : 100,
		"reason" : "",
		"timestamp" :1554706800
		},
	"2019-04-08T11:00:00+02:00" : {
		"windSpeed" : 3.6,
		"windDir" : 344,
		"rain" : 1,
		"cloudbase" : 6527.765,
		"flyability" : 0,
		"reason" : "rain",
		"timestamp" :1554717600
		},
	"2019-04-08T14:00:00+02:00" : {
		"windSpeed" : 3,
		"windDir" : 314,
		"rain" : 0,
		"cloudbase" : null,
		"flyability" : 100,
		"reason" : "",
		"timestamp" :1554728400
		},
	"2019-04-08T17:00:00+02:00" : {
		"windSpeed" : 2.5,
		"windDir" : 307,
		"rain" : 1,
		"cloudbase" : null,
		"flyability" : 0,
		"reason" : "rain",
		"timestamp" :1554739200
		},
	"2019-04-08T20:00:00+02:00" : {
		"windSpeed" : 1.4,
		"windDir" : 137,
		"rain" : 0,
		"cloudbase" : 10564.55,
		"flyability" : 100,
		"reason" : "",
		"timestamp" :1554750000
		},
	"2019-04-08T23:00:00+02:00" : {
		"windSpeed" : 2.1,
		"windDir" : 109,
		"rain" : 0,
		"cloudbase" : 8361.635,
		"flyability" : 0,
		"reason" : "windDir",
		"timestamp" :1554760800
		},
	"2019-04-09T02:00:00+02:00" : {
		"windSpeed" : 1.1,
		"windDir" : 121,
		"rain" : 0,
		"cloudbase" : 9700,
		"flyability" : 100,
		"reason" : "",
		"timestamp" :1554771600
		},
	"2019-04-09T05:00:00+02:00" : {
		"windSpeed" : 1.5,
		"windDir" : 112,
		"rain" : 1,
		"cloudbase" : null,
		"flyability" : 0,
		"reason" : "windDir, rain",
		"timestamp" :1554782400
		},
	"2019-04-09T08:00:00+02:00" : {
		"windSpeed" : 1,
		"windDir" : 64,
		"rain" : 0,
		"cloudbase" : null,
		"flyability" : 100,
		"reason" : "",
		"timestamp" :1554793200
		},
	"2019-04-09T11:00:00+02:00" : {
		"windSpeed" : 4.2,
		"windDir" : 305,
		"rain" : 1,
		"cloudbase" : 1050,
		"flyability" : 0,
		"reason" : "rain, cloudbase",
		"timestamp" :1554804000
		},
	"2019-04-09T14:00:00+02:00" : {
		"windSpeed" : 4.1,
		"windDir" : 286,
		"rain" : 1,
		"cloudbase" : null,
		"flyability" : 0,
		"reason" : "windDir, rain",
		"timestamp" :1554814800
		},
	"2019-04-09T17:00:00+02:00" : {
		"windSpeed" : 1.5,
		"windDir" : 182,
		"rain" : 0,
		"cloudbase" : 10500,
		"flyability" : 100,
		"reason" : "",
		"timestamp" :1554825600
		},
	"2019-04-09T20:00:00+02:00" : {
		"windSpeed" : 2.4,
		"windDir" : 130,
		"rain" : 1,
		"cloudbase" : 10491.675,
		"flyability" : 0,
		"reason" : "rain",
		"timestamp" :1554836400
		},
	"2019-04-09T23:00:00+02:00" : {
		"windSpeed" : 1.7,
		"windDir" : 128,
		"rain" : 0,
		"cloudbase" : null,
		"flyability" : 100,
		"reason" : "",
		"timestamp" :1554847200
		},
	"2019-04-10T02:00:00+02:00" : {
		"windSpeed" : 2,
		"windDir" : 138,
		"rain" : 0,
		"cloudbase" : null,
		"flyability" : 100,
		"reason" : "",
		"timestamp" :1554858000
		},
	"2019-04-10T05:00:00+02:00" : {
		"windSpeed" : 1.7,
		"windDir" : 129,
		"rain" : 0,
		"cloudbase" : null,
		"flyability" : 100,
		"reason" : "",
		"timestamp" :1554868800
		},
	"2019-04-10T08:00:00+02:00" : {
		"windSpeed" : 0.8,
		"windDir" : 95,
		"rain" : 0,
		"cloudbase" : 7870,
		"flyability" : 0,
		"reason" : "windDir",
		"timestamp" :1554879600
		},
	"2019-04-10T11:00:00+02:00" : {
		"windSpeed" : 2.5,
		"windDir" : 11,
		"rain" : 0,
		"cloudbase" : 7388.9,
		"flyability" : 100,
		"reason" : "",
		"timestamp" :1554890400
		},
	"2019-04-10T14:00:00+02:00" : {
		"windSpeed" : 1,
		"windDir" : 360,
		"rain" : 0,
		"cloudbase" : 6740.03,
		"flyability" : 100,
		"reason" : "",
		"timestamp" :1554901200
		},
	"2019-04-10T17:00:00+02:00" : {
		"windSpeed" : 0.9,
		"windDir" : 1,
		"rain" : 0,
		"cloudbase" : 9888.9,
		"flyability" : 100,
		"reason" : "",
		"timestamp" :1554912000
		},
	"2019-04-10T20:00:00+02:00" : {
		"windSpeed" : 3.9,
		"windDir" : 142,
		"rain" : 0,
		"cloudbase" : 3431.2375000002,
		"flyability" : 100,
		"reason" : "",
		"timestamp" :1554922800
		},
	"2019-04-10T23:00:00+02:00" : {
		"windSpeed" : 1.5,
		"windDir" : 161,
		"rain" : 0,
		"cloudbase" : 5766.6624999998,
		"flyability" : 100,
		"reason" : "",
		"timestamp" :1554933600
		},
	"2019-04-11T02:00:00+02:00" : {
		"windSpeed" : 3.1,
		"windDir" : 53,
		"rain" : 1,
		"cloudbase" : 4441.1225,
		"flyability" : 0,
		"reason" : "rain",
		"timestamp" :1554944400
		},
	"2019-04-11T05:00:00+02:00" : {
		"windSpeed" : 2.5,
		"windDir" : 45,
		"rain" : 1,
		"cloudbase" : 5583.4350000001,
		"flyability" : 0,
		"reason" : "rain",
		"timestamp" :1554955200
		},
	"2019-04-11T08:00:00+02:00" : {
		"windSpeed" : 3.1,
		"windDir" : 37,
		"rain" : 1,
		"cloudbase" : 4932.9335000003,
		"flyability" : 0,
		"reason" : "rain",
		"timestamp" :1554966000
		},
	"2019-04-11T11:00:00+02:00" : {
		"windSpeed" : 1.2,
		"windDir" : 22,
		"rain" : 1,
		"cloudbase" : 4999.0930000005,
		"flyability" : 0,
		"reason" : "rain",
		"timestamp" :1554976800
		},
	"2019-04-11T14:00:00+02:00" : {
		"windSpeed" : 1.2,
		"windDir" : 351,
		"rain" : 0,
		"cloudbase" : 1673.3799999997,
		"flyability" : 100,
		"reason" : "",
		"timestamp" :1554987600
		},
	"2019-04-11T17:00:00+02:00" : {
		"windSpeed" : 1,
		"windDir" : 159,
		"rain" : 0,
		"cloudbase" : 3220.2375,
		"flyability" : 100,
		"reason" : "",
		"timestamp" :1554998400
		},
	"2019-04-11T20:00:00+02:00" : {
		"windSpeed" : 0.9,
		"windDir" : 178,
		"rain" : 1,
		"cloudbase" : 6785.5324999998,
		"flyability" : 0,
		"reason" : "rain",
		"timestamp" :1555009200
		},
	"2019-04-11T23:00:00+02:00" : {
		"windSpeed" : 0.8,
		"windDir" : 139,
		"rain" : 1,
		"cloudbase" : 7132.9600000004,
		"flyability" : 0,
		"reason" : "rain",
		"timestamp" :1555020000
		},
	"2019-04-12T02:00:00+02:00" : {
		"windSpeed" : 1.5,
		"windDir" : 113,
		"rain" : 1,
		"cloudbase" : 6076.5800000003,
		"flyability" : 0,
		"reason" : "rain",
		"timestamp" :1555030800
		},
	"2019-04-12T05:00:00+02:00" : {
		"windSpeed" : 1.1,
		"windDir" : 186,
		"rain" : 1,
		"cloudbase" : 9497.77,
		"flyability" : 0,
		"reason" : "rain",
		"timestamp" :1555041600
		},
	"2019-04-12T08:00:00+02:00" : {
		"windSpeed" : 0.7,
		"windDir" : 135,
		"rain" : 1,
		"cloudbase" : null,
		"flyability" : 0,
		"reason" : "rain",
		"timestamp" :1555052400
		},
	"2019-04-12T11:00:00+02:00" : {
		"windSpeed" : 1.8,
		"windDir" : 327,
		"rain" : 1,
		"cloudbase" : 420,
		"flyability" : 0,
		"reason" : "rain, cloudbase",
		"timestamp" :1555063200
		},
	"2019-04-12T14:00:00+02:00" : {
		"windSpeed" : 2.5,
		"windDir" : 279,
		"rain" : 0,
		"cloudbase" : 2350,
		"flyability" : 0,
		"reason" : "windDir",
		"timestamp" :1555074000
		},
	"2019-04-12T17:00:00+02:00" : {
		"windSpeed" : 2.6,
		"windDir" : 259,
		"rain" : 1,
		"cloudbase" : null,
		"flyability" : 0,
		"reason" : "windDir, rain",
		"timestamp" :1555084800
		},
	"2019-04-12T20:00:00+02:00" : {
		"windSpeed" : 1.6,
		"windDir" : 163,
		"rain" : 0,
		"cloudbase" : null,
		"flyability" : 100,
		"reason" : "",
		"timestamp" :1555095600
		},
	"2019-04-12T23:00:00+02:00" : {
		"windSpeed" : 1.3,
		"windDir" : 158,
		"rain" : 1,
		"cloudbase" : null,
		"flyability" : 0,
		"reason" : "rain",
		"timestamp" :1555106400
		},
	"2019-04-13T02:00:00+02:00" : {
		"windSpeed" : 1.6,
		"windDir" : 162,
		"rain" : 1,
		"cloudbase" : null,
		"flyability" : 0,
		"reason" : "rain",
		"timestamp" :1555117200
		},
	"2019-04-13T05:00:00+02:00" : {
		"windSpeed" : 1.8,
		"windDir" : 147,
		"rain" : 1,
		"cloudbase" : null,
		"flyability" : 0,
		"reason" : "rain",
		"timestamp" :1555128000
		},
	"2019-04-13T08:00:00+02:00" : {
		"windSpeed" : 1.1,
		"windDir" : 124,
		"rain" : 1,
		"cloudbase" : null,
		"flyability" : 0,
		"reason" : "rain",
		"timestamp" :1555138800
		},
	"2019-04-13T11:00:00+02:00" : {
		"windSpeed" : 1.1,
		"windDir" : 334,
		"rain" : 1,
		"cloudbase" : 1250,
		"flyability" : 0,
		"reason" : "rain, cloudbase",
		"timestamp" :1555149600
		},
	"2019-04-13T14:00:00+02:00" : {
		"windSpeed" : 1.4,
		"windDir" : 321,
		"rain" : 0,
		"cloudbase" : 1550,
		"flyability" : 0,
		"reason" : "cloudbase",
		"timestamp" :1555160400
		}
	}
}