{
"site" : "Bampton Quarry",
"id" : 6206,
"orientations" : "00000020",
"forecasts" : { 
	"2019-04-21T16:00:00+01:00" : {
		"windSpeed" : 1.7,
		"windDir" : 163,
		"rain" : 0,
		"cloudbase" : null,
		"flyability" : 0,
		"reason" : "windDir",
		"timestamp" :1555855200
		},
	"2019-04-21T19:00:00+01:00" : {
		"windSpeed" : 1.6,
		"windDir" : 142,
		"rain" : 0,
		"cloudbase" : null,
		"flyability" : 0,
		"reason" : "windDir",
		"timestamp" :1555866000
		},
	"2019-04-21T22:00:00+01:00" : {
		"windSpeed" : 1.3,
		"windDir" : 185,
		"rain" : 0,
		"cloudbase" : null,
		"flyability" : 0,
		"reason" : "windDir",
		"timestamp" :1555876800
		},
	"2019-04-22T01:00:00+01:00" : {
		"windSpeed" : 3,
		"windDir" : 128,
		"rain" : 0,
		"cloudbase" : null,
		"flyability" : 0,
		"reason" : "windDir",
		"timestamp" :1555887600
		},
	"2019-04-22T04:00:00+01:00" : {
		"windSpeed" : 2.2,
		"windDir" : 97,
		"rain" : 0,
		"cloudbase" : null,
		"flyability" : 0,
		"reason" : "windDir",
		"timestamp" :1555898400
		},
	"2019-04-22T07:00:00+01:00" : {
		"windSpeed" : 2.2,
		"windDir" : 77,
		"rain" : 0,
		"cloudbase" : null,
		"flyability" : 0,
		"reason" : "windDir",
		"timestamp" :1555909200
		},
	"2019-04-22T10:00:00+01:00" : {
		"windSpeed" : 4,
		"windDir" : 120,
		"rain" : 0,
		"cloudbase" : null,
		"flyability" : 0,
		"reason" : "windDir",
		"timestamp" :1555920000
		},
	"2019-04-22T13:00:00+01:00" : {
		"windSpeed" : 4.8,
		"windDir" : 143,
		"rain" : 0,
		"cloudbase" : 3988.48142,
		"flyability" : 0,
		"reason" : "windDir",
		"timestamp" :1555930800
		},
	"2019-04-22T16:00:00+01:00" : {
		"windSpeed" : 3.9,
		"windDir" : 142,
		"rain" : 0,
		"cloudbase" : 3050,
		"flyability" : 0,
		"reason" : "windDir",
		"timestamp" :1555941600
		},
	"2019-04-22T19:00:00+01:00" : {
		"windSpeed" : 2.4,
		"windDir" : 141,
		"rain" : 0,
		"cloudbase" : null,
		"flyability" : 0,
		"reason" : "windDir",
		"timestamp" :1555952400
		},
	"2019-04-22T22:00:00+01:00" : {
		"windSpeed" : 1.6,
		"windDir" : 122,
		"rain" : 0,
		"cloudbase" : 3263.45,
		"flyability" : 0,
		"reason" : "windDir",
		"timestamp" :1555963200
		},
	"2019-04-23T01:00:00+01:00" : {
		"windSpeed" : 2.3,
		"windDir" : 96,
		"rain" : 0,
		"cloudbase" : 2102.20071,
		"flyability" : 0,
		"reason" : "windDir",
		"timestamp" :1555974000
		},
	"2019-04-23T04:00:00+01:00" : {
		"windSpeed" : 2.3,
		"windDir" : 81,
		"rain" : 0,
		"cloudbase" : 2121.41,
		"flyability" : 0,
		"reason" : "windDir",
		"timestamp" :1555984800
		},
	"2019-04-23T07:00:00+01:00" : {
		"windSpeed" : 2.5,
		"windDir" : 66,
		"rain" : 0,
		"cloudbase" : null,
		"flyability" : 0,
		"reason" : "windDir",
		"timestamp" :1555995600
		},
	"2019-04-23T10:00:00+01:00" : {
		"windSpeed" : 4.2,
		"windDir" : 92,
		"rain" : 0,
		"cloudbase" : null,
		"flyability" : 0,
		"reason" : "windDir",
		"timestamp" :1556006400
		},
	"2019-04-23T13:00:00+01:00" : {
		"windSpeed" : 5.6,
		"windDir" : 148,
		"rain" : 0,
		"cloudbase" : 9700,
		"flyability" : 0,
		"reason" : "windSpeed, windDir",
		"timestamp" :1556017200
		},
	"2019-04-23T16:00:00+01:00" : {
		"windSpeed" : 3.5,
		"windDir" : 165,
		"rain" : 0,
		"cloudbase" : 4961.4137549999,
		"flyability" : 0,
		"reason" : "windDir",
		"timestamp" :1556028000
		},
	"2019-04-23T19:00:00+01:00" : {
		"windSpeed" : 1.4,
		"windDir" : 137,
		"rain" : 0,
		"cloudbase" : 5616.40284,
		"flyability" : 0,
		"reason" : "windDir",
		"timestamp" :1556038800
		},
	"2019-04-23T22:00:00+01:00" : {
		"windSpeed" : 0.9,
		"windDir" : 95,
		"rain" : 1,
		"cloudbase" : 2897.389645,
		"flyability" : 0,
		"reason" : "windDir, rain",
		"timestamp" :1556049600
		},
	"2019-04-24T01:00:00+01:00" : {
		"windSpeed" : 1.8,
		"windDir" : 126,
		"rain" : 1,
		"cloudbase" : 5099.8994949999,
		"flyability" : 0,
		"reason" : "windDir, rain",
		"timestamp" :1556060400
		},
	"2019-04-24T04:00:00+01:00" : {
		"windSpeed" : 2.4,
		"windDir" : 90,
		"rain" : 0,
		"cloudbase" : 8219.9000000001,
		"flyability" : 0,
		"reason" : "windDir",
		"timestamp" :1556071200
		},
	"2019-04-24T07:00:00+01:00" : {
		"windSpeed" : 3.3,
		"windDir" : 93,
		"rain" : 1,
		"cloudbase" : null,
		"flyability" : 0,
		"reason" : "windDir, rain",
		"timestamp" :1556082000
		},
	"2019-04-24T10:00:00+01:00" : {
		"windSpeed" : 4.8,
		"windDir" : 135,
		"rain" : 1,
		"cloudbase" : 61.477567999997,
		"flyability" : 0,
		"reason" : "windDir, rain, cloudbase",
		"timestamp" :1556092800
		},
	"2019-04-24T13:00:00+01:00" : {
		"windSpeed" : 4.8,
		"windDir" : 241,
		"rain" : 1,
		"cloudbase" : 945.70070999999,
		"flyability" : 0,
		"reason" : "windDir, rain",
		"timestamp" :1556103600
		},
	"2019-04-24T16:00:00+01:00" : {
		"windSpeed" : 5.2,
		"windDir" : 198,
		"rain" : 1,
		"cloudbase" : 2776.9,
		"flyability" : 0,
		"reason" : "windSpeed, windDir, rain",
		"timestamp" :1556114400
		},
	"2019-04-24T19:00:00+01:00" : {
		"windSpeed" : 4.5,
		"windDir" : 172,
		"rain" : 1,
		"cloudbase" : 5597.4242900001,
		"flyability" : 0,
		"reason" : "windDir, rain",
		"timestamp" :1556125200
		},
	"2019-04-24T22:00:00+01:00" : {
		"windSpeed" : 5.5,
		"windDir" : 145,
		"rain" : 1,
		"cloudbase" : 1845.5305679997,
		"flyability" : 0,
		"reason" : "windSpeed, windDir, rain",
		"timestamp" :1556136000
		},
	"2019-04-25T01:00:00+01:00" : {
		"windSpeed" : 6.3,
		"windDir" : 136,
		"rain" : 1,
		"cloudbase" : 2051.3401419997,
		"flyability" : 0,
		"reason" : "windSpeed, windDir, rain",
		"timestamp" :1556146800
		},
	"2019-04-25T04:00:00+01:00" : {
		"windSpeed" : 6.5,
		"windDir" : 141,
		"rain" : 1,
		"cloudbase" : 1137.605,
		"flyability" : 0,
		"reason" : "windSpeed, windDir, rain",
		"timestamp" :1556157600
		},
	"2019-04-25T07:00:00+01:00" : {
		"windSpeed" : 6.4,
		"windDir" : 143,
		"rain" : 1,
		"cloudbase" : 353.15443199999,
		"flyability" : 0,
		"reason" : "windSpeed, windDir, rain",
		"timestamp" :1556168400
		},
	"2019-04-25T10:00:00+01:00" : {
		"windSpeed" : 4.8,
		"windDir" : 162,
		"rain" : 1,
		"cloudbase" : 233.34321299999,
		"flyability" : 0,
		"reason" : "windDir, rain",
		"timestamp" :1556179200
		},
	"2019-04-25T13:00:00+01:00" : {
		"windSpeed" : 6,
		"windDir" : 172,
		"rain" : 1,
		"cloudbase" : 521.22563399993,
		"flyability" : 0,
		"reason" : "windSpeed, windDir, rain",
		"timestamp" :1556190000
		},
	"2019-04-25T16:00:00+01:00" : {
		"windSpeed" : 5.1,
		"windDir" : 176,
		"rain" : 1,
		"cloudbase" : 2169.5337019999,
		"flyability" : 0,
		"reason" : "windSpeed, windDir, rain",
		"timestamp" :1556200800
		},
	"2019-04-25T19:00:00+01:00" : {
		"windSpeed" : 4.5,
		"windDir" : 185,
		"rain" : 1,
		"cloudbase" : 6000,
		"flyability" : 0,
		"reason" : "windDir, rain",
		"timestamp" :1556211600
		},
	"2019-04-25T22:00:00+01:00" : {
		"windSpeed" : 3.4,
		"windDir" : 180,
		"rain" : 0,
		"cloudbase" : null,
		"flyability" : 0,
		"reason" : "windDir",
		"timestamp" :1556222400
		},
	"2019-04-26T01:00:00+01:00" : {
		"windSpeed" : 3.1,
		"windDir" : 172,
		"rain" : 0,
		"cloudbase" : null,
		"flyability" : 0,
		"reason" : "windDir",
		"timestamp" :1556233200
		},
	"2019-04-26T04:00:00+01:00" : {
		"windSpeed" : 3.2,
		"windDir" : 160,
		"rain" : 0,
		"cloudbase" : 5042.82,
		"flyability" : 0,
		"reason" : "windDir",
		"timestamp" :1556244000
		},
	"2019-04-26T07:00:00+01:00" : {
		"windSpeed" : 3.5,
		"windDir" : 163,
		"rain" : 0,
		"cloudbase" : 333.18049699999,
		"flyability" : 0,
		"reason" : "windDir",
		"timestamp" :1556254800
		},
	"2019-04-26T10:00:00+01:00" : {
		"windSpeed" : 5.3,
		"windDir" : 159,
		"rain" : 1,
		"cloudbase" : 2888.2527799998,
		"flyability" : 0,
		"reason" : "windSpeed, windDir, rain",
		"timestamp" :1556265600
		},
	"2019-04-26T13:00:00+01:00" : {
		"windSpeed" : 4,
		"windDir" : 167,
		"rain" : 1,
		"cloudbase" : 288.12707099999,
		"flyability" : 0,
		"reason" : "windDir, rain",
		"timestamp" :1556276400
		},
	"2019-04-26T16:00:00+01:00" : {
		"windSpeed" : 4.8,
		"windDir" : 216,
		"rain" : 1,
		"cloudbase" : null,
		"flyability" : 0,
		"reason" : "windDir, rain",
		"timestamp" :1556287200
		},
	"2019-04-26T19:00:00+01:00" : {
		"windSpeed" : 6.9,
		"windDir" : 274,
		"rain" : 1,
		"cloudbase" : 6543.37,
		"flyability" : 0,
		"reason" : "windSpeed, rain",
		"timestamp" :1556298000
		},
	"2019-04-26T22:00:00+01:00" : {
		"windSpeed" : 7.1,
		"windDir" : 255,
		"rain" : 0,
		"cloudbase" : 4250,
		"flyability" : 0,
		"reason" : "windSpeed",
		"timestamp" :1556308800
		},
	"2019-04-27T01:00:00+01:00" : {
		"windSpeed" : 4.6,
		"windDir" : 196,
		"rain" : 0,
		"cloudbase" : 633.31070999999,
		"flyability" : 0,
		"reason" : "windDir",
		"timestamp" :1556319600
		},
	"2019-04-27T04:00:00+01:00" : {
		"windSpeed" : 8.5,
		"windDir" : 258,
		"rain" : 1,
		"cloudbase" : 687.56256799999,
		"flyability" : 0,
		"reason" : "windSpeed, rain",
		"timestamp" :1556330400
		},
	"2019-04-27T07:00:00+01:00" : {
		"windSpeed" : 8.6,
		"windDir" : 245,
		"rain" : 0,
		"cloudbase" : 1500,
		"flyability" : 0,
		"reason" : "windSpeed, windDir",
		"timestamp" :1556341200
		},
	"2019-04-27T10:00:00+01:00" : {
		"windSpeed" : 13.8,
		"windDir" : 251,
		"rain" : 1,
		"cloudbase" : 2560.85571,
		"flyability" : 0,
		"reason" : "windSpeed, rain",
		"timestamp" :1556352000
		},
	"2019-04-27T13:00:00+01:00" : {
		"windSpeed" : 11.1,
		"windDir" : 265,
		"rain" : 1,
		"cloudbase" : 759.17999999999,
		"flyability" : 0,
		"reason" : "windSpeed, rain",
		"timestamp" :1556362800
		}
	}
}