{
"site" : "Hay Bluff ",
"id" : 6263,
"orientations" : "22000002",
"forecasts" : { 
	"2019-04-22T04:00:00+01:00" : {
		"windSpeed" : 2.2,
		"windDir" : 102,
		"rain" : 0,
		"cloudbase" : null,
		"flyability" : 0,
		"reason" : "windDir",
		"timestamp" :1555898400
		},
	"2019-04-22T07:00:00+01:00" : {
		"windSpeed" : 1.6,
		"windDir" : 107,
		"rain" : 0,
		"cloudbase" : null,
		"flyability" : 0,
		"reason" : "windDir",
		"timestamp" :1555909200
		},
	"2019-04-22T10:00:00+01:00" : {
		"windSpeed" : 2.5,
		"windDir" : 91,
		"rain" : 0,
		"cloudbase" : null,
		"flyability" : 0,
		"reason" : "windDir",
		"timestamp" :1555920000
		},
	"2019-04-22T13:00:00+01:00" : {
		"windSpeed" : 3.1,
		"windDir" : 99,
		"rain" : 0,
		"cloudbase" : 4250,
		"flyability" : 0,
		"reason" : "windDir",
		"timestamp" :1555930800
		},
	"2019-04-22T16:00:00+01:00" : {
		"windSpeed" : 4.1,
		"windDir" : 121,
		"rain" : 0,
		"cloudbase" : null,
		"flyability" : 0,
		"reason" : "windDir",
		"timestamp" :1555941600
		},
	"2019-04-22T19:00:00+01:00" : {
		"windSpeed" : 2.8,
		"windDir" : 148,
		"rain" : 0,
		"cloudbase" : 8583,
		"flyability" : 0,
		"reason" : "windDir",
		"timestamp" :1555952400
		},
	"2019-04-22T22:00:00+01:00" : {
		"windSpeed" : 2.2,
		"windDir" : 155,
		"rain" : 0,
		"cloudbase" : 3015.97,
		"flyability" : 0,
		"reason" : "windDir",
		"timestamp" :1555963200
		},
	"2019-04-23T01:00:00+01:00" : {
		"windSpeed" : 1.2,
		"windDir" : 150,
		"rain" : 1,
		"cloudbase" : 2290.03,
		"flyability" : 0,
		"reason" : "windDir, rain",
		"timestamp" :1555974000
		},
	"2019-04-23T04:00:00+01:00" : {
		"windSpeed" : 1.8,
		"windDir" : 57,
		"rain" : 0,
		"cloudbase" : null,
		"flyability" : 100,
		"reason" : "",
		"timestamp" :1555984800
		},
	"2019-04-23T07:00:00+01:00" : {
		"windSpeed" : 2.6,
		"windDir" : 56,
		"rain" : 0,
		"cloudbase" : null,
		"flyability" : 100,
		"reason" : "",
		"timestamp" :1555995600
		},
	"2019-04-23T10:00:00+01:00" : {
		"windSpeed" : 4.1,
		"windDir" : 76,
		"rain" : 0,
		"cloudbase" : null,
		"flyability" : 0,
		"reason" : "windDir",
		"timestamp" :1556006400
		},
	"2019-04-23T13:00:00+01:00" : {
		"windSpeed" : 4.6,
		"windDir" : 90,
		"rain" : 0,
		"cloudbase" : 9447.5299999999,
		"flyability" : 0,
		"reason" : "windDir",
		"timestamp" :1556017200
		},
	"2019-04-23T16:00:00+01:00" : {
		"windSpeed" : 4.7,
		"windDir" : 107,
		"rain" : 0,
		"cloudbase" : 9153.88,
		"flyability" : 0,
		"reason" : "windDir",
		"timestamp" :1556028000
		},
	"2019-04-23T19:00:00+01:00" : {
		"windSpeed" : 2.3,
		"windDir" : 111,
		"rain" : 0,
		"cloudbase" : 7620.06,
		"flyability" : 0,
		"reason" : "windDir",
		"timestamp" :1556038800
		},
	"2019-04-23T22:00:00+01:00" : {
		"windSpeed" : 2.6,
		"windDir" : 99,
		"rain" : 0,
		"cloudbase" : 5709.53,
		"flyability" : 0,
		"reason" : "windDir",
		"timestamp" :1556049600
		},
	"2019-04-24T01:00:00+01:00" : {
		"windSpeed" : 1.6,
		"windDir" : 90,
		"rain" : 0,
		"cloudbase" : 4784,
		"flyability" : 0,
		"reason" : "windDir",
		"timestamp" :1556060400
		},
	"2019-04-24T04:00:00+01:00" : {
		"windSpeed" : 1.6,
		"windDir" : 87,
		"rain" : 0,
		"cloudbase" : null,
		"flyability" : 0,
		"reason" : "windDir",
		"timestamp" :1556071200
		},
	"2019-04-24T07:00:00+01:00" : {
		"windSpeed" : 2.2,
		"windDir" : 76,
		"rain" : 0,
		"cloudbase" : null,
		"flyability" : 0,
		"reason" : "windDir",
		"timestamp" :1556082000
		},
	"2019-04-24T10:00:00+01:00" : {
		"windSpeed" : 3.2,
		"windDir" : 99,
		"rain" : 1,
		"cloudbase" : 2839.85,
		"flyability" : 0,
		"reason" : "windDir, rain",
		"timestamp" :1556092800
		},
	"2019-04-24T13:00:00+01:00" : {
		"windSpeed" : 4.4,
		"windDir" : 159,
		"rain" : 1,
		"cloudbase" : 461.78800000001,
		"flyability" : 0,
		"reason" : "windDir, rain, cloudbase",
		"timestamp" :1556103600
		},
	"2019-04-24T16:00:00+01:00" : {
		"windSpeed" : 4.5,
		"windDir" : 209,
		"rain" : 1,
		"cloudbase" : null,
		"flyability" : 0,
		"reason" : "windDir, rain",
		"timestamp" :1556114400
		},
	"2019-04-24T19:00:00+01:00" : {
		"windSpeed" : 4.3,
		"windDir" : 159,
		"rain" : 0,
		"cloudbase" : null,
		"flyability" : 0,
		"reason" : "windDir",
		"timestamp" :1556125200
		},
	"2019-04-24T22:00:00+01:00" : {
		"windSpeed" : 4.6,
		"windDir" : 139,
		"rain" : 1,
		"cloudbase" : 1857.3450000002,
		"flyability" : 0,
		"reason" : "windDir, rain",
		"timestamp" :1556136000
		},
	"2019-04-25T01:00:00+01:00" : {
		"windSpeed" : 5.3,
		"windDir" : 130,
		"rain" : 1,
		"cloudbase" : null,
		"flyability" : 0,
		"reason" : "windSpeed, windDir, rain",
		"timestamp" :1556146800
		},
	"2019-04-25T04:00:00+01:00" : {
		"windSpeed" : 5.3,
		"windDir" : 129,
		"rain" : 1,
		"cloudbase" : 736.188,
		"flyability" : 0,
		"reason" : "windSpeed, windDir, rain",
		"timestamp" :1556157600
		},
	"2019-04-25T07:00:00+01:00" : {
		"windSpeed" : 6.3,
		"windDir" : 134,
		"rain" : 1,
		"cloudbase" : 963.128,
		"flyability" : 0,
		"reason" : "windSpeed, windDir, rain",
		"timestamp" :1556168400
		},
	"2019-04-25T10:00:00+01:00" : {
		"windSpeed" : 3.9,
		"windDir" : 156,
		"rain" : 1,
		"cloudbase" : 3356.82,
		"flyability" : 0,
		"reason" : "windDir, rain",
		"timestamp" :1556179200
		},
	"2019-04-25T13:00:00+01:00" : {
		"windSpeed" : 5.7,
		"windDir" : 165,
		"rain" : 1,
		"cloudbase" : null,
		"flyability" : 0,
		"reason" : "windSpeed, windDir, rain",
		"timestamp" :1556190000
		},
	"2019-04-25T16:00:00+01:00" : {
		"windSpeed" : 5.5,
		"windDir" : 175,
		"rain" : 1,
		"cloudbase" : null,
		"flyability" : 0,
		"reason" : "windSpeed, windDir, rain",
		"timestamp" :1556200800
		},
	"2019-04-25T19:00:00+01:00" : {
		"windSpeed" : 4.4,
		"windDir" : 173,
		"rain" : 0,
		"cloudbase" : null,
		"flyability" : 0,
		"reason" : "windDir",
		"timestamp" :1556211600
		},
	"2019-04-25T22:00:00+01:00" : {
		"windSpeed" : 2.7,
		"windDir" : 158,
		"rain" : 0,
		"cloudbase" : null,
		"flyability" : 0,
		"reason" : "windDir",
		"timestamp" :1556222400
		},
	"2019-04-26T01:00:00+01:00" : {
		"windSpeed" : 2.2,
		"windDir" : 153,
		"rain" : 0,
		"cloudbase" : 240,
		"flyability" : 0,
		"reason" : "windDir, cloudbase",
		"timestamp" :1556233200
		},
	"2019-04-26T04:00:00+01:00" : {
		"windSpeed" : 2.4,
		"windDir" : 142,
		"rain" : 0,
		"cloudbase" : 75,
		"flyability" : 0,
		"reason" : "windDir, cloudbase",
		"timestamp" :1556244000
		},
	"2019-04-26T07:00:00+01:00" : {
		"windSpeed" : 3.7,
		"windDir" : 145,
		"rain" : 0,
		"cloudbase" : 397.90100000009,
		"flyability" : 0,
		"reason" : "windDir, cloudbase",
		"timestamp" :1556254800
		},
	"2019-04-26T10:00:00+01:00" : {
		"windSpeed" : 4.8,
		"windDir" : 150,
		"rain" : 1,
		"cloudbase" : 697.18000000006,
		"flyability" : 0,
		"reason" : "windDir, rain",
		"timestamp" :1556265600
		},
	"2019-04-26T13:00:00+01:00" : {
		"windSpeed" : 5,
		"windDir" : 185,
		"rain" : 1,
		"cloudbase" : 346.08200000001,
		"flyability" : 0,
		"reason" : "windDir, rain, cloudbase",
		"timestamp" :1556276400
		},
	"2019-04-26T16:00:00+01:00" : {
		"windSpeed" : 5.3,
		"windDir" : 240,
		"rain" : 1,
		"cloudbase" : 6279.8649999998,
		"flyability" : 0,
		"reason" : "windSpeed, windDir, rain",
		"timestamp" :1556287200
		},
	"2019-04-26T19:00:00+01:00" : {
		"windSpeed" : 5.4,
		"windDir" : 253,
		"rain" : 1,
		"cloudbase" : 4585.705,
		"flyability" : 0,
		"reason" : "windSpeed, windDir, rain",
		"timestamp" :1556298000
		},
	"2019-04-26T22:00:00+01:00" : {
		"windSpeed" : 4.6,
		"windDir" : 244,
		"rain" : 1,
		"cloudbase" : null,
		"flyability" : 0,
		"reason" : "windDir, rain",
		"timestamp" :1556308800
		},
	"2019-04-27T01:00:00+01:00" : {
		"windSpeed" : 2.3,
		"windDir" : 207,
		"rain" : 1,
		"cloudbase" : 3176.325,
		"flyability" : 0,
		"reason" : "windDir, rain",
		"timestamp" :1556319600
		},
	"2019-04-27T04:00:00+01:00" : {
		"windSpeed" : 3.7,
		"windDir" : 70,
		"rain" : 1,
		"cloudbase" : 63.526500000003,
		"flyability" : 0,
		"reason" : "windDir, rain, cloudbase",
		"timestamp" :1556330400
		},
	"2019-04-27T07:00:00+01:00" : {
		"windSpeed" : 5,
		"windDir" : 323,
		"rain" : 1,
		"cloudbase" : 273.91099999998,
		"flyability" : 0,
		"reason" : "rain, cloudbase",
		"timestamp" :1556341200
		},
	"2019-04-27T10:00:00+01:00" : {
		"windSpeed" : 7.9,
		"windDir" : 310,
		"rain" : 1,
		"cloudbase" : 596.29700000006,
		"flyability" : 0,
		"reason" : "windSpeed, rain, cloudbase",
		"timestamp" :1556352000
		},
	"2019-04-27T13:00:00+01:00" : {
		"windSpeed" : 7.5,
		"windDir" : 299,
		"rain" : 1,
		"cloudbase" : null,
		"flyability" : 0,
		"reason" : "windSpeed, rain",
		"timestamp" :1556362800
		},
	"2019-04-27T16:00:00+01:00" : {
		"windSpeed" : 7.9,
		"windDir" : 296,
		"rain" : 0,
		"cloudbase" : null,
		"flyability" : 0,
		"reason" : "windSpeed",
		"timestamp" :1556373600
		},
	"2019-04-27T19:00:00+01:00" : {
		"windSpeed" : 5.9,
		"windDir" : 290,
		"rain" : 1,
		"cloudbase" : null,
		"flyability" : 0,
		"reason" : "windSpeed, windDir, rain",
		"timestamp" :1556384400
		},
	"2019-04-27T22:00:00+01:00" : {
		"windSpeed" : 2.5,
		"windDir" : 267,
		"rain" : 0,
		"cloudbase" : 8100,
		"flyability" : 0,
		"reason" : "windDir",
		"timestamp" :1556395200
		},
	"2019-04-28T01:00:00+01:00" : {
		"windSpeed" : 3.1,
		"windDir" : 250,
		"rain" : 0,
		"cloudbase" : 7232.47,
		"flyability" : 0,
		"reason" : "windDir",
		"timestamp" :1556406000
		}
	}
}