{
"site" : "Kovk",
"id" : 6667,
"orientations" : "00011210",
"forecasts" : { 
	"2019-04-22T17:00:00+02:00" : {
		"windSpeed" : 3.1,
		"windDir" : 254,
		"rain" : 1,
		"cloudbase" : null,
		"flyability" : 0,
		"reason" : "rain",
		"timestamp" :1555948800
		},
	"2019-04-22T20:00:00+02:00" : {
		"windSpeed" : 1.3,
		"windDir" : 280,
		"rain" : 0,
		"cloudbase" : 1317.6542000001,
		"flyability" : 100,
		"reason" : "",
		"timestamp" :1555959600
		},
	"2019-04-22T23:00:00+02:00" : {
		"windSpeed" : 1.1,
		"windDir" : 13,
		"rain" : 0,
		"cloudbase" : 662.8334,
		"flyability" : 0,
		"reason" : "windDir, cloudbase",
		"timestamp" :1555970400
		},
	"2019-04-23T02:00:00+02:00" : {
		"windSpeed" : 1.1,
		"windDir" : 22,
		"rain" : 0,
		"cloudbase" : 6773.2945000003,
		"flyability" : 0,
		"reason" : "windDir",
		"timestamp" :1555981200
		},
	"2019-04-23T05:00:00+02:00" : {
		"windSpeed" : 1.5,
		"windDir" : 49,
		"rain" : 1,
		"cloudbase" : 1136.59725,
		"flyability" : 0,
		"reason" : "windDir, rain",
		"timestamp" :1555992000
		},
	"2019-04-23T08:00:00+02:00" : {
		"windSpeed" : 2.2,
		"windDir" : 47,
		"rain" : 1,
		"cloudbase" : 1082.5945,
		"flyability" : 0,
		"reason" : "windDir, rain",
		"timestamp" :1556002800
		},
	"2019-04-23T11:00:00+02:00" : {
		"windSpeed" : 3,
		"windDir" : 53,
		"rain" : 1,
		"cloudbase" : 557.80934999996,
		"flyability" : 0,
		"reason" : "windDir, rain, cloudbase",
		"timestamp" :1556013600
		},
	"2019-04-23T14:00:00+02:00" : {
		"windSpeed" : 2.3,
		"windDir" : 53,
		"rain" : 1,
		"cloudbase" : 370.00879999998,
		"flyability" : 0,
		"reason" : "windDir, rain, cloudbase",
		"timestamp" :1556024400
		},
	"2019-04-23T17:00:00+02:00" : {
		"windSpeed" : 2.5,
		"windDir" : 54,
		"rain" : 1,
		"cloudbase" : 433.31429999997,
		"flyability" : 0,
		"reason" : "windDir, rain, cloudbase",
		"timestamp" :1556035200
		},
	"2019-04-23T20:00:00+02:00" : {
		"windSpeed" : 1.4,
		"windDir" : 65,
		"rain" : 1,
		"cloudbase" : 361.98769999997,
		"flyability" : 0,
		"reason" : "windDir, rain, cloudbase",
		"timestamp" :1556046000
		},
	"2019-04-23T23:00:00+02:00" : {
		"windSpeed" : 1.1,
		"windDir" : 85,
		"rain" : 1,
		"cloudbase" : 280,
		"flyability" : 0,
		"reason" : "windDir, rain, cloudbase",
		"timestamp" :1556056800
		},
	"2019-04-24T02:00:00+02:00" : {
		"windSpeed" : 2,
		"windDir" : 156,
		"rain" : 1,
		"cloudbase" : 657.69044999998,
		"flyability" : 0,
		"reason" : "rain, cloudbase",
		"timestamp" :1556067600
		},
	"2019-04-24T05:00:00+02:00" : {
		"windSpeed" : 1.7,
		"windDir" : 188,
		"rain" : 1,
		"cloudbase" : 249.7612,
		"flyability" : 0,
		"reason" : "rain, cloudbase",
		"timestamp" :1556078400
		},
	"2019-04-24T08:00:00+02:00" : {
		"windSpeed" : 2.6,
		"windDir" : 198,
		"rain" : 1,
		"cloudbase" : 234.89065,
		"flyability" : 0,
		"reason" : "rain, cloudbase",
		"timestamp" :1556089200
		},
	"2019-04-24T11:00:00+02:00" : {
		"windSpeed" : 2.4,
		"windDir" : 211,
		"rain" : 1,
		"cloudbase" : 551.36924999997,
		"flyability" : 0,
		"reason" : "rain, cloudbase",
		"timestamp" :1556100000
		},
	"2019-04-24T14:00:00+02:00" : {
		"windSpeed" : 3.1,
		"windDir" : 204,
		"rain" : 1,
		"cloudbase" : null,
		"flyability" : 0,
		"reason" : "rain",
		"timestamp" :1556110800
		},
	"2019-04-24T17:00:00+02:00" : {
		"windSpeed" : 2.9,
		"windDir" : 216,
		"rain" : 1,
		"cloudbase" : 380,
		"flyability" : 0,
		"reason" : "rain, cloudbase",
		"timestamp" :1556121600
		},
	"2019-04-24T20:00:00+02:00" : {
		"windSpeed" : 1.5,
		"windDir" : 207,
		"rain" : 1,
		"cloudbase" : 9546.1945,
		"flyability" : 0,
		"reason" : "rain",
		"timestamp" :1556132400
		},
	"2019-04-24T23:00:00+02:00" : {
		"windSpeed" : 0.9,
		"windDir" : 269,
		"rain" : 0,
		"cloudbase" : 9488.889,
		"flyability" : 100,
		"reason" : "",
		"timestamp" :1556143200
		},
	"2019-04-25T02:00:00+02:00" : {
		"windSpeed" : 1.1,
		"windDir" : 181,
		"rain" : 1,
		"cloudbase" : null,
		"flyability" : 0,
		"reason" : "rain",
		"timestamp" :1556154000
		},
	"2019-04-25T05:00:00+02:00" : {
		"windSpeed" : 1.5,
		"windDir" : 140,
		"rain" : 1,
		"cloudbase" : 722.9089,
		"flyability" : 0,
		"reason" : "rain, cloudbase",
		"timestamp" :1556164800
		},
	"2019-04-25T08:00:00+02:00" : {
		"windSpeed" : 0.2,
		"windDir" : 183,
		"rain" : 1,
		"cloudbase" : null,
		"flyability" : 0,
		"reason" : "rain",
		"timestamp" :1556175600
		},
	"2019-04-25T11:00:00+02:00" : {
		"windSpeed" : 2.8,
		"windDir" : 214,
		"rain" : 1,
		"cloudbase" : 2822.9945000001,
		"flyability" : 0,
		"reason" : "rain",
		"timestamp" :1556186400
		},
	"2019-04-25T14:00:00+02:00" : {
		"windSpeed" : 3.3,
		"windDir" : 230,
		"rain" : 1,
		"cloudbase" : null,
		"flyability" : 0,
		"reason" : "rain",
		"timestamp" :1556197200
		},
	"2019-04-25T17:00:00+02:00" : {
		"windSpeed" : 2.6,
		"windDir" : 241,
		"rain" : 1,
		"cloudbase" : null,
		"flyability" : 0,
		"reason" : "rain",
		"timestamp" :1556208000
		},
	"2019-04-25T20:00:00+02:00" : {
		"windSpeed" : 1,
		"windDir" : 252,
		"rain" : 1,
		"cloudbase" : 9151.689,
		"flyability" : 0,
		"reason" : "rain",
		"timestamp" :1556218800
		},
	"2019-04-25T23:00:00+02:00" : {
		"windSpeed" : 0.4,
		"windDir" : 11,
		"rain" : 0,
		"cloudbase" : 3650,
		"flyability" : 0,
		"reason" : "windDir",
		"timestamp" :1556229600
		},
	"2019-04-26T02:00:00+02:00" : {
		"windSpeed" : 0.2,
		"windDir" : 315,
		"rain" : 1,
		"cloudbase" : 8489.4835,
		"flyability" : 0,
		"reason" : "windDir, rain",
		"timestamp" :1556240400
		},
	"2019-04-26T05:00:00+02:00" : {
		"windSpeed" : 0.4,
		"windDir" : 339,
		"rain" : 0,
		"cloudbase" : null,
		"flyability" : 0,
		"reason" : "windDir",
		"timestamp" :1556251200
		},
	"2019-04-26T08:00:00+02:00" : {
		"windSpeed" : 0.3,
		"windDir" : 325,
		"rain" : 0,
		"cloudbase" : null,
		"flyability" : 0,
		"reason" : "windDir",
		"timestamp" :1556262000
		},
	"2019-04-26T11:00:00+02:00" : {
		"windSpeed" : 3.8,
		"windDir" : 211,
		"rain" : 0,
		"cloudbase" : 2511.5555000001,
		"flyability" : 100,
		"reason" : "",
		"timestamp" :1556272800
		},
	"2019-04-26T14:00:00+02:00" : {
		"windSpeed" : 4.5,
		"windDir" : 210,
		"rain" : 1,
		"cloudbase" : 8859.6945,
		"flyability" : 0,
		"reason" : "rain",
		"timestamp" :1556283600
		},
	"2019-04-26T17:00:00+02:00" : {
		"windSpeed" : 3,
		"windDir" : 221,
		"rain" : 1,
		"cloudbase" : null,
		"flyability" : 0,
		"reason" : "rain",
		"timestamp" :1556294400
		},
	"2019-04-26T20:00:00+02:00" : {
		"windSpeed" : 1.6,
		"windDir" : 262,
		"rain" : 0,
		"cloudbase" : 94.429450000008,
		"flyability" : 0,
		"reason" : "cloudbase",
		"timestamp" :1556305200
		},
	"2019-04-26T23:00:00+02:00" : {
		"windSpeed" : 0.5,
		"windDir" : 92,
		"rain" : 0,
		"cloudbase" : 231.52560000001,
		"flyability" : 0,
		"reason" : "windDir, cloudbase",
		"timestamp" :1556316000
		},
	"2019-04-27T02:00:00+02:00" : {
		"windSpeed" : 0.8,
		"windDir" : 237,
		"rain" : 1,
		"cloudbase" : 247.49942499997,
		"flyability" : 0,
		"reason" : "rain, cloudbase",
		"timestamp" :1556326800
		},
	"2019-04-27T05:00:00+02:00" : {
		"windSpeed" : 2.7,
		"windDir" : 26,
		"rain" : 1,
		"cloudbase" : 2874.7154,
		"flyability" : 0,
		"reason" : "windDir, rain",
		"timestamp" :1556337600
		},
	"2019-04-27T08:00:00+02:00" : {
		"windSpeed" : 2.2,
		"windDir" : 50,
		"rain" : 1,
		"cloudbase" : 1916.5055,
		"flyability" : 0,
		"reason" : "windDir, rain",
		"timestamp" :1556348400
		},
	"2019-04-27T11:00:00+02:00" : {
		"windSpeed" : 0.6,
		"windDir" : 14,
		"rain" : 1,
		"cloudbase" : 1178.1411500001,
		"flyability" : 0,
		"reason" : "windDir, rain",
		"timestamp" :1556359200
		},
	"2019-04-27T14:00:00+02:00" : {
		"windSpeed" : 1.7,
		"windDir" : 270,
		"rain" : 1,
		"cloudbase" : 3208.439,
		"flyability" : 0,
		"reason" : "rain",
		"timestamp" :1556370000
		},
	"2019-04-27T17:00:00+02:00" : {
		"windSpeed" : 2.5,
		"windDir" : 260,
		"rain" : 0,
		"cloudbase" : 3474.55975,
		"flyability" : 100,
		"reason" : "",
		"timestamp" :1556380800
		},
	"2019-04-27T20:00:00+02:00" : {
		"windSpeed" : 1,
		"windDir" : 259,
		"rain" : 0,
		"cloudbase" : 6231.744,
		"flyability" : 100,
		"reason" : "",
		"timestamp" :1556391600
		},
	"2019-04-27T23:00:00+02:00" : {
		"windSpeed" : 0.9,
		"windDir" : 309,
		"rain" : 0,
		"cloudbase" : 30,
		"flyability" : 0,
		"reason" : "windDir, cloudbase",
		"timestamp" :1556402400
		},
	"2019-04-28T02:00:00+02:00" : {
		"windSpeed" : 0.5,
		"windDir" : 330,
		"rain" : 0,
		"cloudbase" : 55,
		"flyability" : 0,
		"reason" : "windDir, cloudbase",
		"timestamp" :1556413200
		},
	"2019-04-28T05:00:00+02:00" : {
		"windSpeed" : 0.9,
		"windDir" : 40,
		"rain" : 0,
		"cloudbase" : 157.47239999997,
		"flyability" : 0,
		"reason" : "windDir, cloudbase",
		"timestamp" :1556424000
		},
	"2019-04-28T08:00:00+02:00" : {
		"windSpeed" : 0.4,
		"windDir" : 54,
		"rain" : 0,
		"cloudbase" : null,
		"flyability" : 0,
		"reason" : "windDir",
		"timestamp" :1556434800
		},
	"2019-04-28T11:00:00+02:00" : {
		"windSpeed" : 1.7,
		"windDir" : 233,
		"rain" : 0,
		"cloudbase" : null,
		"flyability" : 100,
		"reason" : "",
		"timestamp" :1556445600
		},
	"2019-04-28T14:00:00+02:00" : {
		"windSpeed" : 2.2,
		"windDir" : 245,
		"rain" : 0,
		"cloudbase" : 8305.4945,
		"flyability" : 100,
		"reason" : "",
		"timestamp" :1556456400
		}
	}
}