{
"site" : "Lousa",
"id" : 6706,
"orientations" : "20000122",
"forecasts" : { 
	"2019-04-05T04:00:00+01:00" : {
		"windSpeed" : 3.3,
		"windDir" : 242,
		"rain" : 1,
		"cloudbase" : 162.53225600004,
		"flyability" : 0,
		"reason" : "rain, cloudbase",
		"timestamp" :1554429600
		},
	"2019-04-05T07:00:00+01:00" : {
		"windSpeed" : 2.3,
		"windDir" : 242,
		"rain" : 1,
		"cloudbase" : 213.82217600009,
		"flyability" : 0,
		"reason" : "rain, cloudbase",
		"timestamp" :1554440400
		},
	"2019-04-05T10:00:00+01:00" : {
		"windSpeed" : 2.1,
		"windDir" : 255,
		"rain" : 1,
		"cloudbase" : 260,
		"flyability" : 0,
		"reason" : "rain, cloudbase",
		"timestamp" :1554451200
		},
	"2019-04-05T13:00:00+01:00" : {
		"windSpeed" : 3.2,
		"windDir" : 250,
		"rain" : 1,
		"cloudbase" : 472.77574400002,
		"flyability" : 0,
		"reason" : "rain, cloudbase",
		"timestamp" :1554462000
		},
	"2019-04-05T16:00:00+01:00" : {
		"windSpeed" : 2.6,
		"windDir" : 260,
		"rain" : 1,
		"cloudbase" : 258.74512000003,
		"flyability" : 0,
		"reason" : "rain, cloudbase",
		"timestamp" :1554472800
		},
	"2019-04-05T19:00:00+01:00" : {
		"windSpeed" : 3.6,
		"windDir" : 285,
		"rain" : 1,
		"cloudbase" : 224.34924800005,
		"flyability" : 0,
		"reason" : "rain, cloudbase",
		"timestamp" :1554483600
		},
	"2019-04-05T22:00:00+01:00" : {
		"windSpeed" : 4.2,
		"windDir" : 289,
		"rain" : 1,
		"cloudbase" : 167.26560000011,
		"flyability" : 0,
		"reason" : "rain, cloudbase",
		"timestamp" :1554494400
		},
	"2019-04-06T01:00:00+01:00" : {
		"windSpeed" : 3.7,
		"windDir" : 255,
		"rain" : 1,
		"cloudbase" : 42.798744000025,
		"flyability" : 0,
		"reason" : "rain, cloudbase",
		"timestamp" :1554505200
		},
	"2019-04-06T04:00:00+01:00" : {
		"windSpeed" : 3,
		"windDir" : 239,
		"rain" : 1,
		"cloudbase" : 173.03227200002,
		"flyability" : 0,
		"reason" : "rain, cloudbase",
		"timestamp" :1554516000
		},
	"2019-04-06T07:00:00+01:00" : {
		"windSpeed" : 5,
		"windDir" : 275,
		"rain" : 1,
		"cloudbase" : 114.29878400011,
		"flyability" : 0,
		"reason" : "rain, cloudbase",
		"timestamp" :1554526800
		},
	"2019-04-06T10:00:00+01:00" : {
		"windSpeed" : 4,
		"windDir" : 261,
		"rain" : 1,
		"cloudbase" : 139.77947200024,
		"flyability" : 0,
		"reason" : "rain, cloudbase",
		"timestamp" :1554537600
		},
	"2019-04-06T13:00:00+01:00" : {
		"windSpeed" : 4.6,
		"windDir" : 297,
		"rain" : 1,
		"cloudbase" : 725.14468800006,
		"flyability" : 0,
		"reason" : "rain, cloudbase",
		"timestamp" :1554548400
		},
	"2019-04-06T16:00:00+01:00" : {
		"windSpeed" : 5.9,
		"windDir" : 300,
		"rain" : 1,
		"cloudbase" : null,
		"flyability" : 0,
		"reason" : "windSpeed, rain",
		"timestamp" :1554559200
		},
	"2019-04-06T19:00:00+01:00" : {
		"windSpeed" : 3.6,
		"windDir" : 278,
		"rain" : 1,
		"cloudbase" : 121.00040000012,
		"flyability" : 0,
		"reason" : "rain, cloudbase",
		"timestamp" :1554570000
		},
	"2019-04-06T22:00:00+01:00" : {
		"windSpeed" : 3.9,
		"windDir" : 269,
		"rain" : 1,
		"cloudbase" : 48.647632000053,
		"flyability" : 0,
		"reason" : "rain, cloudbase",
		"timestamp" :1554580800
		},
	"2019-04-07T01:00:00+01:00" : {
		"windSpeed" : 3.2,
		"windDir" : 250,
		"rain" : 0,
		"cloudbase" : 30,
		"flyability" : 0,
		"reason" : "cloudbase",
		"timestamp" :1554591600
		},
	"2019-04-07T04:00:00+01:00" : {
		"windSpeed" : 2.5,
		"windDir" : 215,
		"rain" : 1,
		"cloudbase" : 30,
		"flyability" : 0,
		"reason" : "rain, cloudbase",
		"timestamp" :1554602400
		},
	"2019-04-07T07:00:00+01:00" : {
		"windSpeed" : 1.6,
		"windDir" : 180,
		"rain" : 0,
		"cloudbase" : 944.37363199998,
		"flyability" : 0,
		"reason" : "windDir",
		"timestamp" :1554613200
		},
	"2019-04-07T10:00:00+01:00" : {
		"windSpeed" : 2.3,
		"windDir" : 155,
		"rain" : 1,
		"cloudbase" : 1253.12032,
		"flyability" : 0,
		"reason" : "windDir, rain",
		"timestamp" :1554624000
		},
	"2019-04-07T13:00:00+01:00" : {
		"windSpeed" : 4.6,
		"windDir" : 167,
		"rain" : 1,
		"cloudbase" : 527.61462400001,
		"flyability" : 0,
		"reason" : "windDir, rain, cloudbase",
		"timestamp" :1554634800
		},
	"2019-04-07T16:00:00+01:00" : {
		"windSpeed" : 3,
		"windDir" : 212,
		"rain" : 1,
		"cloudbase" : 318.68820800008,
		"flyability" : 0,
		"reason" : "rain, cloudbase",
		"timestamp" :1554645600
		},
	"2019-04-07T19:00:00+01:00" : {
		"windSpeed" : 4.8,
		"windDir" : 236,
		"rain" : 1,
		"cloudbase" : 4910.7807199995,
		"flyability" : 0,
		"reason" : "rain",
		"timestamp" :1554656400
		},
	"2019-04-07T22:00:00+01:00" : {
		"windSpeed" : 4.7,
		"windDir" : 212,
		"rain" : 1,
		"cloudbase" : 273.519376,
		"flyability" : 0,
		"reason" : "rain, cloudbase",
		"timestamp" :1554667200
		},
	"2019-04-08T01:00:00+01:00" : {
		"windSpeed" : 3.5,
		"windDir" : 268,
		"rain" : 1,
		"cloudbase" : 110,
		"flyability" : 0,
		"reason" : "rain, cloudbase",
		"timestamp" :1554678000
		},
	"2019-04-08T04:00:00+01:00" : {
		"windSpeed" : 3,
		"windDir" : 257,
		"rain" : 1,
		"cloudbase" : null,
		"flyability" : 0,
		"reason" : "rain",
		"timestamp" :1554688800
		},
	"2019-04-08T07:00:00+01:00" : {
		"windSpeed" : 2.9,
		"windDir" : 237,
		"rain" : 0,
		"cloudbase" : null,
		"flyability" : 100,
		"reason" : "",
		"timestamp" :1554699600
		},
	"2019-04-08T10:00:00+01:00" : {
		"windSpeed" : 4.1,
		"windDir" : 240,
		"rain" : 0,
		"cloudbase" : null,
		"flyability" : 100,
		"reason" : "",
		"timestamp" :1554710400
		},
	"2019-04-08T13:00:00+01:00" : {
		"windSpeed" : 4.4,
		"windDir" : 249,
		"rain" : 1,
		"cloudbase" : 490,
		"flyability" : 0,
		"reason" : "rain, cloudbase",
		"timestamp" :1554721200
		},
	"2019-04-08T16:00:00+01:00" : {
		"windSpeed" : 5.9,
		"windDir" : 239,
		"rain" : 1,
		"cloudbase" : null,
		"flyability" : 0,
		"reason" : "windSpeed, rain",
		"timestamp" :1554732000
		},
	"2019-04-08T19:00:00+01:00" : {
		"windSpeed" : 5.1,
		"windDir" : 233,
		"rain" : 1,
		"cloudbase" : null,
		"flyability" : 0,
		"reason" : "windSpeed, rain",
		"timestamp" :1554742800
		},
	"2019-04-08T22:00:00+01:00" : {
		"windSpeed" : 4,
		"windDir" : 220,
		"rain" : 1,
		"cloudbase" : 174.9,
		"flyability" : 0,
		"reason" : "rain, cloudbase",
		"timestamp" :1554753600
		},
	"2019-04-09T01:00:00+01:00" : {
		"windSpeed" : 3.6,
		"windDir" : 225,
		"rain" : 1,
		"cloudbase" : 123.55961600002,
		"flyability" : 0,
		"reason" : "rain, cloudbase",
		"timestamp" :1554764400
		},
	"2019-04-09T04:00:00+01:00" : {
		"windSpeed" : 4.8,
		"windDir" : 237,
		"rain" : 1,
		"cloudbase" : 30,
		"flyability" : 0,
		"reason" : "rain, cloudbase",
		"timestamp" :1554775200
		},
	"2019-04-09T07:00:00+01:00" : {
		"windSpeed" : 5.8,
		"windDir" : 255,
		"rain" : 1,
		"cloudbase" : 410,
		"flyability" : 0,
		"reason" : "windSpeed, rain, cloudbase",
		"timestamp" :1554786000
		},
	"2019-04-09T10:00:00+01:00" : {
		"windSpeed" : 6,
		"windDir" : 265,
		"rain" : 1,
		"cloudbase" : 283.812752,
		"flyability" : 0,
		"reason" : "windSpeed, rain, cloudbase",
		"timestamp" :1554796800
		},
	"2019-04-09T13:00:00+01:00" : {
		"windSpeed" : 5.2,
		"windDir" : 286,
		"rain" : 1,
		"cloudbase" : 273.655008,
		"flyability" : 0,
		"reason" : "windSpeed, rain, cloudbase",
		"timestamp" :1554807600
		},
	"2019-04-09T16:00:00+01:00" : {
		"windSpeed" : 5.7,
		"windDir" : 280,
		"rain" : 1,
		"cloudbase" : null,
		"flyability" : 0,
		"reason" : "windSpeed, rain",
		"timestamp" :1554818400
		},
	"2019-04-09T19:00:00+01:00" : {
		"windSpeed" : 3.7,
		"windDir" : 284,
		"rain" : 1,
		"cloudbase" : 128.73750399999,
		"flyability" : 0,
		"reason" : "rain, cloudbase",
		"timestamp" :1554829200
		},
	"2019-04-09T22:00:00+01:00" : {
		"windSpeed" : 3,
		"windDir" : 286,
		"rain" : 1,
		"cloudbase" : null,
		"flyability" : 0,
		"reason" : "rain",
		"timestamp" :1554840000
		},
	"2019-04-10T01:00:00+01:00" : {
		"windSpeed" : 2.8,
		"windDir" : 299,
		"rain" : 0,
		"cloudbase" : 200,
		"flyability" : 0,
		"reason" : "cloudbase",
		"timestamp" :1554850800
		},
	"2019-04-10T04:00:00+01:00" : {
		"windSpeed" : 3.3,
		"windDir" : 295,
		"rain" : 1,
		"cloudbase" : 31.514688000001,
		"flyability" : 0,
		"reason" : "rain, cloudbase",
		"timestamp" :1554861600
		},
	"2019-04-10T07:00:00+01:00" : {
		"windSpeed" : 3.5,
		"windDir" : 303,
		"rain" : 1,
		"cloudbase" : 36.190880000011,
		"flyability" : 0,
		"reason" : "rain, cloudbase",
		"timestamp" :1554872400
		},
	"2019-04-10T10:00:00+01:00" : {
		"windSpeed" : 3.5,
		"windDir" : 302,
		"rain" : 1,
		"cloudbase" : 1400,
		"flyability" : 0,
		"reason" : "rain",
		"timestamp" :1554883200
		},
	"2019-04-10T13:00:00+01:00" : {
		"windSpeed" : 3.2,
		"windDir" : 287,
		"rain" : 1,
		"cloudbase" : null,
		"flyability" : 0,
		"reason" : "rain",
		"timestamp" :1554894000
		},
	"2019-04-10T16:00:00+01:00" : {
		"windSpeed" : 4.7,
		"windDir" : 301,
		"rain" : 0,
		"cloudbase" : null,
		"flyability" : 100,
		"reason" : "",
		"timestamp" :1554904800
		},
	"2019-04-10T19:00:00+01:00" : {
		"windSpeed" : 4.2,
		"windDir" : 305,
		"rain" : 0,
		"cloudbase" : null,
		"flyability" : 100,
		"reason" : "",
		"timestamp" :1554915600
		},
	"2019-04-10T22:00:00+01:00" : {
		"windSpeed" : 1,
		"windDir" : 290,
		"rain" : 1,
		"cloudbase" : null,
		"flyability" : 0,
		"reason" : "rain",
		"timestamp" :1554926400
		},
	"2019-04-11T01:00:00+01:00" : {
		"windSpeed" : 1.1,
		"windDir" : 241,
		"rain" : 0,
		"cloudbase" : 162.27622400011,
		"flyability" : 0,
		"reason" : "cloudbase",
		"timestamp" :1554937200
		}
	}
}