{
"site" : "Porciuncula -Morro das Antennas (RJ)",
"id" : 6857,
"orientations" : "22000002",
"forecasts" : { 
	"2019-04-06T12:00:00-03:00" : {
		"windSpeed" : 0.9,
		"windDir" : 309,
		"rain" : 1,
		"cloudbase" : null,
		"flyability" : 0,
		"reason" : "rain",
		"timestamp" :1554562800
		},
	"2019-04-06T15:00:00-03:00" : {
		"windSpeed" : 1.1,
		"windDir" : 32,
		"rain" : 0,
		"cloudbase" : null,
		"flyability" : 100,
		"reason" : "",
		"timestamp" :1554573600
		},
	"2019-04-06T18:00:00-03:00" : {
		"windSpeed" : 0.3,
		"windDir" : 229,
		"rain" : 1,
		"cloudbase" : null,
		"flyability" : 0,
		"reason" : "windDir, rain",
		"timestamp" :1554584400
		},
	"2019-04-06T21:00:00-03:00" : {
		"windSpeed" : 0.8,
		"windDir" : 16,
		"rain" : 1,
		"cloudbase" : null,
		"flyability" : 0,
		"reason" : "rain",
		"timestamp" :1554595200
		},
	"2019-04-07T00:00:00-03:00" : {
		"windSpeed" : 0.6,
		"windDir" : 314,
		"rain" : 1,
		"cloudbase" : null,
		"flyability" : 0,
		"reason" : "rain",
		"timestamp" :1554606000
		},
	"2019-04-07T03:00:00-03:00" : {
		"windSpeed" : 0.8,
		"windDir" : 324,
		"rain" : 0,
		"cloudbase" : null,
		"flyability" : 100,
		"reason" : "",
		"timestamp" :1554616800
		},
	"2019-04-07T06:00:00-03:00" : {
		"windSpeed" : 1.1,
		"windDir" : 337,
		"rain" : 0,
		"cloudbase" : null,
		"flyability" : 100,
		"reason" : "",
		"timestamp" :1554627600
		},
	"2019-04-07T09:00:00-03:00" : {
		"windSpeed" : 1.2,
		"windDir" : 334,
		"rain" : 0,
		"cloudbase" : null,
		"flyability" : 100,
		"reason" : "",
		"timestamp" :1554638400
		},
	"2019-04-07T12:00:00-03:00" : {
		"windSpeed" : 0.9,
		"windDir" : 356,
		"rain" : 1,
		"cloudbase" : null,
		"flyability" : 0,
		"reason" : "rain",
		"timestamp" :1554649200
		},
	"2019-04-07T15:00:00-03:00" : {
		"windSpeed" : 2.4,
		"windDir" : 33,
		"rain" : 0,
		"cloudbase" : null,
		"flyability" : 100,
		"reason" : "",
		"timestamp" :1554660000
		},
	"2019-04-07T18:00:00-03:00" : {
		"windSpeed" : 1.3,
		"windDir" : 51,
		"rain" : 0,
		"cloudbase" : null,
		"flyability" : 100,
		"reason" : "",
		"timestamp" :1554670800
		},
	"2019-04-07T21:00:00-03:00" : {
		"windSpeed" : 1.9,
		"windDir" : 355,
		"rain" : 0,
		"cloudbase" : null,
		"flyability" : 100,
		"reason" : "",
		"timestamp" :1554681600
		},
	"2019-04-08T00:00:00-03:00" : {
		"windSpeed" : 2.3,
		"windDir" : 5,
		"rain" : 0,
		"cloudbase" : null,
		"flyability" : 100,
		"reason" : "",
		"timestamp" :1554692400
		},
	"2019-04-08T03:00:00-03:00" : {
		"windSpeed" : 2.4,
		"windDir" : 353,
		"rain" : 0,
		"cloudbase" : null,
		"flyability" : 100,
		"reason" : "",
		"timestamp" :1554703200
		},
	"2019-04-08T06:00:00-03:00" : {
		"windSpeed" : 2,
		"windDir" : 337,
		"rain" : 0,
		"cloudbase" : null,
		"flyability" : 100,
		"reason" : "",
		"timestamp" :1554714000
		},
	"2019-04-08T09:00:00-03:00" : {
		"windSpeed" : 2.5,
		"windDir" : 346,
		"rain" : 0,
		"cloudbase" : null,
		"flyability" : 100,
		"reason" : "",
		"timestamp" :1554724800
		},
	"2019-04-08T12:00:00-03:00" : {
		"windSpeed" : 1.9,
		"windDir" : 327,
		"rain" : 0,
		"cloudbase" : null,
		"flyability" : 100,
		"reason" : "",
		"timestamp" :1554735600
		},
	"2019-04-08T15:00:00-03:00" : {
		"windSpeed" : 1.6,
		"windDir" : 337,
		"rain" : 0,
		"cloudbase" : null,
		"flyability" : 100,
		"reason" : "",
		"timestamp" :1554746400
		},
	"2019-04-08T18:00:00-03:00" : {
		"windSpeed" : 1.1,
		"windDir" : 25,
		"rain" : 0,
		"cloudbase" : null,
		"flyability" : 100,
		"reason" : "",
		"timestamp" :1554757200
		},
	"2019-04-08T21:00:00-03:00" : {
		"windSpeed" : 1,
		"windDir" : 287,
		"rain" : 0,
		"cloudbase" : null,
		"flyability" : 0,
		"reason" : "windDir",
		"timestamp" :1554768000
		},
	"2019-04-09T00:00:00-03:00" : {
		"windSpeed" : 1.1,
		"windDir" : 344,
		"rain" : 0,
		"cloudbase" : null,
		"flyability" : 100,
		"reason" : "",
		"timestamp" :1554778800
		},
	"2019-04-09T03:00:00-03:00" : {
		"windSpeed" : 1.6,
		"windDir" : 350,
		"rain" : 0,
		"cloudbase" : null,
		"flyability" : 100,
		"reason" : "",
		"timestamp" :1554789600
		},
	"2019-04-09T06:00:00-03:00" : {
		"windSpeed" : 1.1,
		"windDir" : 337,
		"rain" : 0,
		"cloudbase" : 10000,
		"flyability" : 100,
		"reason" : "",
		"timestamp" :1554800400
		},
	"2019-04-09T09:00:00-03:00" : {
		"windSpeed" : 1.2,
		"windDir" : 328,
		"rain" : 0,
		"cloudbase" : null,
		"flyability" : 100,
		"reason" : "",
		"timestamp" :1554811200
		},
	"2019-04-09T12:00:00-03:00" : {
		"windSpeed" : 1.6,
		"windDir" : 276,
		"rain" : 0,
		"cloudbase" : 4750,
		"flyability" : 0,
		"reason" : "windDir",
		"timestamp" :1554822000
		},
	"2019-04-09T15:00:00-03:00" : {
		"windSpeed" : 0.5,
		"windDir" : 259,
		"rain" : 0,
		"cloudbase" : 5437.518,
		"flyability" : 0,
		"reason" : "windDir",
		"timestamp" :1554832800
		},
	"2019-04-09T18:00:00-03:00" : {
		"windSpeed" : 1.8,
		"windDir" : 122,
		"rain" : 1,
		"cloudbase" : 4094.097,
		"flyability" : 0,
		"reason" : "windDir, rain",
		"timestamp" :1554843600
		},
	"2019-04-09T21:00:00-03:00" : {
		"windSpeed" : 1,
		"windDir" : 249,
		"rain" : 0,
		"cloudbase" : 205.63579999995,
		"flyability" : 0,
		"reason" : "windDir, cloudbase",
		"timestamp" :1554854400
		},
	"2019-04-10T00:00:00-03:00" : {
		"windSpeed" : 1,
		"windDir" : 247,
		"rain" : 1,
		"cloudbase" : 444.70059999999,
		"flyability" : 0,
		"reason" : "windDir, rain, cloudbase",
		"timestamp" :1554865200
		},
	"2019-04-10T03:00:00-03:00" : {
		"windSpeed" : 0.9,
		"windDir" : 281,
		"rain" : 1,
		"cloudbase" : 734.41759999998,
		"flyability" : 0,
		"reason" : "windDir, rain, cloudbase",
		"timestamp" :1554876000
		},
	"2019-04-10T06:00:00-03:00" : {
		"windSpeed" : 0.7,
		"windDir" : 321,
		"rain" : 1,
		"cloudbase" : 880.21149999998,
		"flyability" : 0,
		"reason" : "rain",
		"timestamp" :1554886800
		},
	"2019-04-10T09:00:00-03:00" : {
		"windSpeed" : 2,
		"windDir" : 230,
		"rain" : 1,
		"cloudbase" : 1185.8528,
		"flyability" : 0,
		"reason" : "windDir, rain",
		"timestamp" :1554897600
		},
	"2019-04-10T12:00:00-03:00" : {
		"windSpeed" : 1.6,
		"windDir" : 241,
		"rain" : 1,
		"cloudbase" : 1200,
		"flyability" : 0,
		"reason" : "windDir, rain",
		"timestamp" :1554908400
		},
	"2019-04-10T15:00:00-03:00" : {
		"windSpeed" : 1.1,
		"windDir" : 158,
		"rain" : 1,
		"cloudbase" : null,
		"flyability" : 0,
		"reason" : "windDir, rain",
		"timestamp" :1554919200
		},
	"2019-04-10T18:00:00-03:00" : {
		"windSpeed" : 1.9,
		"windDir" : 118,
		"rain" : 0,
		"cloudbase" : 851.11879999997,
		"flyability" : 0,
		"reason" : "windDir",
		"timestamp" :1554930000
		},
	"2019-04-10T21:00:00-03:00" : {
		"windSpeed" : 1.7,
		"windDir" : 93,
		"rain" : 1,
		"cloudbase" : 1313.8985,
		"flyability" : 0,
		"reason" : "windDir, rain",
		"timestamp" :1554940800
		},
	"2019-04-11T00:00:00-03:00" : {
		"windSpeed" : 1.5,
		"windDir" : 20,
		"rain" : 1,
		"cloudbase" : 1564.4545,
		"flyability" : 0,
		"reason" : "rain",
		"timestamp" :1554951600
		},
	"2019-04-11T03:00:00-03:00" : {
		"windSpeed" : 0.7,
		"windDir" : 311,
		"rain" : 1,
		"cloudbase" : 1950,
		"flyability" : 0,
		"reason" : "rain",
		"timestamp" :1554962400
		},
	"2019-04-11T06:00:00-03:00" : {
		"windSpeed" : 0.7,
		"windDir" : 327,
		"rain" : 0,
		"cloudbase" : 1950,
		"flyability" : 100,
		"reason" : "",
		"timestamp" :1554973200
		},
	"2019-04-11T09:00:00-03:00" : {
		"windSpeed" : 0.4,
		"windDir" : 207,
		"rain" : 1,
		"cloudbase" : 2150,
		"flyability" : 0,
		"reason" : "windDir, rain",
		"timestamp" :1554984000
		},
	"2019-04-11T12:00:00-03:00" : {
		"windSpeed" : 0.5,
		"windDir" : 154,
		"rain" : 1,
		"cloudbase" : 940,
		"flyability" : 0,
		"reason" : "windDir, rain",
		"timestamp" :1554994800
		},
	"2019-04-11T15:00:00-03:00" : {
		"windSpeed" : 1.6,
		"windDir" : 151,
		"rain" : 1,
		"cloudbase" : null,
		"flyability" : 0,
		"reason" : "windDir, rain",
		"timestamp" :1555005600
		},
	"2019-04-11T18:00:00-03:00" : {
		"windSpeed" : 2.1,
		"windDir" : 92,
		"rain" : 1,
		"cloudbase" : null,
		"flyability" : 0,
		"reason" : "windDir, rain",
		"timestamp" :1555016400
		},
	"2019-04-11T21:00:00-03:00" : {
		"windSpeed" : 2.1,
		"windDir" : 102,
		"rain" : 0,
		"cloudbase" : 860,
		"flyability" : 0,
		"reason" : "windDir",
		"timestamp" :1555027200
		},
	"2019-04-12T00:00:00-03:00" : {
		"windSpeed" : 0.7,
		"windDir" : 127,
		"rain" : 1,
		"cloudbase" : 1174.109,
		"flyability" : 0,
		"reason" : "windDir, rain",
		"timestamp" :1555038000
		},
	"2019-04-12T03:00:00-03:00" : {
		"windSpeed" : 0.6,
		"windDir" : 133,
		"rain" : 0,
		"cloudbase" : 1225.4,
		"flyability" : 0,
		"reason" : "windDir",
		"timestamp" :1555048800
		},
	"2019-04-12T06:00:00-03:00" : {
		"windSpeed" : 0.4,
		"windDir" : 9,
		"rain" : 1,
		"cloudbase" : 1500,
		"flyability" : 0,
		"reason" : "rain",
		"timestamp" :1555059600
		},
	"2019-04-12T09:00:00-03:00" : {
		"windSpeed" : 1,
		"windDir" : 96,
		"rain" : 1,
		"cloudbase" : 746.06819999989,
		"flyability" : 0,
		"reason" : "windDir, rain, cloudbase",
		"timestamp" :1555070400
		}
	}
}