{
"site" : "Pirgi-Petrousa",
"id" : 6865,
"orientations" : "01122220",
"forecasts" : { 
	"2019-04-04T06:00:00+03:00" : {
		"windSpeed" : 0.6,
		"windDir" : 70,
		"rain" : 0,
		"cloudbase" : 6889.6416,
		"flyability" : 100,
		"reason" : "",
		"timestamp" :1554346800
		},
	"2019-04-04T09:00:00+03:00" : {
		"windSpeed" : 0.7,
		"windDir" : 149,
		"rain" : 0,
		"cloudbase" : 6739.9752,
		"flyability" : 100,
		"reason" : "",
		"timestamp" :1554357600
		},
	"2019-04-04T12:00:00+03:00" : {
		"windSpeed" : 1.7,
		"windDir" : 166,
		"rain" : 0,
		"cloudbase" : 6631.8416,
		"flyability" : 100,
		"reason" : "",
		"timestamp" :1554368400
		},
	"2019-04-04T15:00:00+03:00" : {
		"windSpeed" : 2.3,
		"windDir" : 171,
		"rain" : 0,
		"cloudbase" : null,
		"flyability" : 100,
		"reason" : "",
		"timestamp" :1554379200
		},
	"2019-04-04T18:00:00+03:00" : {
		"windSpeed" : 2.2,
		"windDir" : 146,
		"rain" : 0,
		"cloudbase" : null,
		"flyability" : 100,
		"reason" : "",
		"timestamp" :1554390000
		},
	"2019-04-04T21:00:00+03:00" : {
		"windSpeed" : 1,
		"windDir" : 72,
		"rain" : 0,
		"cloudbase" : null,
		"flyability" : 100,
		"reason" : "",
		"timestamp" :1554400800
		},
	"2019-04-05T00:00:00+03:00" : {
		"windSpeed" : 0.2,
		"windDir" : 95,
		"rain" : 0,
		"cloudbase" : null,
		"flyability" : 100,
		"reason" : "",
		"timestamp" :1554411600
		},
	"2019-04-05T03:00:00+03:00" : {
		"windSpeed" : 0.4,
		"windDir" : 305,
		"rain" : 0,
		"cloudbase" : null,
		"flyability" : 0,
		"reason" : "windDir",
		"timestamp" :1554422400
		},
	"2019-04-05T06:00:00+03:00" : {
		"windSpeed" : 0.9,
		"windDir" : 357,
		"rain" : 0,
		"cloudbase" : null,
		"flyability" : 0,
		"reason" : "windDir",
		"timestamp" :1554433200
		},
	"2019-04-05T09:00:00+03:00" : {
		"windSpeed" : 0.5,
		"windDir" : 4,
		"rain" : 0,
		"cloudbase" : null,
		"flyability" : 0,
		"reason" : "windDir",
		"timestamp" :1554444000
		},
	"2019-04-05T12:00:00+03:00" : {
		"windSpeed" : 1.9,
		"windDir" : 156,
		"rain" : 0,
		"cloudbase" : null,
		"flyability" : 100,
		"reason" : "",
		"timestamp" :1554454800
		},
	"2019-04-05T15:00:00+03:00" : {
		"windSpeed" : 2.1,
		"windDir" : 134,
		"rain" : 0,
		"cloudbase" : 5700,
		"flyability" : 100,
		"reason" : "",
		"timestamp" :1554465600
		},
	"2019-04-05T18:00:00+03:00" : {
		"windSpeed" : 2.4,
		"windDir" : 125,
		"rain" : 0,
		"cloudbase" : null,
		"flyability" : 100,
		"reason" : "",
		"timestamp" :1554476400
		},
	"2019-04-05T21:00:00+03:00" : {
		"windSpeed" : 0.6,
		"windDir" : 51,
		"rain" : 0,
		"cloudbase" : null,
		"flyability" : 100,
		"reason" : "",
		"timestamp" :1554487200
		},
	"2019-04-06T00:00:00+03:00" : {
		"windSpeed" : 0.4,
		"windDir" : 11,
		"rain" : 0,
		"cloudbase" : null,
		"flyability" : 0,
		"reason" : "windDir",
		"timestamp" :1554498000
		},
	"2019-04-06T03:00:00+03:00" : {
		"windSpeed" : 0.9,
		"windDir" : 343,
		"rain" : 0,
		"cloudbase" : 9344.1584,
		"flyability" : 0,
		"reason" : "windDir",
		"timestamp" :1554508800
		},
	"2019-04-06T06:00:00+03:00" : {
		"windSpeed" : 1.1,
		"windDir" : 337,
		"rain" : 0,
		"cloudbase" : 8773.8752,
		"flyability" : 0,
		"reason" : "windDir",
		"timestamp" :1554519600
		},
	"2019-04-06T09:00:00+03:00" : {
		"windSpeed" : 1.7,
		"windDir" : 328,
		"rain" : 0,
		"cloudbase" : 4930.2292,
		"flyability" : 0,
		"reason" : "windDir",
		"timestamp" :1554530400
		},
	"2019-04-06T12:00:00+03:00" : {
		"windSpeed" : 1.7,
		"windDir" : 145,
		"rain" : 0,
		"cloudbase" : 3634.8807999999,
		"flyability" : 100,
		"reason" : "",
		"timestamp" :1554541200
		},
	"2019-04-06T15:00:00+03:00" : {
		"windSpeed" : 2.4,
		"windDir" : 155,
		"rain" : 0,
		"cloudbase" : 3685.8252,
		"flyability" : 100,
		"reason" : "",
		"timestamp" :1554552000
		},
	"2019-04-06T18:00:00+03:00" : {
		"windSpeed" : 1.1,
		"windDir" : 135,
		"rain" : 0,
		"cloudbase" : 2803.4376,
		"flyability" : 100,
		"reason" : "",
		"timestamp" :1554562800
		},
	"2019-04-06T21:00:00+03:00" : {
		"windSpeed" : 0.1,
		"windDir" : 310,
		"rain" : 0,
		"cloudbase" : 2622.4292,
		"flyability" : 0,
		"reason" : "windDir",
		"timestamp" :1554573600
		},
	"2019-04-07T00:00:00+03:00" : {
		"windSpeed" : 0.9,
		"windDir" : 335,
		"rain" : 0,
		"cloudbase" : 2207.5876,
		"flyability" : 0,
		"reason" : "windDir",
		"timestamp" :1554584400
		},
	"2019-04-07T03:00:00+03:00" : {
		"windSpeed" : 0.6,
		"windDir" : 356,
		"rain" : 0,
		"cloudbase" : null,
		"flyability" : 0,
		"reason" : "windDir",
		"timestamp" :1554595200
		},
	"2019-04-07T06:00:00+03:00" : {
		"windSpeed" : 1.2,
		"windDir" : 341,
		"rain" : 0,
		"cloudbase" : null,
		"flyability" : 0,
		"reason" : "windDir",
		"timestamp" :1554606000
		},
	"2019-04-07T09:00:00+03:00" : {
		"windSpeed" : 1,
		"windDir" : 353,
		"rain" : 0,
		"cloudbase" : null,
		"flyability" : 0,
		"reason" : "windDir",
		"timestamp" :1554616800
		},
	"2019-04-07T12:00:00+03:00" : {
		"windSpeed" : 2,
		"windDir" : 168,
		"rain" : 0,
		"cloudbase" : null,
		"flyability" : 100,
		"reason" : "",
		"timestamp" :1554627600
		},
	"2019-04-07T15:00:00+03:00" : {
		"windSpeed" : 2.5,
		"windDir" : 150,
		"rain" : 0,
		"cloudbase" : 2307.9376,
		"flyability" : 100,
		"reason" : "",
		"timestamp" :1554638400
		},
	"2019-04-07T18:00:00+03:00" : {
		"windSpeed" : 1.8,
		"windDir" : 135,
		"rain" : 0,
		"cloudbase" : null,
		"flyability" : 100,
		"reason" : "",
		"timestamp" :1554649200
		},
	"2019-04-07T21:00:00+03:00" : {
		"windSpeed" : 0.2,
		"windDir" : 50,
		"rain" : 0,
		"cloudbase" : null,
		"flyability" : 100,
		"reason" : "",
		"timestamp" :1554660000
		},
	"2019-04-08T00:00:00+03:00" : {
		"windSpeed" : 0.1,
		"windDir" : 53,
		"rain" : 0,
		"cloudbase" : null,
		"flyability" : 100,
		"reason" : "",
		"timestamp" :1554670800
		},
	"2019-04-08T03:00:00+03:00" : {
		"windSpeed" : 0.4,
		"windDir" : 17,
		"rain" : 1,
		"cloudbase" : 464.20592,
		"flyability" : 0,
		"reason" : "windDir, rain, cloudbase",
		"timestamp" :1554681600
		},
	"2019-04-08T06:00:00+03:00" : {
		"windSpeed" : 0.6,
		"windDir" : 322,
		"rain" : 1,
		"cloudbase" : 1362.9198399999,
		"flyability" : 0,
		"reason" : "windDir, rain",
		"timestamp" :1554692400
		},
	"2019-04-08T09:00:00+03:00" : {
		"windSpeed" : 0,
		"windDir" : 346,
		"rain" : 1,
		"cloudbase" : 495.73871999996,
		"flyability" : 0,
		"reason" : "windDir, rain, cloudbase",
		"timestamp" :1554703200
		},
	"2019-04-08T12:00:00+03:00" : {
		"windSpeed" : 1,
		"windDir" : 184,
		"rain" : 1,
		"cloudbase" : 703.00047999997,
		"flyability" : 0,
		"reason" : "rain, cloudbase",
		"timestamp" :1554714000
		},
	"2019-04-08T15:00:00+03:00" : {
		"windSpeed" : 1.2,
		"windDir" : 122,
		"rain" : 1,
		"cloudbase" : 372.14495999998,
		"flyability" : 0,
		"reason" : "rain, cloudbase",
		"timestamp" :1554724800
		},
	"2019-04-08T18:00:00+03:00" : {
		"windSpeed" : 1.2,
		"windDir" : 157,
		"rain" : 1,
		"cloudbase" : 262.02656000001,
		"flyability" : 0,
		"reason" : "rain, cloudbase",
		"timestamp" :1554735600
		},
	"2019-04-08T21:00:00+03:00" : {
		"windSpeed" : 0.9,
		"windDir" : 73,
		"rain" : 1,
		"cloudbase" : 152.22255999999,
		"flyability" : 0,
		"reason" : "rain, cloudbase",
		"timestamp" :1554746400
		},
	"2019-04-09T00:00:00+03:00" : {
		"windSpeed" : 0.6,
		"windDir" : 322,
		"rain" : 1,
		"cloudbase" : null,
		"flyability" : 0,
		"reason" : "windDir, rain",
		"timestamp" :1554757200
		},
	"2019-04-09T03:00:00+03:00" : {
		"windSpeed" : 1.1,
		"windDir" : 337,
		"rain" : 0,
		"cloudbase" : 30,
		"flyability" : 0,
		"reason" : "windDir, cloudbase",
		"timestamp" :1554768000
		},
	"2019-04-09T06:00:00+03:00" : {
		"windSpeed" : 1.5,
		"windDir" : 344,
		"rain" : 0,
		"cloudbase" : 30,
		"flyability" : 0,
		"reason" : "windDir, cloudbase",
		"timestamp" :1554778800
		},
	"2019-04-09T09:00:00+03:00" : {
		"windSpeed" : 1.5,
		"windDir" : 340,
		"rain" : 0,
		"cloudbase" : 2607.3296,
		"flyability" : 0,
		"reason" : "windDir",
		"timestamp" :1554789600
		},
	"2019-04-09T12:00:00+03:00" : {
		"windSpeed" : 0.1,
		"windDir" : 236,
		"rain" : 1,
		"cloudbase" : 5452.2488000002,
		"flyability" : 0,
		"reason" : "rain",
		"timestamp" :1554800400
		},
	"2019-04-09T15:00:00+03:00" : {
		"windSpeed" : 2.1,
		"windDir" : 174,
		"rain" : 1,
		"cloudbase" : 3620.3075999999,
		"flyability" : 0,
		"reason" : "rain",
		"timestamp" :1554811200
		},
	"2019-04-09T18:00:00+03:00" : {
		"windSpeed" : 1.6,
		"windDir" : 142,
		"rain" : 1,
		"cloudbase" : 2649.4252,
		"flyability" : 0,
		"reason" : "rain",
		"timestamp" :1554822000
		},
	"2019-04-09T21:00:00+03:00" : {
		"windSpeed" : 0.5,
		"windDir" : 106,
		"rain" : 1,
		"cloudbase" : 2269.7947999999,
		"flyability" : 0,
		"reason" : "rain",
		"timestamp" :1554832800
		},
	"2019-04-10T00:00:00+03:00" : {
		"windSpeed" : 0.6,
		"windDir" : 55,
		"rain" : 1,
		"cloudbase" : null,
		"flyability" : 0,
		"reason" : "rain",
		"timestamp" :1554843600
		},
	"2019-04-10T03:00:00+03:00" : {
		"windSpeed" : 0.2,
		"windDir" : 21,
		"rain" : 1,
		"cloudbase" : null,
		"flyability" : 0,
		"reason" : "windDir, rain",
		"timestamp" :1554854400
		}
	}
}