{
"site" : "Socorro - Pico da Cascavel",
"id" : 7030,
"orientations" : "20000222",
"forecasts" : { 
	"2019-04-12T00:00:00-03:00" : {
		"windSpeed" : 1.2,
		"windDir" : 120,
		"rain" : 0,
		"cloudbase" : null,
		"flyability" : 0,
		"reason" : "windDir",
		"timestamp" :1555038000
		},
	"2019-04-12T03:00:00-03:00" : {
		"windSpeed" : 0.8,
		"windDir" : 139,
		"rain" : 0,
		"cloudbase" : null,
		"flyability" : 0,
		"reason" : "windDir",
		"timestamp" :1555048800
		},
	"2019-04-12T06:00:00-03:00" : {
		"windSpeed" : 0.7,
		"windDir" : 90,
		"rain" : 0,
		"cloudbase" : 9485.8444000009,
		"flyability" : 0,
		"reason" : "windDir",
		"timestamp" :1555059600
		},
	"2019-04-12T09:00:00-03:00" : {
		"windSpeed" : 2.9,
		"windDir" : 8,
		"rain" : 0,
		"cloudbase" : 11000,
		"flyability" : 100,
		"reason" : "",
		"timestamp" :1555070400
		},
	"2019-04-12T12:00:00-03:00" : {
		"windSpeed" : 2.2,
		"windDir" : 332,
		"rain" : 0,
		"cloudbase" : 11000,
		"flyability" : 100,
		"reason" : "",
		"timestamp" :1555081200
		},
	"2019-04-12T15:00:00-03:00" : {
		"windSpeed" : 2.5,
		"windDir" : 280,
		"rain" : 0,
		"cloudbase" : 10500,
		"flyability" : 100,
		"reason" : "",
		"timestamp" :1555092000
		},
	"2019-04-12T18:00:00-03:00" : {
		"windSpeed" : 1.1,
		"windDir" : 199,
		"rain" : 0,
		"cloudbase" : null,
		"flyability" : 0,
		"reason" : "windDir",
		"timestamp" :1555102800
		},
	"2019-04-12T21:00:00-03:00" : {
		"windSpeed" : 2,
		"windDir" : 141,
		"rain" : 0,
		"cloudbase" : null,
		"flyability" : 0,
		"reason" : "windDir",
		"timestamp" :1555113600
		},
	"2019-04-13T00:00:00-03:00" : {
		"windSpeed" : 1.4,
		"windDir" : 135,
		"rain" : 0,
		"cloudbase" : null,
		"flyability" : 0,
		"reason" : "windDir",
		"timestamp" :1555124400
		},
	"2019-04-13T03:00:00-03:00" : {
		"windSpeed" : 0.8,
		"windDir" : 131,
		"rain" : 0,
		"cloudbase" : 10500,
		"flyability" : 0,
		"reason" : "windDir",
		"timestamp" :1555135200
		},
	"2019-04-13T06:00:00-03:00" : {
		"windSpeed" : 1.1,
		"windDir" : 90,
		"rain" : 0,
		"cloudbase" : 9741.7332999996,
		"flyability" : 0,
		"reason" : "windDir",
		"timestamp" :1555146000
		},
	"2019-04-13T09:00:00-03:00" : {
		"windSpeed" : 3,
		"windDir" : 17,
		"rain" : 0,
		"cloudbase" : 8000,
		"flyability" : 100,
		"reason" : "",
		"timestamp" :1555156800
		},
	"2019-04-13T12:00:00-03:00" : {
		"windSpeed" : 2.3,
		"windDir" : 356,
		"rain" : 0,
		"cloudbase" : null,
		"flyability" : 100,
		"reason" : "",
		"timestamp" :1555167600
		},
	"2019-04-13T15:00:00-03:00" : {
		"windSpeed" : 1.4,
		"windDir" : 10,
		"rain" : 0,
		"cloudbase" : 1300,
		"flyability" : 100,
		"reason" : "",
		"timestamp" :1555178400
		},
	"2019-04-13T18:00:00-03:00" : {
		"windSpeed" : 0.7,
		"windDir" : 29,
		"rain" : 1,
		"cloudbase" : 12500,
		"flyability" : 0,
		"reason" : "windDir, rain",
		"timestamp" :1555189200
		},
	"2019-04-13T21:00:00-03:00" : {
		"windSpeed" : 0.7,
		"windDir" : 120,
		"rain" : 0,
		"cloudbase" : 7847.6446999995,
		"flyability" : 0,
		"reason" : "windDir",
		"timestamp" :1555200000
		},
	"2019-04-14T00:00:00-03:00" : {
		"windSpeed" : 0.9,
		"windDir" : 89,
		"rain" : 0,
		"cloudbase" : 9594.8162500001,
		"flyability" : 0,
		"reason" : "windDir",
		"timestamp" :1555210800
		},
	"2019-04-14T03:00:00-03:00" : {
		"windSpeed" : 1.6,
		"windDir" : 42,
		"rain" : 0,
		"cloudbase" : 8116.5997999995,
		"flyability" : 0,
		"reason" : "windDir",
		"timestamp" :1555221600
		},
	"2019-04-14T06:00:00-03:00" : {
		"windSpeed" : 2.2,
		"windDir" : 45,
		"rain" : 0,
		"cloudbase" : 7244.5222000001,
		"flyability" : 0,
		"reason" : "windDir",
		"timestamp" :1555232400
		},
	"2019-04-14T09:00:00-03:00" : {
		"windSpeed" : 3.4,
		"windDir" : 31,
		"rain" : 0,
		"cloudbase" : 8274.2334999999,
		"flyability" : 0,
		"reason" : "windDir",
		"timestamp" :1555243200
		},
	"2019-04-14T12:00:00-03:00" : {
		"windSpeed" : 2.2,
		"windDir" : 31,
		"rain" : 0,
		"cloudbase" : 9846.0781000004,
		"flyability" : 0,
		"reason" : "windDir",
		"timestamp" :1555254000
		},
	"2019-04-14T15:00:00-03:00" : {
		"windSpeed" : 1.4,
		"windDir" : 46,
		"rain" : 1,
		"cloudbase" : 9016.7,
		"flyability" : 0,
		"reason" : "windDir, rain",
		"timestamp" :1555264800
		},
	"2019-04-14T18:00:00-03:00" : {
		"windSpeed" : 0.8,
		"windDir" : 179,
		"rain" : 1,
		"cloudbase" : 9708.5333,
		"flyability" : 0,
		"reason" : "windDir, rain",
		"timestamp" :1555275600
		},
	"2019-04-14T21:00:00-03:00" : {
		"windSpeed" : 1,
		"windDir" : 114,
		"rain" : 1,
		"cloudbase" : 8566.7999999999,
		"flyability" : 0,
		"reason" : "windDir, rain",
		"timestamp" :1555286400
		},
	"2019-04-15T00:00:00-03:00" : {
		"windSpeed" : 1.1,
		"windDir" : 108,
		"rain" : 1,
		"cloudbase" : 8780.5111000001,
		"flyability" : 0,
		"reason" : "windDir, rain",
		"timestamp" :1555297200
		},
	"2019-04-15T03:00:00-03:00" : {
		"windSpeed" : 1.7,
		"windDir" : 55,
		"rain" : 1,
		"cloudbase" : 10083.5,
		"flyability" : 0,
		"reason" : "windDir, rain",
		"timestamp" :1555308000
		},
	"2019-04-15T06:00:00-03:00" : {
		"windSpeed" : 1.7,
		"windDir" : 55,
		"rain" : 1,
		"cloudbase" : 13000,
		"flyability" : 0,
		"reason" : "windDir, rain",
		"timestamp" :1555318800
		},
	"2019-04-15T09:00:00-03:00" : {
		"windSpeed" : 3.3,
		"windDir" : 24,
		"rain" : 1,
		"cloudbase" : 13000,
		"flyability" : 0,
		"reason" : "windDir, rain",
		"timestamp" :1555329600
		},
	"2019-04-15T12:00:00-03:00" : {
		"windSpeed" : 2.4,
		"windDir" : 15,
		"rain" : 0,
		"cloudbase" : null,
		"flyability" : 100,
		"reason" : "",
		"timestamp" :1555340400
		},
	"2019-04-15T15:00:00-03:00" : {
		"windSpeed" : 1.3,
		"windDir" : 130,
		"rain" : 0,
		"cloudbase" : null,
		"flyability" : 0,
		"reason" : "windDir",
		"timestamp" :1555351200
		},
	"2019-04-15T18:00:00-03:00" : {
		"windSpeed" : 0.9,
		"windDir" : 80,
		"rain" : 0,
		"cloudbase" : 8653.6220999992,
		"flyability" : 0,
		"reason" : "windDir",
		"timestamp" :1555362000
		},
	"2019-04-15T21:00:00-03:00" : {
		"windSpeed" : 1,
		"windDir" : 85,
		"rain" : 0,
		"cloudbase" : null,
		"flyability" : 0,
		"reason" : "windDir",
		"timestamp" :1555372800
		},
	"2019-04-16T00:00:00-03:00" : {
		"windSpeed" : 0.8,
		"windDir" : 123,
		"rain" : 0,
		"cloudbase" : 11888.611,
		"flyability" : 0,
		"reason" : "windDir",
		"timestamp" :1555383600
		},
	"2019-04-16T03:00:00-03:00" : {
		"windSpeed" : 1.6,
		"windDir" : 63,
		"rain" : 0,
		"cloudbase" : null,
		"flyability" : 0,
		"reason" : "windDir",
		"timestamp" :1555394400
		},
	"2019-04-16T06:00:00-03:00" : {
		"windSpeed" : 1.9,
		"windDir" : 34,
		"rain" : 0,
		"cloudbase" : null,
		"flyability" : 0,
		"reason" : "windDir",
		"timestamp" :1555405200
		},
	"2019-04-16T09:00:00-03:00" : {
		"windSpeed" : 3,
		"windDir" : 17,
		"rain" : 1,
		"cloudbase" : null,
		"flyability" : 0,
		"reason" : "rain",
		"timestamp" :1555416000
		},
	"2019-04-16T12:00:00-03:00" : {
		"windSpeed" : 3.4,
		"windDir" : 360,
		"rain" : 0,
		"cloudbase" : 7974.0775999998,
		"flyability" : 100,
		"reason" : "",
		"timestamp" :1555426800
		},
	"2019-04-16T15:00:00-03:00" : {
		"windSpeed" : 0.8,
		"windDir" : 359,
		"rain" : 0,
		"cloudbase" : 11083.5,
		"flyability" : 100,
		"reason" : "",
		"timestamp" :1555437600
		},
	"2019-04-16T18:00:00-03:00" : {
		"windSpeed" : 1.2,
		"windDir" : 89,
		"rain" : 0,
		"cloudbase" : 641.38207999986,
		"flyability" : 0,
		"reason" : "windDir, cloudbase",
		"timestamp" :1555448400
		},
	"2019-04-16T21:00:00-03:00" : {
		"windSpeed" : 1.3,
		"windDir" : 11,
		"rain" : 0,
		"cloudbase" : 198.25222499997,
		"flyability" : 0,
		"reason" : "cloudbase",
		"timestamp" :1555459200
		},
	"2019-04-17T00:00:00-03:00" : {
		"windSpeed" : 1.9,
		"windDir" : 18,
		"rain" : 1,
		"cloudbase" : 257.79221999999,
		"flyability" : 0,
		"reason" : "rain, cloudbase",
		"timestamp" :1555470000
		},
	"2019-04-17T03:00:00-03:00" : {
		"windSpeed" : 2.4,
		"windDir" : 351,
		"rain" : 0,
		"cloudbase" : 288.09110999998,
		"flyability" : 0,
		"reason" : "cloudbase",
		"timestamp" :1555480800
		},
	"2019-04-17T06:00:00-03:00" : {
		"windSpeed" : 2.4,
		"windDir" : 349,
		"rain" : 1,
		"cloudbase" : 83.097769999991,
		"flyability" : 0,
		"reason" : "rain, cloudbase",
		"timestamp" :1555491600
		},
	"2019-04-17T09:00:00-03:00" : {
		"windSpeed" : 4,
		"windDir" : 313,
		"rain" : 1,
		"cloudbase" : 45,
		"flyability" : 0,
		"reason" : "rain, cloudbase",
		"timestamp" :1555502400
		},
	"2019-04-17T12:00:00-03:00" : {
		"windSpeed" : 3,
		"windDir" : 295,
		"rain" : 1,
		"cloudbase" : null,
		"flyability" : 0,
		"reason" : "rain",
		"timestamp" :1555513200
		},
	"2019-04-17T15:00:00-03:00" : {
		"windSpeed" : 1.6,
		"windDir" : 270,
		"rain" : 1,
		"cloudbase" : 820,
		"flyability" : 0,
		"reason" : "rain, cloudbase",
		"timestamp" :1555524000
		},
	"2019-04-17T18:00:00-03:00" : {
		"windSpeed" : 1,
		"windDir" : 296,
		"rain" : 1,
		"cloudbase" : null,
		"flyability" : 0,
		"reason" : "rain",
		"timestamp" :1555534800
		},
	"2019-04-17T21:00:00-03:00" : {
		"windSpeed" : 0.7,
		"windDir" : 83,
		"rain" : 1,
		"cloudbase" : null,
		"flyability" : 0,
		"reason" : "windDir, rain",
		"timestamp" :1555545600
		}
	}
}