{
"site" : "Mogi das Cruzes - Pico do Urubu",
"id" : 7035,
"orientations" : "20002000",
"forecasts" : { 
	"2019-04-12T00:00:00-03:00" : {
		"windSpeed" : 1.3,
		"windDir" : 134,
		"rain" : 0,
		"cloudbase" : null,
		"flyability" : 0,
		"reason" : "windDir",
		"timestamp" :1555038000
		},
	"2019-04-12T03:00:00-03:00" : {
		"windSpeed" : 0.9,
		"windDir" : 92,
		"rain" : 0,
		"cloudbase" : 30.900000000003,
		"flyability" : 0,
		"reason" : "windDir, cloudbase",
		"timestamp" :1555048800
		},
	"2019-04-12T06:00:00-03:00" : {
		"windSpeed" : 2,
		"windDir" : 48,
		"rain" : 0,
		"cloudbase" : 30,
		"flyability" : 0,
		"reason" : "windDir, cloudbase",
		"timestamp" :1555059600
		},
	"2019-04-12T09:00:00-03:00" : {
		"windSpeed" : 3.1,
		"windDir" : 40,
		"rain" : 0,
		"cloudbase" : 310.22000000001,
		"flyability" : 0,
		"reason" : "windDir, cloudbase",
		"timestamp" :1555070400
		},
	"2019-04-12T12:00:00-03:00" : {
		"windSpeed" : 1.6,
		"windDir" : 327,
		"rain" : 1,
		"cloudbase" : 10573,
		"flyability" : 0,
		"reason" : "windDir, rain",
		"timestamp" :1555081200
		},
	"2019-04-12T15:00:00-03:00" : {
		"windSpeed" : 2.4,
		"windDir" : 221,
		"rain" : 1,
		"cloudbase" : 9215.5840000005,
		"flyability" : 0,
		"reason" : "windDir, rain",
		"timestamp" :1555092000
		},
	"2019-04-12T18:00:00-03:00" : {
		"windSpeed" : 4,
		"windDir" : 146,
		"rain" : 0,
		"cloudbase" : 150,
		"flyability" : 0,
		"reason" : "windDir, cloudbase",
		"timestamp" :1555102800
		},
	"2019-04-12T21:00:00-03:00" : {
		"windSpeed" : 1.2,
		"windDir" : 136,
		"rain" : 0,
		"cloudbase" : 3025.1642000009,
		"flyability" : 0,
		"reason" : "windDir",
		"timestamp" :1555113600
		},
	"2019-04-13T00:00:00-03:00" : {
		"windSpeed" : 0.7,
		"windDir" : 136,
		"rain" : 0,
		"cloudbase" : 85,
		"flyability" : 0,
		"reason" : "windDir, cloudbase",
		"timestamp" :1555124400
		},
	"2019-04-13T03:00:00-03:00" : {
		"windSpeed" : 1,
		"windDir" : 69,
		"rain" : 0,
		"cloudbase" : 30,
		"flyability" : 0,
		"reason" : "windDir, cloudbase",
		"timestamp" :1555135200
		},
	"2019-04-13T06:00:00-03:00" : {
		"windSpeed" : 2.4,
		"windDir" : 53,
		"rain" : 0,
		"cloudbase" : 30,
		"flyability" : 0,
		"reason" : "windDir, cloudbase",
		"timestamp" :1555146000
		},
	"2019-04-13T09:00:00-03:00" : {
		"windSpeed" : 2.1,
		"windDir" : 45,
		"rain" : 0,
		"cloudbase" : 219.0656,
		"flyability" : 0,
		"reason" : "windDir, cloudbase",
		"timestamp" :1555156800
		},
	"2019-04-13T12:00:00-03:00" : {
		"windSpeed" : 1,
		"windDir" : 295,
		"rain" : 0,
		"cloudbase" : null,
		"flyability" : 0,
		"reason" : "windDir",
		"timestamp" :1555167600
		},
	"2019-04-13T15:00:00-03:00" : {
		"windSpeed" : 3.4,
		"windDir" : 167,
		"rain" : 1,
		"cloudbase" : null,
		"flyability" : 0,
		"reason" : "rain",
		"timestamp" :1555178400
		},
	"2019-04-13T18:00:00-03:00" : {
		"windSpeed" : 3.3,
		"windDir" : 153,
		"rain" : 0,
		"cloudbase" : null,
		"flyability" : 0,
		"reason" : "windDir",
		"timestamp" :1555189200
		},
	"2019-04-13T21:00:00-03:00" : {
		"windSpeed" : 1.3,
		"windDir" : 136,
		"rain" : 0,
		"cloudbase" : 6020.4960000001,
		"flyability" : 0,
		"reason" : "windDir",
		"timestamp" :1555200000
		},
	"2019-04-14T00:00:00-03:00" : {
		"windSpeed" : 1,
		"windDir" : 117,
		"rain" : 0,
		"cloudbase" : 7069.048,
		"flyability" : 0,
		"reason" : "windDir",
		"timestamp" :1555210800
		},
	"2019-04-14T03:00:00-03:00" : {
		"windSpeed" : 1.8,
		"windDir" : 59,
		"rain" : 0,
		"cloudbase" : 5467.7199999999,
		"flyability" : 0,
		"reason" : "windDir",
		"timestamp" :1555221600
		},
	"2019-04-14T06:00:00-03:00" : {
		"windSpeed" : 1,
		"windDir" : 70,
		"rain" : 0,
		"cloudbase" : 946.70099999967,
		"flyability" : 0,
		"reason" : "windDir, cloudbase",
		"timestamp" :1555232400
		},
	"2019-04-14T09:00:00-03:00" : {
		"windSpeed" : 2.1,
		"windDir" : 47,
		"rain" : 1,
		"cloudbase" : 266.34640000007,
		"flyability" : 0,
		"reason" : "windDir, rain, cloudbase",
		"timestamp" :1555243200
		},
	"2019-04-14T12:00:00-03:00" : {
		"windSpeed" : 1.5,
		"windDir" : 47,
		"rain" : 1,
		"cloudbase" : 3843.7019999994,
		"flyability" : 0,
		"reason" : "windDir, rain",
		"timestamp" :1555254000
		},
	"2019-04-14T15:00:00-03:00" : {
		"windSpeed" : 1.1,
		"windDir" : 148,
		"rain" : 1,
		"cloudbase" : 10017.832,
		"flyability" : 0,
		"reason" : "windDir, rain",
		"timestamp" :1555264800
		},
	"2019-04-14T18:00:00-03:00" : {
		"windSpeed" : 1.3,
		"windDir" : 129,
		"rain" : 1,
		"cloudbase" : 8215.448,
		"flyability" : 0,
		"reason" : "windDir, rain",
		"timestamp" :1555275600
		},
	"2019-04-14T21:00:00-03:00" : {
		"windSpeed" : 1.5,
		"windDir" : 71,
		"rain" : 1,
		"cloudbase" : 8627.8479999992,
		"flyability" : 0,
		"reason" : "windDir, rain",
		"timestamp" :1555286400
		},
	"2019-04-15T00:00:00-03:00" : {
		"windSpeed" : 1,
		"windDir" : 90,
		"rain" : 0,
		"cloudbase" : 878.34880000148,
		"flyability" : 0,
		"reason" : "windDir, cloudbase",
		"timestamp" :1555297200
		},
	"2019-04-15T03:00:00-03:00" : {
		"windSpeed" : 1.1,
		"windDir" : 115,
		"rain" : 0,
		"cloudbase" : 2064.3553999992,
		"flyability" : 0,
		"reason" : "windDir",
		"timestamp" :1555308000
		},
	"2019-04-15T06:00:00-03:00" : {
		"windSpeed" : 1.7,
		"windDir" : 37,
		"rain" : 0,
		"cloudbase" : 2351.6957999991,
		"flyability" : 0,
		"reason" : "windDir",
		"timestamp" :1555318800
		},
	"2019-04-15T09:00:00-03:00" : {
		"windSpeed" : 2.5,
		"windDir" : 53,
		"rain" : 1,
		"cloudbase" : 218.92480000001,
		"flyability" : 0,
		"reason" : "windDir, rain, cloudbase",
		"timestamp" :1555329600
		},
	"2019-04-15T12:00:00-03:00" : {
		"windSpeed" : 1.3,
		"windDir" : 117,
		"rain" : 1,
		"cloudbase" : 620,
		"flyability" : 0,
		"reason" : "windDir, rain, cloudbase",
		"timestamp" :1555340400
		},
	"2019-04-15T15:00:00-03:00" : {
		"windSpeed" : 2.4,
		"windDir" : 145,
		"rain" : 0,
		"cloudbase" : 2850,
		"flyability" : 0,
		"reason" : "windDir",
		"timestamp" :1555351200
		},
	"2019-04-15T18:00:00-03:00" : {
		"windSpeed" : 1.4,
		"windDir" : 129,
		"rain" : 1,
		"cloudbase" : null,
		"flyability" : 0,
		"reason" : "windDir, rain",
		"timestamp" :1555362000
		},
	"2019-04-15T21:00:00-03:00" : {
		"windSpeed" : 1.6,
		"windDir" : 108,
		"rain" : 0,
		"cloudbase" : null,
		"flyability" : 0,
		"reason" : "windDir",
		"timestamp" :1555372800
		},
	"2019-04-16T00:00:00-03:00" : {
		"windSpeed" : 1.2,
		"windDir" : 64,
		"rain" : 0,
		"cloudbase" : 10000,
		"flyability" : 0,
		"reason" : "windDir",
		"timestamp" :1555383600
		},
	"2019-04-16T03:00:00-03:00" : {
		"windSpeed" : 1,
		"windDir" : 94,
		"rain" : 0,
		"cloudbase" : 1893.6841999993,
		"flyability" : 0,
		"reason" : "windDir",
		"timestamp" :1555394400
		},
	"2019-04-16T06:00:00-03:00" : {
		"windSpeed" : 1.8,
		"windDir" : 57,
		"rain" : 0,
		"cloudbase" : 30,
		"flyability" : 0,
		"reason" : "windDir, cloudbase",
		"timestamp" :1555405200
		},
	"2019-04-16T09:00:00-03:00" : {
		"windSpeed" : 3.2,
		"windDir" : 28,
		"rain" : 1,
		"cloudbase" : null,
		"flyability" : 0,
		"reason" : "windDir, rain",
		"timestamp" :1555416000
		},
	"2019-04-16T12:00:00-03:00" : {
		"windSpeed" : 1.8,
		"windDir" : 32,
		"rain" : 0,
		"cloudbase" : null,
		"flyability" : 0,
		"reason" : "windDir",
		"timestamp" :1555426800
		},
	"2019-04-16T15:00:00-03:00" : {
		"windSpeed" : 1.8,
		"windDir" : 210,
		"rain" : 0,
		"cloudbase" : 4181.9980000022,
		"flyability" : 0,
		"reason" : "windDir",
		"timestamp" :1555437600
		},
	"2019-04-16T18:00:00-03:00" : {
		"windSpeed" : 0.4,
		"windDir" : 265,
		"rain" : 0,
		"cloudbase" : 4707.5444000001,
		"flyability" : 0,
		"reason" : "windDir",
		"timestamp" :1555448400
		},
	"2019-04-16T21:00:00-03:00" : {
		"windSpeed" : 2.1,
		"windDir" : 32,
		"rain" : 1,
		"cloudbase" : 8565.1999999998,
		"flyability" : 0,
		"reason" : "windDir, rain",
		"timestamp" :1555459200
		},
	"2019-04-17T00:00:00-03:00" : {
		"windSpeed" : 1.5,
		"windDir" : 314,
		"rain" : 0,
		"cloudbase" : null,
		"flyability" : 0,
		"reason" : "windDir",
		"timestamp" :1555470000
		},
	"2019-04-17T03:00:00-03:00" : {
		"windSpeed" : 2.3,
		"windDir" : 297,
		"rain" : 0,
		"cloudbase" : 330,
		"flyability" : 0,
		"reason" : "windDir, cloudbase",
		"timestamp" :1555480800
		},
	"2019-04-17T06:00:00-03:00" : {
		"windSpeed" : 2.4,
		"windDir" : 306,
		"rain" : 1,
		"cloudbase" : 317.54680000001,
		"flyability" : 0,
		"reason" : "windDir, rain, cloudbase",
		"timestamp" :1555491600
		},
	"2019-04-17T09:00:00-03:00" : {
		"windSpeed" : 3.6,
		"windDir" : 286,
		"rain" : 1,
		"cloudbase" : null,
		"flyability" : 0,
		"reason" : "windDir, rain",
		"timestamp" :1555502400
		},
	"2019-04-17T12:00:00-03:00" : {
		"windSpeed" : 3.5,
		"windDir" : 271,
		"rain" : 1,
		"cloudbase" : null,
		"flyability" : 0,
		"reason" : "windDir, rain",
		"timestamp" :1555513200
		},
	"2019-04-17T15:00:00-03:00" : {
		"windSpeed" : 3.7,
		"windDir" : 233,
		"rain" : 1,
		"cloudbase" : null,
		"flyability" : 0,
		"reason" : "windDir, rain",
		"timestamp" :1555524000
		},
	"2019-04-17T18:00:00-03:00" : {
		"windSpeed" : 2.9,
		"windDir" : 189,
		"rain" : 1,
		"cloudbase" : null,
		"flyability" : 0,
		"reason" : "rain",
		"timestamp" :1555534800
		},
	"2019-04-17T21:00:00-03:00" : {
		"windSpeed" : 1.1,
		"windDir" : 208,
		"rain" : 0,
		"cloudbase" : null,
		"flyability" : 0,
		"reason" : "windDir",
		"timestamp" :1555545600
		}
	}
}