{
"site" : "Alagoa - Rampa do Condado",
"id" : 7044,
"orientations" : "20000002",
"forecasts" : { 
	"2019-04-06T12:00:00-03:00" : {
		"windSpeed" : 1.9,
		"windDir" : 22,
		"rain" : 1,
		"cloudbase" : null,
		"flyability" : 0,
		"reason" : "rain",
		"timestamp" :1554562800
		},
	"2019-04-06T15:00:00-03:00" : {
		"windSpeed" : 1.2,
		"windDir" : 47,
		"rain" : 1,
		"cloudbase" : 12611.889,
		"flyability" : 0,
		"reason" : "windDir, rain",
		"timestamp" :1554573600
		},
	"2019-04-06T18:00:00-03:00" : {
		"windSpeed" : 0.6,
		"windDir" : 52,
		"rain" : 1,
		"cloudbase" : 10444.0555,
		"flyability" : 0,
		"reason" : "windDir, rain",
		"timestamp" :1554584400
		},
	"2019-04-06T21:00:00-03:00" : {
		"windSpeed" : 0.9,
		"windDir" : 112,
		"rain" : 1,
		"cloudbase" : 1706.6919600006,
		"flyability" : 0,
		"reason" : "windDir, rain",
		"timestamp" :1554595200
		},
	"2019-04-07T00:00:00-03:00" : {
		"windSpeed" : 0.8,
		"windDir" : 169,
		"rain" : 1,
		"cloudbase" : 8465.4997000003,
		"flyability" : 0,
		"reason" : "windDir, rain",
		"timestamp" :1554606000
		},
	"2019-04-07T03:00:00-03:00" : {
		"windSpeed" : 0.3,
		"windDir" : 211,
		"rain" : 1,
		"cloudbase" : 10722.4445,
		"flyability" : 0,
		"reason" : "windDir, rain",
		"timestamp" :1554616800
		},
	"2019-04-07T06:00:00-03:00" : {
		"windSpeed" : 0.4,
		"windDir" : 278,
		"rain" : 1,
		"cloudbase" : 10867.2667,
		"flyability" : 0,
		"reason" : "windDir, rain",
		"timestamp" :1554627600
		},
	"2019-04-07T09:00:00-03:00" : {
		"windSpeed" : 2.3,
		"windDir" : 347,
		"rain" : 1,
		"cloudbase" : 5146.8956299988,
		"flyability" : 0,
		"reason" : "rain",
		"timestamp" :1554638400
		},
	"2019-04-07T12:00:00-03:00" : {
		"windSpeed" : 2.4,
		"windDir" : 321,
		"rain" : 1,
		"cloudbase" : 1759.2892699996,
		"flyability" : 0,
		"reason" : "rain",
		"timestamp" :1554649200
		},
	"2019-04-07T15:00:00-03:00" : {
		"windSpeed" : 1.2,
		"windDir" : 301,
		"rain" : 1,
		"cloudbase" : 10144.7894,
		"flyability" : 0,
		"reason" : "rain",
		"timestamp" :1554660000
		},
	"2019-04-07T18:00:00-03:00" : {
		"windSpeed" : 1.1,
		"windDir" : 11,
		"rain" : 1,
		"cloudbase" : null,
		"flyability" : 0,
		"reason" : "rain",
		"timestamp" :1554670800
		},
	"2019-04-07T21:00:00-03:00" : {
		"windSpeed" : 1.3,
		"windDir" : 301,
		"rain" : 0,
		"cloudbase" : null,
		"flyability" : 100,
		"reason" : "",
		"timestamp" :1554681600
		},
	"2019-04-08T00:00:00-03:00" : {
		"windSpeed" : 1.2,
		"windDir" : 319,
		"rain" : 1,
		"cloudbase" : null,
		"flyability" : 0,
		"reason" : "rain",
		"timestamp" :1554692400
		},
	"2019-04-08T03:00:00-03:00" : {
		"windSpeed" : 1.7,
		"windDir" : 307,
		"rain" : 0,
		"cloudbase" : 55.527780000007,
		"flyability" : 0,
		"reason" : "cloudbase",
		"timestamp" :1554703200
		},
	"2019-04-08T06:00:00-03:00" : {
		"windSpeed" : 2,
		"windDir" : 311,
		"rain" : 0,
		"cloudbase" : 72.246114999994,
		"flyability" : 0,
		"reason" : "cloudbase",
		"timestamp" :1554714000
		},
	"2019-04-08T09:00:00-03:00" : {
		"windSpeed" : 3.4,
		"windDir" : 310,
		"rain" : 1,
		"cloudbase" : 9291.2437999994,
		"flyability" : 0,
		"reason" : "rain",
		"timestamp" :1554724800
		},
	"2019-04-08T12:00:00-03:00" : {
		"windSpeed" : 3.4,
		"windDir" : 309,
		"rain" : 1,
		"cloudbase" : 6899.7842500001,
		"flyability" : 0,
		"reason" : "rain",
		"timestamp" :1554735600
		},
	"2019-04-08T15:00:00-03:00" : {
		"windSpeed" : 2,
		"windDir" : 289,
		"rain" : 0,
		"cloudbase" : 7155.7779999999,
		"flyability" : 0,
		"reason" : "windDir",
		"timestamp" :1554746400
		},
	"2019-04-08T18:00:00-03:00" : {
		"windSpeed" : 1.1,
		"windDir" : 293,
		"rain" : 1,
		"cloudbase" : 6211.4058499999,
		"flyability" : 0,
		"reason" : "rain",
		"timestamp" :1554757200
		},
	"2019-04-08T21:00:00-03:00" : {
		"windSpeed" : 1.2,
		"windDir" : 287,
		"rain" : 1,
		"cloudbase" : 5323.3439999997,
		"flyability" : 0,
		"reason" : "windDir, rain",
		"timestamp" :1554768000
		},
	"2019-04-09T00:00:00-03:00" : {
		"windSpeed" : 1.1,
		"windDir" : 279,
		"rain" : 1,
		"cloudbase" : 5355.7112,
		"flyability" : 0,
		"reason" : "windDir, rain",
		"timestamp" :1554778800
		},
	"2019-04-09T03:00:00-03:00" : {
		"windSpeed" : 0.8,
		"windDir" : 282,
		"rain" : 1,
		"cloudbase" : 3884.9026299999,
		"flyability" : 0,
		"reason" : "windDir, rain",
		"timestamp" :1554789600
		},
	"2019-04-09T06:00:00-03:00" : {
		"windSpeed" : 1.2,
		"windDir" : 301,
		"rain" : 1,
		"cloudbase" : 2654.4067399997,
		"flyability" : 0,
		"reason" : "rain",
		"timestamp" :1554800400
		},
	"2019-04-09T09:00:00-03:00" : {
		"windSpeed" : 1.1,
		"windDir" : 330,
		"rain" : 1,
		"cloudbase" : 1767.7451549997,
		"flyability" : 0,
		"reason" : "rain",
		"timestamp" :1554811200
		},
	"2019-04-09T12:00:00-03:00" : {
		"windSpeed" : 1,
		"windDir" : 317,
		"rain" : 1,
		"cloudbase" : 863.82670999988,
		"flyability" : 0,
		"reason" : "rain, cloudbase",
		"timestamp" :1554822000
		},
	"2019-04-09T15:00:00-03:00" : {
		"windSpeed" : 1.2,
		"windDir" : 164,
		"rain" : 1,
		"cloudbase" : null,
		"flyability" : 0,
		"reason" : "windDir, rain",
		"timestamp" :1554832800
		},
	"2019-04-09T18:00:00-03:00" : {
		"windSpeed" : 1.7,
		"windDir" : 138,
		"rain" : 1,
		"cloudbase" : 3560.9054000001,
		"flyability" : 0,
		"reason" : "windDir, rain",
		"timestamp" :1554843600
		},
	"2019-04-09T21:00:00-03:00" : {
		"windSpeed" : 2,
		"windDir" : 151,
		"rain" : 0,
		"cloudbase" : 30,
		"flyability" : 0,
		"reason" : "windDir, cloudbase",
		"timestamp" :1554854400
		},
	"2019-04-10T00:00:00-03:00" : {
		"windSpeed" : 1.6,
		"windDir" : 168,
		"rain" : 1,
		"cloudbase" : 36.673334999998,
		"flyability" : 0,
		"reason" : "windDir, rain, cloudbase",
		"timestamp" :1554865200
		},
	"2019-04-10T03:00:00-03:00" : {
		"windSpeed" : 1.3,
		"windDir" : 173,
		"rain" : 1,
		"cloudbase" : 37.207785000004,
		"flyability" : 0,
		"reason" : "windDir, rain, cloudbase",
		"timestamp" :1554876000
		},
	"2019-04-10T06:00:00-03:00" : {
		"windSpeed" : 2.1,
		"windDir" : 161,
		"rain" : 1,
		"cloudbase" : 30,
		"flyability" : 0,
		"reason" : "windDir, rain, cloudbase",
		"timestamp" :1554886800
		},
	"2019-04-10T09:00:00-03:00" : {
		"windSpeed" : 1.8,
		"windDir" : 134,
		"rain" : 1,
		"cloudbase" : null,
		"flyability" : 0,
		"reason" : "windDir, rain",
		"timestamp" :1554897600
		},
	"2019-04-10T12:00:00-03:00" : {
		"windSpeed" : 0.9,
		"windDir" : 60,
		"rain" : 0,
		"cloudbase" : null,
		"flyability" : 0,
		"reason" : "windDir",
		"timestamp" :1554908400
		},
	"2019-04-10T15:00:00-03:00" : {
		"windSpeed" : 0.6,
		"windDir" : 191,
		"rain" : 1,
		"cloudbase" : null,
		"flyability" : 0,
		"reason" : "windDir, rain",
		"timestamp" :1554919200
		},
	"2019-04-10T18:00:00-03:00" : {
		"windSpeed" : 1.9,
		"windDir" : 120,
		"rain" : 0,
		"cloudbase" : 140,
		"flyability" : 0,
		"reason" : "windDir, cloudbase",
		"timestamp" :1554930000
		},
	"2019-04-10T21:00:00-03:00" : {
		"windSpeed" : 2.2,
		"windDir" : 125,
		"rain" : 1,
		"cloudbase" : 30,
		"flyability" : 0,
		"reason" : "windDir, rain, cloudbase",
		"timestamp" :1554940800
		},
	"2019-04-11T00:00:00-03:00" : {
		"windSpeed" : 1.9,
		"windDir" : 156,
		"rain" : 1,
		"cloudbase" : 30,
		"flyability" : 0,
		"reason" : "windDir, rain, cloudbase",
		"timestamp" :1554951600
		},
	"2019-04-11T03:00:00-03:00" : {
		"windSpeed" : 1.4,
		"windDir" : 175,
		"rain" : 0,
		"cloudbase" : null,
		"flyability" : 0,
		"reason" : "windDir",
		"timestamp" :1554962400
		},
	"2019-04-11T06:00:00-03:00" : {
		"windSpeed" : 0.7,
		"windDir" : 200,
		"rain" : 0,
		"cloudbase" : null,
		"flyability" : 0,
		"reason" : "windDir",
		"timestamp" :1554973200
		},
	"2019-04-11T09:00:00-03:00" : {
		"windSpeed" : 0.7,
		"windDir" : 360,
		"rain" : 1,
		"cloudbase" : null,
		"flyability" : 0,
		"reason" : "rain",
		"timestamp" :1554984000
		},
	"2019-04-11T12:00:00-03:00" : {
		"windSpeed" : 2,
		"windDir" : 330,
		"rain" : 1,
		"cloudbase" : null,
		"flyability" : 0,
		"reason" : "rain",
		"timestamp" :1554994800
		},
	"2019-04-11T15:00:00-03:00" : {
		"windSpeed" : 1.1,
		"windDir" : 270,
		"rain" : 1,
		"cloudbase" : null,
		"flyability" : 0,
		"reason" : "windDir, rain",
		"timestamp" :1555005600
		},
	"2019-04-11T18:00:00-03:00" : {
		"windSpeed" : 1.3,
		"windDir" : 103,
		"rain" : 1,
		"cloudbase" : 85,
		"flyability" : 0,
		"reason" : "windDir, rain, cloudbase",
		"timestamp" :1555016400
		},
	"2019-04-11T21:00:00-03:00" : {
		"windSpeed" : 1.3,
		"windDir" : 128,
		"rain" : 1,
		"cloudbase" : 130.94229000004,
		"flyability" : 0,
		"reason" : "windDir, rain, cloudbase",
		"timestamp" :1555027200
		},
	"2019-04-12T00:00:00-03:00" : {
		"windSpeed" : 1.1,
		"windDir" : 118,
		"rain" : 1,
		"cloudbase" : 119.85673500004,
		"flyability" : 0,
		"reason" : "windDir, rain, cloudbase",
		"timestamp" :1555038000
		},
	"2019-04-12T03:00:00-03:00" : {
		"windSpeed" : 0.4,
		"windDir" : 16,
		"rain" : 1,
		"cloudbase" : 55,
		"flyability" : 0,
		"reason" : "rain, cloudbase",
		"timestamp" :1555048800
		},
	"2019-04-12T06:00:00-03:00" : {
		"windSpeed" : 0.5,
		"windDir" : 306,
		"rain" : 0,
		"cloudbase" : 58.901114999997,
		"flyability" : 0,
		"reason" : "cloudbase",
		"timestamp" :1555059600
		},
	"2019-04-12T09:00:00-03:00" : {
		"windSpeed" : 1.9,
		"windDir" : 346,
		"rain" : 1,
		"cloudbase" : 464.57224999997,
		"flyability" : 0,
		"reason" : "rain, cloudbase",
		"timestamp" :1555070400
		}
	}
}