{
"site" : "Dog",
"id" : 7103,
"orientations" : "10000012",
"forecasts" : { 
	"2019-04-12T08:00:00-07:00" : {
		"windSpeed" : 0.5,
		"windDir" : 315,
		"rain" : 1,
		"cloudbase" : 318.9814,
		"flyability" : 0,
		"reason" : "rain, cloudbase",
		"timestamp" :1555084800
		},
	"2019-04-12T11:00:00-07:00" : {
		"windSpeed" : 1.2,
		"windDir" : 252,
		"rain" : 1,
		"cloudbase" : 1500,
		"flyability" : 0,
		"reason" : "rain",
		"timestamp" :1555095600
		},
	"2019-04-12T14:00:00-07:00" : {
		"windSpeed" : 3,
		"windDir" : 277,
		"rain" : 1,
		"cloudbase" : 1183.4228,
		"flyability" : 0,
		"reason" : "rain",
		"timestamp" :1555106400
		},
	"2019-04-12T17:00:00-07:00" : {
		"windSpeed" : 2.5,
		"windDir" : 270,
		"rain" : 1,
		"cloudbase" : 1174.8088,
		"flyability" : 0,
		"reason" : "rain",
		"timestamp" :1555117200
		},
	"2019-04-12T20:00:00-07:00" : {
		"windSpeed" : 1.5,
		"windDir" : 258,
		"rain" : 1,
		"cloudbase" : 644.602,
		"flyability" : 0,
		"reason" : "rain",
		"timestamp" :1555128000
		},
	"2019-04-12T23:00:00-07:00" : {
		"windSpeed" : 1.9,
		"windDir" : 274,
		"rain" : 1,
		"cloudbase" : 326.82640000001,
		"flyability" : 0,
		"reason" : "rain, cloudbase",
		"timestamp" :1555138800
		},
	"2019-04-13T02:00:00-07:00" : {
		"windSpeed" : 1.3,
		"windDir" : 265,
		"rain" : 1,
		"cloudbase" : 55,
		"flyability" : 0,
		"reason" : "rain, cloudbase",
		"timestamp" :1555149600
		},
	"2019-04-13T05:00:00-07:00" : {
		"windSpeed" : 0.5,
		"windDir" : 309,
		"rain" : 0,
		"cloudbase" : 44.3865,
		"flyability" : 0,
		"reason" : "cloudbase",
		"timestamp" :1555160400
		},
	"2019-04-13T08:00:00-07:00" : {
		"windSpeed" : 0.6,
		"windDir" : 312,
		"rain" : 0,
		"cloudbase" : 118.4758,
		"flyability" : 0,
		"reason" : "cloudbase",
		"timestamp" :1555171200
		},
	"2019-04-13T11:00:00-07:00" : {
		"windSpeed" : 1.4,
		"windDir" : 256,
		"rain" : 1,
		"cloudbase" : 1255.1306,
		"flyability" : 0,
		"reason" : "rain",
		"timestamp" :1555182000
		},
	"2019-04-13T14:00:00-07:00" : {
		"windSpeed" : 0.9,
		"windDir" : 235,
		"rain" : 1,
		"cloudbase" : 1212.9338,
		"flyability" : 0,
		"reason" : "windDir, rain",
		"timestamp" :1555192800
		},
	"2019-04-13T17:00:00-07:00" : {
		"windSpeed" : 2,
		"windDir" : 241,
		"rain" : 1,
		"cloudbase" : 657.0358,
		"flyability" : 0,
		"reason" : "windDir, rain",
		"timestamp" :1555203600
		},
	"2019-04-13T20:00:00-07:00" : {
		"windSpeed" : 2.8,
		"windDir" : 281,
		"rain" : 1,
		"cloudbase" : 580.01260000001,
		"flyability" : 0,
		"reason" : "rain, cloudbase",
		"timestamp" :1555214400
		},
	"2019-04-13T23:00:00-07:00" : {
		"windSpeed" : 1.9,
		"windDir" : 255,
		"rain" : 1,
		"cloudbase" : 5919.5204,
		"flyability" : 0,
		"reason" : "rain",
		"timestamp" :1555225200
		},
	"2019-04-14T02:00:00-07:00" : {
		"windSpeed" : 2.3,
		"windDir" : 249,
		"rain" : 1,
		"cloudbase" : 166.2709,
		"flyability" : 0,
		"reason" : "rain, cloudbase",
		"timestamp" :1555236000
		},
	"2019-04-14T05:00:00-07:00" : {
		"windSpeed" : 2.3,
		"windDir" : 246,
		"rain" : 1,
		"cloudbase" : 5124.4800000001,
		"flyability" : 0,
		"reason" : "windDir, rain",
		"timestamp" :1555246800
		},
	"2019-04-14T08:00:00-07:00" : {
		"windSpeed" : 1.6,
		"windDir" : 253,
		"rain" : 1,
		"cloudbase" : 113.2989,
		"flyability" : 0,
		"reason" : "rain, cloudbase",
		"timestamp" :1555257600
		},
	"2019-04-14T11:00:00-07:00" : {
		"windSpeed" : 1.7,
		"windDir" : 255,
		"rain" : 1,
		"cloudbase" : 255.08499999999,
		"flyability" : 0,
		"reason" : "rain, cloudbase",
		"timestamp" :1555268400
		},
	"2019-04-14T14:00:00-07:00" : {
		"windSpeed" : 2.1,
		"windDir" : 272,
		"rain" : 1,
		"cloudbase" : 2419.207,
		"flyability" : 0,
		"reason" : "rain",
		"timestamp" :1555279200
		},
	"2019-04-14T17:00:00-07:00" : {
		"windSpeed" : 1.9,
		"windDir" : 272,
		"rain" : 1,
		"cloudbase" : 650.76139999998,
		"flyability" : 0,
		"reason" : "rain",
		"timestamp" :1555290000
		},
	"2019-04-14T20:00:00-07:00" : {
		"windSpeed" : 1.1,
		"windDir" : 248,
		"rain" : 1,
		"cloudbase" : 301.32479999999,
		"flyability" : 0,
		"reason" : "rain, cloudbase",
		"timestamp" :1555300800
		},
	"2019-04-14T23:00:00-07:00" : {
		"windSpeed" : 0.3,
		"windDir" : 247,
		"rain" : 0,
		"cloudbase" : 980,
		"flyability" : 0,
		"reason" : "windDir",
		"timestamp" :1555311600
		},
	"2019-04-15T02:00:00-07:00" : {
		"windSpeed" : 0.9,
		"windDir" : 94,
		"rain" : 0,
		"cloudbase" : 110,
		"flyability" : 0,
		"reason" : "windDir, cloudbase",
		"timestamp" :1555322400
		},
	"2019-04-15T05:00:00-07:00" : {
		"windSpeed" : 1.8,
		"windDir" : 80,
		"rain" : 0,
		"cloudbase" : 7385.407,
		"flyability" : 0,
		"reason" : "windDir",
		"timestamp" :1555333200
		},
	"2019-04-15T08:00:00-07:00" : {
		"windSpeed" : 1.5,
		"windDir" : 78,
		"rain" : 0,
		"cloudbase" : 573.17299999999,
		"flyability" : 0,
		"reason" : "windDir, cloudbase",
		"timestamp" :1555344000
		},
	"2019-04-15T11:00:00-07:00" : {
		"windSpeed" : 2,
		"windDir" : 130,
		"rain" : 0,
		"cloudbase" : 2002.272,
		"flyability" : 0,
		"reason" : "windDir",
		"timestamp" :1555354800
		},
	"2019-04-15T14:00:00-07:00" : {
		"windSpeed" : 2.8,
		"windDir" : 156,
		"rain" : 0,
		"cloudbase" : 1915.544,
		"flyability" : 0,
		"reason" : "windDir",
		"timestamp" :1555365600
		},
	"2019-04-15T17:00:00-07:00" : {
		"windSpeed" : 1,
		"windDir" : 180,
		"rain" : 1,
		"cloudbase" : 2191.372,
		"flyability" : 0,
		"reason" : "windDir, rain",
		"timestamp" :1555376400
		},
	"2019-04-15T20:00:00-07:00" : {
		"windSpeed" : 1,
		"windDir" : 150,
		"rain" : 1,
		"cloudbase" : 1973.028,
		"flyability" : 0,
		"reason" : "windDir, rain",
		"timestamp" :1555387200
		},
	"2019-04-15T23:00:00-07:00" : {
		"windSpeed" : 0.3,
		"windDir" : 111,
		"rain" : 1,
		"cloudbase" : 1629.78,
		"flyability" : 0,
		"reason" : "windDir, rain",
		"timestamp" :1555398000
		},
	"2019-04-16T02:00:00-07:00" : {
		"windSpeed" : 1,
		"windDir" : 67,
		"rain" : 1,
		"cloudbase" : 474.98,
		"flyability" : 0,
		"reason" : "windDir, rain, cloudbase",
		"timestamp" :1555408800
		},
	"2019-04-16T05:00:00-07:00" : {
		"windSpeed" : 1,
		"windDir" : 74,
		"rain" : 1,
		"cloudbase" : 484.5168,
		"flyability" : 0,
		"reason" : "windDir, rain, cloudbase",
		"timestamp" :1555419600
		},
	"2019-04-16T08:00:00-07:00" : {
		"windSpeed" : 1,
		"windDir" : 78,
		"rain" : 0,
		"cloudbase" : 601.8782,
		"flyability" : 0,
		"reason" : "windDir, cloudbase",
		"timestamp" :1555430400
		},
	"2019-04-16T11:00:00-07:00" : {
		"windSpeed" : 2.4,
		"windDir" : 236,
		"rain" : 1,
		"cloudbase" : 1191.9912,
		"flyability" : 0,
		"reason" : "windDir, rain",
		"timestamp" :1555441200
		},
	"2019-04-16T14:00:00-07:00" : {
		"windSpeed" : 2.9,
		"windDir" : 253,
		"rain" : 1,
		"cloudbase" : 772.0866,
		"flyability" : 0,
		"reason" : "rain",
		"timestamp" :1555452000
		},
	"2019-04-16T17:00:00-07:00" : {
		"windSpeed" : 2.6,
		"windDir" : 255,
		"rain" : 1,
		"cloudbase" : 1475.026,
		"flyability" : 0,
		"reason" : "rain",
		"timestamp" :1555462800
		},
	"2019-04-16T20:00:00-07:00" : {
		"windSpeed" : 1.7,
		"windDir" : 237,
		"rain" : 1,
		"cloudbase" : 799.48140000001,
		"flyability" : 0,
		"reason" : "windDir, rain",
		"timestamp" :1555473600
		},
	"2019-04-16T23:00:00-07:00" : {
		"windSpeed" : 1.5,
		"windDir" : 249,
		"rain" : 1,
		"cloudbase" : 1331.9722,
		"flyability" : 0,
		"reason" : "rain",
		"timestamp" :1555484400
		},
	"2019-04-17T02:00:00-07:00" : {
		"windSpeed" : 1,
		"windDir" : 195,
		"rain" : 1,
		"cloudbase" : 623.6358,
		"flyability" : 0,
		"reason" : "windDir, rain, cloudbase",
		"timestamp" :1555495200
		},
	"2019-04-17T05:00:00-07:00" : {
		"windSpeed" : 0.7,
		"windDir" : 98,
		"rain" : 0,
		"cloudbase" : 474.7116,
		"flyability" : 0,
		"reason" : "windDir, cloudbase",
		"timestamp" :1555506000
		},
	"2019-04-17T08:00:00-07:00" : {
		"windSpeed" : 1,
		"windDir" : 103,
		"rain" : 1,
		"cloudbase" : 511.7744,
		"flyability" : 0,
		"reason" : "windDir, rain, cloudbase",
		"timestamp" :1555516800
		},
	"2019-04-17T11:00:00-07:00" : {
		"windSpeed" : 0.6,
		"windDir" : 206,
		"rain" : 1,
		"cloudbase" : 556.3214,
		"flyability" : 0,
		"reason" : "windDir, rain, cloudbase",
		"timestamp" :1555527600
		},
	"2019-04-17T14:00:00-07:00" : {
		"windSpeed" : 3,
		"windDir" : 251,
		"rain" : 1,
		"cloudbase" : 1063.8312,
		"flyability" : 0,
		"reason" : "rain",
		"timestamp" :1555538400
		},
	"2019-04-17T17:00:00-07:00" : {
		"windSpeed" : 2.4,
		"windDir" : 269,
		"rain" : 0,
		"cloudbase" : 1400,
		"flyability" : 100,
		"reason" : "",
		"timestamp" :1555549200
		},
	"2019-04-17T20:00:00-07:00" : {
		"windSpeed" : 0.6,
		"windDir" : 33,
		"rain" : 0,
		"cloudbase" : null,
		"flyability" : 0,
		"reason" : "windDir",
		"timestamp" :1555560000
		},
	"2019-04-17T23:00:00-07:00" : {
		"windSpeed" : 1.4,
		"windDir" : 118,
		"rain" : 1,
		"cloudbase" : null,
		"flyability" : 0,
		"reason" : "windDir, rain",
		"timestamp" :1555570800
		},
	"2019-04-18T02:00:00-07:00" : {
		"windSpeed" : 1.4,
		"windDir" : 99,
		"rain" : 1,
		"cloudbase" : null,
		"flyability" : 0,
		"reason" : "windDir, rain",
		"timestamp" :1555581600
		},
	"2019-04-18T05:00:00-07:00" : {
		"windSpeed" : 1.4,
		"windDir" : 81,
		"rain" : 1,
		"cloudbase" : 3050,
		"flyability" : 0,
		"reason" : "windDir, rain",
		"timestamp" :1555592400
		}
	}
}