{
"site" : "MacKenzie",
"id" : 7109,
"orientations" : "00000121",
"forecasts" : { 
	"2019-04-10T08:00:00-07:00" : {
		"windSpeed" : 0,
		"windDir" : 270,
		"rain" : 0,
		"cloudbase" : 5835.25,
		"flyability" : 100,
		"reason" : "",
		"timestamp" :1554912000
		},
	"2019-04-10T11:00:00-07:00" : {
		"windSpeed" : 0.6,
		"windDir" : 301,
		"rain" : 1,
		"cloudbase" : 5200,
		"flyability" : 0,
		"reason" : "rain",
		"timestamp" :1554922800
		},
	"2019-04-10T14:00:00-07:00" : {
		"windSpeed" : 1.1,
		"windDir" : 243,
		"rain" : 1,
		"cloudbase" : 2562.375,
		"flyability" : 0,
		"reason" : "rain",
		"timestamp" :1554933600
		},
	"2019-04-10T17:00:00-07:00" : {
		"windSpeed" : 0.5,
		"windDir" : 288,
		"rain" : 1,
		"cloudbase" : 2240.75,
		"flyability" : 0,
		"reason" : "rain",
		"timestamp" :1554944400
		},
	"2019-04-10T20:00:00-07:00" : {
		"windSpeed" : 0.3,
		"windDir" : 90,
		"rain" : 0,
		"cloudbase" : 4569.125,
		"flyability" : 0,
		"reason" : "windDir",
		"timestamp" :1554955200
		},
	"2019-04-10T23:00:00-07:00" : {
		"windSpeed" : 0.3,
		"windDir" : 90,
		"rain" : 1,
		"cloudbase" : 520,
		"flyability" : 0,
		"reason" : "windDir, rain, cloudbase",
		"timestamp" :1554966000
		},
	"2019-04-11T02:00:00-07:00" : {
		"windSpeed" : 0.7,
		"windDir" : 314,
		"rain" : 0,
		"cloudbase" : null,
		"flyability" : 100,
		"reason" : "",
		"timestamp" :1554976800
		},
	"2019-04-11T05:00:00-07:00" : {
		"windSpeed" : 0.1,
		"windDir" : 184,
		"rain" : 0,
		"cloudbase" : 177.05000000001,
		"flyability" : 0,
		"reason" : "windDir, cloudbase",
		"timestamp" :1554987600
		},
	"2019-04-11T08:00:00-07:00" : {
		"windSpeed" : 0.2,
		"windDir" : 352,
		"rain" : 0,
		"cloudbase" : 324.49999999999,
		"flyability" : 0,
		"reason" : "windDir, cloudbase",
		"timestamp" :1554998400
		},
	"2019-04-11T11:00:00-07:00" : {
		"windSpeed" : 0.7,
		"windDir" : 285,
		"rain" : 0,
		"cloudbase" : 3702.375,
		"flyability" : 100,
		"reason" : "",
		"timestamp" :1555009200
		},
	"2019-04-11T14:00:00-07:00" : {
		"windSpeed" : 0.8,
		"windDir" : 260,
		"rain" : 1,
		"cloudbase" : 4017.0000000001,
		"flyability" : 0,
		"reason" : "rain",
		"timestamp" :1555020000
		},
	"2019-04-11T17:00:00-07:00" : {
		"windSpeed" : 1,
		"windDir" : 281,
		"rain" : 1,
		"cloudbase" : 2525.25,
		"flyability" : 0,
		"reason" : "rain",
		"timestamp" :1555030800
		},
	"2019-04-11T20:00:00-07:00" : {
		"windSpeed" : 0.7,
		"windDir" : 272,
		"rain" : 0,
		"cloudbase" : 3904.125,
		"flyability" : 100,
		"reason" : "",
		"timestamp" :1555041600
		},
	"2019-04-11T23:00:00-07:00" : {
		"windSpeed" : 0.7,
		"windDir" : 273,
		"rain" : 0,
		"cloudbase" : 3601.25,
		"flyability" : 100,
		"reason" : "",
		"timestamp" :1555052400
		},
	"2019-04-12T02:00:00-07:00" : {
		"windSpeed" : 0.2,
		"windDir" : 276,
		"rain" : 0,
		"cloudbase" : 3850,
		"flyability" : 100,
		"reason" : "",
		"timestamp" :1555063200
		},
	"2019-04-12T05:00:00-07:00" : {
		"windSpeed" : 0.2,
		"windDir" : 277,
		"rain" : 0,
		"cloudbase" : null,
		"flyability" : 100,
		"reason" : "",
		"timestamp" :1555074000
		},
	"2019-04-12T08:00:00-07:00" : {
		"windSpeed" : 0.3,
		"windDir" : 316,
		"rain" : 0,
		"cloudbase" : 2550,
		"flyability" : 100,
		"reason" : "",
		"timestamp" :1555084800
		},
	"2019-04-12T11:00:00-07:00" : {
		"windSpeed" : 0.5,
		"windDir" : 274,
		"rain" : 1,
		"cloudbase" : 2350,
		"flyability" : 0,
		"reason" : "rain",
		"timestamp" :1555095600
		},
	"2019-04-12T14:00:00-07:00" : {
		"windSpeed" : 1,
		"windDir" : 279,
		"rain" : 1,
		"cloudbase" : 3100,
		"flyability" : 0,
		"reason" : "rain",
		"timestamp" :1555106400
		},
	"2019-04-12T17:00:00-07:00" : {
		"windSpeed" : 1.3,
		"windDir" : 278,
		"rain" : 1,
		"cloudbase" : 1600,
		"flyability" : 0,
		"reason" : "rain, cloudbase",
		"timestamp" :1555117200
		},
	"2019-04-12T20:00:00-07:00" : {
		"windSpeed" : 1.2,
		"windDir" : 123,
		"rain" : 0,
		"cloudbase" : 7095,
		"flyability" : 0,
		"reason" : "windDir",
		"timestamp" :1555128000
		},
	"2019-04-12T23:00:00-07:00" : {
		"windSpeed" : 1,
		"windDir" : 120,
		"rain" : 0,
		"cloudbase" : null,
		"flyability" : 0,
		"reason" : "windDir",
		"timestamp" :1555138800
		},
	"2019-04-13T02:00:00-07:00" : {
		"windSpeed" : 1,
		"windDir" : 100,
		"rain" : 0,
		"cloudbase" : 7700,
		"flyability" : 0,
		"reason" : "windDir",
		"timestamp" :1555149600
		},
	"2019-04-13T05:00:00-07:00" : {
		"windSpeed" : 0.8,
		"windDir" : 117,
		"rain" : 0,
		"cloudbase" : 5796.75,
		"flyability" : 0,
		"reason" : "windDir",
		"timestamp" :1555160400
		},
	"2019-04-13T08:00:00-07:00" : {
		"windSpeed" : 0.6,
		"windDir" : 126,
		"rain" : 0,
		"cloudbase" : 4901.625,
		"flyability" : 0,
		"reason" : "windDir",
		"timestamp" :1555171200
		},
	"2019-04-13T11:00:00-07:00" : {
		"windSpeed" : 0.7,
		"windDir" : 166,
		"rain" : 1,
		"cloudbase" : 1444,
		"flyability" : 0,
		"reason" : "windDir, rain, cloudbase",
		"timestamp" :1555182000
		},
	"2019-04-13T14:00:00-07:00" : {
		"windSpeed" : 1.7,
		"windDir" : 156,
		"rain" : 1,
		"cloudbase" : 694.025,
		"flyability" : 0,
		"reason" : "windDir, rain, cloudbase",
		"timestamp" :1555192800
		},
	"2019-04-13T17:00:00-07:00" : {
		"windSpeed" : 1.1,
		"windDir" : 118,
		"rain" : 1,
		"cloudbase" : 794.87500000003,
		"flyability" : 0,
		"reason" : "windDir, rain, cloudbase",
		"timestamp" :1555203600
		},
	"2019-04-13T20:00:00-07:00" : {
		"windSpeed" : 1.1,
		"windDir" : 117,
		"rain" : 0,
		"cloudbase" : 1522.375,
		"flyability" : 0,
		"reason" : "windDir, cloudbase",
		"timestamp" :1555214400
		},
	"2019-04-13T23:00:00-07:00" : {
		"windSpeed" : 1.1,
		"windDir" : 141,
		"rain" : 0,
		"cloudbase" : 2260.125,
		"flyability" : 0,
		"reason" : "windDir",
		"timestamp" :1555225200
		},
	"2019-04-14T02:00:00-07:00" : {
		"windSpeed" : 0.9,
		"windDir" : 158,
		"rain" : 0,
		"cloudbase" : 2500,
		"flyability" : 0,
		"reason" : "windDir",
		"timestamp" :1555236000
		},
	"2019-04-14T05:00:00-07:00" : {
		"windSpeed" : 0.5,
		"windDir" : 159,
		"rain" : 0,
		"cloudbase" : 1300,
		"flyability" : 0,
		"reason" : "windDir, cloudbase",
		"timestamp" :1555246800
		},
	"2019-04-14T08:00:00-07:00" : {
		"windSpeed" : 0.6,
		"windDir" : 213,
		"rain" : 0,
		"cloudbase" : 2276.7499999999,
		"flyability" : 100,
		"reason" : "",
		"timestamp" :1555257600
		},
	"2019-04-14T11:00:00-07:00" : {
		"windSpeed" : 0.8,
		"windDir" : 268,
		"rain" : 0,
		"cloudbase" : 1216.275,
		"flyability" : 0,
		"reason" : "cloudbase",
		"timestamp" :1555268400
		},
	"2019-04-14T14:00:00-07:00" : {
		"windSpeed" : 0.5,
		"windDir" : 290,
		"rain" : 0,
		"cloudbase" : 3958.375,
		"flyability" : 100,
		"reason" : "",
		"timestamp" :1555279200
		},
	"2019-04-14T17:00:00-07:00" : {
		"windSpeed" : 1.2,
		"windDir" : 238,
		"rain" : 0,
		"cloudbase" : 3586.75,
		"flyability" : 100,
		"reason" : "",
		"timestamp" :1555290000
		},
	"2019-04-14T20:00:00-07:00" : {
		"windSpeed" : 0.7,
		"windDir" : 226,
		"rain" : 0,
		"cloudbase" : 3502.25,
		"flyability" : 100,
		"reason" : "",
		"timestamp" :1555300800
		},
	"2019-04-14T23:00:00-07:00" : {
		"windSpeed" : 0.9,
		"windDir" : 202,
		"rain" : 0,
		"cloudbase" : 3850.75,
		"flyability" : 0,
		"reason" : "windDir",
		"timestamp" :1555311600
		},
	"2019-04-15T02:00:00-07:00" : {
		"windSpeed" : 0.5,
		"windDir" : 180,
		"rain" : 0,
		"cloudbase" : 3521.75,
		"flyability" : 0,
		"reason" : "windDir",
		"timestamp" :1555322400
		},
	"2019-04-15T05:00:00-07:00" : {
		"windSpeed" : 0.5,
		"windDir" : 270,
		"rain" : 0,
		"cloudbase" : 490.125,
		"flyability" : 0,
		"reason" : "cloudbase",
		"timestamp" :1555333200
		},
	"2019-04-15T08:00:00-07:00" : {
		"windSpeed" : 0.5,
		"windDir" : 270,
		"rain" : 0,
		"cloudbase" : 402.2,
		"flyability" : 0,
		"reason" : "cloudbase",
		"timestamp" :1555344000
		},
	"2019-04-15T11:00:00-07:00" : {
		"windSpeed" : 1,
		"windDir" : 261,
		"rain" : 0,
		"cloudbase" : 824.97499999999,
		"flyability" : 0,
		"reason" : "cloudbase",
		"timestamp" :1555354800
		},
	"2019-04-15T14:00:00-07:00" : {
		"windSpeed" : 1,
		"windDir" : 280,
		"rain" : 0,
		"cloudbase" : null,
		"flyability" : 100,
		"reason" : "",
		"timestamp" :1555365600
		},
	"2019-04-15T17:00:00-07:00" : {
		"windSpeed" : 1.4,
		"windDir" : 291,
		"rain" : 0,
		"cloudbase" : null,
		"flyability" : 100,
		"reason" : "",
		"timestamp" :1555376400
		},
	"2019-04-15T20:00:00-07:00" : {
		"windSpeed" : 0.5,
		"windDir" : 201,
		"rain" : 0,
		"cloudbase" : null,
		"flyability" : 0,
		"reason" : "windDir",
		"timestamp" :1555387200
		},
	"2019-04-15T23:00:00-07:00" : {
		"windSpeed" : 0.5,
		"windDir" : 178,
		"rain" : 0,
		"cloudbase" : null,
		"flyability" : 0,
		"reason" : "windDir",
		"timestamp" :1555398000
		},
	"2019-04-16T02:00:00-07:00" : {
		"windSpeed" : 0.6,
		"windDir" : 144,
		"rain" : 0,
		"cloudbase" : null,
		"flyability" : 0,
		"reason" : "windDir",
		"timestamp" :1555408800
		},
	"2019-04-16T05:00:00-07:00" : {
		"windSpeed" : 0.5,
		"windDir" : 134,
		"rain" : 0,
		"cloudbase" : null,
		"flyability" : 0,
		"reason" : "windDir",
		"timestamp" :1555419600
		}
	}
}