{
"site" : "Canoa - El Nido",
"id" : 7111,
"orientations" : "00000220",
"forecasts" : { 
	"2019-04-04T22:00:00-05:00" : {
		"windSpeed" : 1.3,
		"windDir" : 283,
		"rain" : 0,
		"cloudbase" : null,
		"flyability" : 100,
		"reason" : "",
		"timestamp" :1554429600
		},
	"2019-04-05T01:00:00-05:00" : {
		"windSpeed" : 1.4,
		"windDir" : 212,
		"rain" : 0,
		"cloudbase" : null,
		"flyability" : 100,
		"reason" : "",
		"timestamp" :1554440400
		},
	"2019-04-05T04:00:00-05:00" : {
		"windSpeed" : 1.5,
		"windDir" : 233,
		"rain" : 0,
		"cloudbase" : null,
		"flyability" : 100,
		"reason" : "",
		"timestamp" :1554451200
		},
	"2019-04-05T07:00:00-05:00" : {
		"windSpeed" : 1,
		"windDir" : 193,
		"rain" : 0,
		"cloudbase" : null,
		"flyability" : 0,
		"reason" : "windDir",
		"timestamp" :1554462000
		},
	"2019-04-05T10:00:00-05:00" : {
		"windSpeed" : 1.9,
		"windDir" : 231,
		"rain" : 0,
		"cloudbase" : null,
		"flyability" : 100,
		"reason" : "",
		"timestamp" :1554472800
		},
	"2019-04-05T13:00:00-05:00" : {
		"windSpeed" : 3.5,
		"windDir" : 271,
		"rain" : 0,
		"cloudbase" : null,
		"flyability" : 100,
		"reason" : "",
		"timestamp" :1554483600
		},
	"2019-04-05T16:00:00-05:00" : {
		"windSpeed" : 4.2,
		"windDir" : 264,
		"rain" : 0,
		"cloudbase" : null,
		"flyability" : 100,
		"reason" : "",
		"timestamp" :1554494400
		},
	"2019-04-05T19:00:00-05:00" : {
		"windSpeed" : 2.7,
		"windDir" : 261,
		"rain" : 0,
		"cloudbase" : 13000,
		"flyability" : 100,
		"reason" : "",
		"timestamp" :1554505200
		},
	"2019-04-05T22:00:00-05:00" : {
		"windSpeed" : 2.5,
		"windDir" : 243,
		"rain" : 0,
		"cloudbase" : 13000,
		"flyability" : 100,
		"reason" : "",
		"timestamp" :1554516000
		},
	"2019-04-06T01:00:00-05:00" : {
		"windSpeed" : 1.9,
		"windDir" : 220,
		"rain" : 0,
		"cloudbase" : 11987.82723,
		"flyability" : 100,
		"reason" : "",
		"timestamp" :1554526800
		},
	"2019-04-06T04:00:00-05:00" : {
		"windSpeed" : 1.7,
		"windDir" : 197,
		"rain" : 1,
		"cloudbase" : 7200,
		"flyability" : 0,
		"reason" : "windDir, rain",
		"timestamp" :1554537600
		},
	"2019-04-06T07:00:00-05:00" : {
		"windSpeed" : 2.6,
		"windDir" : 158,
		"rain" : 1,
		"cloudbase" : 5630.165446,
		"flyability" : 0,
		"reason" : "windDir, rain",
		"timestamp" :1554548400
		},
	"2019-04-06T10:00:00-05:00" : {
		"windSpeed" : 1.8,
		"windDir" : 194,
		"rain" : 0,
		"cloudbase" : 820,
		"flyability" : 0,
		"reason" : "windDir",
		"timestamp" :1554559200
		},
	"2019-04-06T13:00:00-05:00" : {
		"windSpeed" : 3.5,
		"windDir" : 266,
		"rain" : 0,
		"cloudbase" : null,
		"flyability" : 100,
		"reason" : "",
		"timestamp" :1554570000
		},
	"2019-04-06T16:00:00-05:00" : {
		"windSpeed" : 4.2,
		"windDir" : 260,
		"rain" : 0,
		"cloudbase" : 11711.35777,
		"flyability" : 100,
		"reason" : "",
		"timestamp" :1554580800
		},
	"2019-04-06T19:00:00-05:00" : {
		"windSpeed" : 3.2,
		"windDir" : 249,
		"rain" : 0,
		"cloudbase" : 11500,
		"flyability" : 100,
		"reason" : "",
		"timestamp" :1554591600
		},
	"2019-04-06T22:00:00-05:00" : {
		"windSpeed" : 2.4,
		"windDir" : 234,
		"rain" : 0,
		"cloudbase" : 11221,
		"flyability" : 100,
		"reason" : "",
		"timestamp" :1554602400
		},
	"2019-04-07T01:00:00-05:00" : {
		"windSpeed" : 1.6,
		"windDir" : 208,
		"rain" : 0,
		"cloudbase" : 8820.8055539998,
		"flyability" : 100,
		"reason" : "",
		"timestamp" :1554613200
		},
	"2019-04-07T04:00:00-05:00" : {
		"windSpeed" : 1.2,
		"windDir" : 217,
		"rain" : 0,
		"cloudbase" : null,
		"flyability" : 100,
		"reason" : "",
		"timestamp" :1554624000
		},
	"2019-04-07T07:00:00-05:00" : {
		"windSpeed" : 1,
		"windDir" : 151,
		"rain" : 0,
		"cloudbase" : 786.74268920001,
		"flyability" : 0,
		"reason" : "windDir",
		"timestamp" :1554634800
		},
	"2019-04-07T10:00:00-05:00" : {
		"windSpeed" : 1.5,
		"windDir" : 248,
		"rain" : 1,
		"cloudbase" : 862.25772679997,
		"flyability" : 0,
		"reason" : "rain",
		"timestamp" :1554645600
		},
	"2019-04-07T13:00:00-05:00" : {
		"windSpeed" : 3.7,
		"windDir" : 263,
		"rain" : 1,
		"cloudbase" : 9200,
		"flyability" : 0,
		"reason" : "rain",
		"timestamp" :1554656400
		},
	"2019-04-07T16:00:00-05:00" : {
		"windSpeed" : 2.8,
		"windDir" : 266,
		"rain" : 1,
		"cloudbase" : 10987.82723,
		"flyability" : 0,
		"reason" : "rain",
		"timestamp" :1554667200
		},
	"2019-04-07T19:00:00-05:00" : {
		"windSpeed" : 2.4,
		"windDir" : 234,
		"rain" : 0,
		"cloudbase" : 10721,
		"flyability" : 100,
		"reason" : "",
		"timestamp" :1554678000
		},
	"2019-04-07T22:00:00-05:00" : {
		"windSpeed" : 1.7,
		"windDir" : 238,
		"rain" : 0,
		"cloudbase" : 10000,
		"flyability" : 100,
		"reason" : "",
		"timestamp" :1554688800
		},
	"2019-04-08T01:00:00-05:00" : {
		"windSpeed" : 2.5,
		"windDir" : 210,
		"rain" : 0,
		"cloudbase" : 4882.281669,
		"flyability" : 100,
		"reason" : "",
		"timestamp" :1554699600
		},
	"2019-04-08T04:00:00-05:00" : {
		"windSpeed" : 1.9,
		"windDir" : 212,
		"rain" : 0,
		"cloudbase" : 4243.235777,
		"flyability" : 100,
		"reason" : "",
		"timestamp" :1554710400
		},
	"2019-04-08T07:00:00-05:00" : {
		"windSpeed" : 2.1,
		"windDir" : 201,
		"rain" : 0,
		"cloudbase" : 920,
		"flyability" : 0,
		"reason" : "windDir",
		"timestamp" :1554721200
		},
	"2019-04-08T10:00:00-05:00" : {
		"windSpeed" : 2.4,
		"windDir" : 225,
		"rain" : 1,
		"cloudbase" : 827.3792676,
		"flyability" : 0,
		"reason" : "rain",
		"timestamp" :1554732000
		},
	"2019-04-08T13:00:00-05:00" : {
		"windSpeed" : 4,
		"windDir" : 264,
		"rain" : 1,
		"cloudbase" : null,
		"flyability" : 0,
		"reason" : "rain",
		"timestamp" :1554742800
		},
	"2019-04-08T16:00:00-05:00" : {
		"windSpeed" : 4.7,
		"windDir" : 252,
		"rain" : 0,
		"cloudbase" : null,
		"flyability" : 100,
		"reason" : "",
		"timestamp" :1554753600
		},
	"2019-04-08T19:00:00-05:00" : {
		"windSpeed" : 3.3,
		"windDir" : 235,
		"rain" : 0,
		"cloudbase" : 9251.7536100002,
		"flyability" : 100,
		"reason" : "",
		"timestamp" :1554764400
		},
	"2019-04-08T22:00:00-05:00" : {
		"windSpeed" : 3.2,
		"windDir" : 229,
		"rain" : 0,
		"cloudbase" : 3700.6864180002,
		"flyability" : 100,
		"reason" : "",
		"timestamp" :1554775200
		},
	"2019-04-09T01:00:00-05:00" : {
		"windSpeed" : 1.9,
		"windDir" : 212,
		"rain" : 0,
		"cloudbase" : 1094.43577,
		"flyability" : 100,
		"reason" : "",
		"timestamp" :1554786000
		},
	"2019-04-09T04:00:00-05:00" : {
		"windSpeed" : 1.9,
		"windDir" : 187,
		"rain" : 0,
		"cloudbase" : 3678.4309200002,
		"flyability" : 0,
		"reason" : "windDir",
		"timestamp" :1554796800
		},
	"2019-04-09T07:00:00-05:00" : {
		"windSpeed" : 1.2,
		"windDir" : 166,
		"rain" : 1,
		"cloudbase" : 4390.1978919999,
		"flyability" : 0,
		"reason" : "windDir, rain",
		"timestamp" :1554807600
		},
	"2019-04-09T10:00:00-05:00" : {
		"windSpeed" : 1.2,
		"windDir" : 232,
		"rain" : 1,
		"cloudbase" : 2398.587885,
		"flyability" : 0,
		"reason" : "rain",
		"timestamp" :1554818400
		},
	"2019-04-09T13:00:00-05:00" : {
		"windSpeed" : 3.3,
		"windDir" : 258,
		"rain" : 0,
		"cloudbase" : 4546.348169,
		"flyability" : 100,
		"reason" : "",
		"timestamp" :1554829200
		},
	"2019-04-09T16:00:00-05:00" : {
		"windSpeed" : 3.5,
		"windDir" : 258,
		"rain" : 0,
		"cloudbase" : 4550,
		"flyability" : 100,
		"reason" : "",
		"timestamp" :1554840000
		},
	"2019-04-09T19:00:00-05:00" : {
		"windSpeed" : 2.8,
		"windDir" : 251,
		"rain" : 0,
		"cloudbase" : 16000,
		"flyability" : 100,
		"reason" : "",
		"timestamp" :1554850800
		},
	"2019-04-09T22:00:00-05:00" : {
		"windSpeed" : 2.3,
		"windDir" : 239,
		"rain" : 0,
		"cloudbase" : 15000,
		"flyability" : 100,
		"reason" : "",
		"timestamp" :1554861600
		},
	"2019-04-10T01:00:00-05:00" : {
		"windSpeed" : 1.8,
		"windDir" : 204,
		"rain" : 0,
		"cloudbase" : null,
		"flyability" : 100,
		"reason" : "",
		"timestamp" :1554872400
		},
	"2019-04-10T04:00:00-05:00" : {
		"windSpeed" : 2,
		"windDir" : 201,
		"rain" : 0,
		"cloudbase" : 3400,
		"flyability" : 0,
		"reason" : "windDir",
		"timestamp" :1554883200
		},
	"2019-04-10T07:00:00-05:00" : {
		"windSpeed" : 1.2,
		"windDir" : 166,
		"rain" : 0,
		"cloudbase" : 290,
		"flyability" : 0,
		"reason" : "windDir",
		"timestamp" :1554894000
		},
	"2019-04-10T10:00:00-05:00" : {
		"windSpeed" : 2.4,
		"windDir" : 258,
		"rain" : 0,
		"cloudbase" : 720,
		"flyability" : 100,
		"reason" : "",
		"timestamp" :1554904800
		},
	"2019-04-10T13:00:00-05:00" : {
		"windSpeed" : 4,
		"windDir" : 271,
		"rain" : 1,
		"cloudbase" : null,
		"flyability" : 0,
		"reason" : "rain",
		"timestamp" :1554915600
		},
	"2019-04-10T16:00:00-05:00" : {
		"windSpeed" : 4.2,
		"windDir" : 267,
		"rain" : 0,
		"cloudbase" : null,
		"flyability" : 100,
		"reason" : "",
		"timestamp" :1554926400
		},
	"2019-04-10T19:00:00-05:00" : {
		"windSpeed" : 2.6,
		"windDir" : 253,
		"rain" : 0,
		"cloudbase" : null,
		"flyability" : 100,
		"reason" : "",
		"timestamp" :1554937200
		}
	}
}