{
"site" : "Valenca",
"id" : 7126,
"orientations" : "22000000",
"forecasts" : { 
	"2019-04-06T12:00:00-03:00" : {
		"windSpeed" : 1.2,
		"windDir" : 45,
		"rain" : 0,
		"cloudbase" : null,
		"flyability" : 100,
		"reason" : "",
		"timestamp" :1554562800
		},
	"2019-04-06T15:00:00-03:00" : {
		"windSpeed" : 1.2,
		"windDir" : 104,
		"rain" : 0,
		"cloudbase" : 15000,
		"flyability" : 0,
		"reason" : "windDir",
		"timestamp" :1554573600
		},
	"2019-04-06T18:00:00-03:00" : {
		"windSpeed" : 2,
		"windDir" : 211,
		"rain" : 0,
		"cloudbase" : 11003.7551,
		"flyability" : 0,
		"reason" : "windDir",
		"timestamp" :1554584400
		},
	"2019-04-06T21:00:00-03:00" : {
		"windSpeed" : 1.1,
		"windDir" : 288,
		"rain" : 0,
		"cloudbase" : 420,
		"flyability" : 0,
		"reason" : "windDir, cloudbase",
		"timestamp" :1554595200
		},
	"2019-04-07T00:00:00-03:00" : {
		"windSpeed" : 0.5,
		"windDir" : 342,
		"rain" : 0,
		"cloudbase" : 571.45597999954,
		"flyability" : 0,
		"reason" : "cloudbase",
		"timestamp" :1554606000
		},
	"2019-04-07T03:00:00-03:00" : {
		"windSpeed" : 1.5,
		"windDir" : 28,
		"rain" : 1,
		"cloudbase" : 234.5798,
		"flyability" : 0,
		"reason" : "rain, cloudbase",
		"timestamp" :1554616800
		},
	"2019-04-07T06:00:00-03:00" : {
		"windSpeed" : 1.3,
		"windDir" : 51,
		"rain" : 0,
		"cloudbase" : 30,
		"flyability" : 0,
		"reason" : "cloudbase",
		"timestamp" :1554627600
		},
	"2019-04-07T09:00:00-03:00" : {
		"windSpeed" : 3.2,
		"windDir" : 28,
		"rain" : 1,
		"cloudbase" : 450,
		"flyability" : 0,
		"reason" : "rain, cloudbase",
		"timestamp" :1554638400
		},
	"2019-04-07T12:00:00-03:00" : {
		"windSpeed" : 3.4,
		"windDir" : 26,
		"rain" : 1,
		"cloudbase" : null,
		"flyability" : 0,
		"reason" : "rain",
		"timestamp" :1554649200
		},
	"2019-04-07T15:00:00-03:00" : {
		"windSpeed" : 1.8,
		"windDir" : 54,
		"rain" : 1,
		"cloudbase" : 12500,
		"flyability" : 0,
		"reason" : "rain",
		"timestamp" :1554660000
		},
	"2019-04-07T18:00:00-03:00" : {
		"windSpeed" : 1.1,
		"windDir" : 308,
		"rain" : 1,
		"cloudbase" : null,
		"flyability" : 0,
		"reason" : "windDir, rain",
		"timestamp" :1554670800
		},
	"2019-04-07T21:00:00-03:00" : {
		"windSpeed" : 1,
		"windDir" : 1,
		"rain" : 1,
		"cloudbase" : null,
		"flyability" : 0,
		"reason" : "rain",
		"timestamp" :1554681600
		},
	"2019-04-08T00:00:00-03:00" : {
		"windSpeed" : 1.3,
		"windDir" : 14,
		"rain" : 1,
		"cloudbase" : null,
		"flyability" : 0,
		"reason" : "rain",
		"timestamp" :1554692400
		},
	"2019-04-08T03:00:00-03:00" : {
		"windSpeed" : 1.4,
		"windDir" : 23,
		"rain" : 0,
		"cloudbase" : null,
		"flyability" : 100,
		"reason" : "",
		"timestamp" :1554703200
		},
	"2019-04-08T06:00:00-03:00" : {
		"windSpeed" : 1.4,
		"windDir" : 15,
		"rain" : 0,
		"cloudbase" : null,
		"flyability" : 100,
		"reason" : "",
		"timestamp" :1554714000
		},
	"2019-04-08T09:00:00-03:00" : {
		"windSpeed" : 2.4,
		"windDir" : 26,
		"rain" : 1,
		"cloudbase" : null,
		"flyability" : 0,
		"reason" : "rain",
		"timestamp" :1554724800
		},
	"2019-04-08T12:00:00-03:00" : {
		"windSpeed" : 2.3,
		"windDir" : 356,
		"rain" : 1,
		"cloudbase" : null,
		"flyability" : 0,
		"reason" : "rain",
		"timestamp" :1554735600
		},
	"2019-04-08T15:00:00-03:00" : {
		"windSpeed" : 1.1,
		"windDir" : 276,
		"rain" : 0,
		"cloudbase" : 10500,
		"flyability" : 0,
		"reason" : "windDir",
		"timestamp" :1554746400
		},
	"2019-04-08T18:00:00-03:00" : {
		"windSpeed" : 2,
		"windDir" : 175,
		"rain" : 1,
		"cloudbase" : 5500,
		"flyability" : 0,
		"reason" : "windDir, rain",
		"timestamp" :1554757200
		},
	"2019-04-08T21:00:00-03:00" : {
		"windSpeed" : 1.5,
		"windDir" : 223,
		"rain" : 0,
		"cloudbase" : 2881.2536199996,
		"flyability" : 0,
		"reason" : "windDir",
		"timestamp" :1554768000
		},
	"2019-04-09T00:00:00-03:00" : {
		"windSpeed" : 0,
		"windDir" : 180,
		"rain" : 0,
		"cloudbase" : 7360.82825,
		"flyability" : 0,
		"reason" : "windDir",
		"timestamp" :1554778800
		},
	"2019-04-09T03:00:00-03:00" : {
		"windSpeed" : 0.4,
		"windDir" : 146,
		"rain" : 0,
		"cloudbase" : 43.705189999988,
		"flyability" : 0,
		"reason" : "windDir, cloudbase",
		"timestamp" :1554789600
		},
	"2019-04-09T06:00:00-03:00" : {
		"windSpeed" : 1.1,
		"windDir" : 170,
		"rain" : 1,
		"cloudbase" : 100.42516999998,
		"flyability" : 0,
		"reason" : "windDir, rain, cloudbase",
		"timestamp" :1554800400
		},
	"2019-04-09T09:00:00-03:00" : {
		"windSpeed" : 2,
		"windDir" : 184,
		"rain" : 1,
		"cloudbase" : 495.82524999999,
		"flyability" : 0,
		"reason" : "windDir, rain, cloudbase",
		"timestamp" :1554811200
		},
	"2019-04-09T12:00:00-03:00" : {
		"windSpeed" : 2.6,
		"windDir" : 191,
		"rain" : 1,
		"cloudbase" : 1217.7716600001,
		"flyability" : 0,
		"reason" : "windDir, rain",
		"timestamp" :1554822000
		},
	"2019-04-09T15:00:00-03:00" : {
		"windSpeed" : 2.7,
		"windDir" : 191,
		"rain" : 1,
		"cloudbase" : 1178.7511999999,
		"flyability" : 0,
		"reason" : "windDir, rain",
		"timestamp" :1554832800
		},
	"2019-04-09T18:00:00-03:00" : {
		"windSpeed" : 1.6,
		"windDir" : 193,
		"rain" : 1,
		"cloudbase" : 3750,
		"flyability" : 0,
		"reason" : "windDir, rain",
		"timestamp" :1554843600
		},
	"2019-04-09T21:00:00-03:00" : {
		"windSpeed" : 1,
		"windDir" : 238,
		"rain" : 0,
		"cloudbase" : 4350,
		"flyability" : 0,
		"reason" : "windDir",
		"timestamp" :1554854400
		},
	"2019-04-10T00:00:00-03:00" : {
		"windSpeed" : 2.2,
		"windDir" : 223,
		"rain" : 1,
		"cloudbase" : 300,
		"flyability" : 0,
		"reason" : "windDir, rain, cloudbase",
		"timestamp" :1554865200
		},
	"2019-04-10T03:00:00-03:00" : {
		"windSpeed" : 2,
		"windDir" : 229,
		"rain" : 1,
		"cloudbase" : 192.16503000001,
		"flyability" : 0,
		"reason" : "windDir, rain, cloudbase",
		"timestamp" :1554876000
		},
	"2019-04-10T06:00:00-03:00" : {
		"windSpeed" : 1.5,
		"windDir" : 225,
		"rain" : 1,
		"cloudbase" : 230,
		"flyability" : 0,
		"reason" : "windDir, rain, cloudbase",
		"timestamp" :1554886800
		},
	"2019-04-10T09:00:00-03:00" : {
		"windSpeed" : 3.2,
		"windDir" : 208,
		"rain" : 1,
		"cloudbase" : 633.64016,
		"flyability" : 0,
		"reason" : "windDir, rain, cloudbase",
		"timestamp" :1554897600
		},
	"2019-04-10T12:00:00-03:00" : {
		"windSpeed" : 4.2,
		"windDir" : 187,
		"rain" : 1,
		"cloudbase" : null,
		"flyability" : 0,
		"reason" : "windDir, rain",
		"timestamp" :1554908400
		},
	"2019-04-10T15:00:00-03:00" : {
		"windSpeed" : 5.3,
		"windDir" : 180,
		"rain" : 1,
		"cloudbase" : 580,
		"flyability" : 0,
		"reason" : "windSpeed, windDir, rain, cloudbase",
		"timestamp" :1554919200
		},
	"2019-04-10T18:00:00-03:00" : {
		"windSpeed" : 3.8,
		"windDir" : 185,
		"rain" : 1,
		"cloudbase" : null,
		"flyability" : 0,
		"reason" : "windDir, rain",
		"timestamp" :1554930000
		},
	"2019-04-10T21:00:00-03:00" : {
		"windSpeed" : 2.1,
		"windDir" : 210,
		"rain" : 0,
		"cloudbase" : null,
		"flyability" : 0,
		"reason" : "windDir",
		"timestamp" :1554940800
		},
	"2019-04-11T00:00:00-03:00" : {
		"windSpeed" : 1.7,
		"windDir" : 218,
		"rain" : 0,
		"cloudbase" : 200.79499,
		"flyability" : 0,
		"reason" : "windDir, cloudbase",
		"timestamp" :1554951600
		},
	"2019-04-11T03:00:00-03:00" : {
		"windSpeed" : 1.4,
		"windDir" : 226,
		"rain" : 0,
		"cloudbase" : 207.03493,
		"flyability" : 0,
		"reason" : "windDir, cloudbase",
		"timestamp" :1554962400
		},
	"2019-04-11T06:00:00-03:00" : {
		"windSpeed" : 1.3,
		"windDir" : 230,
		"rain" : 0,
		"cloudbase" : 419.72497000002,
		"flyability" : 0,
		"reason" : "windDir, cloudbase",
		"timestamp" :1554973200
		},
	"2019-04-11T09:00:00-03:00" : {
		"windSpeed" : 2.1,
		"windDir" : 195,
		"rain" : 1,
		"cloudbase" : 853.8301,
		"flyability" : 0,
		"reason" : "windDir, rain, cloudbase",
		"timestamp" :1554984000
		},
	"2019-04-11T12:00:00-03:00" : {
		"windSpeed" : 0.7,
		"windDir" : 184,
		"rain" : 1,
		"cloudbase" : 1249.62515,
		"flyability" : 0,
		"reason" : "windDir, rain",
		"timestamp" :1554994800
		},
	"2019-04-11T15:00:00-03:00" : {
		"windSpeed" : 2.9,
		"windDir" : 171,
		"rain" : 1,
		"cloudbase" : null,
		"flyability" : 0,
		"reason" : "windDir, rain",
		"timestamp" :1555005600
		},
	"2019-04-11T18:00:00-03:00" : {
		"windSpeed" : 3.8,
		"windDir" : 178,
		"rain" : 0,
		"cloudbase" : 170,
		"flyability" : 0,
		"reason" : "windDir, cloudbase",
		"timestamp" :1555016400
		},
	"2019-04-11T21:00:00-03:00" : {
		"windSpeed" : 2.4,
		"windDir" : 193,
		"rain" : 1,
		"cloudbase" : 70,
		"flyability" : 0,
		"reason" : "windDir, rain, cloudbase",
		"timestamp" :1555027200
		},
	"2019-04-12T00:00:00-03:00" : {
		"windSpeed" : 1.5,
		"windDir" : 222,
		"rain" : 1,
		"cloudbase" : 95,
		"flyability" : 0,
		"reason" : "windDir, rain, cloudbase",
		"timestamp" :1555038000
		},
	"2019-04-12T03:00:00-03:00" : {
		"windSpeed" : 1.1,
		"windDir" : 208,
		"rain" : 0,
		"cloudbase" : 184.90518999997,
		"flyability" : 0,
		"reason" : "windDir, cloudbase",
		"timestamp" :1555048800
		},
	"2019-04-12T06:00:00-03:00" : {
		"windSpeed" : 0.7,
		"windDir" : 134,
		"rain" : 1,
		"cloudbase" : 234.62021999999,
		"flyability" : 0,
		"reason" : "windDir, rain, cloudbase",
		"timestamp" :1555059600
		},
	"2019-04-12T09:00:00-03:00" : {
		"windSpeed" : 1.4,
		"windDir" : 37,
		"rain" : 1,
		"cloudbase" : 342.16492999999,
		"flyability" : 0,
		"reason" : "rain, cloudbase",
		"timestamp" :1555070400
		}
	}
}