{
"site" : "Duas Barras",
"id" : 7137,
"orientations" : "21000002",
"forecasts" : { 
	"2019-04-06T12:00:00-03:00" : {
		"windSpeed" : 1.9,
		"windDir" : 321,
		"rain" : 1,
		"cloudbase" : 12500,
		"flyability" : 0,
		"reason" : "rain",
		"timestamp" :1554562800
		},
	"2019-04-06T15:00:00-03:00" : {
		"windSpeed" : 0.9,
		"windDir" : 84,
		"rain" : 1,
		"cloudbase" : null,
		"flyability" : 0,
		"reason" : "windDir, rain",
		"timestamp" :1554573600
		},
	"2019-04-06T18:00:00-03:00" : {
		"windSpeed" : 1.3,
		"windDir" : 111,
		"rain" : 0,
		"cloudbase" : 1200,
		"flyability" : 0,
		"reason" : "windDir",
		"timestamp" :1554584400
		},
	"2019-04-06T21:00:00-03:00" : {
		"windSpeed" : 0.3,
		"windDir" : 122,
		"rain" : 0,
		"cloudbase" : null,
		"flyability" : 0,
		"reason" : "windDir",
		"timestamp" :1554595200
		},
	"2019-04-07T00:00:00-03:00" : {
		"windSpeed" : 1.4,
		"windDir" : 210,
		"rain" : 0,
		"cloudbase" : null,
		"flyability" : 0,
		"reason" : "windDir",
		"timestamp" :1554606000
		},
	"2019-04-07T03:00:00-03:00" : {
		"windSpeed" : 0.7,
		"windDir" : 211,
		"rain" : 1,
		"cloudbase" : null,
		"flyability" : 0,
		"reason" : "windDir, rain",
		"timestamp" :1554616800
		},
	"2019-04-07T06:00:00-03:00" : {
		"windSpeed" : 0.9,
		"windDir" : 204,
		"rain" : 0,
		"cloudbase" : null,
		"flyability" : 0,
		"reason" : "windDir",
		"timestamp" :1554627600
		},
	"2019-04-07T09:00:00-03:00" : {
		"windSpeed" : 1.9,
		"windDir" : 356,
		"rain" : 1,
		"cloudbase" : null,
		"flyability" : 0,
		"reason" : "rain",
		"timestamp" :1554638400
		},
	"2019-04-07T12:00:00-03:00" : {
		"windSpeed" : 2.9,
		"windDir" : 319,
		"rain" : 1,
		"cloudbase" : null,
		"flyability" : 0,
		"reason" : "rain",
		"timestamp" :1554649200
		},
	"2019-04-07T15:00:00-03:00" : {
		"windSpeed" : 2,
		"windDir" : 1,
		"rain" : 1,
		"cloudbase" : null,
		"flyability" : 0,
		"reason" : "rain",
		"timestamp" :1554660000
		},
	"2019-04-07T18:00:00-03:00" : {
		"windSpeed" : 0.4,
		"windDir" : 51,
		"rain" : 0,
		"cloudbase" : null,
		"flyability" : 100,
		"reason" : "",
		"timestamp" :1554670800
		},
	"2019-04-07T21:00:00-03:00" : {
		"windSpeed" : 1.3,
		"windDir" : 225,
		"rain" : 0,
		"cloudbase" : null,
		"flyability" : 0,
		"reason" : "windDir",
		"timestamp" :1554681600
		},
	"2019-04-08T00:00:00-03:00" : {
		"windSpeed" : 0.5,
		"windDir" : 147,
		"rain" : 0,
		"cloudbase" : null,
		"flyability" : 0,
		"reason" : "windDir",
		"timestamp" :1554692400
		},
	"2019-04-08T03:00:00-03:00" : {
		"windSpeed" : 0.6,
		"windDir" : 210,
		"rain" : 0,
		"cloudbase" : null,
		"flyability" : 0,
		"reason" : "windDir",
		"timestamp" :1554703200
		},
	"2019-04-08T06:00:00-03:00" : {
		"windSpeed" : 1,
		"windDir" : 289,
		"rain" : 0,
		"cloudbase" : null,
		"flyability" : 0,
		"reason" : "windDir",
		"timestamp" :1554714000
		},
	"2019-04-08T09:00:00-03:00" : {
		"windSpeed" : 3.4,
		"windDir" : 312,
		"rain" : 0,
		"cloudbase" : null,
		"flyability" : 100,
		"reason" : "",
		"timestamp" :1554724800
		},
	"2019-04-08T12:00:00-03:00" : {
		"windSpeed" : 3.3,
		"windDir" : 313,
		"rain" : 0,
		"cloudbase" : null,
		"flyability" : 100,
		"reason" : "",
		"timestamp" :1554735600
		},
	"2019-04-08T15:00:00-03:00" : {
		"windSpeed" : 2.1,
		"windDir" : 317,
		"rain" : 0,
		"cloudbase" : null,
		"flyability" : 100,
		"reason" : "",
		"timestamp" :1554746400
		},
	"2019-04-08T18:00:00-03:00" : {
		"windSpeed" : 1.1,
		"windDir" : 219,
		"rain" : 1,
		"cloudbase" : 1350,
		"flyability" : 0,
		"reason" : "windDir, rain",
		"timestamp" :1554757200
		},
	"2019-04-08T21:00:00-03:00" : {
		"windSpeed" : 2.1,
		"windDir" : 206,
		"rain" : 1,
		"cloudbase" : null,
		"flyability" : 0,
		"reason" : "windDir, rain",
		"timestamp" :1554768000
		},
	"2019-04-09T00:00:00-03:00" : {
		"windSpeed" : 1.2,
		"windDir" : 241,
		"rain" : 1,
		"cloudbase" : 9800,
		"flyability" : 0,
		"reason" : "windDir, rain",
		"timestamp" :1554778800
		},
	"2019-04-09T03:00:00-03:00" : {
		"windSpeed" : 1.2,
		"windDir" : 260,
		"rain" : 0,
		"cloudbase" : 9348.2,
		"flyability" : 0,
		"reason" : "windDir",
		"timestamp" :1554789600
		},
	"2019-04-09T06:00:00-03:00" : {
		"windSpeed" : 1,
		"windDir" : 270,
		"rain" : 0,
		"cloudbase" : 9034.839,
		"flyability" : 0,
		"reason" : "windDir",
		"timestamp" :1554800400
		},
	"2019-04-09T09:00:00-03:00" : {
		"windSpeed" : 1.9,
		"windDir" : 316,
		"rain" : 0,
		"cloudbase" : null,
		"flyability" : 100,
		"reason" : "",
		"timestamp" :1554811200
		},
	"2019-04-09T12:00:00-03:00" : {
		"windSpeed" : 2.7,
		"windDir" : 275,
		"rain" : 1,
		"cloudbase" : 5015.02075,
		"flyability" : 0,
		"reason" : "windDir, rain",
		"timestamp" :1554822000
		},
	"2019-04-09T15:00:00-03:00" : {
		"windSpeed" : 2,
		"windDir" : 283,
		"rain" : 1,
		"cloudbase" : 4489.7,
		"flyability" : 0,
		"reason" : "windDir, rain",
		"timestamp" :1554832800
		},
	"2019-04-09T18:00:00-03:00" : {
		"windSpeed" : 0.4,
		"windDir" : 121,
		"rain" : 1,
		"cloudbase" : 3417.39975,
		"flyability" : 0,
		"reason" : "windDir, rain",
		"timestamp" :1554843600
		},
	"2019-04-09T21:00:00-03:00" : {
		"windSpeed" : 1.1,
		"windDir" : 184,
		"rain" : 1,
		"cloudbase" : 8546.3693000001,
		"flyability" : 0,
		"reason" : "windDir, rain",
		"timestamp" :1554854400
		},
	"2019-04-10T00:00:00-03:00" : {
		"windSpeed" : 0.8,
		"windDir" : 265,
		"rain" : 1,
		"cloudbase" : null,
		"flyability" : 0,
		"reason" : "windDir, rain",
		"timestamp" :1554865200
		},
	"2019-04-10T03:00:00-03:00" : {
		"windSpeed" : 0.5,
		"windDir" : 200,
		"rain" : 0,
		"cloudbase" : 4000,
		"flyability" : 0,
		"reason" : "windDir",
		"timestamp" :1554876000
		},
	"2019-04-10T06:00:00-03:00" : {
		"windSpeed" : 0.5,
		"windDir" : 323,
		"rain" : 1,
		"cloudbase" : null,
		"flyability" : 0,
		"reason" : "rain",
		"timestamp" :1554886800
		},
	"2019-04-10T09:00:00-03:00" : {
		"windSpeed" : 0.8,
		"windDir" : 64,
		"rain" : 0,
		"cloudbase" : null,
		"flyability" : 100,
		"reason" : "",
		"timestamp" :1554897600
		},
	"2019-04-10T12:00:00-03:00" : {
		"windSpeed" : 1.8,
		"windDir" : 326,
		"rain" : 1,
		"cloudbase" : null,
		"flyability" : 0,
		"reason" : "rain",
		"timestamp" :1554908400
		},
	"2019-04-10T15:00:00-03:00" : {
		"windSpeed" : 1.9,
		"windDir" : 152,
		"rain" : 0,
		"cloudbase" : 1400,
		"flyability" : 0,
		"reason" : "windDir",
		"timestamp" :1554919200
		},
	"2019-04-10T18:00:00-03:00" : {
		"windSpeed" : 1.7,
		"windDir" : 146,
		"rain" : 1,
		"cloudbase" : null,
		"flyability" : 0,
		"reason" : "windDir, rain",
		"timestamp" :1554930000
		},
	"2019-04-10T21:00:00-03:00" : {
		"windSpeed" : 1.2,
		"windDir" : 237,
		"rain" : 0,
		"cloudbase" : null,
		"flyability" : 0,
		"reason" : "windDir",
		"timestamp" :1554940800
		},
	"2019-04-11T00:00:00-03:00" : {
		"windSpeed" : 1,
		"windDir" : 270,
		"rain" : 1,
		"cloudbase" : null,
		"flyability" : 0,
		"reason" : "windDir, rain",
		"timestamp" :1554951600
		},
	"2019-04-11T03:00:00-03:00" : {
		"windSpeed" : 0.7,
		"windDir" : 242,
		"rain" : 0,
		"cloudbase" : null,
		"flyability" : 0,
		"reason" : "windDir",
		"timestamp" :1554962400
		},
	"2019-04-11T06:00:00-03:00" : {
		"windSpeed" : 1,
		"windDir" : 219,
		"rain" : 0,
		"cloudbase" : null,
		"flyability" : 0,
		"reason" : "windDir",
		"timestamp" :1554973200
		},
	"2019-04-11T09:00:00-03:00" : {
		"windSpeed" : 1.3,
		"windDir" : 14,
		"rain" : 1,
		"cloudbase" : null,
		"flyability" : 0,
		"reason" : "rain",
		"timestamp" :1554984000
		},
	"2019-04-11T12:00:00-03:00" : {
		"windSpeed" : 1.5,
		"windDir" : 315,
		"rain" : 1,
		"cloudbase" : null,
		"flyability" : 0,
		"reason" : "rain",
		"timestamp" :1554994800
		},
	"2019-04-11T15:00:00-03:00" : {
		"windSpeed" : 1.2,
		"windDir" : 325,
		"rain" : 1,
		"cloudbase" : null,
		"flyability" : 0,
		"reason" : "rain",
		"timestamp" :1555005600
		},
	"2019-04-11T18:00:00-03:00" : {
		"windSpeed" : 1.4,
		"windDir" : 125,
		"rain" : 1,
		"cloudbase" : null,
		"flyability" : 0,
		"reason" : "windDir, rain",
		"timestamp" :1555016400
		},
	"2019-04-11T21:00:00-03:00" : {
		"windSpeed" : 1.2,
		"windDir" : 158,
		"rain" : 0,
		"cloudbase" : null,
		"flyability" : 0,
		"reason" : "windDir",
		"timestamp" :1555027200
		},
	"2019-04-12T00:00:00-03:00" : {
		"windSpeed" : 0.8,
		"windDir" : 250,
		"rain" : 1,
		"cloudbase" : null,
		"flyability" : 0,
		"reason" : "windDir, rain",
		"timestamp" :1555038000
		},
	"2019-04-12T03:00:00-03:00" : {
		"windSpeed" : 0.5,
		"windDir" : 238,
		"rain" : 1,
		"cloudbase" : 1200,
		"flyability" : 0,
		"reason" : "windDir, rain",
		"timestamp" :1555048800
		},
	"2019-04-12T06:00:00-03:00" : {
		"windSpeed" : 0.6,
		"windDir" : 210,
		"rain" : 0,
		"cloudbase" : null,
		"flyability" : 0,
		"reason" : "windDir",
		"timestamp" :1555059600
		},
	"2019-04-12T09:00:00-03:00" : {
		"windSpeed" : 0.4,
		"windDir" : 10,
		"rain" : 1,
		"cloudbase" : 440,
		"flyability" : 0,
		"reason" : "rain, cloudbase",
		"timestamp" :1555070400
		}
	}
}