{
"site" : "Tacima (PB)",
"id" : 7171,
"orientations" : "00121000",
"forecasts" : { 
	"2019-04-04T00:00:00-03:00" : {
		"windSpeed" : 1.2,
		"windDir" : 114,
		"rain" : 1,
		"cloudbase" : 153.58811999997,
		"flyability" : 0,
		"reason" : "rain, cloudbase",
		"timestamp" :1554346800
		},
	"2019-04-04T03:00:00-03:00" : {
		"windSpeed" : 1.5,
		"windDir" : 132,
		"rain" : 1,
		"cloudbase" : 68.958554999987,
		"flyability" : 0,
		"reason" : "rain, cloudbase",
		"timestamp" :1554357600
		},
	"2019-04-04T06:00:00-03:00" : {
		"windSpeed" : 2.1,
		"windDir" : 119,
		"rain" : 1,
		"cloudbase" : 2350.8950099993,
		"flyability" : 0,
		"reason" : "rain",
		"timestamp" :1554368400
		},
	"2019-04-04T09:00:00-03:00" : {
		"windSpeed" : 2.4,
		"windDir" : 71,
		"rain" : 1,
		"cloudbase" : 12805.5265,
		"flyability" : 0,
		"reason" : "rain",
		"timestamp" :1554379200
		},
	"2019-04-04T12:00:00-03:00" : {
		"windSpeed" : 1.9,
		"windDir" : 69,
		"rain" : 1,
		"cloudbase" : null,
		"flyability" : 0,
		"reason" : "rain",
		"timestamp" :1554390000
		},
	"2019-04-04T15:00:00-03:00" : {
		"windSpeed" : 3,
		"windDir" : 81,
		"rain" : 0,
		"cloudbase" : null,
		"flyability" : 100,
		"reason" : "",
		"timestamp" :1554400800
		},
	"2019-04-04T18:00:00-03:00" : {
		"windSpeed" : 2.5,
		"windDir" : 83,
		"rain" : 1,
		"cloudbase" : null,
		"flyability" : 0,
		"reason" : "rain",
		"timestamp" :1554411600
		},
	"2019-04-04T21:00:00-03:00" : {
		"windSpeed" : 2.1,
		"windDir" : 104,
		"rain" : 1,
		"cloudbase" : 5698.5704899988,
		"flyability" : 0,
		"reason" : "rain",
		"timestamp" :1554422400
		},
	"2019-04-05T00:00:00-03:00" : {
		"windSpeed" : 1.6,
		"windDir" : 127,
		"rain" : 1,
		"cloudbase" : 183.64762999999,
		"flyability" : 0,
		"reason" : "rain, cloudbase",
		"timestamp" :1554433200
		},
	"2019-04-05T03:00:00-03:00" : {
		"windSpeed" : 1.3,
		"windDir" : 129,
		"rain" : 1,
		"cloudbase" : 12672.46175,
		"flyability" : 0,
		"reason" : "rain",
		"timestamp" :1554444000
		},
	"2019-04-05T06:00:00-03:00" : {
		"windSpeed" : 0.5,
		"windDir" : 201,
		"rain" : 1,
		"cloudbase" : 7449.1642599985,
		"flyability" : 0,
		"reason" : "rain",
		"timestamp" :1554454800
		},
	"2019-04-05T09:00:00-03:00" : {
		"windSpeed" : 1.9,
		"windDir" : 105,
		"rain" : 0,
		"cloudbase" : null,
		"flyability" : 100,
		"reason" : "",
		"timestamp" :1554465600
		},
	"2019-04-05T12:00:00-03:00" : {
		"windSpeed" : 3.6,
		"windDir" : 101,
		"rain" : 1,
		"cloudbase" : null,
		"flyability" : 0,
		"reason" : "rain",
		"timestamp" :1554476400
		},
	"2019-04-05T15:00:00-03:00" : {
		"windSpeed" : 3.5,
		"windDir" : 90,
		"rain" : 0,
		"cloudbase" : null,
		"flyability" : 100,
		"reason" : "",
		"timestamp" :1554487200
		},
	"2019-04-05T18:00:00-03:00" : {
		"windSpeed" : 2.8,
		"windDir" : 90,
		"rain" : 1,
		"cloudbase" : null,
		"flyability" : 0,
		"reason" : "rain",
		"timestamp" :1554498000
		},
	"2019-04-05T21:00:00-03:00" : {
		"windSpeed" : 1.6,
		"windDir" : 127,
		"rain" : 0,
		"cloudbase" : 13500,
		"flyability" : 100,
		"reason" : "",
		"timestamp" :1554508800
		},
	"2019-04-06T00:00:00-03:00" : {
		"windSpeed" : 2.1,
		"windDir" : 151,
		"rain" : 0,
		"cloudbase" : 170,
		"flyability" : 0,
		"reason" : "cloudbase",
		"timestamp" :1554519600
		},
	"2019-04-06T03:00:00-03:00" : {
		"windSpeed" : 2.8,
		"windDir" : 135,
		"rain" : 0,
		"cloudbase" : 110,
		"flyability" : 0,
		"reason" : "cloudbase",
		"timestamp" :1554530400
		},
	"2019-04-06T06:00:00-03:00" : {
		"windSpeed" : 2.9,
		"windDir" : 126,
		"rain" : 1,
		"cloudbase" : 150,
		"flyability" : 0,
		"reason" : "rain, cloudbase",
		"timestamp" :1554541200
		},
	"2019-04-06T09:00:00-03:00" : {
		"windSpeed" : 3.6,
		"windDir" : 114,
		"rain" : 1,
		"cloudbase" : 694.74625999999,
		"flyability" : 0,
		"reason" : "rain",
		"timestamp" :1554552000
		},
	"2019-04-06T12:00:00-03:00" : {
		"windSpeed" : 4.6,
		"windDir" : 112,
		"rain" : 0,
		"cloudbase" : 1350,
		"flyability" : 100,
		"reason" : "",
		"timestamp" :1554562800
		},
	"2019-04-06T15:00:00-03:00" : {
		"windSpeed" : 3.7,
		"windDir" : 90,
		"rain" : 1,
		"cloudbase" : 870.61970999993,
		"flyability" : 0,
		"reason" : "rain",
		"timestamp" :1554573600
		},
	"2019-04-06T18:00:00-03:00" : {
		"windSpeed" : 3.3,
		"windDir" : 95,
		"rain" : 1,
		"cloudbase" : 10500,
		"flyability" : 0,
		"reason" : "rain",
		"timestamp" :1554584400
		},
	"2019-04-06T21:00:00-03:00" : {
		"windSpeed" : 2.1,
		"windDir" : 119,
		"rain" : 1,
		"cloudbase" : 2504.8839599994,
		"flyability" : 0,
		"reason" : "rain",
		"timestamp" :1554595200
		},
	"2019-04-07T00:00:00-03:00" : {
		"windSpeed" : 1.3,
		"windDir" : 167,
		"rain" : 0,
		"cloudbase" : 3860.8252199992,
		"flyability" : 100,
		"reason" : "",
		"timestamp" :1554606000
		},
	"2019-04-07T03:00:00-03:00" : {
		"windSpeed" : 1.6,
		"windDir" : 162,
		"rain" : 1,
		"cloudbase" : 290.45567000001,
		"flyability" : 0,
		"reason" : "rain, cloudbase",
		"timestamp" :1554616800
		},
	"2019-04-07T06:00:00-03:00" : {
		"windSpeed" : 2,
		"windDir" : 156,
		"rain" : 1,
		"cloudbase" : 7138.73,
		"flyability" : 0,
		"reason" : "rain",
		"timestamp" :1554627600
		},
	"2019-04-07T09:00:00-03:00" : {
		"windSpeed" : 3.1,
		"windDir" : 131,
		"rain" : 1,
		"cloudbase" : 169.37687999999,
		"flyability" : 0,
		"reason" : "rain, cloudbase",
		"timestamp" :1554638400
		},
	"2019-04-07T12:00:00-03:00" : {
		"windSpeed" : 3,
		"windDir" : 129,
		"rain" : 1,
		"cloudbase" : 6881.1378000012,
		"flyability" : 0,
		"reason" : "rain",
		"timestamp" :1554649200
		},
	"2019-04-07T15:00:00-03:00" : {
		"windSpeed" : 3.5,
		"windDir" : 121,
		"rain" : 0,
		"cloudbase" : 12371.15805,
		"flyability" : 100,
		"reason" : "",
		"timestamp" :1554660000
		},
	"2019-04-07T18:00:00-03:00" : {
		"windSpeed" : 2.8,
		"windDir" : 135,
		"rain" : 1,
		"cloudbase" : 12498.65,
		"flyability" : 0,
		"reason" : "rain",
		"timestamp" :1554670800
		},
	"2019-04-07T21:00:00-03:00" : {
		"windSpeed" : 2.2,
		"windDir" : 144,
		"rain" : 0,
		"cloudbase" : 12195,
		"flyability" : 100,
		"reason" : "",
		"timestamp" :1554681600
		},
	"2019-04-08T00:00:00-03:00" : {
		"windSpeed" : 2.9,
		"windDir" : 164,
		"rain" : 0,
		"cloudbase" : 150,
		"flyability" : 0,
		"reason" : "cloudbase",
		"timestamp" :1554692400
		},
	"2019-04-08T03:00:00-03:00" : {
		"windSpeed" : 2.8,
		"windDir" : 170,
		"rain" : 0,
		"cloudbase" : 105.52264499999,
		"flyability" : 0,
		"reason" : "cloudbase",
		"timestamp" :1554703200
		},
	"2019-04-08T06:00:00-03:00" : {
		"windSpeed" : 2.9,
		"windDir" : 164,
		"rain" : 0,
		"cloudbase" : 6184.5204900012,
		"flyability" : 100,
		"reason" : "",
		"timestamp" :1554714000
		},
	"2019-04-08T09:00:00-03:00" : {
		"windSpeed" : 4.7,
		"windDir" : 130,
		"rain" : 1,
		"cloudbase" : null,
		"flyability" : 0,
		"reason" : "rain",
		"timestamp" :1554724800
		},
	"2019-04-08T12:00:00-03:00" : {
		"windSpeed" : 4.8,
		"windDir" : 117,
		"rain" : 1,
		"cloudbase" : 12608.353,
		"flyability" : 0,
		"reason" : "rain",
		"timestamp" :1554735600
		},
	"2019-04-08T15:00:00-03:00" : {
		"windSpeed" : 4.7,
		"windDir" : 108,
		"rain" : 0,
		"cloudbase" : 10804.1765,
		"flyability" : 100,
		"reason" : "",
		"timestamp" :1554746400
		},
	"2019-04-08T18:00:00-03:00" : {
		"windSpeed" : 3,
		"windDir" : 99,
		"rain" : 1,
		"cloudbase" : 11000,
		"flyability" : 0,
		"reason" : "rain",
		"timestamp" :1554757200
		},
	"2019-04-08T21:00:00-03:00" : {
		"windSpeed" : 3.1,
		"windDir" : 131,
		"rain" : 1,
		"cloudbase" : 11000,
		"flyability" : 0,
		"reason" : "rain",
		"timestamp" :1554768000
		},
	"2019-04-09T00:00:00-03:00" : {
		"windSpeed" : 2.5,
		"windDir" : 169,
		"rain" : 0,
		"cloudbase" : 10988.71805,
		"flyability" : 100,
		"reason" : "",
		"timestamp" :1554778800
		},
	"2019-04-09T03:00:00-03:00" : {
		"windSpeed" : 2.2,
		"windDir" : 162,
		"rain" : 1,
		"cloudbase" : 401.09365000001,
		"flyability" : 0,
		"reason" : "rain",
		"timestamp" :1554789600
		},
	"2019-04-09T06:00:00-03:00" : {
		"windSpeed" : 2.5,
		"windDir" : 113,
		"rain" : 1,
		"cloudbase" : 125.66723,
		"flyability" : 0,
		"reason" : "rain, cloudbase",
		"timestamp" :1554800400
		},
	"2019-04-09T09:00:00-03:00" : {
		"windSpeed" : 3.6,
		"windDir" : 114,
		"rain" : 1,
		"cloudbase" : null,
		"flyability" : 0,
		"reason" : "rain",
		"timestamp" :1554811200
		},
	"2019-04-09T12:00:00-03:00" : {
		"windSpeed" : 2.9,
		"windDir" : 104,
		"rain" : 0,
		"cloudbase" : 3924.3663599995,
		"flyability" : 100,
		"reason" : "",
		"timestamp" :1554822000
		},
	"2019-04-09T15:00:00-03:00" : {
		"windSpeed" : 3.2,
		"windDir" : 108,
		"rain" : 1,
		"cloudbase" : 12000,
		"flyability" : 0,
		"reason" : "rain",
		"timestamp" :1554832800
		},
	"2019-04-09T18:00:00-03:00" : {
		"windSpeed" : 1.3,
		"windDir" : 90,
		"rain" : 1,
		"cloudbase" : 12000,
		"flyability" : 0,
		"reason" : "rain",
		"timestamp" :1554843600
		},
	"2019-04-09T21:00:00-03:00" : {
		"windSpeed" : 1.5,
		"windDir" : 180,
		"rain" : 1,
		"cloudbase" : null,
		"flyability" : 0,
		"reason" : "rain",
		"timestamp" :1554854400
		}
	}
}