{
"site" : "Tollhouse",
"id" : 7174,
"orientations" : "00000121",
"forecasts" : { 
	"2019-04-02T20:00:00-07:00" : {
		"windSpeed" : 1,
		"windDir" : 63,
		"rain" : 1,
		"cloudbase" : null,
		"flyability" : 0,
		"reason" : "windDir, rain",
		"timestamp" :1554264000
		},
	"2019-04-02T23:00:00-07:00" : {
		"windSpeed" : 0.5,
		"windDir" : 75,
		"rain" : 1,
		"cloudbase" : 1494.6155,
		"flyability" : 0,
		"reason" : "windDir, rain",
		"timestamp" :1554274800
		},
	"2019-04-03T02:00:00-07:00" : {
		"windSpeed" : 0.2,
		"windDir" : 55,
		"rain" : 0,
		"cloudbase" : null,
		"flyability" : 0,
		"reason" : "windDir",
		"timestamp" :1554285600
		},
	"2019-04-03T05:00:00-07:00" : {
		"windSpeed" : 0.7,
		"windDir" : 45,
		"rain" : 0,
		"cloudbase" : null,
		"flyability" : 0,
		"reason" : "windDir",
		"timestamp" :1554296400
		},
	"2019-04-03T08:00:00-07:00" : {
		"windSpeed" : 1,
		"windDir" : 58,
		"rain" : 0,
		"cloudbase" : null,
		"flyability" : 0,
		"reason" : "windDir",
		"timestamp" :1554307200
		},
	"2019-04-03T11:00:00-07:00" : {
		"windSpeed" : 2.6,
		"windDir" : 223,
		"rain" : 0,
		"cloudbase" : 731.92920000001,
		"flyability" : 0,
		"reason" : "cloudbase",
		"timestamp" :1554318000
		},
	"2019-04-03T14:00:00-07:00" : {
		"windSpeed" : 1.7,
		"windDir" : 253,
		"rain" : 1,
		"cloudbase" : 736.50920000003,
		"flyability" : 0,
		"reason" : "rain, cloudbase",
		"timestamp" :1554328800
		},
	"2019-04-03T17:00:00-07:00" : {
		"windSpeed" : 1.8,
		"windDir" : 243,
		"rain" : 1,
		"cloudbase" : 2122.0783000001,
		"flyability" : 0,
		"reason" : "rain",
		"timestamp" :1554339600
		},
	"2019-04-03T20:00:00-07:00" : {
		"windSpeed" : 0.7,
		"windDir" : 46,
		"rain" : 0,
		"cloudbase" : 6042.0540000001,
		"flyability" : 0,
		"reason" : "windDir",
		"timestamp" :1554350400
		},
	"2019-04-03T23:00:00-07:00" : {
		"windSpeed" : 0.7,
		"windDir" : 46,
		"rain" : 0,
		"cloudbase" : 8896.054,
		"flyability" : 0,
		"reason" : "windDir",
		"timestamp" :1554361200
		},
	"2019-04-04T02:00:00-07:00" : {
		"windSpeed" : 1,
		"windDir" : 59,
		"rain" : 0,
		"cloudbase" : 8819.031,
		"flyability" : 0,
		"reason" : "windDir",
		"timestamp" :1554372000
		},
	"2019-04-04T05:00:00-07:00" : {
		"windSpeed" : 0.9,
		"windDir" : 78,
		"rain" : 0,
		"cloudbase" : null,
		"flyability" : 0,
		"reason" : "windDir",
		"timestamp" :1554382800
		},
	"2019-04-04T08:00:00-07:00" : {
		"windSpeed" : 1,
		"windDir" : 137,
		"rain" : 0,
		"cloudbase" : 3775.6320000003,
		"flyability" : 0,
		"reason" : "windDir",
		"timestamp" :1554393600
		},
	"2019-04-04T11:00:00-07:00" : {
		"windSpeed" : 2.9,
		"windDir" : 192,
		"rain" : 1,
		"cloudbase" : 4159.2365000005,
		"flyability" : 0,
		"reason" : "windDir, rain",
		"timestamp" :1554404400
		},
	"2019-04-04T14:00:00-07:00" : {
		"windSpeed" : 1.6,
		"windDir" : 173,
		"rain" : 1,
		"cloudbase" : 860.74360000006,
		"flyability" : 0,
		"reason" : "windDir, rain, cloudbase",
		"timestamp" :1554415200
		},
	"2019-04-04T17:00:00-07:00" : {
		"windSpeed" : 1.6,
		"windDir" : 137,
		"rain" : 1,
		"cloudbase" : 2070.9662000002,
		"flyability" : 0,
		"reason" : "windDir, rain",
		"timestamp" :1554426000
		},
	"2019-04-04T20:00:00-07:00" : {
		"windSpeed" : 1.7,
		"windDir" : 76,
		"rain" : 1,
		"cloudbase" : 7007.9683000002,
		"flyability" : 0,
		"reason" : "windDir, rain",
		"timestamp" :1554436800
		},
	"2019-04-04T23:00:00-07:00" : {
		"windSpeed" : 1,
		"windDir" : 64,
		"rain" : 0,
		"cloudbase" : 3196.7315,
		"flyability" : 0,
		"reason" : "windDir",
		"timestamp" :1554447600
		},
	"2019-04-05T02:00:00-07:00" : {
		"windSpeed" : 1.8,
		"windDir" : 90,
		"rain" : 0,
		"cloudbase" : null,
		"flyability" : 0,
		"reason" : "windDir",
		"timestamp" :1554458400
		},
	"2019-04-05T05:00:00-07:00" : {
		"windSpeed" : 1.1,
		"windDir" : 69,
		"rain" : 0,
		"cloudbase" : 9500.108,
		"flyability" : 0,
		"reason" : "windDir",
		"timestamp" :1554469200
		},
	"2019-04-05T08:00:00-07:00" : {
		"windSpeed" : 1.5,
		"windDir" : 126,
		"rain" : 0,
		"cloudbase" : 2101.551,
		"flyability" : 0,
		"reason" : "windDir",
		"timestamp" :1554480000
		},
	"2019-04-05T11:00:00-07:00" : {
		"windSpeed" : 2.8,
		"windDir" : 184,
		"rain" : 0,
		"cloudbase" : 3293.6184999998,
		"flyability" : 0,
		"reason" : "windDir",
		"timestamp" :1554490800
		},
	"2019-04-05T14:00:00-07:00" : {
		"windSpeed" : 1.7,
		"windDir" : 146,
		"rain" : 1,
		"cloudbase" : 2879.7155,
		"flyability" : 0,
		"reason" : "windDir, rain",
		"timestamp" :1554501600
		},
	"2019-04-05T17:00:00-07:00" : {
		"windSpeed" : 0.9,
		"windDir" : 333,
		"rain" : 1,
		"cloudbase" : 1294.2523,
		"flyability" : 0,
		"reason" : "rain",
		"timestamp" :1554512400
		},
	"2019-04-05T20:00:00-07:00" : {
		"windSpeed" : 1.3,
		"windDir" : 81,
		"rain" : 1,
		"cloudbase" : null,
		"flyability" : 0,
		"reason" : "windDir, rain",
		"timestamp" :1554523200
		},
	"2019-04-05T23:00:00-07:00" : {
		"windSpeed" : 1.5,
		"windDir" : 70,
		"rain" : 1,
		"cloudbase" : 9400,
		"flyability" : 0,
		"reason" : "windDir, rain",
		"timestamp" :1554534000
		},
	"2019-04-06T02:00:00-07:00" : {
		"windSpeed" : 1.8,
		"windDir" : 58,
		"rain" : 0,
		"cloudbase" : null,
		"flyability" : 0,
		"reason" : "windDir",
		"timestamp" :1554544800
		},
	"2019-04-06T05:00:00-07:00" : {
		"windSpeed" : 1,
		"windDir" : 59,
		"rain" : 0,
		"cloudbase" : 10171.3,
		"flyability" : 0,
		"reason" : "windDir",
		"timestamp" :1554555600
		},
	"2019-04-06T08:00:00-07:00" : {
		"windSpeed" : 0.5,
		"windDir" : 84,
		"rain" : 0,
		"cloudbase" : 3213.5925,
		"flyability" : 0,
		"reason" : "windDir",
		"timestamp" :1554566400
		},
	"2019-04-06T11:00:00-07:00" : {
		"windSpeed" : 0.6,
		"windDir" : 121,
		"rain" : 1,
		"cloudbase" : 2193.254,
		"flyability" : 0,
		"reason" : "windDir, rain",
		"timestamp" :1554577200
		},
	"2019-04-06T14:00:00-07:00" : {
		"windSpeed" : 1.8,
		"windDir" : 214,
		"rain" : 0,
		"cloudbase" : 3408.3210000003,
		"flyability" : 100,
		"reason" : "",
		"timestamp" :1554588000
		},
	"2019-04-06T17:00:00-07:00" : {
		"windSpeed" : 0.6,
		"windDir" : 318,
		"rain" : 0,
		"cloudbase" : 1524.3155,
		"flyability" : 100,
		"reason" : "",
		"timestamp" :1554598800
		},
	"2019-04-06T20:00:00-07:00" : {
		"windSpeed" : 0.9,
		"windDir" : 29,
		"rain" : 0,
		"cloudbase" : 3926.0329999999,
		"flyability" : 0,
		"reason" : "windDir",
		"timestamp" :1554609600
		},
	"2019-04-06T23:00:00-07:00" : {
		"windSpeed" : 1.2,
		"windDir" : 48,
		"rain" : 0,
		"cloudbase" : 8908.154,
		"flyability" : 0,
		"reason" : "windDir",
		"timestamp" :1554620400
		},
	"2019-04-07T02:00:00-07:00" : {
		"windSpeed" : 0.8,
		"windDir" : 49,
		"rain" : 0,
		"cloudbase" : null,
		"flyability" : 0,
		"reason" : "windDir",
		"timestamp" :1554631200
		},
	"2019-04-07T05:00:00-07:00" : {
		"windSpeed" : 0.7,
		"windDir" : 48,
		"rain" : 0,
		"cloudbase" : 9110.877,
		"flyability" : 0,
		"reason" : "windDir",
		"timestamp" :1554642000
		},
	"2019-04-07T08:00:00-07:00" : {
		"windSpeed" : 0.4,
		"windDir" : 79,
		"rain" : 0,
		"cloudbase" : 7497.277,
		"flyability" : 0,
		"reason" : "windDir",
		"timestamp" :1554652800
		},
	"2019-04-07T11:00:00-07:00" : {
		"windSpeed" : 2.4,
		"windDir" : 267,
		"rain" : 0,
		"cloudbase" : 8596.054,
		"flyability" : 100,
		"reason" : "",
		"timestamp" :1554663600
		},
	"2019-04-07T14:00:00-07:00" : {
		"windSpeed" : 2.5,
		"windDir" : 270,
		"rain" : 0,
		"cloudbase" : 9937.985,
		"flyability" : 100,
		"reason" : "",
		"timestamp" :1554674400
		},
	"2019-04-07T17:00:00-07:00" : {
		"windSpeed" : 2.2,
		"windDir" : 270,
		"rain" : 0,
		"cloudbase" : 9964.954,
		"flyability" : 100,
		"reason" : "",
		"timestamp" :1554685200
		},
	"2019-04-07T20:00:00-07:00" : {
		"windSpeed" : 1.5,
		"windDir" : 28,
		"rain" : 0,
		"cloudbase" : 10298.546,
		"flyability" : 0,
		"reason" : "windDir",
		"timestamp" :1554696000
		},
	"2019-04-07T23:00:00-07:00" : {
		"windSpeed" : 1.6,
		"windDir" : 39,
		"rain" : 0,
		"cloudbase" : 9910.954,
		"flyability" : 0,
		"reason" : "windDir",
		"timestamp" :1554706800
		},
	"2019-04-08T02:00:00-07:00" : {
		"windSpeed" : 0.8,
		"windDir" : 43,
		"rain" : 0,
		"cloudbase" : 11479.885,
		"flyability" : 0,
		"reason" : "windDir",
		"timestamp" :1554717600
		},
	"2019-04-08T05:00:00-07:00" : {
		"windSpeed" : 0.9,
		"windDir" : 48,
		"rain" : 0,
		"cloudbase" : 9956.908,
		"flyability" : 0,
		"reason" : "windDir",
		"timestamp" :1554728400
		},
	"2019-04-08T08:00:00-07:00" : {
		"windSpeed" : 0.7,
		"windDir" : 48,
		"rain" : 0,
		"cloudbase" : 7863.454,
		"flyability" : 0,
		"reason" : "windDir",
		"timestamp" :1554739200
		},
	"2019-04-08T11:00:00-07:00" : {
		"windSpeed" : 1.6,
		"windDir" : 247,
		"rain" : 0,
		"cloudbase" : 7519.031,
		"flyability" : 100,
		"reason" : "",
		"timestamp" :1554750000
		},
	"2019-04-08T14:00:00-07:00" : {
		"windSpeed" : 2.4,
		"windDir" : 277,
		"rain" : 0,
		"cloudbase" : 9180.2080000001,
		"flyability" : 100,
		"reason" : "",
		"timestamp" :1554760800
		},
	"2019-04-08T17:00:00-07:00" : {
		"windSpeed" : 2.8,
		"windDir" : 286,
		"rain" : 0,
		"cloudbase" : 7208.154,
		"flyability" : 100,
		"reason" : "",
		"timestamp" :1554771600
		}
	}
}