{
"site" : "Itacima",
"id" : 7176,
"orientations" : "00220000",
"forecasts" : { 
	"2019-04-04T00:00:00-03:00" : {
		"windSpeed" : 0.2,
		"windDir" : 183,
		"rain" : 1,
		"cloudbase" : 12484.842,
		"flyability" : 0,
		"reason" : "windDir, rain",
		"timestamp" :1554346800
		},
	"2019-04-04T03:00:00-03:00" : {
		"windSpeed" : 1.3,
		"windDir" : 52,
		"rain" : 1,
		"cloudbase" : 378.97947999999,
		"flyability" : 0,
		"reason" : "windDir, rain, cloudbase",
		"timestamp" :1554357600
		},
	"2019-04-04T06:00:00-03:00" : {
		"windSpeed" : 1.3,
		"windDir" : 79,
		"rain" : 1,
		"cloudbase" : 385.26108000001,
		"flyability" : 0,
		"reason" : "rain, cloudbase",
		"timestamp" :1554368400
		},
	"2019-04-04T09:00:00-03:00" : {
		"windSpeed" : 2.2,
		"windDir" : 69,
		"rain" : 1,
		"cloudbase" : 278.44684,
		"flyability" : 0,
		"reason" : "rain, cloudbase",
		"timestamp" :1554379200
		},
	"2019-04-04T12:00:00-03:00" : {
		"windSpeed" : 2.6,
		"windDir" : 60,
		"rain" : 0,
		"cloudbase" : 8484.4012000005,
		"flyability" : 0,
		"reason" : "windDir",
		"timestamp" :1554390000
		},
	"2019-04-04T15:00:00-03:00" : {
		"windSpeed" : 2.5,
		"windDir" : 45,
		"rain" : 1,
		"cloudbase" : 940.05419999997,
		"flyability" : 0,
		"reason" : "windDir, rain",
		"timestamp" :1554400800
		},
	"2019-04-04T18:00:00-03:00" : {
		"windSpeed" : 1.3,
		"windDir" : 9,
		"rain" : 1,
		"cloudbase" : 12984.842,
		"flyability" : 0,
		"reason" : "windDir, rain",
		"timestamp" :1554411600
		},
	"2019-04-04T21:00:00-03:00" : {
		"windSpeed" : 1,
		"windDir" : 359,
		"rain" : 1,
		"cloudbase" : 12899.9572,
		"flyability" : 0,
		"reason" : "windDir, rain",
		"timestamp" :1554422400
		},
	"2019-04-05T00:00:00-03:00" : {
		"windSpeed" : 1.1,
		"windDir" : 29,
		"rain" : 0,
		"cloudbase" : 342.15896000001,
		"flyability" : 0,
		"reason" : "windDir, cloudbase",
		"timestamp" :1554433200
		},
	"2019-04-05T03:00:00-03:00" : {
		"windSpeed" : 1.2,
		"windDir" : 145,
		"rain" : 0,
		"cloudbase" : 4038.8575599996,
		"flyability" : 100,
		"reason" : "",
		"timestamp" :1554444000
		},
	"2019-04-05T06:00:00-03:00" : {
		"windSpeed" : 1,
		"windDir" : 169,
		"rain" : 1,
		"cloudbase" : 10662.1734,
		"flyability" : 0,
		"reason" : "windDir, rain",
		"timestamp" :1554454800
		},
	"2019-04-05T09:00:00-03:00" : {
		"windSpeed" : 1.8,
		"windDir" : 158,
		"rain" : 0,
		"cloudbase" : 350,
		"flyability" : 0,
		"reason" : "windDir, cloudbase",
		"timestamp" :1554465600
		},
	"2019-04-05T12:00:00-03:00" : {
		"windSpeed" : 1.6,
		"windDir" : 143,
		"rain" : 1,
		"cloudbase" : 13078.173,
		"flyability" : 0,
		"reason" : "rain",
		"timestamp" :1554476400
		},
	"2019-04-05T15:00:00-03:00" : {
		"windSpeed" : 3.3,
		"windDir" : 71,
		"rain" : 0,
		"cloudbase" : 12904.0064,
		"flyability" : 100,
		"reason" : "",
		"timestamp" :1554487200
		},
	"2019-04-05T18:00:00-03:00" : {
		"windSpeed" : 1,
		"windDir" : 88,
		"rain" : 0,
		"cloudbase" : 9800.8531999998,
		"flyability" : 100,
		"reason" : "",
		"timestamp" :1554498000
		},
	"2019-04-05T21:00:00-03:00" : {
		"windSpeed" : 0.8,
		"windDir" : 81,
		"rain" : 1,
		"cloudbase" : 11274.658,
		"flyability" : 0,
		"reason" : "rain",
		"timestamp" :1554508800
		},
	"2019-04-06T00:00:00-03:00" : {
		"windSpeed" : 1,
		"windDir" : 167,
		"rain" : 0,
		"cloudbase" : 11500,
		"flyability" : 0,
		"reason" : "windDir",
		"timestamp" :1554519600
		},
	"2019-04-06T03:00:00-03:00" : {
		"windSpeed" : 1.4,
		"windDir" : 135,
		"rain" : 1,
		"cloudbase" : 171.89263999998,
		"flyability" : 0,
		"reason" : "rain, cloudbase",
		"timestamp" :1554530400
		},
	"2019-04-06T06:00:00-03:00" : {
		"windSpeed" : 1.6,
		"windDir" : 130,
		"rain" : 0,
		"cloudbase" : 81.590560000005,
		"flyability" : 0,
		"reason" : "cloudbase",
		"timestamp" :1554541200
		},
	"2019-04-06T09:00:00-03:00" : {
		"windSpeed" : 1.2,
		"windDir" : 144,
		"rain" : 1,
		"cloudbase" : 368.97419999999,
		"flyability" : 0,
		"reason" : "rain, cloudbase",
		"timestamp" :1554552000
		},
	"2019-04-06T12:00:00-03:00" : {
		"windSpeed" : 2.8,
		"windDir" : 89,
		"rain" : 0,
		"cloudbase" : 1550,
		"flyability" : 100,
		"reason" : "",
		"timestamp" :1554562800
		},
	"2019-04-06T15:00:00-03:00" : {
		"windSpeed" : 2.8,
		"windDir" : 94,
		"rain" : 0,
		"cloudbase" : 6112.158,
		"flyability" : 100,
		"reason" : "",
		"timestamp" :1554573600
		},
	"2019-04-06T18:00:00-03:00" : {
		"windSpeed" : 0.7,
		"windDir" : 42,
		"rain" : 1,
		"cloudbase" : 6643.9368,
		"flyability" : 0,
		"reason" : "windDir, rain",
		"timestamp" :1554584400
		},
	"2019-04-06T21:00:00-03:00" : {
		"windSpeed" : 2.5,
		"windDir" : 88,
		"rain" : 1,
		"cloudbase" : 416.93528,
		"flyability" : 0,
		"reason" : "rain, cloudbase",
		"timestamp" :1554595200
		},
	"2019-04-07T00:00:00-03:00" : {
		"windSpeed" : 1.3,
		"windDir" : 142,
		"rain" : 1,
		"cloudbase" : 315.00528,
		"flyability" : 0,
		"reason" : "rain, cloudbase",
		"timestamp" :1554606000
		},
	"2019-04-07T03:00:00-03:00" : {
		"windSpeed" : 1.2,
		"windDir" : 172,
		"rain" : 1,
		"cloudbase" : 219.65999999999,
		"flyability" : 0,
		"reason" : "windDir, rain, cloudbase",
		"timestamp" :1554616800
		},
	"2019-04-07T06:00:00-03:00" : {
		"windSpeed" : 1.6,
		"windDir" : 165,
		"rain" : 0,
		"cloudbase" : 3876.8212000001,
		"flyability" : 0,
		"reason" : "windDir",
		"timestamp" :1554627600
		},
	"2019-04-07T09:00:00-03:00" : {
		"windSpeed" : 3,
		"windDir" : 140,
		"rain" : 1,
		"cloudbase" : 444.54688000003,
		"flyability" : 0,
		"reason" : "rain, cloudbase",
		"timestamp" :1554638400
		},
	"2019-04-07T12:00:00-03:00" : {
		"windSpeed" : 2.2,
		"windDir" : 141,
		"rain" : 1,
		"cloudbase" : 2144.1964000004,
		"flyability" : 0,
		"reason" : "rain",
		"timestamp" :1554649200
		},
	"2019-04-07T15:00:00-03:00" : {
		"windSpeed" : 2.7,
		"windDir" : 95,
		"rain" : 0,
		"cloudbase" : 8019.5310000007,
		"flyability" : 100,
		"reason" : "",
		"timestamp" :1554660000
		},
	"2019-04-07T18:00:00-03:00" : {
		"windSpeed" : 1.4,
		"windDir" : 121,
		"rain" : 1,
		"cloudbase" : 11488.658,
		"flyability" : 0,
		"reason" : "rain",
		"timestamp" :1554670800
		},
	"2019-04-07T21:00:00-03:00" : {
		"windSpeed" : 2.1,
		"windDir" : 136,
		"rain" : 0,
		"cloudbase" : 188.99499999998,
		"flyability" : 0,
		"reason" : "cloudbase",
		"timestamp" :1554681600
		},
	"2019-04-08T00:00:00-03:00" : {
		"windSpeed" : 1.4,
		"windDir" : 121,
		"rain" : 0,
		"cloudbase" : 233.59948,
		"flyability" : 0,
		"reason" : "cloudbase",
		"timestamp" :1554692400
		},
	"2019-04-08T03:00:00-03:00" : {
		"windSpeed" : 1.1,
		"windDir" : 155,
		"rain" : 1,
		"cloudbase" : 6102.6552399989,
		"flyability" : 0,
		"reason" : "rain",
		"timestamp" :1554703200
		},
	"2019-04-08T06:00:00-03:00" : {
		"windSpeed" : 1.7,
		"windDir" : 156,
		"rain" : 1,
		"cloudbase" : 5011.0770399993,
		"flyability" : 0,
		"reason" : "windDir, rain",
		"timestamp" :1554714000
		},
	"2019-04-08T09:00:00-03:00" : {
		"windSpeed" : 3.7,
		"windDir" : 153,
		"rain" : 1,
		"cloudbase" : 7378.3141999997,
		"flyability" : 0,
		"reason" : "rain",
		"timestamp" :1554724800
		},
	"2019-04-08T12:00:00-03:00" : {
		"windSpeed" : 3.2,
		"windDir" : 129,
		"rain" : 1,
		"cloudbase" : 8757.2,
		"flyability" : 0,
		"reason" : "rain",
		"timestamp" :1554735600
		},
	"2019-04-08T15:00:00-03:00" : {
		"windSpeed" : 4,
		"windDir" : 86,
		"rain" : 0,
		"cloudbase" : 11736.816,
		"flyability" : 100,
		"reason" : "",
		"timestamp" :1554746400
		},
	"2019-04-08T18:00:00-03:00" : {
		"windSpeed" : 2.5,
		"windDir" : 84,
		"rain" : 1,
		"cloudbase" : 10620.4068,
		"flyability" : 0,
		"reason" : "rain",
		"timestamp" :1554757200
		},
	"2019-04-08T21:00:00-03:00" : {
		"windSpeed" : 1.8,
		"windDir" : 112,
		"rain" : 1,
		"cloudbase" : 10500,
		"flyability" : 0,
		"reason" : "rain",
		"timestamp" :1554768000
		},
	"2019-04-09T00:00:00-03:00" : {
		"windSpeed" : 1,
		"windDir" : 169,
		"rain" : 1,
		"cloudbase" : 9891.6632,
		"flyability" : 0,
		"reason" : "windDir, rain",
		"timestamp" :1554778800
		},
	"2019-04-09T03:00:00-03:00" : {
		"windSpeed" : 1.9,
		"windDir" : 112,
		"rain" : 1,
		"cloudbase" : 2967.4316799995,
		"flyability" : 0,
		"reason" : "rain",
		"timestamp" :1554789600
		},
	"2019-04-09T06:00:00-03:00" : {
		"windSpeed" : 1.4,
		"windDir" : 150,
		"rain" : 1,
		"cloudbase" : 660.56015999993,
		"flyability" : 0,
		"reason" : "rain",
		"timestamp" :1554800400
		},
	"2019-04-09T09:00:00-03:00" : {
		"windSpeed" : 1.8,
		"windDir" : 136,
		"rain" : 1,
		"cloudbase" : 6636.5656799989,
		"flyability" : 0,
		"reason" : "rain",
		"timestamp" :1554811200
		},
	"2019-04-09T12:00:00-03:00" : {
		"windSpeed" : 3.2,
		"windDir" : 76,
		"rain" : 1,
		"cloudbase" : 4222.4276400007,
		"flyability" : 0,
		"reason" : "rain",
		"timestamp" :1554822000
		},
	"2019-04-09T15:00:00-03:00" : {
		"windSpeed" : 3.6,
		"windDir" : 64,
		"rain" : 1,
		"cloudbase" : 12083.342,
		"flyability" : 0,
		"reason" : "windDir, rain",
		"timestamp" :1554832800
		},
	"2019-04-09T18:00:00-03:00" : {
		"windSpeed" : 2.6,
		"windDir" : 72,
		"rain" : 1,
		"cloudbase" : 13214,
		"flyability" : 0,
		"reason" : "rain",
		"timestamp" :1554843600
		},
	"2019-04-09T21:00:00-03:00" : {
		"windSpeed" : 1,
		"windDir" : 101,
		"rain" : 1,
		"cloudbase" : 13286,
		"flyability" : 0,
		"reason" : "rain",
		"timestamp" :1554854400
		}
	}
}