{
"site" : "Ledcice - Jevineves",
"id" : 7191,
"orientations" : "00220000",
"forecasts" : { 
	"2019-04-11T17:00:00+02:00" : {
		"windSpeed" : 5.1,
		"windDir" : 25,
		"rain" : 0,
		"cloudbase" : 1672.26,
		"flyability" : 0,
		"reason" : "windSpeed, windDir",
		"timestamp" :1554998400
		},
	"2019-04-11T20:00:00+02:00" : {
		"windSpeed" : 5.1,
		"windDir" : 24,
		"rain" : 0,
		"cloudbase" : 2507.7900000001,
		"flyability" : 0,
		"reason" : "windSpeed, windDir",
		"timestamp" :1555009200
		},
	"2019-04-11T23:00:00+02:00" : {
		"windSpeed" : 3.4,
		"windDir" : 27,
		"rain" : 0,
		"cloudbase" : 1564.13,
		"flyability" : 0,
		"reason" : "windDir",
		"timestamp" :1555020000
		},
	"2019-04-12T02:00:00+02:00" : {
		"windSpeed" : 2.7,
		"windDir" : 22,
		"rain" : 0,
		"cloudbase" : 1611.5,
		"flyability" : 0,
		"reason" : "windDir",
		"timestamp" :1555030800
		},
	"2019-04-12T05:00:00+02:00" : {
		"windSpeed" : 2.8,
		"windDir" : 25,
		"rain" : 0,
		"cloudbase" : 1650,
		"flyability" : 0,
		"reason" : "windDir",
		"timestamp" :1555041600
		},
	"2019-04-12T08:00:00+02:00" : {
		"windSpeed" : 3.4,
		"windDir" : 26,
		"rain" : 0,
		"cloudbase" : 1550,
		"flyability" : 0,
		"reason" : "windDir",
		"timestamp" :1555052400
		},
	"2019-04-12T11:00:00+02:00" : {
		"windSpeed" : 2,
		"windDir" : 35,
		"rain" : 0,
		"cloudbase" : 1423.37,
		"flyability" : 0,
		"reason" : "windDir",
		"timestamp" :1555063200
		},
	"2019-04-12T14:00:00+02:00" : {
		"windSpeed" : 2.3,
		"windDir" : 42,
		"rain" : 0,
		"cloudbase" : 1631,
		"flyability" : 0,
		"reason" : "windDir",
		"timestamp" :1555074000
		},
	"2019-04-12T17:00:00+02:00" : {
		"windSpeed" : 3.1,
		"windDir" : 40,
		"rain" : 0,
		"cloudbase" : 1638.13,
		"flyability" : 0,
		"reason" : "windDir",
		"timestamp" :1555084800
		},
	"2019-04-12T20:00:00+02:00" : {
		"windSpeed" : 4.5,
		"windDir" : 10,
		"rain" : 0,
		"cloudbase" : 1602.76,
		"flyability" : 0,
		"reason" : "windDir",
		"timestamp" :1555095600
		},
	"2019-04-12T23:00:00+02:00" : {
		"windSpeed" : 3.6,
		"windDir" : 29,
		"rain" : 0,
		"cloudbase" : 1588.13,
		"flyability" : 0,
		"reason" : "windDir",
		"timestamp" :1555106400
		},
	"2019-04-13T02:00:00+02:00" : {
		"windSpeed" : 2.7,
		"windDir" : 35,
		"rain" : 0,
		"cloudbase" : 1621.63,
		"flyability" : 0,
		"reason" : "windDir",
		"timestamp" :1555117200
		},
	"2019-04-13T05:00:00+02:00" : {
		"windSpeed" : 2.4,
		"windDir" : 28,
		"rain" : 0,
		"cloudbase" : 1670,
		"flyability" : 0,
		"reason" : "windDir",
		"timestamp" :1555128000
		},
	"2019-04-13T08:00:00+02:00" : {
		"windSpeed" : 2.5,
		"windDir" : 29,
		"rain" : 0,
		"cloudbase" : 1800,
		"flyability" : 0,
		"reason" : "windDir",
		"timestamp" :1555138800
		},
	"2019-04-13T11:00:00+02:00" : {
		"windSpeed" : 2,
		"windDir" : 48,
		"rain" : 0,
		"cloudbase" : 1615.5,
		"flyability" : 0,
		"reason" : "windDir",
		"timestamp" :1555149600
		},
	"2019-04-13T14:00:00+02:00" : {
		"windSpeed" : 2.1,
		"windDir" : 14,
		"rain" : 0,
		"cloudbase" : 1864.63,
		"flyability" : 0,
		"reason" : "windDir",
		"timestamp" :1555160400
		},
	"2019-04-13T17:00:00+02:00" : {
		"windSpeed" : 5.9,
		"windDir" : 20,
		"rain" : 0,
		"cloudbase" : 1758.87,
		"flyability" : 0,
		"reason" : "windSpeed, windDir",
		"timestamp" :1555171200
		},
	"2019-04-13T20:00:00+02:00" : {
		"windSpeed" : 4.2,
		"windDir" : 41,
		"rain" : 0,
		"cloudbase" : 1354.74,
		"flyability" : 0,
		"reason" : "windDir",
		"timestamp" :1555182000
		},
	"2019-04-13T23:00:00+02:00" : {
		"windSpeed" : 2.9,
		"windDir" : 29,
		"rain" : 1,
		"cloudbase" : 1444.926,
		"flyability" : 0,
		"reason" : "windDir, rain",
		"timestamp" :1555192800
		},
	"2019-04-14T02:00:00+02:00" : {
		"windSpeed" : 2.6,
		"windDir" : 15,
		"rain" : 1,
		"cloudbase" : 317.99400000002,
		"flyability" : 0,
		"reason" : "windDir, rain",
		"timestamp" :1555203600
		},
	"2019-04-14T05:00:00+02:00" : {
		"windSpeed" : 2.3,
		"windDir" : 16,
		"rain" : 1,
		"cloudbase" : 688.20800000002,
		"flyability" : 0,
		"reason" : "windDir, rain",
		"timestamp" :1555214400
		},
	"2019-04-14T08:00:00+02:00" : {
		"windSpeed" : 2.2,
		"windDir" : 28,
		"rain" : 1,
		"cloudbase" : 1319,
		"flyability" : 0,
		"reason" : "windDir, rain",
		"timestamp" :1555225200
		},
	"2019-04-14T11:00:00+02:00" : {
		"windSpeed" : 3.6,
		"windDir" : 61,
		"rain" : 0,
		"cloudbase" : 1301.54,
		"flyability" : 0,
		"reason" : "windDir",
		"timestamp" :1555236000
		},
	"2019-04-14T14:00:00+02:00" : {
		"windSpeed" : 5.1,
		"windDir" : 78,
		"rain" : 0,
		"cloudbase" : 2524.97,
		"flyability" : 0,
		"reason" : "windSpeed",
		"timestamp" :1555246800
		},
	"2019-04-14T17:00:00+02:00" : {
		"windSpeed" : 4.9,
		"windDir" : 65,
		"rain" : 0,
		"cloudbase" : 1573.37,
		"flyability" : 0,
		"reason" : "windDir",
		"timestamp" :1555257600
		},
	"2019-04-14T20:00:00+02:00" : {
		"windSpeed" : 3.7,
		"windDir" : 72,
		"rain" : 0,
		"cloudbase" : 2000,
		"flyability" : 100,
		"reason" : "",
		"timestamp" :1555268400
		},
	"2019-04-14T23:00:00+02:00" : {
		"windSpeed" : 3.4,
		"windDir" : 30,
		"rain" : 0,
		"cloudbase" : null,
		"flyability" : 0,
		"reason" : "windDir",
		"timestamp" :1555279200
		},
	"2019-04-15T02:00:00+02:00" : {
		"windSpeed" : 2.5,
		"windDir" : 30,
		"rain" : 0,
		"cloudbase" : null,
		"flyability" : 0,
		"reason" : "windDir",
		"timestamp" :1555290000
		},
	"2019-04-15T05:00:00+02:00" : {
		"windSpeed" : 2.1,
		"windDir" : 20,
		"rain" : 0,
		"cloudbase" : null,
		"flyability" : 0,
		"reason" : "windDir",
		"timestamp" :1555300800
		},
	"2019-04-15T08:00:00+02:00" : {
		"windSpeed" : 1.4,
		"windDir" : 32,
		"rain" : 0,
		"cloudbase" : null,
		"flyability" : 0,
		"reason" : "windDir",
		"timestamp" :1555311600
		},
	"2019-04-15T11:00:00+02:00" : {
		"windSpeed" : 3.1,
		"windDir" : 78,
		"rain" : 0,
		"cloudbase" : null,
		"flyability" : 100,
		"reason" : "",
		"timestamp" :1555322400
		},
	"2019-04-15T14:00:00+02:00" : {
		"windSpeed" : 3.6,
		"windDir" : 51,
		"rain" : 0,
		"cloudbase" : null,
		"flyability" : 0,
		"reason" : "windDir",
		"timestamp" :1555333200
		},
	"2019-04-15T17:00:00+02:00" : {
		"windSpeed" : 6.1,
		"windDir" : 30,
		"rain" : 0,
		"cloudbase" : null,
		"flyability" : 0,
		"reason" : "windSpeed, windDir",
		"timestamp" :1555344000
		},
	"2019-04-15T20:00:00+02:00" : {
		"windSpeed" : 3.7,
		"windDir" : 57,
		"rain" : 0,
		"cloudbase" : null,
		"flyability" : 0,
		"reason" : "windDir",
		"timestamp" :1555354800
		},
	"2019-04-15T23:00:00+02:00" : {
		"windSpeed" : 2,
		"windDir" : 70,
		"rain" : 0,
		"cloudbase" : null,
		"flyability" : 100,
		"reason" : "",
		"timestamp" :1555365600
		},
	"2019-04-16T02:00:00+02:00" : {
		"windSpeed" : 1.8,
		"windDir" : 112,
		"rain" : 0,
		"cloudbase" : null,
		"flyability" : 100,
		"reason" : "",
		"timestamp" :1555376400
		},
	"2019-04-16T05:00:00+02:00" : {
		"windSpeed" : 1.8,
		"windDir" : 108,
		"rain" : 0,
		"cloudbase" : null,
		"flyability" : 100,
		"reason" : "",
		"timestamp" :1555387200
		},
	"2019-04-16T08:00:00+02:00" : {
		"windSpeed" : 0.9,
		"windDir" : 110,
		"rain" : 0,
		"cloudbase" : null,
		"flyability" : 100,
		"reason" : "",
		"timestamp" :1555398000
		},
	"2019-04-16T11:00:00+02:00" : {
		"windSpeed" : 4,
		"windDir" : 108,
		"rain" : 0,
		"cloudbase" : null,
		"flyability" : 100,
		"reason" : "",
		"timestamp" :1555408800
		},
	"2019-04-16T14:00:00+02:00" : {
		"windSpeed" : 4.4,
		"windDir" : 103,
		"rain" : 0,
		"cloudbase" : null,
		"flyability" : 100,
		"reason" : "",
		"timestamp" :1555419600
		},
	"2019-04-16T17:00:00+02:00" : {
		"windSpeed" : 4.4,
		"windDir" : 97,
		"rain" : 0,
		"cloudbase" : null,
		"flyability" : 100,
		"reason" : "",
		"timestamp" :1555430400
		},
	"2019-04-16T20:00:00+02:00" : {
		"windSpeed" : 2.8,
		"windDir" : 105,
		"rain" : 0,
		"cloudbase" : null,
		"flyability" : 100,
		"reason" : "",
		"timestamp" :1555441200
		},
	"2019-04-16T23:00:00+02:00" : {
		"windSpeed" : 2.3,
		"windDir" : 82,
		"rain" : 0,
		"cloudbase" : null,
		"flyability" : 100,
		"reason" : "",
		"timestamp" :1555452000
		},
	"2019-04-17T02:00:00+02:00" : {
		"windSpeed" : 2.4,
		"windDir" : 72,
		"rain" : 0,
		"cloudbase" : null,
		"flyability" : 100,
		"reason" : "",
		"timestamp" :1555462800
		},
	"2019-04-17T05:00:00+02:00" : {
		"windSpeed" : 0.5,
		"windDir" : 90,
		"rain" : 0,
		"cloudbase" : null,
		"flyability" : 100,
		"reason" : "",
		"timestamp" :1555473600
		},
	"2019-04-17T08:00:00+02:00" : {
		"windSpeed" : 0.6,
		"windDir" : 120,
		"rain" : 0,
		"cloudbase" : null,
		"flyability" : 100,
		"reason" : "",
		"timestamp" :1555484400
		},
	"2019-04-17T11:00:00+02:00" : {
		"windSpeed" : 3.1,
		"windDir" : 98,
		"rain" : 0,
		"cloudbase" : null,
		"flyability" : 100,
		"reason" : "",
		"timestamp" :1555495200
		},
	"2019-04-17T14:00:00+02:00" : {
		"windSpeed" : 5.5,
		"windDir" : 106,
		"rain" : 0,
		"cloudbase" : 1526.63,
		"flyability" : 0,
		"reason" : "windSpeed",
		"timestamp" :1555506000
		}
	}
}