{
"site" : "Neustift - Elfer",
"id" : 7231,
"orientations" : "02000000",
"forecasts" : { 
	"2019-04-19T05:00:00+02:00" : {
		"windSpeed" : 1.7,
		"windDir" : 206,
		"rain" : 0,
		"cloudbase" : 350,
		"flyability" : 0,
		"reason" : "windDir, cloudbase",
		"timestamp" :1555646400
		},
	"2019-04-19T08:00:00+02:00" : {
		"windSpeed" : 1.5,
		"windDir" : 190,
		"rain" : 0,
		"cloudbase" : 280,
		"flyability" : 0,
		"reason" : "windDir, cloudbase",
		"timestamp" :1555657200
		},
	"2019-04-19T11:00:00+02:00" : {
		"windSpeed" : 1.2,
		"windDir" : 153,
		"rain" : 0,
		"cloudbase" : null,
		"flyability" : 0,
		"reason" : "windDir",
		"timestamp" :1555668000
		},
	"2019-04-19T14:00:00+02:00" : {
		"windSpeed" : 2,
		"windDir" : 168,
		"rain" : 0,
		"cloudbase" : null,
		"flyability" : 0,
		"reason" : "windDir",
		"timestamp" :1555678800
		},
	"2019-04-19T17:00:00+02:00" : {
		"windSpeed" : 1.5,
		"windDir" : 178,
		"rain" : 0,
		"cloudbase" : null,
		"flyability" : 0,
		"reason" : "windDir",
		"timestamp" :1555689600
		},
	"2019-04-19T20:00:00+02:00" : {
		"windSpeed" : 1.4,
		"windDir" : 213,
		"rain" : 0,
		"cloudbase" : null,
		"flyability" : 0,
		"reason" : "windDir",
		"timestamp" :1555700400
		},
	"2019-04-19T23:00:00+02:00" : {
		"windSpeed" : 1.2,
		"windDir" : 200,
		"rain" : 0,
		"cloudbase" : null,
		"flyability" : 0,
		"reason" : "windDir",
		"timestamp" :1555711200
		},
	"2019-04-20T02:00:00+02:00" : {
		"windSpeed" : 1.6,
		"windDir" : 204,
		"rain" : 0,
		"cloudbase" : null,
		"flyability" : 0,
		"reason" : "windDir",
		"timestamp" :1555722000
		},
	"2019-04-20T05:00:00+02:00" : {
		"windSpeed" : 1.2,
		"windDir" : 214,
		"rain" : 0,
		"cloudbase" : null,
		"flyability" : 0,
		"reason" : "windDir",
		"timestamp" :1555732800
		},
	"2019-04-20T08:00:00+02:00" : {
		"windSpeed" : 1.1,
		"windDir" : 202,
		"rain" : 0,
		"cloudbase" : null,
		"flyability" : 0,
		"reason" : "windDir",
		"timestamp" :1555743600
		},
	"2019-04-20T11:00:00+02:00" : {
		"windSpeed" : 1,
		"windDir" : 152,
		"rain" : 0,
		"cloudbase" : null,
		"flyability" : 0,
		"reason" : "windDir",
		"timestamp" :1555754400
		},
	"2019-04-20T14:00:00+02:00" : {
		"windSpeed" : 1.6,
		"windDir" : 165,
		"rain" : 0,
		"cloudbase" : null,
		"flyability" : 0,
		"reason" : "windDir",
		"timestamp" :1555765200
		},
	"2019-04-20T17:00:00+02:00" : {
		"windSpeed" : 1.5,
		"windDir" : 180,
		"rain" : 0,
		"cloudbase" : null,
		"flyability" : 0,
		"reason" : "windDir",
		"timestamp" :1555776000
		},
	"2019-04-20T20:00:00+02:00" : {
		"windSpeed" : 1.7,
		"windDir" : 207,
		"rain" : 0,
		"cloudbase" : null,
		"flyability" : 0,
		"reason" : "windDir",
		"timestamp" :1555786800
		},
	"2019-04-20T23:00:00+02:00" : {
		"windSpeed" : 1.3,
		"windDir" : 215,
		"rain" : 0,
		"cloudbase" : null,
		"flyability" : 0,
		"reason" : "windDir",
		"timestamp" :1555797600
		},
	"2019-04-21T02:00:00+02:00" : {
		"windSpeed" : 1.4,
		"windDir" : 214,
		"rain" : 0,
		"cloudbase" : null,
		"flyability" : 0,
		"reason" : "windDir",
		"timestamp" :1555808400
		},
	"2019-04-21T05:00:00+02:00" : {
		"windSpeed" : 1,
		"windDir" : 232,
		"rain" : 0,
		"cloudbase" : 7700,
		"flyability" : 0,
		"reason" : "windDir",
		"timestamp" :1555819200
		},
	"2019-04-21T08:00:00+02:00" : {
		"windSpeed" : 0.7,
		"windDir" : 214,
		"rain" : 0,
		"cloudbase" : 7633.11,
		"flyability" : 0,
		"reason" : "windDir",
		"timestamp" :1555830000
		},
	"2019-04-21T11:00:00+02:00" : {
		"windSpeed" : 1,
		"windDir" : 152,
		"rain" : 0,
		"cloudbase" : null,
		"flyability" : 0,
		"reason" : "windDir",
		"timestamp" :1555840800
		},
	"2019-04-21T14:00:00+02:00" : {
		"windSpeed" : 2.1,
		"windDir" : 164,
		"rain" : 0,
		"cloudbase" : null,
		"flyability" : 0,
		"reason" : "windDir",
		"timestamp" :1555851600
		},
	"2019-04-21T17:00:00+02:00" : {
		"windSpeed" : 1.7,
		"windDir" : 160,
		"rain" : 0,
		"cloudbase" : null,
		"flyability" : 0,
		"reason" : "windDir",
		"timestamp" :1555862400
		},
	"2019-04-21T20:00:00+02:00" : {
		"windSpeed" : 2.1,
		"windDir" : 197,
		"rain" : 0,
		"cloudbase" : null,
		"flyability" : 0,
		"reason" : "windDir",
		"timestamp" :1555873200
		},
	"2019-04-21T23:00:00+02:00" : {
		"windSpeed" : 2,
		"windDir" : 200,
		"rain" : 0,
		"cloudbase" : null,
		"flyability" : 0,
		"reason" : "windDir",
		"timestamp" :1555884000
		},
	"2019-04-22T02:00:00+02:00" : {
		"windSpeed" : 2,
		"windDir" : 201,
		"rain" : 0,
		"cloudbase" : 8764.22,
		"flyability" : 0,
		"reason" : "windDir",
		"timestamp" :1555894800
		},
	"2019-04-22T05:00:00+02:00" : {
		"windSpeed" : 2.6,
		"windDir" : 205,
		"rain" : 0,
		"cloudbase" : 8100,
		"flyability" : 0,
		"reason" : "windDir",
		"timestamp" :1555905600
		},
	"2019-04-22T08:00:00+02:00" : {
		"windSpeed" : 2.4,
		"windDir" : 188,
		"rain" : 0,
		"cloudbase" : 10000,
		"flyability" : 0,
		"reason" : "windDir",
		"timestamp" :1555916400
		},
	"2019-04-22T11:00:00+02:00" : {
		"windSpeed" : 3,
		"windDir" : 174,
		"rain" : 0,
		"cloudbase" : 9499.11,
		"flyability" : 0,
		"reason" : "windDir",
		"timestamp" :1555927200
		},
	"2019-04-22T14:00:00+02:00" : {
		"windSpeed" : 3.4,
		"windDir" : 176,
		"rain" : 0,
		"cloudbase" : 8547.22,
		"flyability" : 0,
		"reason" : "windDir",
		"timestamp" :1555938000
		},
	"2019-04-22T17:00:00+02:00" : {
		"windSpeed" : 2.9,
		"windDir" : 179,
		"rain" : 0,
		"cloudbase" : 4450,
		"flyability" : 0,
		"reason" : "windDir",
		"timestamp" :1555948800
		},
	"2019-04-22T20:00:00+02:00" : {
		"windSpeed" : 2.9,
		"windDir" : 187,
		"rain" : 0,
		"cloudbase" : null,
		"flyability" : 0,
		"reason" : "windDir",
		"timestamp" :1555959600
		},
	"2019-04-22T23:00:00+02:00" : {
		"windSpeed" : 3.7,
		"windDir" : 185,
		"rain" : 0,
		"cloudbase" : 6681.22,
		"flyability" : 0,
		"reason" : "windDir",
		"timestamp" :1555970400
		},
	"2019-04-23T02:00:00+02:00" : {
		"windSpeed" : 4.1,
		"windDir" : 179,
		"rain" : 0,
		"cloudbase" : 4875.44,
		"flyability" : 0,
		"reason" : "windDir",
		"timestamp" :1555981200
		},
	"2019-04-23T05:00:00+02:00" : {
		"windSpeed" : 4.1,
		"windDir" : 184,
		"rain" : 0,
		"cloudbase" : 4992.945,
		"flyability" : 0,
		"reason" : "windDir",
		"timestamp" :1555992000
		},
	"2019-04-23T08:00:00+02:00" : {
		"windSpeed" : 3.7,
		"windDir" : 185,
		"rain" : 0,
		"cloudbase" : 3101.345,
		"flyability" : 0,
		"reason" : "windDir",
		"timestamp" :1556002800
		},
	"2019-04-23T11:00:00+02:00" : {
		"windSpeed" : 3.9,
		"windDir" : 177,
		"rain" : 1,
		"cloudbase" : 1825.0550000001,
		"flyability" : 0,
		"reason" : "windDir, rain",
		"timestamp" :1556013600
		},
	"2019-04-23T14:00:00+02:00" : {
		"windSpeed" : 4.3,
		"windDir" : 177,
		"rain" : 1,
		"cloudbase" : 3346.165,
		"flyability" : 0,
		"reason" : "windDir, rain",
		"timestamp" :1556024400
		},
	"2019-04-23T17:00:00+02:00" : {
		"windSpeed" : 3.3,
		"windDir" : 176,
		"rain" : 1,
		"cloudbase" : 1688.3160000002,
		"flyability" : 0,
		"reason" : "windDir, rain",
		"timestamp" :1556035200
		},
	"2019-04-23T20:00:00+02:00" : {
		"windSpeed" : 3.1,
		"windDir" : 186,
		"rain" : 1,
		"cloudbase" : 3020.4800000001,
		"flyability" : 0,
		"reason" : "windDir, rain",
		"timestamp" :1556046000
		},
	"2019-04-23T23:00:00+02:00" : {
		"windSpeed" : 2.9,
		"windDir" : 185,
		"rain" : 1,
		"cloudbase" : 2890.3850000001,
		"flyability" : 0,
		"reason" : "windDir, rain",
		"timestamp" :1556056800
		},
	"2019-04-24T02:00:00+02:00" : {
		"windSpeed" : 2.8,
		"windDir" : 187,
		"rain" : 0,
		"cloudbase" : 2850,
		"flyability" : 0,
		"reason" : "windDir",
		"timestamp" :1556067600
		},
	"2019-04-24T05:00:00+02:00" : {
		"windSpeed" : 2.9,
		"windDir" : 185,
		"rain" : 1,
		"cloudbase" : 707.28050000007,
		"flyability" : 0,
		"reason" : "windDir, rain, cloudbase",
		"timestamp" :1556078400
		},
	"2019-04-24T08:00:00+02:00" : {
		"windSpeed" : 2.4,
		"windDir" : 186,
		"rain" : 0,
		"cloudbase" : 120.72150000001,
		"flyability" : 0,
		"reason" : "windDir, cloudbase",
		"timestamp" :1556089200
		},
	"2019-04-24T11:00:00+02:00" : {
		"windSpeed" : 3.4,
		"windDir" : 176,
		"rain" : 0,
		"cloudbase" : 170,
		"flyability" : 0,
		"reason" : "windDir, cloudbase",
		"timestamp" :1556100000
		},
	"2019-04-24T14:00:00+02:00" : {
		"windSpeed" : 4.3,
		"windDir" : 183,
		"rain" : 0,
		"cloudbase" : 490,
		"flyability" : 0,
		"reason" : "windDir, cloudbase",
		"timestamp" :1556110800
		},
	"2019-04-24T17:00:00+02:00" : {
		"windSpeed" : 4.8,
		"windDir" : 177,
		"rain" : 0,
		"cloudbase" : 4986.9700000002,
		"flyability" : 0,
		"reason" : "windDir",
		"timestamp" :1556121600
		},
	"2019-04-24T20:00:00+02:00" : {
		"windSpeed" : 3.2,
		"windDir" : 169,
		"rain" : 1,
		"cloudbase" : 5731.7449999999,
		"flyability" : 0,
		"reason" : "windDir, rain",
		"timestamp" :1556132400
		},
	"2019-04-24T23:00:00+02:00" : {
		"windSpeed" : 2.7,
		"windDir" : 166,
		"rain" : 0,
		"cloudbase" : 324.56000000006,
		"flyability" : 0,
		"reason" : "windDir, cloudbase",
		"timestamp" :1556143200
		},
	"2019-04-25T02:00:00+02:00" : {
		"windSpeed" : 1.7,
		"windDir" : 173,
		"rain" : 1,
		"cloudbase" : 1226.3580000001,
		"flyability" : 0,
		"reason" : "windDir, rain",
		"timestamp" :1556154000
		}
	}
}