{
"site" : "yuscaran",
"id" : 7252,
"orientations" : "12100000",
"forecasts" : { 
	"2019-04-03T21:00:00-06:00" : {
		"windSpeed" : 2.4,
		"windDir" : 69,
		"rain" : 0,
		"cloudbase" : null,
		"flyability" : 100,
		"reason" : "",
		"timestamp" :1554346800
		},
	"2019-04-04T00:00:00-06:00" : {
		"windSpeed" : 2.1,
		"windDir" : 42,
		"rain" : 0,
		"cloudbase" : null,
		"flyability" : 100,
		"reason" : "",
		"timestamp" :1554357600
		},
	"2019-04-04T03:00:00-06:00" : {
		"windSpeed" : 2.2,
		"windDir" : 22,
		"rain" : 1,
		"cloudbase" : null,
		"flyability" : 0,
		"reason" : "rain",
		"timestamp" :1554368400
		},
	"2019-04-04T06:00:00-06:00" : {
		"windSpeed" : 2.2,
		"windDir" : 30,
		"rain" : 1,
		"cloudbase" : null,
		"flyability" : 0,
		"reason" : "rain",
		"timestamp" :1554379200
		},
	"2019-04-04T09:00:00-06:00" : {
		"windSpeed" : 4.1,
		"windDir" : 66,
		"rain" : 1,
		"cloudbase" : null,
		"flyability" : 0,
		"reason" : "rain",
		"timestamp" :1554390000
		},
	"2019-04-04T12:00:00-06:00" : {
		"windSpeed" : 4.3,
		"windDir" : 75,
		"rain" : 1,
		"cloudbase" : 1950,
		"flyability" : 0,
		"reason" : "rain",
		"timestamp" :1554400800
		},
	"2019-04-04T15:00:00-06:00" : {
		"windSpeed" : 3.5,
		"windDir" : 67,
		"rain" : 1,
		"cloudbase" : null,
		"flyability" : 0,
		"reason" : "rain",
		"timestamp" :1554411600
		},
	"2019-04-04T18:00:00-06:00" : {
		"windSpeed" : 2.8,
		"windDir" : 73,
		"rain" : 1,
		"cloudbase" : null,
		"flyability" : 0,
		"reason" : "rain",
		"timestamp" :1554422400
		},
	"2019-04-04T21:00:00-06:00" : {
		"windSpeed" : 1.9,
		"windDir" : 84,
		"rain" : 0,
		"cloudbase" : null,
		"flyability" : 100,
		"reason" : "",
		"timestamp" :1554433200
		},
	"2019-04-05T00:00:00-06:00" : {
		"windSpeed" : 1.4,
		"windDir" : 52,
		"rain" : 0,
		"cloudbase" : null,
		"flyability" : 100,
		"reason" : "",
		"timestamp" :1554444000
		},
	"2019-04-05T03:00:00-06:00" : {
		"windSpeed" : 1.2,
		"windDir" : 13,
		"rain" : 0,
		"cloudbase" : null,
		"flyability" : 100,
		"reason" : "",
		"timestamp" :1554454800
		},
	"2019-04-05T06:00:00-06:00" : {
		"windSpeed" : 1.1,
		"windDir" : 19,
		"rain" : 0,
		"cloudbase" : null,
		"flyability" : 100,
		"reason" : "",
		"timestamp" :1554465600
		},
	"2019-04-05T09:00:00-06:00" : {
		"windSpeed" : 2.5,
		"windDir" : 57,
		"rain" : 0,
		"cloudbase" : null,
		"flyability" : 100,
		"reason" : "",
		"timestamp" :1554476400
		},
	"2019-04-05T12:00:00-06:00" : {
		"windSpeed" : 3.3,
		"windDir" : 80,
		"rain" : 0,
		"cloudbase" : null,
		"flyability" : 100,
		"reason" : "",
		"timestamp" :1554487200
		},
	"2019-04-05T15:00:00-06:00" : {
		"windSpeed" : 3.6,
		"windDir" : 76,
		"rain" : 1,
		"cloudbase" : null,
		"flyability" : 0,
		"reason" : "rain",
		"timestamp" :1554498000
		},
	"2019-04-05T18:00:00-06:00" : {
		"windSpeed" : 2.9,
		"windDir" : 84,
		"rain" : 1,
		"cloudbase" : null,
		"flyability" : 0,
		"reason" : "rain",
		"timestamp" :1554508800
		},
	"2019-04-05T21:00:00-06:00" : {
		"windSpeed" : 2.4,
		"windDir" : 83,
		"rain" : 0,
		"cloudbase" : null,
		"flyability" : 100,
		"reason" : "",
		"timestamp" :1554519600
		},
	"2019-04-06T00:00:00-06:00" : {
		"windSpeed" : 0.9,
		"windDir" : 66,
		"rain" : 1,
		"cloudbase" : null,
		"flyability" : 0,
		"reason" : "rain",
		"timestamp" :1554530400
		},
	"2019-04-06T03:00:00-06:00" : {
		"windSpeed" : 1.1,
		"windDir" : 62,
		"rain" : 0,
		"cloudbase" : null,
		"flyability" : 100,
		"reason" : "",
		"timestamp" :1554541200
		},
	"2019-04-06T06:00:00-06:00" : {
		"windSpeed" : 1.3,
		"windDir" : 48,
		"rain" : 1,
		"cloudbase" : null,
		"flyability" : 0,
		"reason" : "rain",
		"timestamp" :1554552000
		},
	"2019-04-06T09:00:00-06:00" : {
		"windSpeed" : 2,
		"windDir" : 64,
		"rain" : 0,
		"cloudbase" : null,
		"flyability" : 100,
		"reason" : "",
		"timestamp" :1554562800
		},
	"2019-04-06T12:00:00-06:00" : {
		"windSpeed" : 2.9,
		"windDir" : 76,
		"rain" : 0,
		"cloudbase" : null,
		"flyability" : 100,
		"reason" : "",
		"timestamp" :1554573600
		},
	"2019-04-06T15:00:00-06:00" : {
		"windSpeed" : 3.4,
		"windDir" : 59,
		"rain" : 0,
		"cloudbase" : null,
		"flyability" : 100,
		"reason" : "",
		"timestamp" :1554584400
		},
	"2019-04-06T18:00:00-06:00" : {
		"windSpeed" : 3.2,
		"windDir" : 97,
		"rain" : 0,
		"cloudbase" : null,
		"flyability" : 100,
		"reason" : "",
		"timestamp" :1554595200
		},
	"2019-04-06T21:00:00-06:00" : {
		"windSpeed" : 1.9,
		"windDir" : 75,
		"rain" : 0,
		"cloudbase" : 1550,
		"flyability" : 100,
		"reason" : "",
		"timestamp" :1554606000
		},
	"2019-04-07T00:00:00-06:00" : {
		"windSpeed" : 1.1,
		"windDir" : 73,
		"rain" : 0,
		"cloudbase" : null,
		"flyability" : 100,
		"reason" : "",
		"timestamp" :1554616800
		},
	"2019-04-07T03:00:00-06:00" : {
		"windSpeed" : 1.1,
		"windDir" : 49,
		"rain" : 1,
		"cloudbase" : null,
		"flyability" : 0,
		"reason" : "rain",
		"timestamp" :1554627600
		},
	"2019-04-07T06:00:00-06:00" : {
		"windSpeed" : 1.2,
		"windDir" : 46,
		"rain" : 1,
		"cloudbase" : 9464.3519999998,
		"flyability" : 0,
		"reason" : "rain",
		"timestamp" :1554638400
		},
	"2019-04-07T09:00:00-06:00" : {
		"windSpeed" : 2.6,
		"windDir" : 80,
		"rain" : 0,
		"cloudbase" : null,
		"flyability" : 100,
		"reason" : "",
		"timestamp" :1554649200
		},
	"2019-04-07T12:00:00-06:00" : {
		"windSpeed" : 3,
		"windDir" : 102,
		"rain" : 0,
		"cloudbase" : null,
		"flyability" : 100,
		"reason" : "",
		"timestamp" :1554660000
		},
	"2019-04-07T15:00:00-06:00" : {
		"windSpeed" : 2,
		"windDir" : 82,
		"rain" : 0,
		"cloudbase" : 2800,
		"flyability" : 100,
		"reason" : "",
		"timestamp" :1554670800
		},
	"2019-04-07T18:00:00-06:00" : {
		"windSpeed" : 2.3,
		"windDir" : 77,
		"rain" : 0,
		"cloudbase" : null,
		"flyability" : 100,
		"reason" : "",
		"timestamp" :1554681600
		},
	"2019-04-07T21:00:00-06:00" : {
		"windSpeed" : 1.2,
		"windDir" : 202,
		"rain" : 0,
		"cloudbase" : null,
		"flyability" : 0,
		"reason" : "windDir",
		"timestamp" :1554692400
		},
	"2019-04-08T00:00:00-06:00" : {
		"windSpeed" : 1,
		"windDir" : 141,
		"rain" : 1,
		"cloudbase" : null,
		"flyability" : 0,
		"reason" : "windDir, rain",
		"timestamp" :1554703200
		},
	"2019-04-08T03:00:00-06:00" : {
		"windSpeed" : 0.7,
		"windDir" : 61,
		"rain" : 1,
		"cloudbase" : null,
		"flyability" : 0,
		"reason" : "rain",
		"timestamp" :1554714000
		},
	"2019-04-08T06:00:00-06:00" : {
		"windSpeed" : 0.7,
		"windDir" : 72,
		"rain" : 0,
		"cloudbase" : null,
		"flyability" : 100,
		"reason" : "",
		"timestamp" :1554724800
		},
	"2019-04-08T09:00:00-06:00" : {
		"windSpeed" : 1.5,
		"windDir" : 81,
		"rain" : 0,
		"cloudbase" : null,
		"flyability" : 100,
		"reason" : "",
		"timestamp" :1554735600
		},
	"2019-04-08T12:00:00-06:00" : {
		"windSpeed" : 1.9,
		"windDir" : 89,
		"rain" : 1,
		"cloudbase" : null,
		"flyability" : 0,
		"reason" : "rain",
		"timestamp" :1554746400
		},
	"2019-04-08T15:00:00-06:00" : {
		"windSpeed" : 1.1,
		"windDir" : 104,
		"rain" : 0,
		"cloudbase" : 2500,
		"flyability" : 100,
		"reason" : "",
		"timestamp" :1554757200
		},
	"2019-04-08T18:00:00-06:00" : {
		"windSpeed" : 2.4,
		"windDir" : 225,
		"rain" : 1,
		"cloudbase" : 3150,
		"flyability" : 0,
		"reason" : "windDir, rain",
		"timestamp" :1554768000
		},
	"2019-04-08T21:00:00-06:00" : {
		"windSpeed" : 1.3,
		"windDir" : 116,
		"rain" : 1,
		"cloudbase" : 2400,
		"flyability" : 0,
		"reason" : "windDir, rain",
		"timestamp" :1554778800
		},
	"2019-04-09T00:00:00-06:00" : {
		"windSpeed" : 0.4,
		"windDir" : 142,
		"rain" : 1,
		"cloudbase" : 2650,
		"flyability" : 0,
		"reason" : "windDir, rain",
		"timestamp" :1554789600
		},
	"2019-04-09T03:00:00-06:00" : {
		"windSpeed" : 0.4,
		"windDir" : 108,
		"rain" : 1,
		"cloudbase" : 1750,
		"flyability" : 0,
		"reason" : "rain",
		"timestamp" :1554800400
		},
	"2019-04-09T06:00:00-06:00" : {
		"windSpeed" : 0.3,
		"windDir" : 45,
		"rain" : 1,
		"cloudbase" : 1550,
		"flyability" : 0,
		"reason" : "rain",
		"timestamp" :1554811200
		},
	"2019-04-09T09:00:00-06:00" : {
		"windSpeed" : 1.3,
		"windDir" : 108,
		"rain" : 1,
		"cloudbase" : 3650,
		"flyability" : 0,
		"reason" : "rain",
		"timestamp" :1554822000
		},
	"2019-04-09T12:00:00-06:00" : {
		"windSpeed" : 1.6,
		"windDir" : 126,
		"rain" : 1,
		"cloudbase" : null,
		"flyability" : 0,
		"reason" : "windDir, rain",
		"timestamp" :1554832800
		},
	"2019-04-09T15:00:00-06:00" : {
		"windSpeed" : 1.9,
		"windDir" : 192,
		"rain" : 0,
		"cloudbase" : null,
		"flyability" : 0,
		"reason" : "windDir",
		"timestamp" :1554843600
		},
	"2019-04-09T18:00:00-06:00" : {
		"windSpeed" : 0.6,
		"windDir" : 276,
		"rain" : 0,
		"cloudbase" : null,
		"flyability" : 0,
		"reason" : "windDir",
		"timestamp" :1554854400
		}
	}
}