{
"site" : "Crackneck Lookout",
"id" : 7270,
"orientations" : "00220000",
"forecasts" : { 
	"2019-04-18T01:00:00+10:00" : {
		"windSpeed" : 1.8,
		"windDir" : 300,
		"rain" : 0,
		"cloudbase" : null,
		"flyability" : 0,
		"reason" : "windDir",
		"timestamp" :1555509600
		},
	"2019-04-18T04:00:00+10:00" : {
		"windSpeed" : 1.4,
		"windDir" : 272,
		"rain" : 0,
		"cloudbase" : null,
		"flyability" : 0,
		"reason" : "windDir",
		"timestamp" :1555520400
		},
	"2019-04-18T07:00:00+10:00" : {
		"windSpeed" : 2,
		"windDir" : 258,
		"rain" : 0,
		"cloudbase" : null,
		"flyability" : 0,
		"reason" : "windDir",
		"timestamp" :1555531200
		},
	"2019-04-18T10:00:00+10:00" : {
		"windSpeed" : 0.8,
		"windDir" : 40,
		"rain" : 0,
		"cloudbase" : null,
		"flyability" : 0,
		"reason" : "windDir",
		"timestamp" :1555542000
		},
	"2019-04-18T13:00:00+10:00" : {
		"windSpeed" : 3,
		"windDir" : 107,
		"rain" : 0,
		"cloudbase" : null,
		"flyability" : 100,
		"reason" : "",
		"timestamp" :1555552800
		},
	"2019-04-18T16:00:00+10:00" : {
		"windSpeed" : 3.8,
		"windDir" : 96,
		"rain" : 0,
		"cloudbase" : null,
		"flyability" : 100,
		"reason" : "",
		"timestamp" :1555563600
		},
	"2019-04-18T19:00:00+10:00" : {
		"windSpeed" : 2.8,
		"windDir" : 78,
		"rain" : 0,
		"cloudbase" : null,
		"flyability" : 100,
		"reason" : "",
		"timestamp" :1555574400
		},
	"2019-04-18T22:00:00+10:00" : {
		"windSpeed" : 1.1,
		"windDir" : 169,
		"rain" : 0,
		"cloudbase" : null,
		"flyability" : 0,
		"reason" : "windDir",
		"timestamp" :1555585200
		},
	"2019-04-19T01:00:00+10:00" : {
		"windSpeed" : 3.7,
		"windDir" : 204,
		"rain" : 1,
		"cloudbase" : null,
		"flyability" : 0,
		"reason" : "windDir, rain",
		"timestamp" :1555596000
		},
	"2019-04-19T04:00:00+10:00" : {
		"windSpeed" : 2.8,
		"windDir" : 214,
		"rain" : 1,
		"cloudbase" : null,
		"flyability" : 0,
		"reason" : "windDir, rain",
		"timestamp" :1555606800
		},
	"2019-04-19T07:00:00+10:00" : {
		"windSpeed" : 3.7,
		"windDir" : 232,
		"rain" : 1,
		"cloudbase" : null,
		"flyability" : 0,
		"reason" : "windDir, rain",
		"timestamp" :1555617600
		},
	"2019-04-19T10:00:00+10:00" : {
		"windSpeed" : 2.9,
		"windDir" : 188,
		"rain" : 1,
		"cloudbase" : 7797.8960000001,
		"flyability" : 0,
		"reason" : "windDir, rain",
		"timestamp" :1555628400
		},
	"2019-04-19T13:00:00+10:00" : {
		"windSpeed" : 3.5,
		"windDir" : 161,
		"rain" : 1,
		"cloudbase" : 7400,
		"flyability" : 0,
		"reason" : "windDir, rain",
		"timestamp" :1555639200
		},
	"2019-04-19T16:00:00+10:00" : {
		"windSpeed" : 3.1,
		"windDir" : 140,
		"rain" : 0,
		"cloudbase" : null,
		"flyability" : 100,
		"reason" : "",
		"timestamp" :1555650000
		},
	"2019-04-19T19:00:00+10:00" : {
		"windSpeed" : 2.1,
		"windDir" : 119,
		"rain" : 1,
		"cloudbase" : null,
		"flyability" : 0,
		"reason" : "rain",
		"timestamp" :1555660800
		},
	"2019-04-19T22:00:00+10:00" : {
		"windSpeed" : 2.8,
		"windDir" : 50,
		"rain" : 1,
		"cloudbase" : null,
		"flyability" : 0,
		"reason" : "windDir, rain",
		"timestamp" :1555671600
		},
	"2019-04-20T01:00:00+10:00" : {
		"windSpeed" : 0.9,
		"windDir" : 353,
		"rain" : 1,
		"cloudbase" : null,
		"flyability" : 0,
		"reason" : "windDir, rain",
		"timestamp" :1555682400
		},
	"2019-04-20T04:00:00+10:00" : {
		"windSpeed" : 0.4,
		"windDir" : 343,
		"rain" : 1,
		"cloudbase" : null,
		"flyability" : 0,
		"reason" : "windDir, rain",
		"timestamp" :1555693200
		},
	"2019-04-20T07:00:00+10:00" : {
		"windSpeed" : 1.7,
		"windDir" : 238,
		"rain" : 1,
		"cloudbase" : null,
		"flyability" : 0,
		"reason" : "windDir, rain",
		"timestamp" :1555704000
		},
	"2019-04-20T10:00:00+10:00" : {
		"windSpeed" : 2.1,
		"windDir" : 116,
		"rain" : 1,
		"cloudbase" : null,
		"flyability" : 0,
		"reason" : "rain",
		"timestamp" :1555714800
		},
	"2019-04-20T13:00:00+10:00" : {
		"windSpeed" : 3.4,
		"windDir" : 90,
		"rain" : 1,
		"cloudbase" : null,
		"flyability" : 0,
		"reason" : "rain",
		"timestamp" :1555725600
		},
	"2019-04-20T16:00:00+10:00" : {
		"windSpeed" : 3.5,
		"windDir" : 82,
		"rain" : 0,
		"cloudbase" : null,
		"flyability" : 100,
		"reason" : "",
		"timestamp" :1555736400
		},
	"2019-04-20T19:00:00+10:00" : {
		"windSpeed" : 4,
		"windDir" : 54,
		"rain" : 1,
		"cloudbase" : null,
		"flyability" : 0,
		"reason" : "windDir, rain",
		"timestamp" :1555747200
		},
	"2019-04-20T22:00:00+10:00" : {
		"windSpeed" : 3.8,
		"windDir" : 33,
		"rain" : 1,
		"cloudbase" : null,
		"flyability" : 0,
		"reason" : "windDir, rain",
		"timestamp" :1555758000
		},
	"2019-04-21T01:00:00+10:00" : {
		"windSpeed" : 2.7,
		"windDir" : 6,
		"rain" : 1,
		"cloudbase" : null,
		"flyability" : 0,
		"reason" : "windDir, rain",
		"timestamp" :1555768800
		},
	"2019-04-21T04:00:00+10:00" : {
		"windSpeed" : 1.5,
		"windDir" : 289,
		"rain" : 0,
		"cloudbase" : null,
		"flyability" : 0,
		"reason" : "windDir",
		"timestamp" :1555779600
		},
	"2019-04-21T07:00:00+10:00" : {
		"windSpeed" : 1.4,
		"windDir" : 277,
		"rain" : 0,
		"cloudbase" : null,
		"flyability" : 0,
		"reason" : "windDir",
		"timestamp" :1555790400
		},
	"2019-04-21T10:00:00+10:00" : {
		"windSpeed" : 2.7,
		"windDir" : 67,
		"rain" : 0,
		"cloudbase" : null,
		"flyability" : 0,
		"reason" : "windDir",
		"timestamp" :1555801200
		},
	"2019-04-21T13:00:00+10:00" : {
		"windSpeed" : 3.2,
		"windDir" : 72,
		"rain" : 0,
		"cloudbase" : null,
		"flyability" : 100,
		"reason" : "",
		"timestamp" :1555812000
		},
	"2019-04-21T16:00:00+10:00" : {
		"windSpeed" : 4.4,
		"windDir" : 51,
		"rain" : 1,
		"cloudbase" : null,
		"flyability" : 0,
		"reason" : "windDir, rain",
		"timestamp" :1555822800
		},
	"2019-04-21T19:00:00+10:00" : {
		"windSpeed" : 5.3,
		"windDir" : 39,
		"rain" : 1,
		"cloudbase" : 10500,
		"flyability" : 0,
		"reason" : "windSpeed, windDir, rain",
		"timestamp" :1555833600
		},
	"2019-04-21T22:00:00+10:00" : {
		"windSpeed" : 5,
		"windDir" : 21,
		"rain" : 0,
		"cloudbase" : 11000,
		"flyability" : 0,
		"reason" : "windDir",
		"timestamp" :1555844400
		},
	"2019-04-22T01:00:00+10:00" : {
		"windSpeed" : 3.3,
		"windDir" : 360,
		"rain" : 0,
		"cloudbase" : 9583,
		"flyability" : 0,
		"reason" : "windDir",
		"timestamp" :1555855200
		},
	"2019-04-22T04:00:00+10:00" : {
		"windSpeed" : 1.3,
		"windDir" : 312,
		"rain" : 0,
		"cloudbase" : 9283,
		"flyability" : 0,
		"reason" : "windDir",
		"timestamp" :1555866000
		},
	"2019-04-22T07:00:00+10:00" : {
		"windSpeed" : 0.7,
		"windDir" : 315,
		"rain" : 0,
		"cloudbase" : 9283,
		"flyability" : 0,
		"reason" : "windDir",
		"timestamp" :1555876800
		},
	"2019-04-22T10:00:00+10:00" : {
		"windSpeed" : 3.2,
		"windDir" : 28,
		"rain" : 0,
		"cloudbase" : 9283,
		"flyability" : 0,
		"reason" : "windDir",
		"timestamp" :1555887600
		},
	"2019-04-22T13:00:00+10:00" : {
		"windSpeed" : 4.1,
		"windDir" : 54,
		"rain" : 0,
		"cloudbase" : 8904.648,
		"flyability" : 0,
		"reason" : "windDir",
		"timestamp" :1555898400
		},
	"2019-04-22T16:00:00+10:00" : {
		"windSpeed" : 5.4,
		"windDir" : 52,
		"rain" : 0,
		"cloudbase" : 8604.648,
		"flyability" : 0,
		"reason" : "windSpeed, windDir",
		"timestamp" :1555909200
		},
	"2019-04-22T19:00:00+10:00" : {
		"windSpeed" : 4.6,
		"windDir" : 37,
		"rain" : 0,
		"cloudbase" : 8566,
		"flyability" : 0,
		"reason" : "windDir",
		"timestamp" :1555920000
		},
	"2019-04-22T22:00:00+10:00" : {
		"windSpeed" : 3,
		"windDir" : 18,
		"rain" : 0,
		"cloudbase" : 8193.448,
		"flyability" : 0,
		"reason" : "windDir",
		"timestamp" :1555930800
		},
	"2019-04-23T01:00:00+10:00" : {
		"windSpeed" : 1,
		"windDir" : 326,
		"rain" : 0,
		"cloudbase" : 8289.848,
		"flyability" : 0,
		"reason" : "windDir",
		"timestamp" :1555941600
		},
	"2019-04-23T04:00:00+10:00" : {
		"windSpeed" : 2.2,
		"windDir" : 243,
		"rain" : 0,
		"cloudbase" : null,
		"flyability" : 0,
		"reason" : "windDir",
		"timestamp" :1555952400
		},
	"2019-04-23T07:00:00+10:00" : {
		"windSpeed" : 2.4,
		"windDir" : 221,
		"rain" : 0,
		"cloudbase" : null,
		"flyability" : 0,
		"reason" : "windDir",
		"timestamp" :1555963200
		},
	"2019-04-23T10:00:00+10:00" : {
		"windSpeed" : 2.4,
		"windDir" : 189,
		"rain" : 1,
		"cloudbase" : null,
		"flyability" : 0,
		"reason" : "windDir, rain",
		"timestamp" :1555974000
		},
	"2019-04-23T13:00:00+10:00" : {
		"windSpeed" : 2.8,
		"windDir" : 122,
		"rain" : 1,
		"cloudbase" : null,
		"flyability" : 0,
		"reason" : "rain",
		"timestamp" :1555984800
		},
	"2019-04-23T16:00:00+10:00" : {
		"windSpeed" : 2.8,
		"windDir" : 120,
		"rain" : 1,
		"cloudbase" : null,
		"flyability" : 0,
		"reason" : "rain",
		"timestamp" :1555995600
		},
	"2019-04-23T19:00:00+10:00" : {
		"windSpeed" : 2,
		"windDir" : 78,
		"rain" : 1,
		"cloudbase" : null,
		"flyability" : 0,
		"reason" : "rain",
		"timestamp" :1556006400
		},
	"2019-04-23T22:00:00+10:00" : {
		"windSpeed" : 0.8,
		"windDir" : 347,
		"rain" : 0,
		"cloudbase" : null,
		"flyability" : 0,
		"reason" : "windDir",
		"timestamp" :1556017200
		}
	}
}