{
"site" : "Avenue S",
"id" : 7298,
"orientations" : "22000000",
"forecasts" : { 
	"2019-04-09T20:00:00-07:00" : {
		"windSpeed" : 4.7,
		"windDir" : 308,
		"rain" : 0,
		"cloudbase" : null,
		"flyability" : 0,
		"reason" : "windDir",
		"timestamp" :1554868800
		},
	"2019-04-09T23:00:00-07:00" : {
		"windSpeed" : 4,
		"windDir" : 341,
		"rain" : 0,
		"cloudbase" : null,
		"flyability" : 100,
		"reason" : "",
		"timestamp" :1554879600
		},
	"2019-04-10T02:00:00-07:00" : {
		"windSpeed" : 3.6,
		"windDir" : 360,
		"rain" : 0,
		"cloudbase" : null,
		"flyability" : 100,
		"reason" : "",
		"timestamp" :1554890400
		},
	"2019-04-10T05:00:00-07:00" : {
		"windSpeed" : 2.3,
		"windDir" : 350,
		"rain" : 0,
		"cloudbase" : null,
		"flyability" : 100,
		"reason" : "",
		"timestamp" :1554901200
		},
	"2019-04-10T08:00:00-07:00" : {
		"windSpeed" : 1.2,
		"windDir" : 69,
		"rain" : 0,
		"cloudbase" : null,
		"flyability" : 0,
		"reason" : "windDir",
		"timestamp" :1554912000
		},
	"2019-04-10T11:00:00-07:00" : {
		"windSpeed" : 3.8,
		"windDir" : 10,
		"rain" : 0,
		"cloudbase" : null,
		"flyability" : 100,
		"reason" : "",
		"timestamp" :1554922800
		},
	"2019-04-10T14:00:00-07:00" : {
		"windSpeed" : 3.6,
		"windDir" : 350,
		"rain" : 0,
		"cloudbase" : null,
		"flyability" : 100,
		"reason" : "",
		"timestamp" :1554933600
		},
	"2019-04-10T17:00:00-07:00" : {
		"windSpeed" : 5.3,
		"windDir" : 325,
		"rain" : 0,
		"cloudbase" : null,
		"flyability" : 0,
		"reason" : "windSpeed, windDir",
		"timestamp" :1554944400
		},
	"2019-04-10T20:00:00-07:00" : {
		"windSpeed" : 2.9,
		"windDir" : 341,
		"rain" : 0,
		"cloudbase" : null,
		"flyability" : 100,
		"reason" : "",
		"timestamp" :1554955200
		},
	"2019-04-10T23:00:00-07:00" : {
		"windSpeed" : 1.9,
		"windDir" : 359,
		"rain" : 0,
		"cloudbase" : null,
		"flyability" : 100,
		"reason" : "",
		"timestamp" :1554966000
		},
	"2019-04-11T02:00:00-07:00" : {
		"windSpeed" : 0.4,
		"windDir" : 148,
		"rain" : 0,
		"cloudbase" : null,
		"flyability" : 0,
		"reason" : "windDir",
		"timestamp" :1554976800
		},
	"2019-04-11T05:00:00-07:00" : {
		"windSpeed" : 1.2,
		"windDir" : 148,
		"rain" : 0,
		"cloudbase" : null,
		"flyability" : 0,
		"reason" : "windDir",
		"timestamp" :1554987600
		},
	"2019-04-11T08:00:00-07:00" : {
		"windSpeed" : 1,
		"windDir" : 36,
		"rain" : 0,
		"cloudbase" : null,
		"flyability" : 100,
		"reason" : "",
		"timestamp" :1554998400
		},
	"2019-04-11T11:00:00-07:00" : {
		"windSpeed" : 2.6,
		"windDir" : 332,
		"rain" : 0,
		"cloudbase" : 8456.055,
		"flyability" : 0,
		"reason" : "windDir",
		"timestamp" :1555009200
		},
	"2019-04-11T14:00:00-07:00" : {
		"windSpeed" : 4.7,
		"windDir" : 293,
		"rain" : 0,
		"cloudbase" : 5196.66,
		"flyability" : 0,
		"reason" : "windDir",
		"timestamp" :1555020000
		},
	"2019-04-11T17:00:00-07:00" : {
		"windSpeed" : 4.5,
		"windDir" : 298,
		"rain" : 0,
		"cloudbase" : 5064.4725,
		"flyability" : 0,
		"reason" : "windDir",
		"timestamp" :1555030800
		},
	"2019-04-11T20:00:00-07:00" : {
		"windSpeed" : 4.2,
		"windDir" : 279,
		"rain" : 0,
		"cloudbase" : 5773,
		"flyability" : 0,
		"reason" : "windDir",
		"timestamp" :1555041600
		},
	"2019-04-11T23:00:00-07:00" : {
		"windSpeed" : 2.4,
		"windDir" : 268,
		"rain" : 0,
		"cloudbase" : null,
		"flyability" : 0,
		"reason" : "windDir",
		"timestamp" :1555052400
		},
	"2019-04-12T02:00:00-07:00" : {
		"windSpeed" : 1.8,
		"windDir" : 259,
		"rain" : 0,
		"cloudbase" : null,
		"flyability" : 0,
		"reason" : "windDir",
		"timestamp" :1555063200
		},
	"2019-04-12T05:00:00-07:00" : {
		"windSpeed" : 0.7,
		"windDir" : 340,
		"rain" : 0,
		"cloudbase" : null,
		"flyability" : 100,
		"reason" : "",
		"timestamp" :1555074000
		},
	"2019-04-12T08:00:00-07:00" : {
		"windSpeed" : 2,
		"windDir" : 353,
		"rain" : 0,
		"cloudbase" : null,
		"flyability" : 100,
		"reason" : "",
		"timestamp" :1555084800
		},
	"2019-04-12T11:00:00-07:00" : {
		"windSpeed" : 3.7,
		"windDir" : 344,
		"rain" : 0,
		"cloudbase" : null,
		"flyability" : 100,
		"reason" : "",
		"timestamp" :1555095600
		},
	"2019-04-12T14:00:00-07:00" : {
		"windSpeed" : 4.1,
		"windDir" : 330,
		"rain" : 0,
		"cloudbase" : null,
		"flyability" : 0,
		"reason" : "windDir",
		"timestamp" :1555106400
		},
	"2019-04-12T17:00:00-07:00" : {
		"windSpeed" : 4.6,
		"windDir" : 318,
		"rain" : 0,
		"cloudbase" : null,
		"flyability" : 0,
		"reason" : "windDir",
		"timestamp" :1555117200
		},
	"2019-04-12T20:00:00-07:00" : {
		"windSpeed" : 2.5,
		"windDir" : 322,
		"rain" : 0,
		"cloudbase" : null,
		"flyability" : 0,
		"reason" : "windDir",
		"timestamp" :1555128000
		},
	"2019-04-12T23:00:00-07:00" : {
		"windSpeed" : 1.5,
		"windDir" : 158,
		"rain" : 0,
		"cloudbase" : null,
		"flyability" : 0,
		"reason" : "windDir",
		"timestamp" :1555138800
		},
	"2019-04-13T02:00:00-07:00" : {
		"windSpeed" : 1.8,
		"windDir" : 136,
		"rain" : 0,
		"cloudbase" : null,
		"flyability" : 0,
		"reason" : "windDir",
		"timestamp" :1555149600
		},
	"2019-04-13T05:00:00-07:00" : {
		"windSpeed" : 1.9,
		"windDir" : 125,
		"rain" : 0,
		"cloudbase" : null,
		"flyability" : 0,
		"reason" : "windDir",
		"timestamp" :1555160400
		},
	"2019-04-13T08:00:00-07:00" : {
		"windSpeed" : 1.7,
		"windDir" : 79,
		"rain" : 0,
		"cloudbase" : null,
		"flyability" : 0,
		"reason" : "windDir",
		"timestamp" :1555171200
		},
	"2019-04-13T11:00:00-07:00" : {
		"windSpeed" : 3.5,
		"windDir" : 57,
		"rain" : 0,
		"cloudbase" : null,
		"flyability" : 100,
		"reason" : "",
		"timestamp" :1555182000
		},
	"2019-04-13T14:00:00-07:00" : {
		"windSpeed" : 2,
		"windDir" : 357,
		"rain" : 0,
		"cloudbase" : null,
		"flyability" : 100,
		"reason" : "",
		"timestamp" :1555192800
		},
	"2019-04-13T17:00:00-07:00" : {
		"windSpeed" : 4.9,
		"windDir" : 245,
		"rain" : 0,
		"cloudbase" : null,
		"flyability" : 0,
		"reason" : "windDir",
		"timestamp" :1555203600
		},
	"2019-04-13T20:00:00-07:00" : {
		"windSpeed" : 4,
		"windDir" : 229,
		"rain" : 0,
		"cloudbase" : null,
		"flyability" : 0,
		"reason" : "windDir",
		"timestamp" :1555214400
		},
	"2019-04-13T23:00:00-07:00" : {
		"windSpeed" : 3.3,
		"windDir" : 218,
		"rain" : 0,
		"cloudbase" : null,
		"flyability" : 0,
		"reason" : "windDir",
		"timestamp" :1555225200
		},
	"2019-04-14T02:00:00-07:00" : {
		"windSpeed" : 3.1,
		"windDir" : 218,
		"rain" : 0,
		"cloudbase" : 11000,
		"flyability" : 0,
		"reason" : "windDir",
		"timestamp" :1555236000
		},
	"2019-04-14T05:00:00-07:00" : {
		"windSpeed" : 3.1,
		"windDir" : 220,
		"rain" : 0,
		"cloudbase" : 9407.055,
		"flyability" : 0,
		"reason" : "windDir",
		"timestamp" :1555246800
		},
	"2019-04-14T08:00:00-07:00" : {
		"windSpeed" : 4,
		"windDir" : 226,
		"rain" : 0,
		"cloudbase" : 9434.055,
		"flyability" : 0,
		"reason" : "windDir",
		"timestamp" :1555257600
		},
	"2019-04-14T11:00:00-07:00" : {
		"windSpeed" : 6.5,
		"windDir" : 231,
		"rain" : 0,
		"cloudbase" : 9010.61,
		"flyability" : 0,
		"reason" : "windSpeed, windDir",
		"timestamp" :1555268400
		},
	"2019-04-14T14:00:00-07:00" : {
		"windSpeed" : 6.6,
		"windDir" : 224,
		"rain" : 0,
		"cloudbase" : null,
		"flyability" : 0,
		"reason" : "windSpeed, windDir",
		"timestamp" :1555279200
		},
	"2019-04-14T17:00:00-07:00" : {
		"windSpeed" : 6.8,
		"windDir" : 219,
		"rain" : 0,
		"cloudbase" : null,
		"flyability" : 0,
		"reason" : "windSpeed, windDir",
		"timestamp" :1555290000
		},
	"2019-04-14T20:00:00-07:00" : {
		"windSpeed" : 4.7,
		"windDir" : 218,
		"rain" : 0,
		"cloudbase" : 11000,
		"flyability" : 0,
		"reason" : "windDir",
		"timestamp" :1555300800
		},
	"2019-04-14T23:00:00-07:00" : {
		"windSpeed" : 3.7,
		"windDir" : 221,
		"rain" : 0,
		"cloudbase" : 9265.165,
		"flyability" : 0,
		"reason" : "windDir",
		"timestamp" :1555311600
		},
	"2019-04-15T02:00:00-07:00" : {
		"windSpeed" : 2.9,
		"windDir" : 229,
		"rain" : 0,
		"cloudbase" : null,
		"flyability" : 0,
		"reason" : "windDir",
		"timestamp" :1555322400
		},
	"2019-04-15T05:00:00-07:00" : {
		"windSpeed" : 2.4,
		"windDir" : 227,
		"rain" : 0,
		"cloudbase" : 8700.78,
		"flyability" : 0,
		"reason" : "windDir",
		"timestamp" :1555333200
		},
	"2019-04-15T08:00:00-07:00" : {
		"windSpeed" : 2.7,
		"windDir" : 247,
		"rain" : 0,
		"cloudbase" : 8327.4950000002,
		"flyability" : 0,
		"reason" : "windDir",
		"timestamp" :1555344000
		},
	"2019-04-15T11:00:00-07:00" : {
		"windSpeed" : 5.1,
		"windDir" : 243,
		"rain" : 0,
		"cloudbase" : 8446.055,
		"flyability" : 0,
		"reason" : "windSpeed, windDir",
		"timestamp" :1555354800
		},
	"2019-04-15T14:00:00-07:00" : {
		"windSpeed" : 6,
		"windDir" : 243,
		"rain" : 0,
		"cloudbase" : 10000,
		"flyability" : 0,
		"reason" : "windSpeed, windDir",
		"timestamp" :1555365600
		},
	"2019-04-15T17:00:00-07:00" : {
		"windSpeed" : 5.9,
		"windDir" : 250,
		"rain" : 0,
		"cloudbase" : null,
		"flyability" : 0,
		"reason" : "windSpeed, windDir",
		"timestamp" :1555376400
		}
	}
}