{
"site" : "La Muela",
"id" : 7392,
"orientations" : "11111221",
"forecasts" : { 
	"2019-04-19T05:00:00+02:00" : {
		"windSpeed" : 3.9,
		"windDir" : 71,
		"rain" : 1,
		"cloudbase" : 911.06400000001,
		"flyability" : 0,
		"reason" : "rain, cloudbase",
		"timestamp" :1555646400
		},
	"2019-04-19T08:00:00+02:00" : {
		"windSpeed" : 2.4,
		"windDir" : 65,
		"rain" : 1,
		"cloudbase" : 4288.7200000001,
		"flyability" : 0,
		"reason" : "rain",
		"timestamp" :1555657200
		},
	"2019-04-19T11:00:00+02:00" : {
		"windSpeed" : 2.8,
		"windDir" : 63,
		"rain" : 1,
		"cloudbase" : 1873.075,
		"flyability" : 0,
		"reason" : "rain",
		"timestamp" :1555668000
		},
	"2019-04-19T14:00:00+02:00" : {
		"windSpeed" : 4.1,
		"windDir" : 53,
		"rain" : 1,
		"cloudbase" : 1364.735,
		"flyability" : 0,
		"reason" : "rain",
		"timestamp" :1555678800
		},
	"2019-04-19T17:00:00+02:00" : {
		"windSpeed" : 6.9,
		"windDir" : 59,
		"rain" : 1,
		"cloudbase" : 1299.16,
		"flyability" : 0,
		"reason" : "windSpeed, rain",
		"timestamp" :1555689600
		},
	"2019-04-19T20:00:00+02:00" : {
		"windSpeed" : 6.7,
		"windDir" : 63,
		"rain" : 1,
		"cloudbase" : 7300.49,
		"flyability" : 0,
		"reason" : "windSpeed, rain",
		"timestamp" :1555700400
		},
	"2019-04-19T23:00:00+02:00" : {
		"windSpeed" : 7.6,
		"windDir" : 54,
		"rain" : 1,
		"cloudbase" : 4376.84,
		"flyability" : 0,
		"reason" : "windSpeed, rain",
		"timestamp" :1555711200
		},
	"2019-04-20T02:00:00+02:00" : {
		"windSpeed" : 8.3,
		"windDir" : 51,
		"rain" : 0,
		"cloudbase" : 4053.415,
		"flyability" : 0,
		"reason" : "windSpeed",
		"timestamp" :1555722000
		},
	"2019-04-20T05:00:00+02:00" : {
		"windSpeed" : 7.8,
		"windDir" : 45,
		"rain" : 1,
		"cloudbase" : 4486.245,
		"flyability" : 0,
		"reason" : "windSpeed, rain",
		"timestamp" :1555732800
		},
	"2019-04-20T08:00:00+02:00" : {
		"windSpeed" : 6.9,
		"windDir" : 40,
		"rain" : 0,
		"cloudbase" : 4650,
		"flyability" : 0,
		"reason" : "windSpeed",
		"timestamp" :1555743600
		},
	"2019-04-20T11:00:00+02:00" : {
		"windSpeed" : 7.2,
		"windDir" : 41,
		"rain" : 0,
		"cloudbase" : 4897.69,
		"flyability" : 0,
		"reason" : "windSpeed",
		"timestamp" :1555754400
		},
	"2019-04-20T14:00:00+02:00" : {
		"windSpeed" : 7.7,
		"windDir" : 54,
		"rain" : 0,
		"cloudbase" : 8605.66,
		"flyability" : 0,
		"reason" : "windSpeed",
		"timestamp" :1555765200
		},
	"2019-04-20T17:00:00+02:00" : {
		"windSpeed" : 6.9,
		"windDir" : 60,
		"rain" : 0,
		"cloudbase" : 7757.34,
		"flyability" : 0,
		"reason" : "windSpeed",
		"timestamp" :1555776000
		},
	"2019-04-20T20:00:00+02:00" : {
		"windSpeed" : 4.3,
		"windDir" : 84,
		"rain" : 1,
		"cloudbase" : 8229.34,
		"flyability" : 0,
		"reason" : "rain",
		"timestamp" :1555786800
		},
	"2019-04-20T23:00:00+02:00" : {
		"windSpeed" : 3.9,
		"windDir" : 75,
		"rain" : 1,
		"cloudbase" : 7000,
		"flyability" : 0,
		"reason" : "rain",
		"timestamp" :1555797600
		},
	"2019-04-21T02:00:00+02:00" : {
		"windSpeed" : 3.6,
		"windDir" : 33,
		"rain" : 1,
		"cloudbase" : 3675.0249999999,
		"flyability" : 0,
		"reason" : "rain",
		"timestamp" :1555808400
		},
	"2019-04-21T05:00:00+02:00" : {
		"windSpeed" : 4.4,
		"windDir" : 24,
		"rain" : 1,
		"cloudbase" : 1961.745,
		"flyability" : 0,
		"reason" : "rain",
		"timestamp" :1555819200
		},
	"2019-04-21T08:00:00+02:00" : {
		"windSpeed" : 4.3,
		"windDir" : 35,
		"rain" : 1,
		"cloudbase" : 2010.33,
		"flyability" : 0,
		"reason" : "rain",
		"timestamp" :1555830000
		},
	"2019-04-21T11:00:00+02:00" : {
		"windSpeed" : 6,
		"windDir" : 49,
		"rain" : 1,
		"cloudbase" : 4005.9149999998,
		"flyability" : 0,
		"reason" : "windSpeed, rain",
		"timestamp" :1555840800
		},
	"2019-04-21T14:00:00+02:00" : {
		"windSpeed" : 6,
		"windDir" : 45,
		"rain" : 1,
		"cloudbase" : 941.89999999999,
		"flyability" : 0,
		"reason" : "windSpeed, rain, cloudbase",
		"timestamp" :1555851600
		},
	"2019-04-21T17:00:00+02:00" : {
		"windSpeed" : 5.5,
		"windDir" : 40,
		"rain" : 1,
		"cloudbase" : 949.502,
		"flyability" : 0,
		"reason" : "windSpeed, rain, cloudbase",
		"timestamp" :1555862400
		},
	"2019-04-21T20:00:00+02:00" : {
		"windSpeed" : 5.1,
		"windDir" : 39,
		"rain" : 0,
		"cloudbase" : 1380.255,
		"flyability" : 0,
		"reason" : "windSpeed",
		"timestamp" :1555873200
		},
	"2019-04-21T23:00:00+02:00" : {
		"windSpeed" : 4.8,
		"windDir" : 47,
		"rain" : 0,
		"cloudbase" : 2813.6999999997,
		"flyability" : 100,
		"reason" : "",
		"timestamp" :1555884000
		},
	"2019-04-22T02:00:00+02:00" : {
		"windSpeed" : 3.2,
		"windDir" : 39,
		"rain" : 0,
		"cloudbase" : 1773.915,
		"flyability" : 100,
		"reason" : "",
		"timestamp" :1555894800
		},
	"2019-04-22T05:00:00+02:00" : {
		"windSpeed" : 2.6,
		"windDir" : 34,
		"rain" : 0,
		"cloudbase" : 1491.585,
		"flyability" : 100,
		"reason" : "",
		"timestamp" :1555905600
		},
	"2019-04-22T08:00:00+02:00" : {
		"windSpeed" : 2.1,
		"windDir" : 20,
		"rain" : 0,
		"cloudbase" : 1681.82,
		"flyability" : 100,
		"reason" : "",
		"timestamp" :1555916400
		},
	"2019-04-22T11:00:00+02:00" : {
		"windSpeed" : 2.5,
		"windDir" : 38,
		"rain" : 0,
		"cloudbase" : 1231.437,
		"flyability" : 100,
		"reason" : "",
		"timestamp" :1555927200
		},
	"2019-04-22T14:00:00+02:00" : {
		"windSpeed" : 0.3,
		"windDir" : 57,
		"rain" : 0,
		"cloudbase" : 1424.585,
		"flyability" : 100,
		"reason" : "",
		"timestamp" :1555938000
		},
	"2019-04-22T17:00:00+02:00" : {
		"windSpeed" : 1.9,
		"windDir" : 218,
		"rain" : 1,
		"cloudbase" : 1807.915,
		"flyability" : 0,
		"reason" : "rain",
		"timestamp" :1555948800
		},
	"2019-04-22T20:00:00+02:00" : {
		"windSpeed" : 1.6,
		"windDir" : 219,
		"rain" : 0,
		"cloudbase" : 2300,
		"flyability" : 100,
		"reason" : "",
		"timestamp" :1555959600
		},
	"2019-04-22T23:00:00+02:00" : {
		"windSpeed" : 2,
		"windDir" : 211,
		"rain" : 0,
		"cloudbase" : 6779.4650000004,
		"flyability" : 100,
		"reason" : "",
		"timestamp" :1555970400
		},
	"2019-04-23T02:00:00+02:00" : {
		"windSpeed" : 3.4,
		"windDir" : 197,
		"rain" : 0,
		"cloudbase" : 1815.83,
		"flyability" : 100,
		"reason" : "",
		"timestamp" :1555981200
		},
	"2019-04-23T05:00:00+02:00" : {
		"windSpeed" : 5,
		"windDir" : 207,
		"rain" : 1,
		"cloudbase" : 5905.0899999998,
		"flyability" : 0,
		"reason" : "rain",
		"timestamp" :1555992000
		},
	"2019-04-23T08:00:00+02:00" : {
		"windSpeed" : 3.9,
		"windDir" : 207,
		"rain" : 1,
		"cloudbase" : 469.80400000001,
		"flyability" : 0,
		"reason" : "rain, cloudbase",
		"timestamp" :1556002800
		},
	"2019-04-23T11:00:00+02:00" : {
		"windSpeed" : 6.8,
		"windDir" : 210,
		"rain" : 1,
		"cloudbase" : null,
		"flyability" : 0,
		"reason" : "windSpeed, rain",
		"timestamp" :1556013600
		},
	"2019-04-23T14:00:00+02:00" : {
		"windSpeed" : 7.3,
		"windDir" : 219,
		"rain" : 1,
		"cloudbase" : null,
		"flyability" : 0,
		"reason" : "windSpeed, rain",
		"timestamp" :1556024400
		},
	"2019-04-23T17:00:00+02:00" : {
		"windSpeed" : 7.8,
		"windDir" : 217,
		"rain" : 0,
		"cloudbase" : null,
		"flyability" : 0,
		"reason" : "windSpeed",
		"timestamp" :1556035200
		},
	"2019-04-23T20:00:00+02:00" : {
		"windSpeed" : 6.3,
		"windDir" : 222,
		"rain" : 0,
		"cloudbase" : 3950,
		"flyability" : 0,
		"reason" : "windSpeed",
		"timestamp" :1556046000
		},
	"2019-04-23T23:00:00+02:00" : {
		"windSpeed" : 4.7,
		"windDir" : 212,
		"rain" : 0,
		"cloudbase" : null,
		"flyability" : 100,
		"reason" : "",
		"timestamp" :1556056800
		},
	"2019-04-24T02:00:00+02:00" : {
		"windSpeed" : 4,
		"windDir" : 210,
		"rain" : 0,
		"cloudbase" : null,
		"flyability" : 100,
		"reason" : "",
		"timestamp" :1556067600
		},
	"2019-04-24T05:00:00+02:00" : {
		"windSpeed" : 4.1,
		"windDir" : 205,
		"rain" : 0,
		"cloudbase" : null,
		"flyability" : 100,
		"reason" : "",
		"timestamp" :1556078400
		},
	"2019-04-24T08:00:00+02:00" : {
		"windSpeed" : 5.4,
		"windDir" : 196,
		"rain" : 1,
		"cloudbase" : 299.717,
		"flyability" : 0,
		"reason" : "windSpeed, rain, cloudbase",
		"timestamp" :1556089200
		},
	"2019-04-24T11:00:00+02:00" : {
		"windSpeed" : 8,
		"windDir" : 206,
		"rain" : 1,
		"cloudbase" : 693.73200000001,
		"flyability" : 0,
		"reason" : "windSpeed, rain, cloudbase",
		"timestamp" :1556100000
		},
	"2019-04-24T14:00:00+02:00" : {
		"windSpeed" : 8.6,
		"windDir" : 206,
		"rain" : 0,
		"cloudbase" : 1060.134,
		"flyability" : 0,
		"reason" : "windSpeed",
		"timestamp" :1556110800
		},
	"2019-04-24T17:00:00+02:00" : {
		"windSpeed" : 9.3,
		"windDir" : 196,
		"rain" : 0,
		"cloudbase" : 1294.585,
		"flyability" : 0,
		"reason" : "windSpeed",
		"timestamp" :1556121600
		},
	"2019-04-24T20:00:00+02:00" : {
		"windSpeed" : 8.9,
		"windDir" : 191,
		"rain" : 0,
		"cloudbase" : 1070.915,
		"flyability" : 0,
		"reason" : "windSpeed",
		"timestamp" :1556132400
		},
	"2019-04-24T23:00:00+02:00" : {
		"windSpeed" : 7.8,
		"windDir" : 187,
		"rain" : 1,
		"cloudbase" : 875.668,
		"flyability" : 0,
		"reason" : "windSpeed, rain, cloudbase",
		"timestamp" :1556143200
		},
	"2019-04-25T02:00:00+02:00" : {
		"windSpeed" : 8.2,
		"windDir" : 182,
		"rain" : 1,
		"cloudbase" : 519.132,
		"flyability" : 0,
		"reason" : "windSpeed, rain, cloudbase",
		"timestamp" :1556154000
		}
	}
}