{
"site" : "Ch\u00fcemad",
"id" : 7701,
"orientations" : "00000200",
"forecasts" : { 
	"2019-04-18T17:00:00+02:00" : {
		"windSpeed" : 1.8,
		"windDir" : 140,
		"rain" : 0,
		"cloudbase" : null,
		"flyability" : 0,
		"reason" : "windDir",
		"timestamp" :1555603200
		},
	"2019-04-18T20:00:00+02:00" : {
		"windSpeed" : 2,
		"windDir" : 145,
		"rain" : 0,
		"cloudbase" : null,
		"flyability" : 0,
		"reason" : "windDir",
		"timestamp" :1555614000
		},
	"2019-04-18T23:00:00+02:00" : {
		"windSpeed" : 2.1,
		"windDir" : 150,
		"rain" : 0,
		"cloudbase" : 30,
		"flyability" : 0,
		"reason" : "windDir, cloudbase",
		"timestamp" :1555624800
		},
	"2019-04-19T02:00:00+02:00" : {
		"windSpeed" : 2.1,
		"windDir" : 148,
		"rain" : 0,
		"cloudbase" : 34.002900000001,
		"flyability" : 0,
		"reason" : "windDir, cloudbase",
		"timestamp" :1555635600
		},
	"2019-04-19T05:00:00+02:00" : {
		"windSpeed" : 2,
		"windDir" : 145,
		"rain" : 0,
		"cloudbase" : 255.44085000006,
		"flyability" : 0,
		"reason" : "windDir, cloudbase",
		"timestamp" :1555646400
		},
	"2019-04-19T08:00:00+02:00" : {
		"windSpeed" : 2.3,
		"windDir" : 150,
		"rain" : 0,
		"cloudbase" : 67.304550000005,
		"flyability" : 0,
		"reason" : "windDir, cloudbase",
		"timestamp" :1555657200
		},
	"2019-04-19T11:00:00+02:00" : {
		"windSpeed" : 1.2,
		"windDir" : 149,
		"rain" : 0,
		"cloudbase" : null,
		"flyability" : 0,
		"reason" : "windDir",
		"timestamp" :1555668000
		},
	"2019-04-19T14:00:00+02:00" : {
		"windSpeed" : 1,
		"windDir" : 124,
		"rain" : 0,
		"cloudbase" : null,
		"flyability" : 0,
		"reason" : "windDir",
		"timestamp" :1555678800
		},
	"2019-04-19T17:00:00+02:00" : {
		"windSpeed" : 1.1,
		"windDir" : 127,
		"rain" : 0,
		"cloudbase" : null,
		"flyability" : 0,
		"reason" : "windDir",
		"timestamp" :1555689600
		},
	"2019-04-19T20:00:00+02:00" : {
		"windSpeed" : 1.5,
		"windDir" : 148,
		"rain" : 0,
		"cloudbase" : null,
		"flyability" : 0,
		"reason" : "windDir",
		"timestamp" :1555700400
		},
	"2019-04-19T23:00:00+02:00" : {
		"windSpeed" : 1.5,
		"windDir" : 139,
		"rain" : 0,
		"cloudbase" : null,
		"flyability" : 0,
		"reason" : "windDir",
		"timestamp" :1555711200
		},
	"2019-04-20T02:00:00+02:00" : {
		"windSpeed" : 1.7,
		"windDir" : 145,
		"rain" : 0,
		"cloudbase" : null,
		"flyability" : 0,
		"reason" : "windDir",
		"timestamp" :1555722000
		},
	"2019-04-20T05:00:00+02:00" : {
		"windSpeed" : 1.7,
		"windDir" : 145,
		"rain" : 0,
		"cloudbase" : null,
		"flyability" : 0,
		"reason" : "windDir",
		"timestamp" :1555732800
		},
	"2019-04-20T08:00:00+02:00" : {
		"windSpeed" : 1.8,
		"windDir" : 143,
		"rain" : 0,
		"cloudbase" : null,
		"flyability" : 0,
		"reason" : "windDir",
		"timestamp" :1555743600
		},
	"2019-04-20T11:00:00+02:00" : {
		"windSpeed" : 1.3,
		"windDir" : 146,
		"rain" : 0,
		"cloudbase" : null,
		"flyability" : 0,
		"reason" : "windDir",
		"timestamp" :1555754400
		},
	"2019-04-20T14:00:00+02:00" : {
		"windSpeed" : 1.8,
		"windDir" : 151,
		"rain" : 0,
		"cloudbase" : null,
		"flyability" : 0,
		"reason" : "windDir",
		"timestamp" :1555765200
		},
	"2019-04-20T17:00:00+02:00" : {
		"windSpeed" : 1.7,
		"windDir" : 150,
		"rain" : 0,
		"cloudbase" : null,
		"flyability" : 0,
		"reason" : "windDir",
		"timestamp" :1555776000
		},
	"2019-04-20T20:00:00+02:00" : {
		"windSpeed" : 2,
		"windDir" : 140,
		"rain" : 0,
		"cloudbase" : null,
		"flyability" : 0,
		"reason" : "windDir",
		"timestamp" :1555786800
		},
	"2019-04-20T23:00:00+02:00" : {
		"windSpeed" : 2,
		"windDir" : 142,
		"rain" : 0,
		"cloudbase" : null,
		"flyability" : 0,
		"reason" : "windDir",
		"timestamp" :1555797600
		},
	"2019-04-21T02:00:00+02:00" : {
		"windSpeed" : 2.1,
		"windDir" : 152,
		"rain" : 0,
		"cloudbase" : 7365.5600000001,
		"flyability" : 0,
		"reason" : "windDir",
		"timestamp" :1555808400
		},
	"2019-04-21T05:00:00+02:00" : {
		"windSpeed" : 1.9,
		"windDir" : 149,
		"rain" : 0,
		"cloudbase" : 6690.5310000001,
		"flyability" : 0,
		"reason" : "windDir",
		"timestamp" :1555819200
		},
	"2019-04-21T08:00:00+02:00" : {
		"windSpeed" : 1.9,
		"windDir" : 146,
		"rain" : 0,
		"cloudbase" : null,
		"flyability" : 0,
		"reason" : "windDir",
		"timestamp" :1555830000
		},
	"2019-04-21T11:00:00+02:00" : {
		"windSpeed" : 1.8,
		"windDir" : 149,
		"rain" : 0,
		"cloudbase" : 8635.6180000001,
		"flyability" : 0,
		"reason" : "windDir",
		"timestamp" :1555840800
		},
	"2019-04-21T14:00:00+02:00" : {
		"windSpeed" : 2.4,
		"windDir" : 152,
		"rain" : 0,
		"cloudbase" : 6933.8420000001,
		"flyability" : 0,
		"reason" : "windDir",
		"timestamp" :1555851600
		},
	"2019-04-21T17:00:00+02:00" : {
		"windSpeed" : 1.8,
		"windDir" : 151,
		"rain" : 0,
		"cloudbase" : 3601.477,
		"flyability" : 0,
		"reason" : "windDir",
		"timestamp" :1555862400
		},
	"2019-04-21T20:00:00+02:00" : {
		"windSpeed" : 1.9,
		"windDir" : 149,
		"rain" : 0,
		"cloudbase" : null,
		"flyability" : 0,
		"reason" : "windDir",
		"timestamp" :1555873200
		},
	"2019-04-21T23:00:00+02:00" : {
		"windSpeed" : 2.2,
		"windDir" : 153,
		"rain" : 0,
		"cloudbase" : 9132.8090000001,
		"flyability" : 0,
		"reason" : "windDir",
		"timestamp" :1555884000
		},
	"2019-04-22T02:00:00+02:00" : {
		"windSpeed" : 2.2,
		"windDir" : 153,
		"rain" : 0,
		"cloudbase" : 7418.3110000001,
		"flyability" : 0,
		"reason" : "windDir",
		"timestamp" :1555894800
		},
	"2019-04-22T05:00:00+02:00" : {
		"windSpeed" : 2,
		"windDir" : 150,
		"rain" : 0,
		"cloudbase" : 6048.3400000001,
		"flyability" : 0,
		"reason" : "windDir",
		"timestamp" :1555905600
		},
	"2019-04-22T08:00:00+02:00" : {
		"windSpeed" : 2.1,
		"windDir" : 150,
		"rain" : 1,
		"cloudbase" : 6513.224,
		"flyability" : 0,
		"reason" : "windDir, rain",
		"timestamp" :1555916400
		},
	"2019-04-22T11:00:00+02:00" : {
		"windSpeed" : 3.1,
		"windDir" : 151,
		"rain" : 0,
		"cloudbase" : 6883.3400000001,
		"flyability" : 0,
		"reason" : "windDir",
		"timestamp" :1555927200
		},
	"2019-04-22T14:00:00+02:00" : {
		"windSpeed" : 3.3,
		"windDir" : 150,
		"rain" : 0,
		"cloudbase" : 5980.6470000001,
		"flyability" : 0,
		"reason" : "windDir",
		"timestamp" :1555938000
		},
	"2019-04-22T17:00:00+02:00" : {
		"windSpeed" : 2.9,
		"windDir" : 157,
		"rain" : 0,
		"cloudbase" : null,
		"flyability" : 0,
		"reason" : "windDir",
		"timestamp" :1555948800
		},
	"2019-04-22T20:00:00+02:00" : {
		"windSpeed" : 2.5,
		"windDir" : 158,
		"rain" : 0,
		"cloudbase" : null,
		"flyability" : 0,
		"reason" : "windDir",
		"timestamp" :1555959600
		},
	"2019-04-22T23:00:00+02:00" : {
		"windSpeed" : 2.9,
		"windDir" : 155,
		"rain" : 0,
		"cloudbase" : 6662.0950000001,
		"flyability" : 0,
		"reason" : "windDir",
		"timestamp" :1555970400
		},
	"2019-04-23T02:00:00+02:00" : {
		"windSpeed" : 2.3,
		"windDir" : 160,
		"rain" : 1,
		"cloudbase" : 3427.249,
		"flyability" : 0,
		"reason" : "windDir, rain",
		"timestamp" :1555981200
		},
	"2019-04-23T05:00:00+02:00" : {
		"windSpeed" : 2.3,
		"windDir" : 153,
		"rain" : 1,
		"cloudbase" : 5584.2135000001,
		"flyability" : 0,
		"reason" : "windDir, rain",
		"timestamp" :1555992000
		},
	"2019-04-23T08:00:00+02:00" : {
		"windSpeed" : 1.7,
		"windDir" : 142,
		"rain" : 1,
		"cloudbase" : 4043.2596000003,
		"flyability" : 0,
		"reason" : "windDir, rain",
		"timestamp" :1556002800
		},
	"2019-04-23T11:00:00+02:00" : {
		"windSpeed" : 2.1,
		"windDir" : 146,
		"rain" : 1,
		"cloudbase" : 4450.3089000004,
		"flyability" : 0,
		"reason" : "windDir, rain",
		"timestamp" :1556013600
		},
	"2019-04-23T14:00:00+02:00" : {
		"windSpeed" : 2.2,
		"windDir" : 157,
		"rain" : 1,
		"cloudbase" : 4035.3380000004,
		"flyability" : 0,
		"reason" : "windDir, rain",
		"timestamp" :1556024400
		},
	"2019-04-23T17:00:00+02:00" : {
		"windSpeed" : 1.8,
		"windDir" : 152,
		"rain" : 1,
		"cloudbase" : 4825.5755000004,
		"flyability" : 0,
		"reason" : "windDir, rain",
		"timestamp" :1556035200
		},
	"2019-04-23T20:00:00+02:00" : {
		"windSpeed" : 1.9,
		"windDir" : 151,
		"rain" : 1,
		"cloudbase" : 3474.4028000005,
		"flyability" : 0,
		"reason" : "windDir, rain",
		"timestamp" :1556046000
		},
	"2019-04-23T23:00:00+02:00" : {
		"windSpeed" : 2.1,
		"windDir" : 151,
		"rain" : 1,
		"cloudbase" : 5353.8341000004,
		"flyability" : 0,
		"reason" : "windDir, rain",
		"timestamp" :1556056800
		},
	"2019-04-24T02:00:00+02:00" : {
		"windSpeed" : 2.1,
		"windDir" : 156,
		"rain" : 1,
		"cloudbase" : 780,
		"flyability" : 0,
		"reason" : "windDir, rain, cloudbase",
		"timestamp" :1556067600
		},
	"2019-04-24T05:00:00+02:00" : {
		"windSpeed" : 2.5,
		"windDir" : 150,
		"rain" : 0,
		"cloudbase" : 2201.2288000004,
		"flyability" : 0,
		"reason" : "windDir",
		"timestamp" :1556078400
		},
	"2019-04-24T08:00:00+02:00" : {
		"windSpeed" : 3,
		"windDir" : 149,
		"rain" : 1,
		"cloudbase" : 4485.8119000005,
		"flyability" : 0,
		"reason" : "windDir, rain",
		"timestamp" :1556089200
		},
	"2019-04-24T11:00:00+02:00" : {
		"windSpeed" : 1.9,
		"windDir" : 131,
		"rain" : 1,
		"cloudbase" : 4159.8370000003,
		"flyability" : 0,
		"reason" : "windDir, rain",
		"timestamp" :1556100000
		},
	"2019-04-24T14:00:00+02:00" : {
		"windSpeed" : 3.1,
		"windDir" : 164,
		"rain" : 1,
		"cloudbase" : 1150,
		"flyability" : 0,
		"reason" : "windDir, rain, cloudbase",
		"timestamp" :1556110800
		}
	}
}