{
"site" : "Crete de Thyon-2380",
"id" : 7712,
"orientations" : "02000020",
"forecasts" : { 
	"2019-04-21T17:00:00+02:00" : {
		"windSpeed" : 1.3,
		"windDir" : 61,
		"rain" : 1,
		"cloudbase" : 4752.54504,
		"flyability" : 0,
		"reason" : "rain",
		"timestamp" :1555862400
		},
	"2019-04-21T20:00:00+02:00" : {
		"windSpeed" : 0.9,
		"windDir" : 79,
		"rain" : 0,
		"cloudbase" : 8300,
		"flyability" : 0,
		"reason" : "windDir",
		"timestamp" :1555873200
		},
	"2019-04-21T23:00:00+02:00" : {
		"windSpeed" : 1.3,
		"windDir" : 87,
		"rain" : 0,
		"cloudbase" : 8748.47008,
		"flyability" : 0,
		"reason" : "windDir",
		"timestamp" :1555884000
		},
	"2019-04-22T02:00:00+02:00" : {
		"windSpeed" : 1.4,
		"windDir" : 83,
		"rain" : 0,
		"cloudbase" : 8273.13528,
		"flyability" : 0,
		"reason" : "windDir",
		"timestamp" :1555894800
		},
	"2019-04-22T05:00:00+02:00" : {
		"windSpeed" : 0.9,
		"windDir" : 79,
		"rain" : 0,
		"cloudbase" : 4692.72244,
		"flyability" : 0,
		"reason" : "windDir",
		"timestamp" :1555905600
		},
	"2019-04-22T08:00:00+02:00" : {
		"windSpeed" : 1.2,
		"windDir" : 63,
		"rain" : 1,
		"cloudbase" : 6831.17496,
		"flyability" : 0,
		"reason" : "rain",
		"timestamp" :1555916400
		},
	"2019-04-22T11:00:00+02:00" : {
		"windSpeed" : 1.4,
		"windDir" : 68,
		"rain" : 0,
		"cloudbase" : null,
		"flyability" : 0,
		"reason" : "windDir",
		"timestamp" :1555927200
		},
	"2019-04-22T14:00:00+02:00" : {
		"windSpeed" : 1.2,
		"windDir" : 87,
		"rain" : 0,
		"cloudbase" : null,
		"flyability" : 0,
		"reason" : "windDir",
		"timestamp" :1555938000
		},
	"2019-04-22T17:00:00+02:00" : {
		"windSpeed" : 1.1,
		"windDir" : 67,
		"rain" : 0,
		"cloudbase" : null,
		"flyability" : 100,
		"reason" : "",
		"timestamp" :1555948800
		},
	"2019-04-22T20:00:00+02:00" : {
		"windSpeed" : 1.4,
		"windDir" : 70,
		"rain" : 0,
		"cloudbase" : 7290.16016,
		"flyability" : 0,
		"reason" : "windDir",
		"timestamp" :1555959600
		},
	"2019-04-22T23:00:00+02:00" : {
		"windSpeed" : 1.3,
		"windDir" : 95,
		"rain" : 0,
		"cloudbase" : 5766.62504,
		"flyability" : 0,
		"reason" : "windDir",
		"timestamp" :1555970400
		},
	"2019-04-23T02:00:00+02:00" : {
		"windSpeed" : 1.3,
		"windDir" : 87,
		"rain" : 0,
		"cloudbase" : 4725.1362400002,
		"flyability" : 0,
		"reason" : "windDir",
		"timestamp" :1555981200
		},
	"2019-04-23T05:00:00+02:00" : {
		"windSpeed" : 1.1,
		"windDir" : 62,
		"rain" : 0,
		"cloudbase" : 4438.79748,
		"flyability" : 100,
		"reason" : "",
		"timestamp" :1555992000
		},
	"2019-04-23T08:00:00+02:00" : {
		"windSpeed" : 1.3,
		"windDir" : 52,
		"rain" : 1,
		"cloudbase" : 6069.85528,
		"flyability" : 0,
		"reason" : "rain",
		"timestamp" :1556002800
		},
	"2019-04-23T11:00:00+02:00" : {
		"windSpeed" : 1.3,
		"windDir" : 42,
		"rain" : 1,
		"cloudbase" : 4194.2511200001,
		"flyability" : 0,
		"reason" : "rain",
		"timestamp" :1556013600
		},
	"2019-04-23T14:00:00+02:00" : {
		"windSpeed" : 1.2,
		"windDir" : 70,
		"rain" : 1,
		"cloudbase" : 5521.26504,
		"flyability" : 0,
		"reason" : "windDir, rain",
		"timestamp" :1556024400
		},
	"2019-04-23T17:00:00+02:00" : {
		"windSpeed" : 1.2,
		"windDir" : 58,
		"rain" : 0,
		"cloudbase" : 5665.22024,
		"flyability" : 100,
		"reason" : "",
		"timestamp" :1556035200
		},
	"2019-04-23T20:00:00+02:00" : {
		"windSpeed" : 1.1,
		"windDir" : 47,
		"rain" : 1,
		"cloudbase" : 4638.4287600001,
		"flyability" : 0,
		"reason" : "rain",
		"timestamp" :1556046000
		},
	"2019-04-23T23:00:00+02:00" : {
		"windSpeed" : 1.1,
		"windDir" : 51,
		"rain" : 1,
		"cloudbase" : 4851.71024,
		"flyability" : 0,
		"reason" : "rain",
		"timestamp" :1556056800
		},
	"2019-04-24T02:00:00+02:00" : {
		"windSpeed" : 1.4,
		"windDir" : 62,
		"rain" : 1,
		"cloudbase" : 2860.4622000001,
		"flyability" : 0,
		"reason" : "rain",
		"timestamp" :1556067600
		},
	"2019-04-24T05:00:00+02:00" : {
		"windSpeed" : 1.2,
		"windDir" : 55,
		"rain" : 1,
		"cloudbase" : 1900,
		"flyability" : 0,
		"reason" : "rain, cloudbase",
		"timestamp" :1556078400
		},
	"2019-04-24T08:00:00+02:00" : {
		"windSpeed" : 1.4,
		"windDir" : 48,
		"rain" : 0,
		"cloudbase" : 709.62351200003,
		"flyability" : 0,
		"reason" : "cloudbase",
		"timestamp" :1556089200
		},
	"2019-04-24T11:00:00+02:00" : {
		"windSpeed" : 1.4,
		"windDir" : 58,
		"rain" : 1,
		"cloudbase" : 747.76598400002,
		"flyability" : 0,
		"reason" : "rain, cloudbase",
		"timestamp" :1556100000
		},
	"2019-04-24T14:00:00+02:00" : {
		"windSpeed" : 1.7,
		"windDir" : 58,
		"rain" : 1,
		"cloudbase" : 1503.3178080001,
		"flyability" : 0,
		"reason" : "rain, cloudbase",
		"timestamp" :1556110800
		},
	"2019-04-24T17:00:00+02:00" : {
		"windSpeed" : 1.5,
		"windDir" : 61,
		"rain" : 1,
		"cloudbase" : 1396.5441440001,
		"flyability" : 0,
		"reason" : "rain, cloudbase",
		"timestamp" :1556121600
		},
	"2019-04-24T20:00:00+02:00" : {
		"windSpeed" : 1.2,
		"windDir" : 26,
		"rain" : 1,
		"cloudbase" : 1314.9695120001,
		"flyability" : 0,
		"reason" : "rain, cloudbase",
		"timestamp" :1556132400
		},
	"2019-04-24T23:00:00+02:00" : {
		"windSpeed" : 1,
		"windDir" : 89,
		"rain" : 1,
		"cloudbase" : 220.41593600003,
		"flyability" : 0,
		"reason" : "windDir, rain, cloudbase",
		"timestamp" :1556143200
		},
	"2019-04-25T02:00:00+02:00" : {
		"windSpeed" : 1,
		"windDir" : 92,
		"rain" : 1,
		"cloudbase" : 30,
		"flyability" : 0,
		"reason" : "windDir, rain, cloudbase",
		"timestamp" :1556154000
		},
	"2019-04-25T05:00:00+02:00" : {
		"windSpeed" : 1.1,
		"windDir" : 92,
		"rain" : 1,
		"cloudbase" : 30,
		"flyability" : 0,
		"reason" : "windDir, rain, cloudbase",
		"timestamp" :1556164800
		},
	"2019-04-25T08:00:00+02:00" : {
		"windSpeed" : 1.2,
		"windDir" : 62,
		"rain" : 1,
		"cloudbase" : null,
		"flyability" : 0,
		"reason" : "rain",
		"timestamp" :1556175600
		},
	"2019-04-25T11:00:00+02:00" : {
		"windSpeed" : 1.9,
		"windDir" : 64,
		"rain" : 0,
		"cloudbase" : null,
		"flyability" : 100,
		"reason" : "",
		"timestamp" :1556186400
		},
	"2019-04-25T14:00:00+02:00" : {
		"windSpeed" : 1.7,
		"windDir" : 80,
		"rain" : 0,
		"cloudbase" : null,
		"flyability" : 0,
		"reason" : "windDir",
		"timestamp" :1556197200
		},
	"2019-04-25T17:00:00+02:00" : {
		"windSpeed" : 1.2,
		"windDir" : 70,
		"rain" : 0,
		"cloudbase" : 955.26601600003,
		"flyability" : 0,
		"reason" : "windDir, cloudbase",
		"timestamp" :1556208000
		},
	"2019-04-25T20:00:00+02:00" : {
		"windSpeed" : 1.3,
		"windDir" : 65,
		"rain" : 0,
		"cloudbase" : 649.38348000001,
		"flyability" : 0,
		"reason" : "cloudbase",
		"timestamp" :1556218800
		},
	"2019-04-25T23:00:00+02:00" : {
		"windSpeed" : 0.7,
		"windDir" : 22,
		"rain" : 0,
		"cloudbase" : 797.45650400003,
		"flyability" : 0,
		"reason" : "windDir, cloudbase",
		"timestamp" :1556229600
		},
	"2019-04-26T02:00:00+02:00" : {
		"windSpeed" : 0.7,
		"windDir" : 335,
		"rain" : 1,
		"cloudbase" : 729.34516800002,
		"flyability" : 0,
		"reason" : "windDir, rain, cloudbase",
		"timestamp" :1556240400
		},
	"2019-04-26T05:00:00+02:00" : {
		"windSpeed" : 1,
		"windDir" : 311,
		"rain" : 0,
		"cloudbase" : 129.87483199998,
		"flyability" : 0,
		"reason" : "windDir, cloudbase",
		"timestamp" :1556251200
		},
	"2019-04-26T08:00:00+02:00" : {
		"windSpeed" : 0.6,
		"windDir" : 318,
		"rain" : 0,
		"cloudbase" : 246.85933600005,
		"flyability" : 0,
		"reason" : "windDir, cloudbase",
		"timestamp" :1556262000
		},
	"2019-04-26T11:00:00+02:00" : {
		"windSpeed" : 0.6,
		"windDir" : 5,
		"rain" : 0,
		"cloudbase" : 1620.0552800001,
		"flyability" : 0,
		"reason" : "windDir, cloudbase",
		"timestamp" :1556272800
		},
	"2019-04-26T14:00:00+02:00" : {
		"windSpeed" : 0.8,
		"windDir" : 309,
		"rain" : 0,
		"cloudbase" : 3105.1776400001,
		"flyability" : 0,
		"reason" : "windDir",
		"timestamp" :1556283600
		},
	"2019-04-26T17:00:00+02:00" : {
		"windSpeed" : 0.9,
		"windDir" : 283,
		"rain" : 1,
		"cloudbase" : 1550,
		"flyability" : 0,
		"reason" : "rain, cloudbase",
		"timestamp" :1556294400
		},
	"2019-04-26T20:00:00+02:00" : {
		"windSpeed" : 1,
		"windDir" : 244,
		"rain" : 0,
		"cloudbase" : 360,
		"flyability" : 0,
		"reason" : "windDir, cloudbase",
		"timestamp" :1556305200
		},
	"2019-04-26T23:00:00+02:00" : {
		"windSpeed" : 1.1,
		"windDir" : 257,
		"rain" : 0,
		"cloudbase" : 657.07653600001,
		"flyability" : 0,
		"reason" : "cloudbase",
		"timestamp" :1556316000
		},
	"2019-04-27T02:00:00+02:00" : {
		"windSpeed" : 1,
		"windDir" : 236,
		"rain" : 0,
		"cloudbase" : 559.98548000002,
		"flyability" : 0,
		"reason" : "windDir, cloudbase",
		"timestamp" :1556326800
		},
	"2019-04-27T05:00:00+02:00" : {
		"windSpeed" : 0.9,
		"windDir" : 243,
		"rain" : 0,
		"cloudbase" : 565.92242400002,
		"flyability" : 0,
		"reason" : "windDir, cloudbase",
		"timestamp" :1556337600
		},
	"2019-04-27T08:00:00+02:00" : {
		"windSpeed" : 0.5,
		"windDir" : 237,
		"rain" : 0,
		"cloudbase" : 564.72193600002,
		"flyability" : 0,
		"reason" : "windDir, cloudbase",
		"timestamp" :1556348400
		},
	"2019-04-27T11:00:00+02:00" : {
		"windSpeed" : 0.9,
		"windDir" : 243,
		"rain" : 0,
		"cloudbase" : 453.84343200002,
		"flyability" : 0,
		"reason" : "windDir, cloudbase",
		"timestamp" :1556359200
		},
	"2019-04-27T14:00:00+02:00" : {
		"windSpeed" : 1,
		"windDir" : 258,
		"rain" : 0,
		"cloudbase" : 500.59203200003,
		"flyability" : 0,
		"reason" : "cloudbase",
		"timestamp" :1556370000
		}
	}
}