{
"site" : "Eisee",
"id" : 7755,
"orientations" : "00020000",
"forecasts" : { 
	"2019-04-18T17:00:00+02:00" : {
		"windSpeed" : 1.9,
		"windDir" : 92,
		"rain" : 0,
		"cloudbase" : null,
		"flyability" : 0,
		"reason" : "windDir",
		"timestamp" :1555603200
		},
	"2019-04-18T20:00:00+02:00" : {
		"windSpeed" : 1.8,
		"windDir" : 117,
		"rain" : 0,
		"cloudbase" : null,
		"flyability" : 100,
		"reason" : "",
		"timestamp" :1555614000
		},
	"2019-04-18T23:00:00+02:00" : {
		"windSpeed" : 1.7,
		"windDir" : 138,
		"rain" : 0,
		"cloudbase" : 30,
		"flyability" : 0,
		"reason" : "cloudbase",
		"timestamp" :1555624800
		},
	"2019-04-19T02:00:00+02:00" : {
		"windSpeed" : 1.6,
		"windDir" : 142,
		"rain" : 0,
		"cloudbase" : 48.996687500001,
		"flyability" : 0,
		"reason" : "cloudbase",
		"timestamp" :1555635600
		},
	"2019-04-19T05:00:00+02:00" : {
		"windSpeed" : 1.8,
		"windDir" : 147,
		"rain" : 0,
		"cloudbase" : 1560.5618750003,
		"flyability" : 0,
		"reason" : "cloudbase",
		"timestamp" :1555646400
		},
	"2019-04-19T08:00:00+02:00" : {
		"windSpeed" : 1.4,
		"windDir" : 139,
		"rain" : 0,
		"cloudbase" : 100,
		"flyability" : 0,
		"reason" : "cloudbase",
		"timestamp" :1555657200
		},
	"2019-04-19T11:00:00+02:00" : {
		"windSpeed" : 0.6,
		"windDir" : 114,
		"rain" : 0,
		"cloudbase" : null,
		"flyability" : 100,
		"reason" : "",
		"timestamp" :1555668000
		},
	"2019-04-19T14:00:00+02:00" : {
		"windSpeed" : 1.2,
		"windDir" : 57,
		"rain" : 1,
		"cloudbase" : null,
		"flyability" : 0,
		"reason" : "windDir, rain",
		"timestamp" :1555678800
		},
	"2019-04-19T17:00:00+02:00" : {
		"windSpeed" : 1.1,
		"windDir" : 41,
		"rain" : 1,
		"cloudbase" : null,
		"flyability" : 0,
		"reason" : "windDir, rain",
		"timestamp" :1555689600
		},
	"2019-04-19T20:00:00+02:00" : {
		"windSpeed" : 0.6,
		"windDir" : 198,
		"rain" : 1,
		"cloudbase" : null,
		"flyability" : 0,
		"reason" : "windDir, rain",
		"timestamp" :1555700400
		},
	"2019-04-19T23:00:00+02:00" : {
		"windSpeed" : 1.1,
		"windDir" : 154,
		"rain" : 0,
		"cloudbase" : null,
		"flyability" : 100,
		"reason" : "",
		"timestamp" :1555711200
		},
	"2019-04-20T02:00:00+02:00" : {
		"windSpeed" : 1.4,
		"windDir" : 150,
		"rain" : 0,
		"cloudbase" : null,
		"flyability" : 100,
		"reason" : "",
		"timestamp" :1555722000
		},
	"2019-04-20T05:00:00+02:00" : {
		"windSpeed" : 1.6,
		"windDir" : 153,
		"rain" : 0,
		"cloudbase" : null,
		"flyability" : 100,
		"reason" : "",
		"timestamp" :1555732800
		},
	"2019-04-20T08:00:00+02:00" : {
		"windSpeed" : 1.3,
		"windDir" : 145,
		"rain" : 0,
		"cloudbase" : null,
		"flyability" : 100,
		"reason" : "",
		"timestamp" :1555743600
		},
	"2019-04-20T11:00:00+02:00" : {
		"windSpeed" : 1,
		"windDir" : 104,
		"rain" : 0,
		"cloudbase" : null,
		"flyability" : 0,
		"reason" : "windDir",
		"timestamp" :1555754400
		},
	"2019-04-20T14:00:00+02:00" : {
		"windSpeed" : 1.9,
		"windDir" : 104,
		"rain" : 0,
		"cloudbase" : null,
		"flyability" : 0,
		"reason" : "windDir",
		"timestamp" :1555765200
		},
	"2019-04-20T17:00:00+02:00" : {
		"windSpeed" : 2.2,
		"windDir" : 109,
		"rain" : 0,
		"cloudbase" : null,
		"flyability" : 0,
		"reason" : "windDir",
		"timestamp" :1555776000
		},
	"2019-04-20T20:00:00+02:00" : {
		"windSpeed" : 1.8,
		"windDir" : 117,
		"rain" : 0,
		"cloudbase" : null,
		"flyability" : 100,
		"reason" : "",
		"timestamp" :1555786800
		},
	"2019-04-20T23:00:00+02:00" : {
		"windSpeed" : 2,
		"windDir" : 133,
		"rain" : 0,
		"cloudbase" : null,
		"flyability" : 100,
		"reason" : "",
		"timestamp" :1555797600
		},
	"2019-04-21T02:00:00+02:00" : {
		"windSpeed" : 1.8,
		"windDir" : 148,
		"rain" : 0,
		"cloudbase" : 7737.5,
		"flyability" : 100,
		"reason" : "",
		"timestamp" :1555808400
		},
	"2019-04-21T05:00:00+02:00" : {
		"windSpeed" : 1.6,
		"windDir" : 144,
		"rain" : 0,
		"cloudbase" : 7030.81125,
		"flyability" : 100,
		"reason" : "",
		"timestamp" :1555819200
		},
	"2019-04-21T08:00:00+02:00" : {
		"windSpeed" : 1.1,
		"windDir" : 136,
		"rain" : 0,
		"cloudbase" : null,
		"flyability" : 100,
		"reason" : "",
		"timestamp" :1555830000
		},
	"2019-04-21T11:00:00+02:00" : {
		"windSpeed" : 1.3,
		"windDir" : 111,
		"rain" : 0,
		"cloudbase" : 8944.52,
		"flyability" : 0,
		"reason" : "windDir",
		"timestamp" :1555840800
		},
	"2019-04-21T14:00:00+02:00" : {
		"windSpeed" : 2.3,
		"windDir" : 127,
		"rain" : 0,
		"cloudbase" : 7568.31125,
		"flyability" : 100,
		"reason" : "",
		"timestamp" :1555851600
		},
	"2019-04-21T17:00:00+02:00" : {
		"windSpeed" : 1.9,
		"windDir" : 127,
		"rain" : 0,
		"cloudbase" : 3762.83125,
		"flyability" : 100,
		"reason" : "",
		"timestamp" :1555862400
		},
	"2019-04-21T20:00:00+02:00" : {
		"windSpeed" : 1.7,
		"windDir" : 136,
		"rain" : 0,
		"cloudbase" : null,
		"flyability" : 100,
		"reason" : "",
		"timestamp" :1555873200
		},
	"2019-04-21T23:00:00+02:00" : {
		"windSpeed" : 2,
		"windDir" : 150,
		"rain" : 0,
		"cloudbase" : 9649.1225,
		"flyability" : 100,
		"reason" : "",
		"timestamp" :1555884000
		},
	"2019-04-22T02:00:00+02:00" : {
		"windSpeed" : 1.8,
		"windDir" : 147,
		"rain" : 0,
		"cloudbase" : 7795.6125,
		"flyability" : 100,
		"reason" : "",
		"timestamp" :1555894800
		},
	"2019-04-22T05:00:00+02:00" : {
		"windSpeed" : 1.6,
		"windDir" : 144,
		"rain" : 0,
		"cloudbase" : 6536.6225,
		"flyability" : 100,
		"reason" : "",
		"timestamp" :1555905600
		},
	"2019-04-22T08:00:00+02:00" : {
		"windSpeed" : 1.3,
		"windDir" : 131,
		"rain" : 1,
		"cloudbase" : 6001.5399999999,
		"flyability" : 0,
		"reason" : "rain",
		"timestamp" :1555916400
		},
	"2019-04-22T11:00:00+02:00" : {
		"windSpeed" : 1.9,
		"windDir" : 130,
		"rain" : 0,
		"cloudbase" : 7607.7812500001,
		"flyability" : 100,
		"reason" : "",
		"timestamp" :1555927200
		},
	"2019-04-22T14:00:00+02:00" : {
		"windSpeed" : 2.3,
		"windDir" : 131,
		"rain" : 0,
		"cloudbase" : 7130.4800000001,
		"flyability" : 100,
		"reason" : "",
		"timestamp" :1555938000
		},
	"2019-04-22T17:00:00+02:00" : {
		"windSpeed" : 2,
		"windDir" : 134,
		"rain" : 0,
		"cloudbase" : null,
		"flyability" : 100,
		"reason" : "",
		"timestamp" :1555948800
		},
	"2019-04-22T20:00:00+02:00" : {
		"windSpeed" : 1.9,
		"windDir" : 139,
		"rain" : 0,
		"cloudbase" : null,
		"flyability" : 100,
		"reason" : "",
		"timestamp" :1555959600
		},
	"2019-04-22T23:00:00+02:00" : {
		"windSpeed" : 2,
		"windDir" : 141,
		"rain" : 0,
		"cloudbase" : 6905.81125,
		"flyability" : 100,
		"reason" : "",
		"timestamp" :1555970400
		},
	"2019-04-23T02:00:00+02:00" : {
		"windSpeed" : 1.7,
		"windDir" : 134,
		"rain" : 1,
		"cloudbase" : 3569.18875,
		"flyability" : 0,
		"reason" : "rain",
		"timestamp" :1555981200
		},
	"2019-04-23T05:00:00+02:00" : {
		"windSpeed" : 1.8,
		"windDir" : 146,
		"rain" : 1,
		"cloudbase" : 6336.6225000001,
		"flyability" : 0,
		"reason" : "rain",
		"timestamp" :1555992000
		},
	"2019-04-23T08:00:00+02:00" : {
		"windSpeed" : 1.1,
		"windDir" : 136,
		"rain" : 1,
		"cloudbase" : 5315.298125,
		"flyability" : 0,
		"reason" : "rain",
		"timestamp" :1556002800
		},
	"2019-04-23T11:00:00+02:00" : {
		"windSpeed" : 1.1,
		"windDir" : 115,
		"rain" : 1,
		"cloudbase" : 5993.3112500001,
		"flyability" : 0,
		"reason" : "rain",
		"timestamp" :1556013600
		},
	"2019-04-23T14:00:00+02:00" : {
		"windSpeed" : 1.5,
		"windDir" : 127,
		"rain" : 1,
		"cloudbase" : 6052.4668750002,
		"flyability" : 0,
		"reason" : "rain",
		"timestamp" :1556024400
		},
	"2019-04-23T17:00:00+02:00" : {
		"windSpeed" : 1.8,
		"windDir" : 112,
		"rain" : 0,
		"cloudbase" : 7086.7212500002,
		"flyability" : 0,
		"reason" : "windDir",
		"timestamp" :1556035200
		},
	"2019-04-23T20:00:00+02:00" : {
		"windSpeed" : 1.4,
		"windDir" : 121,
		"rain" : 0,
		"cloudbase" : 8580.8112500001,
		"flyability" : 100,
		"reason" : "",
		"timestamp" :1556046000
		},
	"2019-04-23T23:00:00+02:00" : {
		"windSpeed" : 1.6,
		"windDir" : 142,
		"rain" : 0,
		"cloudbase" : 7078.1787500001,
		"flyability" : 100,
		"reason" : "",
		"timestamp" :1556056800
		},
	"2019-04-24T02:00:00+02:00" : {
		"windSpeed" : 1.5,
		"windDir" : 150,
		"rain" : 0,
		"cloudbase" : 1250,
		"flyability" : 0,
		"reason" : "cloudbase",
		"timestamp" :1556067600
		},
	"2019-04-24T05:00:00+02:00" : {
		"windSpeed" : 1.6,
		"windDir" : 131,
		"rain" : 0,
		"cloudbase" : 5766.7980000003,
		"flyability" : 100,
		"reason" : "",
		"timestamp" :1556078400
		},
	"2019-04-24T08:00:00+02:00" : {
		"windSpeed" : 1.2,
		"windDir" : 119,
		"rain" : 0,
		"cloudbase" : 7514.6850000004,
		"flyability" : 100,
		"reason" : "",
		"timestamp" :1556089200
		},
	"2019-04-24T11:00:00+02:00" : {
		"windSpeed" : 1.9,
		"windDir" : 93,
		"rain" : 1,
		"cloudbase" : 5556.9037500001,
		"flyability" : 0,
		"reason" : "windDir, rain",
		"timestamp" :1556100000
		},
	"2019-04-24T14:00:00+02:00" : {
		"windSpeed" : 1.5,
		"windDir" : 159,
		"rain" : 1,
		"cloudbase" : null,
		"flyability" : 0,
		"reason" : "windDir, rain",
		"timestamp" :1556110800
		}
	}
}