{
"site" : "Hoehbalmenstaffel",
"id" : 7853,
"orientations" : "00020000",
"forecasts" : { 
	"2019-04-20T05:00:00+02:00" : {
		"windSpeed" : 0.1,
		"windDir" : 160,
		"rain" : 0,
		"cloudbase" : 30,
		"flyability" : 0,
		"reason" : "windDir, cloudbase",
		"timestamp" :1555732800
		},
	"2019-04-20T08:00:00+02:00" : {
		"windSpeed" : 0.2,
		"windDir" : 39,
		"rain" : 0,
		"cloudbase" : null,
		"flyability" : 0,
		"reason" : "windDir",
		"timestamp" :1555743600
		},
	"2019-04-20T11:00:00+02:00" : {
		"windSpeed" : 0.9,
		"windDir" : 148,
		"rain" : 0,
		"cloudbase" : null,
		"flyability" : 100,
		"reason" : "",
		"timestamp" :1555754400
		},
	"2019-04-20T14:00:00+02:00" : {
		"windSpeed" : 1.6,
		"windDir" : 140,
		"rain" : 0,
		"cloudbase" : 470,
		"flyability" : 0,
		"reason" : "cloudbase",
		"timestamp" :1555765200
		},
	"2019-04-20T17:00:00+02:00" : {
		"windSpeed" : 0.9,
		"windDir" : 148,
		"rain" : 0,
		"cloudbase" : null,
		"flyability" : 100,
		"reason" : "",
		"timestamp" :1555776000
		},
	"2019-04-20T20:00:00+02:00" : {
		"windSpeed" : 0.9,
		"windDir" : 121,
		"rain" : 0,
		"cloudbase" : null,
		"flyability" : 100,
		"reason" : "",
		"timestamp" :1555786800
		},
	"2019-04-20T23:00:00+02:00" : {
		"windSpeed" : 0.9,
		"windDir" : 121,
		"rain" : 0,
		"cloudbase" : 6840.2,
		"flyability" : 100,
		"reason" : "",
		"timestamp" :1555797600
		},
	"2019-04-21T02:00:00+02:00" : {
		"windSpeed" : 1.2,
		"windDir" : 138,
		"rain" : 0,
		"cloudbase" : 5995.28606,
		"flyability" : 100,
		"reason" : "",
		"timestamp" :1555808400
		},
	"2019-04-21T05:00:00+02:00" : {
		"windSpeed" : 0.8,
		"windDir" : 102,
		"rain" : 0,
		"cloudbase" : null,
		"flyability" : 0,
		"reason" : "windDir",
		"timestamp" :1555819200
		},
	"2019-04-21T08:00:00+02:00" : {
		"windSpeed" : 1,
		"windDir" : 127,
		"rain" : 0,
		"cloudbase" : 5720.6,
		"flyability" : 100,
		"reason" : "",
		"timestamp" :1555830000
		},
	"2019-04-21T11:00:00+02:00" : {
		"windSpeed" : 1,
		"windDir" : 150,
		"rain" : 0,
		"cloudbase" : 6900.5,
		"flyability" : 100,
		"reason" : "",
		"timestamp" :1555840800
		},
	"2019-04-21T14:00:00+02:00" : {
		"windSpeed" : 1.3,
		"windDir" : 153,
		"rain" : 0,
		"cloudbase" : 5856.21212,
		"flyability" : 100,
		"reason" : "",
		"timestamp" :1555851600
		},
	"2019-04-21T17:00:00+02:00" : {
		"windSpeed" : 0.9,
		"windDir" : 148,
		"rain" : 0,
		"cloudbase" : 4608.25606,
		"flyability" : 100,
		"reason" : "",
		"timestamp" :1555862400
		},
	"2019-04-21T20:00:00+02:00" : {
		"windSpeed" : 1.4,
		"windDir" : 146,
		"rain" : 0,
		"cloudbase" : 1541.88909,
		"flyability" : 0,
		"reason" : "cloudbase",
		"timestamp" :1555873200
		},
	"2019-04-21T23:00:00+02:00" : {
		"windSpeed" : 2.1,
		"windDir" : 143,
		"rain" : 0,
		"cloudbase" : 1368.593454,
		"flyability" : 0,
		"reason" : "cloudbase",
		"timestamp" :1555884000
		},
	"2019-04-22T02:00:00+02:00" : {
		"windSpeed" : 1.9,
		"windDir" : 152,
		"rain" : 0,
		"cloudbase" : 1207.733878,
		"flyability" : 0,
		"reason" : "cloudbase",
		"timestamp" :1555894800
		},
	"2019-04-22T05:00:00+02:00" : {
		"windSpeed" : 2.2,
		"windDir" : 157,
		"rain" : 0,
		"cloudbase" : 5437.9345600002,
		"flyability" : 0,
		"reason" : "windDir",
		"timestamp" :1555905600
		},
	"2019-04-22T08:00:00+02:00" : {
		"windSpeed" : 1.5,
		"windDir" : 148,
		"rain" : 0,
		"cloudbase" : 4756.21212,
		"flyability" : 100,
		"reason" : "",
		"timestamp" :1555916400
		},
	"2019-04-22T11:00:00+02:00" : {
		"windSpeed" : 1.9,
		"windDir" : 162,
		"rain" : 0,
		"cloudbase" : 4042.11606,
		"flyability" : 0,
		"reason" : "windDir",
		"timestamp" :1555927200
		},
	"2019-04-22T14:00:00+02:00" : {
		"windSpeed" : 2,
		"windDir" : 154,
		"rain" : 0,
		"cloudbase" : 3977.14394,
		"flyability" : 100,
		"reason" : "",
		"timestamp" :1555938000
		},
	"2019-04-22T17:00:00+02:00" : {
		"windSpeed" : 1.8,
		"windDir" : 164,
		"rain" : 0,
		"cloudbase" : null,
		"flyability" : 0,
		"reason" : "windDir",
		"timestamp" :1555948800
		},
	"2019-04-22T20:00:00+02:00" : {
		"windSpeed" : 1.9,
		"windDir" : 152,
		"rain" : 0,
		"cloudbase" : null,
		"flyability" : 100,
		"reason" : "",
		"timestamp" :1555959600
		},
	"2019-04-22T23:00:00+02:00" : {
		"windSpeed" : 1.9,
		"windDir" : 150,
		"rain" : 0,
		"cloudbase" : 5053.76909,
		"flyability" : 100,
		"reason" : "",
		"timestamp" :1555970400
		},
	"2019-04-23T02:00:00+02:00" : {
		"windSpeed" : 1.7,
		"windDir" : 145,
		"rain" : 0,
		"cloudbase" : 2019.0766699999,
		"flyability" : 0,
		"reason" : "cloudbase",
		"timestamp" :1555981200
		},
	"2019-04-23T05:00:00+02:00" : {
		"windSpeed" : 1.2,
		"windDir" : 121,
		"rain" : 0,
		"cloudbase" : 337.69144800004,
		"flyability" : 0,
		"reason" : "cloudbase",
		"timestamp" :1555992000
		},
	"2019-04-23T08:00:00+02:00" : {
		"windSpeed" : 1.9,
		"windDir" : 148,
		"rain" : 0,
		"cloudbase" : 210.42363000004,
		"flyability" : 0,
		"reason" : "cloudbase",
		"timestamp" :1556002800
		},
	"2019-04-23T11:00:00+02:00" : {
		"windSpeed" : 2.4,
		"windDir" : 146,
		"rain" : 0,
		"cloudbase" : 339.88235600005,
		"flyability" : 0,
		"reason" : "cloudbase",
		"timestamp" :1556013600
		},
	"2019-04-23T14:00:00+02:00" : {
		"windSpeed" : 1.9,
		"windDir" : 148,
		"rain" : 0,
		"cloudbase" : 183.01345400001,
		"flyability" : 0,
		"reason" : "cloudbase",
		"timestamp" :1556024400
		},
	"2019-04-23T17:00:00+02:00" : {
		"windSpeed" : 1.7,
		"windDir" : 159,
		"rain" : 0,
		"cloudbase" : 276.88684200004,
		"flyability" : 0,
		"reason" : "windDir, cloudbase",
		"timestamp" :1556035200
		},
	"2019-04-23T20:00:00+02:00" : {
		"windSpeed" : 1.2,
		"windDir" : 149,
		"rain" : 0,
		"cloudbase" : 100.86584800001,
		"flyability" : 0,
		"reason" : "cloudbase",
		"timestamp" :1556046000
		},
	"2019-04-23T23:00:00+02:00" : {
		"windSpeed" : 1.4,
		"windDir" : 154,
		"rain" : 0,
		"cloudbase" : 63.127212000004,
		"flyability" : 0,
		"reason" : "cloudbase",
		"timestamp" :1556056800
		},
	"2019-04-24T02:00:00+02:00" : {
		"windSpeed" : 1.8,
		"windDir" : 161,
		"rain" : 0,
		"cloudbase" : 50.175576000001,
		"flyability" : 0,
		"reason" : "windDir, cloudbase",
		"timestamp" :1556067600
		},
	"2019-04-24T05:00:00+02:00" : {
		"windSpeed" : 1.8,
		"windDir" : 161,
		"rain" : 0,
		"cloudbase" : 31.749303,
		"flyability" : 0,
		"reason" : "windDir, cloudbase",
		"timestamp" :1556078400
		},
	"2019-04-24T08:00:00+02:00" : {
		"windSpeed" : 1.9,
		"windDir" : 153,
		"rain" : 0,
		"cloudbase" : 39.751515000001,
		"flyability" : 0,
		"reason" : "cloudbase",
		"timestamp" :1556089200
		},
	"2019-04-24T11:00:00+02:00" : {
		"windSpeed" : 2,
		"windDir" : 154,
		"rain" : 0,
		"cloudbase" : 60.520242000005,
		"flyability" : 0,
		"reason" : "cloudbase",
		"timestamp" :1556100000
		},
	"2019-04-24T14:00:00+02:00" : {
		"windSpeed" : 2.2,
		"windDir" : 156,
		"rain" : 0,
		"cloudbase" : 51.588606000003,
		"flyability" : 0,
		"reason" : "windDir, cloudbase",
		"timestamp" :1556110800
		},
	"2019-04-24T17:00:00+02:00" : {
		"windSpeed" : 2.6,
		"windDir" : 159,
		"rain" : 0,
		"cloudbase" : 44.515818000002,
		"flyability" : 0,
		"reason" : "windDir, cloudbase",
		"timestamp" :1556121600
		},
	"2019-04-24T20:00:00+02:00" : {
		"windSpeed" : 2.1,
		"windDir" : 152,
		"rain" : 0,
		"cloudbase" : 56.685363000005,
		"flyability" : 0,
		"reason" : "cloudbase",
		"timestamp" :1556132400
		},
	"2019-04-24T23:00:00+02:00" : {
		"windSpeed" : 3,
		"windDir" : 154,
		"rain" : 0,
		"cloudbase" : 71.387818000005,
		"flyability" : 0,
		"reason" : "cloudbase",
		"timestamp" :1556143200
		},
	"2019-04-25T02:00:00+02:00" : {
		"windSpeed" : 3.1,
		"windDir" : 155,
		"rain" : 0,
		"cloudbase" : 72.655818000005,
		"flyability" : 0,
		"reason" : "cloudbase",
		"timestamp" :1556154000
		},
	"2019-04-25T05:00:00+02:00" : {
		"windSpeed" : 2.5,
		"windDir" : 148,
		"rain" : 0,
		"cloudbase" : 96.939939000007,
		"flyability" : 0,
		"reason" : "cloudbase",
		"timestamp" :1556164800
		},
	"2019-04-25T08:00:00+02:00" : {
		"windSpeed" : 2.3,
		"windDir" : 154,
		"rain" : 0,
		"cloudbase" : 95.972727000006,
		"flyability" : 0,
		"reason" : "cloudbase",
		"timestamp" :1556175600
		},
	"2019-04-25T11:00:00+02:00" : {
		"windSpeed" : 2,
		"windDir" : 149,
		"rain" : 0,
		"cloudbase" : 94.922878000009,
		"flyability" : 0,
		"reason" : "cloudbase",
		"timestamp" :1556186400
		},
	"2019-04-25T14:00:00+02:00" : {
		"windSpeed" : 2.4,
		"windDir" : 147,
		"rain" : 0,
		"cloudbase" : 153.87778600002,
		"flyability" : 0,
		"reason" : "cloudbase",
		"timestamp" :1556197200
		},
	"2019-04-25T17:00:00+02:00" : {
		"windSpeed" : 1.9,
		"windDir" : 151,
		"rain" : 0,
		"cloudbase" : 188.94648300002,
		"flyability" : 0,
		"reason" : "cloudbase",
		"timestamp" :1556208000
		},
	"2019-04-25T20:00:00+02:00" : {
		"windSpeed" : 1.6,
		"windDir" : 146,
		"rain" : 0,
		"cloudbase" : 175.53606000002,
		"flyability" : 0,
		"reason" : "cloudbase",
		"timestamp" :1556218800
		},
	"2019-04-25T23:00:00+02:00" : {
		"windSpeed" : 1.7,
		"windDir" : 135,
		"rain" : 0,
		"cloudbase" : 632.7707450001,
		"flyability" : 0,
		"reason" : "cloudbase",
		"timestamp" :1556229600
		},
	"2019-04-26T02:00:00+02:00" : {
		"windSpeed" : 2.2,
		"windDir" : 336,
		"rain" : 0,
		"cloudbase" : 222.67351599998,
		"flyability" : 0,
		"reason" : "windDir, cloudbase",
		"timestamp" :1556240400
		}
	}
}