{
"site" : "Sorebois (Zinal)",
"id" : 8173,
"orientations" : "00222000",
"forecasts" : { 
	"2019-04-20T05:00:00+02:00" : {
		"windSpeed" : 1.6,
		"windDir" : 162,
		"rain" : 0,
		"cloudbase" : 30,
		"flyability" : 0,
		"reason" : "cloudbase",
		"timestamp" :1555732800
		},
	"2019-04-20T08:00:00+02:00" : {
		"windSpeed" : 1.6,
		"windDir" : 162,
		"rain" : 0,
		"cloudbase" : null,
		"flyability" : 100,
		"reason" : "",
		"timestamp" :1555743600
		},
	"2019-04-20T11:00:00+02:00" : {
		"windSpeed" : 0.9,
		"windDir" : 128,
		"rain" : 0,
		"cloudbase" : null,
		"flyability" : 100,
		"reason" : "",
		"timestamp" :1555754400
		},
	"2019-04-20T14:00:00+02:00" : {
		"windSpeed" : 1,
		"windDir" : 107,
		"rain" : 0,
		"cloudbase" : null,
		"flyability" : 100,
		"reason" : "",
		"timestamp" :1555765200
		},
	"2019-04-20T17:00:00+02:00" : {
		"windSpeed" : 1,
		"windDir" : 107,
		"rain" : 0,
		"cloudbase" : null,
		"flyability" : 100,
		"reason" : "",
		"timestamp" :1555776000
		},
	"2019-04-20T20:00:00+02:00" : {
		"windSpeed" : 1.6,
		"windDir" : 142,
		"rain" : 0,
		"cloudbase" : null,
		"flyability" : 100,
		"reason" : "",
		"timestamp" :1555786800
		},
	"2019-04-20T23:00:00+02:00" : {
		"windSpeed" : 2.2,
		"windDir" : 154,
		"rain" : 0,
		"cloudbase" : 7458.6165,
		"flyability" : 100,
		"reason" : "",
		"timestamp" :1555797600
		},
	"2019-04-21T02:00:00+02:00" : {
		"windSpeed" : 2.2,
		"windDir" : 154,
		"rain" : 0,
		"cloudbase" : 6904.1165,
		"flyability" : 100,
		"reason" : "",
		"timestamp" :1555808400
		},
	"2019-04-21T05:00:00+02:00" : {
		"windSpeed" : 2,
		"windDir" : 151,
		"rain" : 0,
		"cloudbase" : 6496.3,
		"flyability" : 100,
		"reason" : "",
		"timestamp" :1555819200
		},
	"2019-04-21T08:00:00+02:00" : {
		"windSpeed" : 1.9,
		"windDir" : 158,
		"rain" : 0,
		"cloudbase" : 6803.7835,
		"flyability" : 100,
		"reason" : "",
		"timestamp" :1555830000
		},
	"2019-04-21T11:00:00+02:00" : {
		"windSpeed" : 0.9,
		"windDir" : 129,
		"rain" : 0,
		"cloudbase" : 7714.8,
		"flyability" : 100,
		"reason" : "",
		"timestamp" :1555840800
		},
	"2019-04-21T14:00:00+02:00" : {
		"windSpeed" : 0.9,
		"windDir" : 126,
		"rain" : 0,
		"cloudbase" : 6300,
		"flyability" : 100,
		"reason" : "",
		"timestamp" :1555851600
		},
	"2019-04-21T17:00:00+02:00" : {
		"windSpeed" : 0.9,
		"windDir" : 92,
		"rain" : 0,
		"cloudbase" : 5100,
		"flyability" : 100,
		"reason" : "",
		"timestamp" :1555862400
		},
	"2019-04-21T20:00:00+02:00" : {
		"windSpeed" : 1.1,
		"windDir" : 120,
		"rain" : 0,
		"cloudbase" : 3104.783,
		"flyability" : 100,
		"reason" : "",
		"timestamp" :1555873200
		},
	"2019-04-21T23:00:00+02:00" : {
		"windSpeed" : 2,
		"windDir" : 142,
		"rain" : 0,
		"cloudbase" : 5518.0582499999,
		"flyability" : 100,
		"reason" : "",
		"timestamp" :1555884000
		},
	"2019-04-22T02:00:00+02:00" : {
		"windSpeed" : 2.2,
		"windDir" : 127,
		"rain" : 0,
		"cloudbase" : 7303.4399999999,
		"flyability" : 100,
		"reason" : "",
		"timestamp" :1555894800
		},
	"2019-04-22T05:00:00+02:00" : {
		"windSpeed" : 2.3,
		"windDir" : 133,
		"rain" : 0,
		"cloudbase" : 7414.8,
		"flyability" : 100,
		"reason" : "",
		"timestamp" :1555905600
		},
	"2019-04-22T08:00:00+02:00" : {
		"windSpeed" : 1.6,
		"windDir" : 131,
		"rain" : 0,
		"cloudbase" : 5982.5,
		"flyability" : 100,
		"reason" : "",
		"timestamp" :1555916400
		},
	"2019-04-22T11:00:00+02:00" : {
		"windSpeed" : 1.7,
		"windDir" : 131,
		"rain" : 0,
		"cloudbase" : 4500,
		"flyability" : 100,
		"reason" : "",
		"timestamp" :1555927200
		},
	"2019-04-22T14:00:00+02:00" : {
		"windSpeed" : 1.9,
		"windDir" : 127,
		"rain" : 0,
		"cloudbase" : 4247.35,
		"flyability" : 100,
		"reason" : "",
		"timestamp" :1555938000
		},
	"2019-04-22T17:00:00+02:00" : {
		"windSpeed" : 1.1,
		"windDir" : 120,
		"rain" : 0,
		"cloudbase" : null,
		"flyability" : 100,
		"reason" : "",
		"timestamp" :1555948800
		},
	"2019-04-22T20:00:00+02:00" : {
		"windSpeed" : 2,
		"windDir" : 123,
		"rain" : 0,
		"cloudbase" : null,
		"flyability" : 100,
		"reason" : "",
		"timestamp" :1555959600
		},
	"2019-04-22T23:00:00+02:00" : {
		"windSpeed" : 2.3,
		"windDir" : 132,
		"rain" : 0,
		"cloudbase" : 6056.6,
		"flyability" : 100,
		"reason" : "",
		"timestamp" :1555970400
		},
	"2019-04-23T02:00:00+02:00" : {
		"windSpeed" : 1.8,
		"windDir" : 127,
		"rain" : 0,
		"cloudbase" : 5000.5664999999,
		"flyability" : 100,
		"reason" : "",
		"timestamp" :1555981200
		},
	"2019-04-23T05:00:00+02:00" : {
		"windSpeed" : 1.5,
		"windDir" : 123,
		"rain" : 0,
		"cloudbase" : 4615.1359999999,
		"flyability" : 100,
		"reason" : "",
		"timestamp" :1555992000
		},
	"2019-04-23T08:00:00+02:00" : {
		"windSpeed" : 1,
		"windDir" : 107,
		"rain" : 0,
		"cloudbase" : 3239.9784999999,
		"flyability" : 100,
		"reason" : "",
		"timestamp" :1556002800
		},
	"2019-04-23T11:00:00+02:00" : {
		"windSpeed" : 1.3,
		"windDir" : 106,
		"rain" : 0,
		"cloudbase" : 2105.02225,
		"flyability" : 0,
		"reason" : "cloudbase",
		"timestamp" :1556013600
		},
	"2019-04-23T14:00:00+02:00" : {
		"windSpeed" : 1.1,
		"windDir" : 109,
		"rain" : 0,
		"cloudbase" : 687.86434999998,
		"flyability" : 0,
		"reason" : "cloudbase",
		"timestamp" :1556024400
		},
	"2019-04-23T17:00:00+02:00" : {
		"windSpeed" : 1.5,
		"windDir" : 124,
		"rain" : 0,
		"cloudbase" : 3479.8644999999,
		"flyability" : 100,
		"reason" : "",
		"timestamp" :1556035200
		},
	"2019-04-23T20:00:00+02:00" : {
		"windSpeed" : 1.4,
		"windDir" : 115,
		"rain" : 0,
		"cloudbase" : 922.21764999997,
		"flyability" : 0,
		"reason" : "cloudbase",
		"timestamp" :1556046000
		},
	"2019-04-23T23:00:00+02:00" : {
		"windSpeed" : 1.3,
		"windDir" : 104,
		"rain" : 0,
		"cloudbase" : 625.31814999998,
		"flyability" : 0,
		"reason" : "cloudbase",
		"timestamp" :1556056800
		},
	"2019-04-24T02:00:00+02:00" : {
		"windSpeed" : 1.3,
		"windDir" : 105,
		"rain" : 0,
		"cloudbase" : 416.39844999999,
		"flyability" : 0,
		"reason" : "cloudbase",
		"timestamp" :1556067600
		},
	"2019-04-24T05:00:00+02:00" : {
		"windSpeed" : 1.6,
		"windDir" : 111,
		"rain" : 0,
		"cloudbase" : 283.67979999999,
		"flyability" : 0,
		"reason" : "cloudbase",
		"timestamp" :1556078400
		},
	"2019-04-24T08:00:00+02:00" : {
		"windSpeed" : 1.4,
		"windDir" : 115,
		"rain" : 0,
		"cloudbase" : 338.46567499999,
		"flyability" : 0,
		"reason" : "cloudbase",
		"timestamp" :1556089200
		},
	"2019-04-24T11:00:00+02:00" : {
		"windSpeed" : 1.5,
		"windDir" : 124,
		"rain" : 0,
		"cloudbase" : 210,
		"flyability" : 0,
		"reason" : "cloudbase",
		"timestamp" :1556100000
		},
	"2019-04-24T14:00:00+02:00" : {
		"windSpeed" : 1.9,
		"windDir" : 116,
		"rain" : 0,
		"cloudbase" : 160,
		"flyability" : 0,
		"reason" : "cloudbase",
		"timestamp" :1556110800
		},
	"2019-04-24T17:00:00+02:00" : {
		"windSpeed" : 1.5,
		"windDir" : 124,
		"rain" : 0,
		"cloudbase" : 412.15639999999,
		"flyability" : 0,
		"reason" : "cloudbase",
		"timestamp" :1556121600
		},
	"2019-04-24T20:00:00+02:00" : {
		"windSpeed" : 1.5,
		"windDir" : 101,
		"rain" : 0,
		"cloudbase" : 655.86744999998,
		"flyability" : 0,
		"reason" : "cloudbase",
		"timestamp" :1556132400
		},
	"2019-04-24T23:00:00+02:00" : {
		"windSpeed" : 1.5,
		"windDir" : 124,
		"rain" : 0,
		"cloudbase" : 310.97495,
		"flyability" : 0,
		"reason" : "cloudbase",
		"timestamp" :1556143200
		},
	"2019-04-25T02:00:00+02:00" : {
		"windSpeed" : 1.7,
		"windDir" : 132,
		"rain" : 0,
		"cloudbase" : 714.90444999998,
		"flyability" : 0,
		"reason" : "cloudbase",
		"timestamp" :1556154000
		},
	"2019-04-25T05:00:00+02:00" : {
		"windSpeed" : 1.5,
		"windDir" : 124,
		"rain" : 0,
		"cloudbase" : 425.91804999999,
		"flyability" : 0,
		"reason" : "cloudbase",
		"timestamp" :1556164800
		},
	"2019-04-25T08:00:00+02:00" : {
		"windSpeed" : 1.5,
		"windDir" : 124,
		"rain" : 0,
		"cloudbase" : 650.54144999998,
		"flyability" : 0,
		"reason" : "cloudbase",
		"timestamp" :1556175600
		},
	"2019-04-25T11:00:00+02:00" : {
		"windSpeed" : 1.5,
		"windDir" : 124,
		"rain" : 0,
		"cloudbase" : 706.26619999998,
		"flyability" : 0,
		"reason" : "cloudbase",
		"timestamp" :1556186400
		},
	"2019-04-25T14:00:00+02:00" : {
		"windSpeed" : 1.3,
		"windDir" : 106,
		"rain" : 0,
		"cloudbase" : 509.91415,
		"flyability" : 0,
		"reason" : "cloudbase",
		"timestamp" :1556197200
		},
	"2019-04-25T17:00:00+02:00" : {
		"windSpeed" : 0.5,
		"windDir" : 100,
		"rain" : 0,
		"cloudbase" : 210,
		"flyability" : 0,
		"reason" : "cloudbase",
		"timestamp" :1556208000
		},
	"2019-04-25T20:00:00+02:00" : {
		"windSpeed" : 1,
		"windDir" : 127,
		"rain" : 0,
		"cloudbase" : 557.60145000001,
		"flyability" : 0,
		"reason" : "cloudbase",
		"timestamp" :1556218800
		},
	"2019-04-25T23:00:00+02:00" : {
		"windSpeed" : 0.3,
		"windDir" : 99,
		"rain" : 0,
		"cloudbase" : 1947.9404000001,
		"flyability" : 0,
		"reason" : "cloudbase",
		"timestamp" :1556229600
		},
	"2019-04-26T02:00:00+02:00" : {
		"windSpeed" : 0.8,
		"windDir" : 296,
		"rain" : 0,
		"cloudbase" : 200.579125,
		"flyability" : 0,
		"reason" : "windDir, cloudbase",
		"timestamp" :1556240400
		}
	}
}