{
"site" : "Piracaia - SIV",
"id" : 8270,
"orientations" : "22222222",
"forecasts" : { 
	"2019-04-12T00:00:00-03:00" : {
		"windSpeed" : 2.3,
		"windDir" : 124,
		"rain" : 0,
		"cloudbase" : 104.63272,
		"flyability" : 0,
		"reason" : "cloudbase",
		"timestamp" :1555038000
		},
	"2019-04-12T03:00:00-03:00" : {
		"windSpeed" : 1.6,
		"windDir" : 118,
		"rain" : 0,
		"cloudbase" : 55,
		"flyability" : 0,
		"reason" : "cloudbase",
		"timestamp" :1555048800
		},
	"2019-04-12T06:00:00-03:00" : {
		"windSpeed" : 1.9,
		"windDir" : 101,
		"rain" : 0,
		"cloudbase" : 5094.7557599998,
		"flyability" : 100,
		"reason" : "",
		"timestamp" :1555059600
		},
	"2019-04-12T09:00:00-03:00" : {
		"windSpeed" : 1.7,
		"windDir" : 56,
		"rain" : 0,
		"cloudbase" : 11000,
		"flyability" : 100,
		"reason" : "",
		"timestamp" :1555070400
		},
	"2019-04-12T12:00:00-03:00" : {
		"windSpeed" : 3.1,
		"windDir" : 297,
		"rain" : 0,
		"cloudbase" : 11000,
		"flyability" : 100,
		"reason" : "",
		"timestamp" :1555081200
		},
	"2019-04-12T15:00:00-03:00" : {
		"windSpeed" : 3.2,
		"windDir" : 277,
		"rain" : 0,
		"cloudbase" : 10500,
		"flyability" : 100,
		"reason" : "",
		"timestamp" :1555092000
		},
	"2019-04-12T18:00:00-03:00" : {
		"windSpeed" : 1.5,
		"windDir" : 220,
		"rain" : 0,
		"cloudbase" : 10500,
		"flyability" : 100,
		"reason" : "",
		"timestamp" :1555102800
		},
	"2019-04-12T21:00:00-03:00" : {
		"windSpeed" : 2.9,
		"windDir" : 128,
		"rain" : 0,
		"cloudbase" : 6400,
		"flyability" : 100,
		"reason" : "",
		"timestamp" :1555113600
		},
	"2019-04-13T00:00:00-03:00" : {
		"windSpeed" : 2.2,
		"windDir" : 124,
		"rain" : 0,
		"cloudbase" : 42.784240000011,
		"flyability" : 0,
		"reason" : "cloudbase",
		"timestamp" :1555124400
		},
	"2019-04-13T03:00:00-03:00" : {
		"windSpeed" : 2,
		"windDir" : 112,
		"rain" : 0,
		"cloudbase" : 1026.8879200002,
		"flyability" : 100,
		"reason" : "",
		"timestamp" :1555135200
		},
	"2019-04-13T06:00:00-03:00" : {
		"windSpeed" : 1.5,
		"windDir" : 84,
		"rain" : 0,
		"cloudbase" : 1751.2218400009,
		"flyability" : 100,
		"reason" : "",
		"timestamp" :1555146000
		},
	"2019-04-13T09:00:00-03:00" : {
		"windSpeed" : 1.2,
		"windDir" : 36,
		"rain" : 0,
		"cloudbase" : null,
		"flyability" : 100,
		"reason" : "",
		"timestamp" :1555156800
		},
	"2019-04-13T12:00:00-03:00" : {
		"windSpeed" : 1.6,
		"windDir" : 309,
		"rain" : 0,
		"cloudbase" : null,
		"flyability" : 100,
		"reason" : "",
		"timestamp" :1555167600
		},
	"2019-04-13T15:00:00-03:00" : {
		"windSpeed" : 1.8,
		"windDir" : 204,
		"rain" : 1,
		"cloudbase" : null,
		"flyability" : 0,
		"reason" : "rain",
		"timestamp" :1555178400
		},
	"2019-04-13T18:00:00-03:00" : {
		"windSpeed" : 3.3,
		"windDir" : 117,
		"rain" : 0,
		"cloudbase" : 13000,
		"flyability" : 100,
		"reason" : "",
		"timestamp" :1555189200
		},
	"2019-04-13T21:00:00-03:00" : {
		"windSpeed" : 3.2,
		"windDir" : 116,
		"rain" : 0,
		"cloudbase" : 4226.0540000008,
		"flyability" : 100,
		"reason" : "",
		"timestamp" :1555200000
		},
	"2019-04-14T00:00:00-03:00" : {
		"windSpeed" : 2.5,
		"windDir" : 116,
		"rain" : 0,
		"cloudbase" : 6413.635600001,
		"flyability" : 100,
		"reason" : "",
		"timestamp" :1555210800
		},
	"2019-04-14T03:00:00-03:00" : {
		"windSpeed" : 2,
		"windDir" : 112,
		"rain" : 0,
		"cloudbase" : 3271.4576000006,
		"flyability" : 100,
		"reason" : "",
		"timestamp" :1555221600
		},
	"2019-04-14T06:00:00-03:00" : {
		"windSpeed" : 1.7,
		"windDir" : 95,
		"rain" : 0,
		"cloudbase" : 10506.6976,
		"flyability" : 100,
		"reason" : "",
		"timestamp" :1555232400
		},
	"2019-04-14T09:00:00-03:00" : {
		"windSpeed" : 2,
		"windDir" : 54,
		"rain" : 0,
		"cloudbase" : 4000,
		"flyability" : 100,
		"reason" : "",
		"timestamp" :1555243200
		},
	"2019-04-14T12:00:00-03:00" : {
		"windSpeed" : 2.1,
		"windDir" : 356,
		"rain" : 0,
		"cloudbase" : 3266.6060000002,
		"flyability" : 100,
		"reason" : "",
		"timestamp" :1555254000
		},
	"2019-04-14T15:00:00-03:00" : {
		"windSpeed" : 0.7,
		"windDir" : 131,
		"rain" : 1,
		"cloudbase" : 9054.6975999997,
		"flyability" : 0,
		"reason" : "rain",
		"timestamp" :1555264800
		},
	"2019-04-14T18:00:00-03:00" : {
		"windSpeed" : 2.9,
		"windDir" : 113,
		"rain" : 0,
		"cloudbase" : 8829.6,
		"flyability" : 100,
		"reason" : "",
		"timestamp" :1555275600
		},
	"2019-04-14T21:00:00-03:00" : {
		"windSpeed" : 2.1,
		"windDir" : 116,
		"rain" : 1,
		"cloudbase" : 9248.3576,
		"flyability" : 0,
		"reason" : "rain",
		"timestamp" :1555286400
		},
	"2019-04-15T00:00:00-03:00" : {
		"windSpeed" : 1.5,
		"windDir" : 98,
		"rain" : 0,
		"cloudbase" : null,
		"flyability" : 100,
		"reason" : "",
		"timestamp" :1555297200
		},
	"2019-04-15T03:00:00-03:00" : {
		"windSpeed" : 1.6,
		"windDir" : 99,
		"rain" : 0,
		"cloudbase" : 5610.8660000014,
		"flyability" : 100,
		"reason" : "",
		"timestamp" :1555308000
		},
	"2019-04-15T06:00:00-03:00" : {
		"windSpeed" : 1.7,
		"windDir" : 111,
		"rain" : 0,
		"cloudbase" : 6681.6000000013,
		"flyability" : 100,
		"reason" : "",
		"timestamp" :1555318800
		},
	"2019-04-15T09:00:00-03:00" : {
		"windSpeed" : 2.4,
		"windDir" : 34,
		"rain" : 1,
		"cloudbase" : null,
		"flyability" : 0,
		"reason" : "rain",
		"timestamp" :1555329600
		},
	"2019-04-15T12:00:00-03:00" : {
		"windSpeed" : 1.6,
		"windDir" : 329,
		"rain" : 0,
		"cloudbase" : 11000,
		"flyability" : 100,
		"reason" : "",
		"timestamp" :1555340400
		},
	"2019-04-15T15:00:00-03:00" : {
		"windSpeed" : 0.3,
		"windDir" : 90,
		"rain" : 0,
		"cloudbase" : null,
		"flyability" : 100,
		"reason" : "",
		"timestamp" :1555351200
		},
	"2019-04-15T18:00:00-03:00" : {
		"windSpeed" : 2.3,
		"windDir" : 136,
		"rain" : 0,
		"cloudbase" : null,
		"flyability" : 100,
		"reason" : "",
		"timestamp" :1555362000
		},
	"2019-04-15T21:00:00-03:00" : {
		"windSpeed" : 2.6,
		"windDir" : 119,
		"rain" : 0,
		"cloudbase" : 110,
		"flyability" : 0,
		"reason" : "cloudbase",
		"timestamp" :1555372800
		},
	"2019-04-16T00:00:00-03:00" : {
		"windSpeed" : 1.4,
		"windDir" : 95,
		"rain" : 0,
		"cloudbase" : 80,
		"flyability" : 0,
		"reason" : "cloudbase",
		"timestamp" :1555383600
		},
	"2019-04-16T03:00:00-03:00" : {
		"windSpeed" : 2.2,
		"windDir" : 121,
		"rain" : 0,
		"cloudbase" : 30,
		"flyability" : 0,
		"reason" : "cloudbase",
		"timestamp" :1555394400
		},
	"2019-04-16T06:00:00-03:00" : {
		"windSpeed" : 1.6,
		"windDir" : 81,
		"rain" : 0,
		"cloudbase" : 30,
		"flyability" : 0,
		"reason" : "cloudbase",
		"timestamp" :1555405200
		},
	"2019-04-16T09:00:00-03:00" : {
		"windSpeed" : 1.2,
		"windDir" : 83,
		"rain" : 1,
		"cloudbase" : null,
		"flyability" : 0,
		"reason" : "rain",
		"timestamp" :1555416000
		},
	"2019-04-16T12:00:00-03:00" : {
		"windSpeed" : 2,
		"windDir" : 334,
		"rain" : 0,
		"cloudbase" : null,
		"flyability" : 100,
		"reason" : "",
		"timestamp" :1555426800
		},
	"2019-04-16T15:00:00-03:00" : {
		"windSpeed" : 2.2,
		"windDir" : 315,
		"rain" : 0,
		"cloudbase" : 9932.6728000001,
		"flyability" : 100,
		"reason" : "",
		"timestamp" :1555437600
		},
	"2019-04-16T18:00:00-03:00" : {
		"windSpeed" : 0.1,
		"windDir" : 72,
		"rain" : 0,
		"cloudbase" : 3590.763040001,
		"flyability" : 100,
		"reason" : "",
		"timestamp" :1555448400
		},
	"2019-04-16T21:00:00-03:00" : {
		"windSpeed" : 2.6,
		"windDir" : 325,
		"rain" : 0,
		"cloudbase" : 3320.3237600001,
		"flyability" : 100,
		"reason" : "",
		"timestamp" :1555459200
		},
	"2019-04-17T00:00:00-03:00" : {
		"windSpeed" : 1.8,
		"windDir" : 315,
		"rain" : 0,
		"cloudbase" : null,
		"flyability" : 100,
		"reason" : "",
		"timestamp" :1555470000
		},
	"2019-04-17T03:00:00-03:00" : {
		"windSpeed" : 2.6,
		"windDir" : 325,
		"rain" : 1,
		"cloudbase" : 314.87999999997,
		"flyability" : 0,
		"reason" : "rain, cloudbase",
		"timestamp" :1555480800
		},
	"2019-04-17T06:00:00-03:00" : {
		"windSpeed" : 3.7,
		"windDir" : 324,
		"rain" : 0,
		"cloudbase" : 255.59999999998,
		"flyability" : 0,
		"reason" : "cloudbase",
		"timestamp" :1555491600
		},
	"2019-04-17T09:00:00-03:00" : {
		"windSpeed" : 4,
		"windDir" : 305,
		"rain" : 1,
		"cloudbase" : null,
		"flyability" : 0,
		"reason" : "rain",
		"timestamp" :1555502400
		},
	"2019-04-17T12:00:00-03:00" : {
		"windSpeed" : 4.9,
		"windDir" : 289,
		"rain" : 1,
		"cloudbase" : 2100,
		"flyability" : 0,
		"reason" : "rain",
		"timestamp" :1555513200
		},
	"2019-04-17T15:00:00-03:00" : {
		"windSpeed" : 3.7,
		"windDir" : 283,
		"rain" : 1,
		"cloudbase" : null,
		"flyability" : 0,
		"reason" : "rain",
		"timestamp" :1555524000
		},
	"2019-04-17T18:00:00-03:00" : {
		"windSpeed" : 1.3,
		"windDir" : 264,
		"rain" : 1,
		"cloudbase" : null,
		"flyability" : 0,
		"reason" : "rain",
		"timestamp" :1555534800
		},
	"2019-04-17T21:00:00-03:00" : {
		"windSpeed" : 1.4,
		"windDir" : 134,
		"rain" : 1,
		"cloudbase" : 480,
		"flyability" : 0,
		"reason" : "rain, cloudbase",
		"timestamp" :1555545600
		}
	}
}