{
"site" : "Bl\u00e4ttersberg",
"id" : 8702,
"orientations" : "00122200",
"forecasts" : { 
	"2019-04-19T17:00:00+02:00" : {
		"windSpeed" : 3.5,
		"windDir" : 81,
		"rain" : 0,
		"cloudbase" : null,
		"flyability" : 100,
		"reason" : "",
		"timestamp" :1555689600
		},
	"2019-04-19T20:00:00+02:00" : {
		"windSpeed" : 2.1,
		"windDir" : 48,
		"rain" : 0,
		"cloudbase" : null,
		"flyability" : 0,
		"reason" : "windDir",
		"timestamp" :1555700400
		},
	"2019-04-19T23:00:00+02:00" : {
		"windSpeed" : 2.2,
		"windDir" : 23,
		"rain" : 0,
		"cloudbase" : null,
		"flyability" : 0,
		"reason" : "windDir",
		"timestamp" :1555711200
		},
	"2019-04-20T02:00:00+02:00" : {
		"windSpeed" : 1.9,
		"windDir" : 29,
		"rain" : 0,
		"cloudbase" : null,
		"flyability" : 0,
		"reason" : "windDir",
		"timestamp" :1555722000
		},
	"2019-04-20T05:00:00+02:00" : {
		"windSpeed" : 2.3,
		"windDir" : 38,
		"rain" : 0,
		"cloudbase" : null,
		"flyability" : 0,
		"reason" : "windDir",
		"timestamp" :1555732800
		},
	"2019-04-20T08:00:00+02:00" : {
		"windSpeed" : 2.7,
		"windDir" : 29,
		"rain" : 0,
		"cloudbase" : null,
		"flyability" : 0,
		"reason" : "windDir",
		"timestamp" :1555743600
		},
	"2019-04-20T11:00:00+02:00" : {
		"windSpeed" : 3.1,
		"windDir" : 46,
		"rain" : 0,
		"cloudbase" : null,
		"flyability" : 0,
		"reason" : "windDir",
		"timestamp" :1555754400
		},
	"2019-04-20T14:00:00+02:00" : {
		"windSpeed" : 4.1,
		"windDir" : 59,
		"rain" : 0,
		"cloudbase" : null,
		"flyability" : 0,
		"reason" : "windDir",
		"timestamp" :1555765200
		},
	"2019-04-20T17:00:00+02:00" : {
		"windSpeed" : 4.3,
		"windDir" : 68,
		"rain" : 0,
		"cloudbase" : null,
		"flyability" : 100,
		"reason" : "",
		"timestamp" :1555776000
		},
	"2019-04-20T20:00:00+02:00" : {
		"windSpeed" : 2.8,
		"windDir" : 27,
		"rain" : 0,
		"cloudbase" : null,
		"flyability" : 0,
		"reason" : "windDir",
		"timestamp" :1555786800
		},
	"2019-04-20T23:00:00+02:00" : {
		"windSpeed" : 3.2,
		"windDir" : 16,
		"rain" : 0,
		"cloudbase" : null,
		"flyability" : 0,
		"reason" : "windDir",
		"timestamp" :1555797600
		},
	"2019-04-21T02:00:00+02:00" : {
		"windSpeed" : 2.3,
		"windDir" : 19,
		"rain" : 0,
		"cloudbase" : null,
		"flyability" : 0,
		"reason" : "windDir",
		"timestamp" :1555808400
		},
	"2019-04-21T05:00:00+02:00" : {
		"windSpeed" : 2.6,
		"windDir" : 7,
		"rain" : 0,
		"cloudbase" : null,
		"flyability" : 0,
		"reason" : "windDir",
		"timestamp" :1555819200
		},
	"2019-04-21T08:00:00+02:00" : {
		"windSpeed" : 2.7,
		"windDir" : 23,
		"rain" : 0,
		"cloudbase" : null,
		"flyability" : 0,
		"reason" : "windDir",
		"timestamp" :1555830000
		},
	"2019-04-21T11:00:00+02:00" : {
		"windSpeed" : 2.8,
		"windDir" : 55,
		"rain" : 0,
		"cloudbase" : null,
		"flyability" : 0,
		"reason" : "windDir",
		"timestamp" :1555840800
		},
	"2019-04-21T14:00:00+02:00" : {
		"windSpeed" : 3.9,
		"windDir" : 73,
		"rain" : 0,
		"cloudbase" : null,
		"flyability" : 100,
		"reason" : "",
		"timestamp" :1555851600
		},
	"2019-04-21T17:00:00+02:00" : {
		"windSpeed" : 3.9,
		"windDir" : 74,
		"rain" : 0,
		"cloudbase" : null,
		"flyability" : 100,
		"reason" : "",
		"timestamp" :1555862400
		},
	"2019-04-21T20:00:00+02:00" : {
		"windSpeed" : 2.6,
		"windDir" : 43,
		"rain" : 0,
		"cloudbase" : null,
		"flyability" : 0,
		"reason" : "windDir",
		"timestamp" :1555873200
		},
	"2019-04-21T23:00:00+02:00" : {
		"windSpeed" : 2.6,
		"windDir" : 33,
		"rain" : 0,
		"cloudbase" : null,
		"flyability" : 0,
		"reason" : "windDir",
		"timestamp" :1555884000
		},
	"2019-04-22T02:00:00+02:00" : {
		"windSpeed" : 2.1,
		"windDir" : 41,
		"rain" : 0,
		"cloudbase" : null,
		"flyability" : 0,
		"reason" : "windDir",
		"timestamp" :1555894800
		},
	"2019-04-22T05:00:00+02:00" : {
		"windSpeed" : 2.7,
		"windDir" : 49,
		"rain" : 0,
		"cloudbase" : 9050.12812,
		"flyability" : 0,
		"reason" : "windDir",
		"timestamp" :1555905600
		},
	"2019-04-22T08:00:00+02:00" : {
		"windSpeed" : 3.9,
		"windDir" : 55,
		"rain" : 0,
		"cloudbase" : null,
		"flyability" : 0,
		"reason" : "windDir",
		"timestamp" :1555916400
		},
	"2019-04-22T11:00:00+02:00" : {
		"windSpeed" : 4.9,
		"windDir" : 71,
		"rain" : 0,
		"cloudbase" : 10402.8297,
		"flyability" : 100,
		"reason" : "",
		"timestamp" :1555927200
		},
	"2019-04-22T14:00:00+02:00" : {
		"windSpeed" : 5.3,
		"windDir" : 78,
		"rain" : 0,
		"cloudbase" : 9124.15406,
		"flyability" : 0,
		"reason" : "windSpeed",
		"timestamp" :1555938000
		},
	"2019-04-22T17:00:00+02:00" : {
		"windSpeed" : 5.3,
		"windDir" : 83,
		"rain" : 0,
		"cloudbase" : 10000,
		"flyability" : 0,
		"reason" : "windSpeed",
		"timestamp" :1555948800
		},
	"2019-04-22T20:00:00+02:00" : {
		"windSpeed" : 3.7,
		"windDir" : 63,
		"rain" : 0,
		"cloudbase" : null,
		"flyability" : 0,
		"reason" : "windDir",
		"timestamp" :1555959600
		},
	"2019-04-22T23:00:00+02:00" : {
		"windSpeed" : 3.5,
		"windDir" : 43,
		"rain" : 0,
		"cloudbase" : null,
		"flyability" : 0,
		"reason" : "windDir",
		"timestamp" :1555970400
		},
	"2019-04-23T02:00:00+02:00" : {
		"windSpeed" : 3.4,
		"windDir" : 42,
		"rain" : 0,
		"cloudbase" : 8585.0297,
		"flyability" : 0,
		"reason" : "windDir",
		"timestamp" :1555981200
		},
	"2019-04-23T05:00:00+02:00" : {
		"windSpeed" : 3.7,
		"windDir" : 39,
		"rain" : 0,
		"cloudbase" : 9500,
		"flyability" : 0,
		"reason" : "windDir",
		"timestamp" :1555992000
		},
	"2019-04-23T08:00:00+02:00" : {
		"windSpeed" : 3.3,
		"windDir" : 53,
		"rain" : 0,
		"cloudbase" : 10000,
		"flyability" : 0,
		"reason" : "windDir",
		"timestamp" :1556002800
		},
	"2019-04-23T11:00:00+02:00" : {
		"windSpeed" : 2.7,
		"windDir" : 86,
		"rain" : 0,
		"cloudbase" : 9173.09782,
		"flyability" : 100,
		"reason" : "",
		"timestamp" :1556013600
		},
	"2019-04-23T14:00:00+02:00" : {
		"windSpeed" : 3.1,
		"windDir" : 101,
		"rain" : 0,
		"cloudbase" : 8839.02,
		"flyability" : 100,
		"reason" : "",
		"timestamp" :1556024400
		},
	"2019-04-23T17:00:00+02:00" : {
		"windSpeed" : 3,
		"windDir" : 98,
		"rain" : 0,
		"cloudbase" : 9749.16594,
		"flyability" : 100,
		"reason" : "",
		"timestamp" :1556035200
		},
	"2019-04-23T20:00:00+02:00" : {
		"windSpeed" : 2.2,
		"windDir" : 63,
		"rain" : 0,
		"cloudbase" : null,
		"flyability" : 0,
		"reason" : "windDir",
		"timestamp" :1556046000
		},
	"2019-04-23T23:00:00+02:00" : {
		"windSpeed" : 2,
		"windDir" : 65,
		"rain" : 0,
		"cloudbase" : null,
		"flyability" : 0,
		"reason" : "windDir",
		"timestamp" :1556056800
		},
	"2019-04-24T02:00:00+02:00" : {
		"windSpeed" : 1.3,
		"windDir" : 266,
		"rain" : 0,
		"cloudbase" : null,
		"flyability" : 0,
		"reason" : "windDir",
		"timestamp" :1556067600
		},
	"2019-04-24T05:00:00+02:00" : {
		"windSpeed" : 2.6,
		"windDir" : 273,
		"rain" : 0,
		"cloudbase" : null,
		"flyability" : 0,
		"reason" : "windDir",
		"timestamp" :1556078400
		},
	"2019-04-24T08:00:00+02:00" : {
		"windSpeed" : 2.3,
		"windDir" : 227,
		"rain" : 0,
		"cloudbase" : null,
		"flyability" : 100,
		"reason" : "",
		"timestamp" :1556089200
		},
	"2019-04-24T11:00:00+02:00" : {
		"windSpeed" : 1.5,
		"windDir" : 166,
		"rain" : 0,
		"cloudbase" : null,
		"flyability" : 100,
		"reason" : "",
		"timestamp" :1556100000
		},
	"2019-04-24T14:00:00+02:00" : {
		"windSpeed" : 3.7,
		"windDir" : 120,
		"rain" : 1,
		"cloudbase" : null,
		"flyability" : 0,
		"reason" : "rain",
		"timestamp" :1556110800
		},
	"2019-04-24T17:00:00+02:00" : {
		"windSpeed" : 3.9,
		"windDir" : 124,
		"rain" : 0,
		"cloudbase" : 9072.08812,
		"flyability" : 100,
		"reason" : "",
		"timestamp" :1556121600
		},
	"2019-04-24T20:00:00+02:00" : {
		"windSpeed" : 2.2,
		"windDir" : 22,
		"rain" : 0,
		"cloudbase" : 6872.46218,
		"flyability" : 0,
		"reason" : "windDir",
		"timestamp" :1556132400
		},
	"2019-04-24T23:00:00+02:00" : {
		"windSpeed" : 2.5,
		"windDir" : 330,
		"rain" : 0,
		"cloudbase" : 8149.16594,
		"flyability" : 0,
		"reason" : "windDir",
		"timestamp" :1556143200
		},
	"2019-04-25T02:00:00+02:00" : {
		"windSpeed" : 2.7,
		"windDir" : 323,
		"rain" : 0,
		"cloudbase" : 9380.56594,
		"flyability" : 0,
		"reason" : "windDir",
		"timestamp" :1556154000
		},
	"2019-04-25T05:00:00+02:00" : {
		"windSpeed" : 1.9,
		"windDir" : 29,
		"rain" : 0,
		"cloudbase" : null,
		"flyability" : 0,
		"reason" : "windDir",
		"timestamp" :1556164800
		},
	"2019-04-25T08:00:00+02:00" : {
		"windSpeed" : 1.9,
		"windDir" : 53,
		"rain" : 0,
		"cloudbase" : null,
		"flyability" : 0,
		"reason" : "windDir",
		"timestamp" :1556175600
		},
	"2019-04-25T11:00:00+02:00" : {
		"windSpeed" : 2.5,
		"windDir" : 222,
		"rain" : 0,
		"cloudbase" : 7000.0340600001,
		"flyability" : 100,
		"reason" : "",
		"timestamp" :1556186400
		},
	"2019-04-25T14:00:00+02:00" : {
		"windSpeed" : 6.5,
		"windDir" : 275,
		"rain" : 0,
		"cloudbase" : 5400,
		"flyability" : 0,
		"reason" : "windSpeed, windDir",
		"timestamp" :1556197200
		}
	}
}