{
"site" : "Heue",
"id" : 8778,
"orientations" : "00000121",
"forecasts" : { 
	"2019-04-15T05:00:00+02:00" : {
		"windSpeed" : 3.1,
		"windDir" : 54,
		"rain" : 0,
		"cloudbase" : null,
		"flyability" : 0,
		"reason" : "windDir",
		"timestamp" :1555300800
		},
	"2019-04-15T08:00:00+02:00" : {
		"windSpeed" : 2.4,
		"windDir" : 76,
		"rain" : 0,
		"cloudbase" : null,
		"flyability" : 0,
		"reason" : "windDir",
		"timestamp" :1555311600
		},
	"2019-04-15T11:00:00+02:00" : {
		"windSpeed" : 5.2,
		"windDir" : 89,
		"rain" : 0,
		"cloudbase" : 820,
		"flyability" : 0,
		"reason" : "windSpeed, windDir, cloudbase",
		"timestamp" :1555322400
		},
	"2019-04-15T14:00:00+02:00" : {
		"windSpeed" : 4.2,
		"windDir" : 89,
		"rain" : 0,
		"cloudbase" : null,
		"flyability" : 0,
		"reason" : "windDir",
		"timestamp" :1555333200
		},
	"2019-04-15T17:00:00+02:00" : {
		"windSpeed" : 3.8,
		"windDir" : 105,
		"rain" : 0,
		"cloudbase" : null,
		"flyability" : 0,
		"reason" : "windDir",
		"timestamp" :1555344000
		},
	"2019-04-15T20:00:00+02:00" : {
		"windSpeed" : 3.5,
		"windDir" : 77,
		"rain" : 0,
		"cloudbase" : null,
		"flyability" : 0,
		"reason" : "windDir",
		"timestamp" :1555354800
		},
	"2019-04-15T23:00:00+02:00" : {
		"windSpeed" : 4.1,
		"windDir" : 67,
		"rain" : 0,
		"cloudbase" : null,
		"flyability" : 0,
		"reason" : "windDir",
		"timestamp" :1555365600
		},
	"2019-04-16T02:00:00+02:00" : {
		"windSpeed" : 2.5,
		"windDir" : 67,
		"rain" : 0,
		"cloudbase" : null,
		"flyability" : 0,
		"reason" : "windDir",
		"timestamp" :1555376400
		},
	"2019-04-16T05:00:00+02:00" : {
		"windSpeed" : 2.1,
		"windDir" : 94,
		"rain" : 0,
		"cloudbase" : 9360,
		"flyability" : 0,
		"reason" : "windDir",
		"timestamp" :1555387200
		},
	"2019-04-16T08:00:00+02:00" : {
		"windSpeed" : 1.8,
		"windDir" : 105,
		"rain" : 0,
		"cloudbase" : 2619.5,
		"flyability" : 0,
		"reason" : "windDir",
		"timestamp" :1555398000
		},
	"2019-04-16T11:00:00+02:00" : {
		"windSpeed" : 2.7,
		"windDir" : 288,
		"rain" : 0,
		"cloudbase" : 4080,
		"flyability" : 100,
		"reason" : "",
		"timestamp" :1555408800
		},
	"2019-04-16T14:00:00+02:00" : {
		"windSpeed" : 2.4,
		"windDir" : 283,
		"rain" : 1,
		"cloudbase" : 2881.4,
		"flyability" : 0,
		"reason" : "rain",
		"timestamp" :1555419600
		},
	"2019-04-16T17:00:00+02:00" : {
		"windSpeed" : 0.8,
		"windDir" : 285,
		"rain" : 1,
		"cloudbase" : 2751.7,
		"flyability" : 0,
		"reason" : "rain",
		"timestamp" :1555430400
		},
	"2019-04-16T20:00:00+02:00" : {
		"windSpeed" : 1.8,
		"windDir" : 141,
		"rain" : 1,
		"cloudbase" : 2094.6,
		"flyability" : 0,
		"reason" : "windDir, rain",
		"timestamp" :1555441200
		},
	"2019-04-16T23:00:00+02:00" : {
		"windSpeed" : 0.9,
		"windDir" : 125,
		"rain" : 1,
		"cloudbase" : 1216.32,
		"flyability" : 0,
		"reason" : "windDir, rain",
		"timestamp" :1555452000
		},
	"2019-04-17T02:00:00+02:00" : {
		"windSpeed" : 1,
		"windDir" : 94,
		"rain" : 1,
		"cloudbase" : 996.68,
		"flyability" : 0,
		"reason" : "windDir, rain",
		"timestamp" :1555462800
		},
	"2019-04-17T05:00:00+02:00" : {
		"windSpeed" : 1.2,
		"windDir" : 97,
		"rain" : 1,
		"cloudbase" : 817.52000000001,
		"flyability" : 0,
		"reason" : "windDir, rain, cloudbase",
		"timestamp" :1555473600
		},
	"2019-04-17T08:00:00+02:00" : {
		"windSpeed" : 1.7,
		"windDir" : 76,
		"rain" : 1,
		"cloudbase" : 1419.36,
		"flyability" : 0,
		"reason" : "windDir, rain",
		"timestamp" :1555484400
		},
	"2019-04-17T11:00:00+02:00" : {
		"windSpeed" : 2.3,
		"windDir" : 101,
		"rain" : 1,
		"cloudbase" : null,
		"flyability" : 0,
		"reason" : "windDir, rain",
		"timestamp" :1555495200
		},
	"2019-04-17T14:00:00+02:00" : {
		"windSpeed" : 2.9,
		"windDir" : 105,
		"rain" : 1,
		"cloudbase" : 1171.78,
		"flyability" : 0,
		"reason" : "windDir, rain",
		"timestamp" :1555506000
		},
	"2019-04-17T17:00:00+02:00" : {
		"windSpeed" : 1.6,
		"windDir" : 101,
		"rain" : 1,
		"cloudbase" : null,
		"flyability" : 0,
		"reason" : "windDir, rain",
		"timestamp" :1555516800
		},
	"2019-04-17T20:00:00+02:00" : {
		"windSpeed" : 1.3,
		"windDir" : 71,
		"rain" : 0,
		"cloudbase" : null,
		"flyability" : 0,
		"reason" : "windDir",
		"timestamp" :1555527600
		},
	"2019-04-17T23:00:00+02:00" : {
		"windSpeed" : 3.1,
		"windDir" : 60,
		"rain" : 0,
		"cloudbase" : null,
		"flyability" : 0,
		"reason" : "windDir",
		"timestamp" :1555538400
		},
	"2019-04-18T02:00:00+02:00" : {
		"windSpeed" : 2.9,
		"windDir" : 64,
		"rain" : 0,
		"cloudbase" : null,
		"flyability" : 0,
		"reason" : "windDir",
		"timestamp" :1555549200
		},
	"2019-04-18T05:00:00+02:00" : {
		"windSpeed" : 2.6,
		"windDir" : 66,
		"rain" : 0,
		"cloudbase" : null,
		"flyability" : 0,
		"reason" : "windDir",
		"timestamp" :1555560000
		},
	"2019-04-18T08:00:00+02:00" : {
		"windSpeed" : 2.6,
		"windDir" : 84,
		"rain" : 0,
		"cloudbase" : null,
		"flyability" : 0,
		"reason" : "windDir",
		"timestamp" :1555570800
		},
	"2019-04-18T11:00:00+02:00" : {
		"windSpeed" : 3.2,
		"windDir" : 101,
		"rain" : 0,
		"cloudbase" : 9760,
		"flyability" : 0,
		"reason" : "windDir",
		"timestamp" :1555581600
		},
	"2019-04-18T14:00:00+02:00" : {
		"windSpeed" : 3.1,
		"windDir" : 104,
		"rain" : 0,
		"cloudbase" : 9063.4,
		"flyability" : 0,
		"reason" : "windDir",
		"timestamp" :1555592400
		},
	"2019-04-18T17:00:00+02:00" : {
		"windSpeed" : 2.9,
		"windDir" : 105,
		"rain" : 0,
		"cloudbase" : 9000,
		"flyability" : 0,
		"reason" : "windDir",
		"timestamp" :1555603200
		},
	"2019-04-18T20:00:00+02:00" : {
		"windSpeed" : 2.4,
		"windDir" : 66,
		"rain" : 0,
		"cloudbase" : 10500,
		"flyability" : 0,
		"reason" : "windDir",
		"timestamp" :1555614000
		},
	"2019-04-18T23:00:00+02:00" : {
		"windSpeed" : 3.1,
		"windDir" : 83,
		"rain" : 0,
		"cloudbase" : 8884.8000000002,
		"flyability" : 0,
		"reason" : "windDir",
		"timestamp" :1555624800
		},
	"2019-04-19T02:00:00+02:00" : {
		"windSpeed" : 2.8,
		"windDir" : 80,
		"rain" : 0,
		"cloudbase" : 7021,
		"flyability" : 0,
		"reason" : "windDir",
		"timestamp" :1555635600
		},
	"2019-04-19T05:00:00+02:00" : {
		"windSpeed" : 2.2,
		"windDir" : 81,
		"rain" : 0,
		"cloudbase" : 6871.2,
		"flyability" : 0,
		"reason" : "windDir",
		"timestamp" :1555646400
		},
	"2019-04-19T08:00:00+02:00" : {
		"windSpeed" : 2.5,
		"windDir" : 93,
		"rain" : 0,
		"cloudbase" : null,
		"flyability" : 0,
		"reason" : "windDir",
		"timestamp" :1555657200
		},
	"2019-04-19T11:00:00+02:00" : {
		"windSpeed" : 1.9,
		"windDir" : 124,
		"rain" : 0,
		"cloudbase" : null,
		"flyability" : 0,
		"reason" : "windDir",
		"timestamp" :1555668000
		},
	"2019-04-19T14:00:00+02:00" : {
		"windSpeed" : 1.2,
		"windDir" : 205,
		"rain" : 0,
		"cloudbase" : 7028.8,
		"flyability" : 100,
		"reason" : "",
		"timestamp" :1555678800
		},
	"2019-04-19T17:00:00+02:00" : {
		"windSpeed" : 2.6,
		"windDir" : 272,
		"rain" : 0,
		"cloudbase" : 6712.2,
		"flyability" : 100,
		"reason" : "",
		"timestamp" :1555689600
		},
	"2019-04-19T20:00:00+02:00" : {
		"windSpeed" : 0.8,
		"windDir" : 273,
		"rain" : 0,
		"cloudbase" : 6412.2,
		"flyability" : 100,
		"reason" : "",
		"timestamp" :1555700400
		},
	"2019-04-19T23:00:00+02:00" : {
		"windSpeed" : 0.5,
		"windDir" : 37,
		"rain" : 0,
		"cloudbase" : null,
		"flyability" : 0,
		"reason" : "windDir",
		"timestamp" :1555711200
		},
	"2019-04-20T02:00:00+02:00" : {
		"windSpeed" : 0.3,
		"windDir" : 72,
		"rain" : 0,
		"cloudbase" : null,
		"flyability" : 0,
		"reason" : "windDir",
		"timestamp" :1555722000
		},
	"2019-04-20T05:00:00+02:00" : {
		"windSpeed" : 0.5,
		"windDir" : 67,
		"rain" : 0,
		"cloudbase" : null,
		"flyability" : 0,
		"reason" : "windDir",
		"timestamp" :1555732800
		},
	"2019-04-20T08:00:00+02:00" : {
		"windSpeed" : 1.2,
		"windDir" : 82,
		"rain" : 0,
		"cloudbase" : null,
		"flyability" : 0,
		"reason" : "windDir",
		"timestamp" :1555743600
		},
	"2019-04-20T11:00:00+02:00" : {
		"windSpeed" : 1,
		"windDir" : 160,
		"rain" : 0,
		"cloudbase" : null,
		"flyability" : 0,
		"reason" : "windDir",
		"timestamp" :1555754400
		},
	"2019-04-20T14:00:00+02:00" : {
		"windSpeed" : 0.5,
		"windDir" : 249,
		"rain" : 0,
		"cloudbase" : null,
		"flyability" : 100,
		"reason" : "",
		"timestamp" :1555765200
		},
	"2019-04-20T17:00:00+02:00" : {
		"windSpeed" : 2.1,
		"windDir" : 85,
		"rain" : 0,
		"cloudbase" : 7196.6,
		"flyability" : 0,
		"reason" : "windDir",
		"timestamp" :1555776000
		},
	"2019-04-20T20:00:00+02:00" : {
		"windSpeed" : 1.2,
		"windDir" : 9,
		"rain" : 0,
		"cloudbase" : 6954.2,
		"flyability" : 0,
		"reason" : "windDir",
		"timestamp" :1555786800
		},
	"2019-04-20T23:00:00+02:00" : {
		"windSpeed" : 3.6,
		"windDir" : 63,
		"rain" : 0,
		"cloudbase" : null,
		"flyability" : 0,
		"reason" : "windDir",
		"timestamp" :1555797600
		},
	"2019-04-21T02:00:00+02:00" : {
		"windSpeed" : 2.5,
		"windDir" : 72,
		"rain" : 0,
		"cloudbase" : null,
		"flyability" : 0,
		"reason" : "windDir",
		"timestamp" :1555808400
		}
	}
}