{
"site" : "Turo de la Guardia",
"id" : 9173,
"orientations" : "00011200",
"forecasts" : { 
	"2019-04-14T05:00:00+02:00" : {
		"windSpeed" : 1.1,
		"windDir" : 332,
		"rain" : 0,
		"cloudbase" : null,
		"flyability" : 0,
		"reason" : "windDir",
		"timestamp" :1555214400
		},
	"2019-04-14T08:00:00+02:00" : {
		"windSpeed" : 3.4,
		"windDir" : 4,
		"rain" : 0,
		"cloudbase" : 9381.8999999999,
		"flyability" : 0,
		"reason" : "windDir",
		"timestamp" :1555225200
		},
	"2019-04-14T11:00:00+02:00" : {
		"windSpeed" : 3.4,
		"windDir" : 59,
		"rain" : 0,
		"cloudbase" : null,
		"flyability" : 0,
		"reason" : "windDir",
		"timestamp" :1555236000
		},
	"2019-04-14T14:00:00+02:00" : {
		"windSpeed" : 4.7,
		"windDir" : 102,
		"rain" : 0,
		"cloudbase" : 3700,
		"flyability" : 0,
		"reason" : "windDir",
		"timestamp" :1555246800
		},
	"2019-04-14T17:00:00+02:00" : {
		"windSpeed" : 3,
		"windDir" : 129,
		"rain" : 0,
		"cloudbase" : 10031.9,
		"flyability" : 100,
		"reason" : "",
		"timestamp" :1555257600
		},
	"2019-04-14T20:00:00+02:00" : {
		"windSpeed" : 1.1,
		"windDir" : 168,
		"rain" : 0,
		"cloudbase" : null,
		"flyability" : 100,
		"reason" : "",
		"timestamp" :1555268400
		},
	"2019-04-14T23:00:00+02:00" : {
		"windSpeed" : 1.1,
		"windDir" : 281,
		"rain" : 0,
		"cloudbase" : null,
		"flyability" : 0,
		"reason" : "windDir",
		"timestamp" :1555279200
		},
	"2019-04-15T02:00:00+02:00" : {
		"windSpeed" : 1.4,
		"windDir" : 351,
		"rain" : 0,
		"cloudbase" : null,
		"flyability" : 0,
		"reason" : "windDir",
		"timestamp" :1555290000
		},
	"2019-04-15T05:00:00+02:00" : {
		"windSpeed" : 2.1,
		"windDir" : 10,
		"rain" : 0,
		"cloudbase" : null,
		"flyability" : 0,
		"reason" : "windDir",
		"timestamp" :1555300800
		},
	"2019-04-15T08:00:00+02:00" : {
		"windSpeed" : 2.5,
		"windDir" : 4,
		"rain" : 0,
		"cloudbase" : null,
		"flyability" : 0,
		"reason" : "windDir",
		"timestamp" :1555311600
		},
	"2019-04-15T11:00:00+02:00" : {
		"windSpeed" : 2,
		"windDir" : 89,
		"rain" : 0,
		"cloudbase" : 10517.06,
		"flyability" : 0,
		"reason" : "windDir",
		"timestamp" :1555322400
		},
	"2019-04-15T14:00:00+02:00" : {
		"windSpeed" : 3.4,
		"windDir" : 144,
		"rain" : 0,
		"cloudbase" : 5992.24,
		"flyability" : 100,
		"reason" : "",
		"timestamp" :1555333200
		},
	"2019-04-15T17:00:00+02:00" : {
		"windSpeed" : 3.2,
		"windDir" : 179,
		"rain" : 0,
		"cloudbase" : 6395.38,
		"flyability" : 100,
		"reason" : "",
		"timestamp" :1555344000
		},
	"2019-04-15T20:00:00+02:00" : {
		"windSpeed" : 1.9,
		"windDir" : 172,
		"rain" : 0,
		"cloudbase" : 8500,
		"flyability" : 100,
		"reason" : "",
		"timestamp" :1555354800
		},
	"2019-04-15T23:00:00+02:00" : {
		"windSpeed" : 1,
		"windDir" : 224,
		"rain" : 0,
		"cloudbase" : 6326.2999999997,
		"flyability" : 100,
		"reason" : "",
		"timestamp" :1555365600
		},
	"2019-04-16T02:00:00+02:00" : {
		"windSpeed" : 0.9,
		"windDir" : 272,
		"rain" : 1,
		"cloudbase" : null,
		"flyability" : 0,
		"reason" : "windDir, rain",
		"timestamp" :1555376400
		},
	"2019-04-16T05:00:00+02:00" : {
		"windSpeed" : 0.9,
		"windDir" : 328,
		"rain" : 1,
		"cloudbase" : null,
		"flyability" : 0,
		"reason" : "windDir, rain",
		"timestamp" :1555387200
		},
	"2019-04-16T08:00:00+02:00" : {
		"windSpeed" : 1.8,
		"windDir" : 3,
		"rain" : 1,
		"cloudbase" : 1655.38,
		"flyability" : 0,
		"reason" : "windDir, rain",
		"timestamp" :1555398000
		},
	"2019-04-16T11:00:00+02:00" : {
		"windSpeed" : 1,
		"windDir" : 52,
		"rain" : 1,
		"cloudbase" : 2071.36,
		"flyability" : 0,
		"reason" : "windDir, rain",
		"timestamp" :1555408800
		},
	"2019-04-16T14:00:00+02:00" : {
		"windSpeed" : 1.8,
		"windDir" : 146,
		"rain" : 0,
		"cloudbase" : 1162.07,
		"flyability" : 100,
		"reason" : "",
		"timestamp" :1555419600
		},
	"2019-04-16T17:00:00+02:00" : {
		"windSpeed" : 1.4,
		"windDir" : 201,
		"rain" : 0,
		"cloudbase" : 2343.81,
		"flyability" : 100,
		"reason" : "",
		"timestamp" :1555430400
		},
	"2019-04-16T20:00:00+02:00" : {
		"windSpeed" : 0.9,
		"windDir" : 144,
		"rain" : 0,
		"cloudbase" : null,
		"flyability" : 100,
		"reason" : "",
		"timestamp" :1555441200
		},
	"2019-04-16T23:00:00+02:00" : {
		"windSpeed" : 0.8,
		"windDir" : 345,
		"rain" : 0,
		"cloudbase" : null,
		"flyability" : 0,
		"reason" : "windDir",
		"timestamp" :1555452000
		},
	"2019-04-17T02:00:00+02:00" : {
		"windSpeed" : 1.5,
		"windDir" : 352,
		"rain" : 0,
		"cloudbase" : null,
		"flyability" : 0,
		"reason" : "windDir",
		"timestamp" :1555462800
		},
	"2019-04-17T05:00:00+02:00" : {
		"windSpeed" : 1.1,
		"windDir" : 347,
		"rain" : 0,
		"cloudbase" : null,
		"flyability" : 0,
		"reason" : "windDir",
		"timestamp" :1555473600
		},
	"2019-04-17T08:00:00+02:00" : {
		"windSpeed" : 1.3,
		"windDir" : 5,
		"rain" : 0,
		"cloudbase" : null,
		"flyability" : 0,
		"reason" : "windDir",
		"timestamp" :1555484400
		},
	"2019-04-17T11:00:00+02:00" : {
		"windSpeed" : 2.3,
		"windDir" : 137,
		"rain" : 0,
		"cloudbase" : 7429.3699999999,
		"flyability" : 100,
		"reason" : "",
		"timestamp" :1555495200
		},
	"2019-04-17T14:00:00+02:00" : {
		"windSpeed" : 3.5,
		"windDir" : 172,
		"rain" : 0,
		"cloudbase" : 11000,
		"flyability" : 100,
		"reason" : "",
		"timestamp" :1555506000
		},
	"2019-04-17T17:00:00+02:00" : {
		"windSpeed" : 3.2,
		"windDir" : 188,
		"rain" : 0,
		"cloudbase" : 10476.9,
		"flyability" : 100,
		"reason" : "",
		"timestamp" :1555516800
		},
	"2019-04-17T20:00:00+02:00" : {
		"windSpeed" : 1.6,
		"windDir" : 138,
		"rain" : 0,
		"cloudbase" : 12000,
		"flyability" : 100,
		"reason" : "",
		"timestamp" :1555527600
		},
	"2019-04-17T23:00:00+02:00" : {
		"windSpeed" : 1.2,
		"windDir" : 34,
		"rain" : 0,
		"cloudbase" : null,
		"flyability" : 0,
		"reason" : "windDir",
		"timestamp" :1555538400
		},
	"2019-04-18T02:00:00+02:00" : {
		"windSpeed" : 1.8,
		"windDir" : 356,
		"rain" : 0,
		"cloudbase" : 5335.5039999994,
		"flyability" : 0,
		"reason" : "windDir",
		"timestamp" :1555549200
		},
	"2019-04-18T05:00:00+02:00" : {
		"windSpeed" : 2.8,
		"windDir" : 13,
		"rain" : 0,
		"cloudbase" : 1779.1800000005,
		"flyability" : 0,
		"reason" : "windDir",
		"timestamp" :1555560000
		},
	"2019-04-18T08:00:00+02:00" : {
		"windSpeed" : 4.4,
		"windDir" : 9,
		"rain" : 0,
		"cloudbase" : 4755.7439999992,
		"flyability" : 0,
		"reason" : "windDir",
		"timestamp" :1555570800
		},
	"2019-04-18T11:00:00+02:00" : {
		"windSpeed" : 5.1,
		"windDir" : 41,
		"rain" : 0,
		"cloudbase" : 9025,
		"flyability" : 0,
		"reason" : "windSpeed, windDir",
		"timestamp" :1555581600
		},
	"2019-04-18T14:00:00+02:00" : {
		"windSpeed" : 5.7,
		"windDir" : 69,
		"rain" : 0,
		"cloudbase" : 7047,
		"flyability" : 0,
		"reason" : "windSpeed, windDir",
		"timestamp" :1555592400
		},
	"2019-04-18T17:00:00+02:00" : {
		"windSpeed" : 5.1,
		"windDir" : 71,
		"rain" : 0,
		"cloudbase" : 6170.76,
		"flyability" : 0,
		"reason" : "windSpeed, windDir",
		"timestamp" :1555603200
		},
	"2019-04-18T20:00:00+02:00" : {
		"windSpeed" : 5.1,
		"windDir" : 46,
		"rain" : 0,
		"cloudbase" : 7721.76,
		"flyability" : 0,
		"reason" : "windSpeed, windDir",
		"timestamp" :1555614000
		},
	"2019-04-18T23:00:00+02:00" : {
		"windSpeed" : 4.9,
		"windDir" : 20,
		"rain" : 0,
		"cloudbase" : 6789,
		"flyability" : 0,
		"reason" : "windDir",
		"timestamp" :1555624800
		},
	"2019-04-19T02:00:00+02:00" : {
		"windSpeed" : 5.5,
		"windDir" : 13,
		"rain" : 0,
		"cloudbase" : 7034.24,
		"flyability" : 0,
		"reason" : "windSpeed, windDir",
		"timestamp" :1555635600
		},
	"2019-04-19T05:00:00+02:00" : {
		"windSpeed" : 5.7,
		"windDir" : 12,
		"rain" : 0,
		"cloudbase" : 6788.38,
		"flyability" : 0,
		"reason" : "windSpeed, windDir",
		"timestamp" :1555646400
		},
	"2019-04-19T08:00:00+02:00" : {
		"windSpeed" : 5.8,
		"windDir" : 17,
		"rain" : 0,
		"cloudbase" : 7463,
		"flyability" : 0,
		"reason" : "windSpeed, windDir",
		"timestamp" :1555657200
		},
	"2019-04-19T11:00:00+02:00" : {
		"windSpeed" : 7.4,
		"windDir" : 44,
		"rain" : 0,
		"cloudbase" : 5096.5600000001,
		"flyability" : 0,
		"reason" : "windSpeed, windDir",
		"timestamp" :1555668000
		},
	"2019-04-19T14:00:00+02:00" : {
		"windSpeed" : 8,
		"windDir" : 59,
		"rain" : 0,
		"cloudbase" : 6879.38,
		"flyability" : 0,
		"reason" : "windSpeed, windDir",
		"timestamp" :1555678800
		},
	"2019-04-19T17:00:00+02:00" : {
		"windSpeed" : 7.7,
		"windDir" : 53,
		"rain" : 0,
		"cloudbase" : 8016.6000000001,
		"flyability" : 0,
		"reason" : "windSpeed, windDir",
		"timestamp" :1555689600
		},
	"2019-04-19T20:00:00+02:00" : {
		"windSpeed" : 6.7,
		"windDir" : 38,
		"rain" : 0,
		"cloudbase" : 5486.14,
		"flyability" : 0,
		"reason" : "windSpeed, windDir",
		"timestamp" :1555700400
		},
	"2019-04-19T23:00:00+02:00" : {
		"windSpeed" : 6.6,
		"windDir" : 22,
		"rain" : 0,
		"cloudbase" : 5258,
		"flyability" : 0,
		"reason" : "windSpeed, windDir",
		"timestamp" :1555711200
		},
	"2019-04-20T02:00:00+02:00" : {
		"windSpeed" : 6.6,
		"windDir" : 17,
		"rain" : 0,
		"cloudbase" : 8351.3000000002,
		"flyability" : 0,
		"reason" : "windSpeed, windDir",
		"timestamp" :1555722000
		}
	}
}