{
"site" : "Roccasecca",
"id" : 9244,
"orientations" : "00000120",
"forecasts" : { 
	"2019-04-21T05:00:00+02:00" : {
		"windSpeed" : 2.6,
		"windDir" : 32,
		"rain" : 1,
		"cloudbase" : 6954.3,
		"flyability" : 0,
		"reason" : "windDir, rain",
		"timestamp" :1555819200
		},
	"2019-04-21T08:00:00+02:00" : {
		"windSpeed" : 2.5,
		"windDir" : 26,
		"rain" : 0,
		"cloudbase" : 8040.5,
		"flyability" : 0,
		"reason" : "windDir",
		"timestamp" :1555830000
		},
	"2019-04-21T11:00:00+02:00" : {
		"windSpeed" : 2.2,
		"windDir" : 76,
		"rain" : 0,
		"cloudbase" : 4450.987,
		"flyability" : 0,
		"reason" : "windDir",
		"timestamp" :1555840800
		},
	"2019-04-21T14:00:00+02:00" : {
		"windSpeed" : 2.8,
		"windDir" : 121,
		"rain" : 0,
		"cloudbase" : 6357.874,
		"flyability" : 0,
		"reason" : "windDir",
		"timestamp" :1555851600
		},
	"2019-04-21T17:00:00+02:00" : {
		"windSpeed" : 1.7,
		"windDir" : 136,
		"rain" : 0,
		"cloudbase" : 7419.67,
		"flyability" : 0,
		"reason" : "windDir",
		"timestamp" :1555862400
		},
	"2019-04-21T20:00:00+02:00" : {
		"windSpeed" : 1.1,
		"windDir" : 124,
		"rain" : 0,
		"cloudbase" : 6928.674,
		"flyability" : 0,
		"reason" : "windDir",
		"timestamp" :1555873200
		},
	"2019-04-21T23:00:00+02:00" : {
		"windSpeed" : 1.4,
		"windDir" : 72,
		"rain" : 0,
		"cloudbase" : 6667.548,
		"flyability" : 0,
		"reason" : "windDir",
		"timestamp" :1555884000
		},
	"2019-04-22T02:00:00+02:00" : {
		"windSpeed" : 2.5,
		"windDir" : 34,
		"rain" : 0,
		"cloudbase" : 7186.548,
		"flyability" : 0,
		"reason" : "windDir",
		"timestamp" :1555894800
		},
	"2019-04-22T05:00:00+02:00" : {
		"windSpeed" : 2.4,
		"windDir" : 34,
		"rain" : 0,
		"cloudbase" : 10098.564,
		"flyability" : 0,
		"reason" : "windDir",
		"timestamp" :1555905600
		},
	"2019-04-22T08:00:00+02:00" : {
		"windSpeed" : 2.7,
		"windDir" : 34,
		"rain" : 0,
		"cloudbase" : 9373.3,
		"flyability" : 0,
		"reason" : "windDir",
		"timestamp" :1555916400
		},
	"2019-04-22T11:00:00+02:00" : {
		"windSpeed" : 4.3,
		"windDir" : 110,
		"rain" : 0,
		"cloudbase" : 9700,
		"flyability" : 0,
		"reason" : "windDir",
		"timestamp" :1555927200
		},
	"2019-04-22T14:00:00+02:00" : {
		"windSpeed" : 6.6,
		"windDir" : 134,
		"rain" : 0,
		"cloudbase" : 8150.174,
		"flyability" : 0,
		"reason" : "windSpeed, windDir",
		"timestamp" :1555938000
		},
	"2019-04-22T17:00:00+02:00" : {
		"windSpeed" : 2.6,
		"windDir" : 86,
		"rain" : 1,
		"cloudbase" : 2837.637,
		"flyability" : 0,
		"reason" : "windDir, rain",
		"timestamp" :1555948800
		},
	"2019-04-22T20:00:00+02:00" : {
		"windSpeed" : 2.6,
		"windDir" : 60,
		"rain" : 0,
		"cloudbase" : 3304.1189999999,
		"flyability" : 0,
		"reason" : "windDir",
		"timestamp" :1555959600
		},
	"2019-04-22T23:00:00+02:00" : {
		"windSpeed" : 2.6,
		"windDir" : 78,
		"rain" : 1,
		"cloudbase" : 8240.5,
		"flyability" : 0,
		"reason" : "windDir, rain",
		"timestamp" :1555970400
		},
	"2019-04-23T02:00:00+02:00" : {
		"windSpeed" : 2.1,
		"windDir" : 75,
		"rain" : 1,
		"cloudbase" : null,
		"flyability" : 0,
		"reason" : "windDir, rain",
		"timestamp" :1555981200
		},
	"2019-04-23T05:00:00+02:00" : {
		"windSpeed" : 3.1,
		"windDir" : 98,
		"rain" : 0,
		"cloudbase" : null,
		"flyability" : 0,
		"reason" : "windDir",
		"timestamp" :1555992000
		},
	"2019-04-23T08:00:00+02:00" : {
		"windSpeed" : 3.5,
		"windDir" : 110,
		"rain" : 1,
		"cloudbase" : 1370.6908,
		"flyability" : 0,
		"reason" : "windDir, rain",
		"timestamp" :1556002800
		},
	"2019-04-23T11:00:00+02:00" : {
		"windSpeed" : 3.3,
		"windDir" : 134,
		"rain" : 1,
		"cloudbase" : 576.40559999998,
		"flyability" : 0,
		"reason" : "windDir, rain, cloudbase",
		"timestamp" :1556013600
		},
	"2019-04-23T14:00:00+02:00" : {
		"windSpeed" : 3,
		"windDir" : 152,
		"rain" : 1,
		"cloudbase" : null,
		"flyability" : 0,
		"reason" : "windDir, rain",
		"timestamp" :1556024400
		},
	"2019-04-23T17:00:00+02:00" : {
		"windSpeed" : 2.1,
		"windDir" : 140,
		"rain" : 0,
		"cloudbase" : null,
		"flyability" : 0,
		"reason" : "windDir",
		"timestamp" :1556035200
		},
	"2019-04-23T20:00:00+02:00" : {
		"windSpeed" : 1.8,
		"windDir" : 31,
		"rain" : 0,
		"cloudbase" : null,
		"flyability" : 0,
		"reason" : "windDir",
		"timestamp" :1556046000
		},
	"2019-04-23T23:00:00+02:00" : {
		"windSpeed" : 2.2,
		"windDir" : 24,
		"rain" : 0,
		"cloudbase" : null,
		"flyability" : 0,
		"reason" : "windDir",
		"timestamp" :1556056800
		},
	"2019-04-24T02:00:00+02:00" : {
		"windSpeed" : 1.7,
		"windDir" : 29,
		"rain" : 0,
		"cloudbase" : null,
		"flyability" : 0,
		"reason" : "windDir",
		"timestamp" :1556067600
		},
	"2019-04-24T05:00:00+02:00" : {
		"windSpeed" : 1.8,
		"windDir" : 23,
		"rain" : 0,
		"cloudbase" : null,
		"flyability" : 0,
		"reason" : "windDir",
		"timestamp" :1556078400
		},
	"2019-04-24T08:00:00+02:00" : {
		"windSpeed" : 2.2,
		"windDir" : 30,
		"rain" : 0,
		"cloudbase" : null,
		"flyability" : 0,
		"reason" : "windDir",
		"timestamp" :1556089200
		},
	"2019-04-24T11:00:00+02:00" : {
		"windSpeed" : 1.5,
		"windDir" : 66,
		"rain" : 0,
		"cloudbase" : null,
		"flyability" : 0,
		"reason" : "windDir",
		"timestamp" :1556100000
		},
	"2019-04-24T14:00:00+02:00" : {
		"windSpeed" : 2.5,
		"windDir" : 147,
		"rain" : 0,
		"cloudbase" : 10143.37,
		"flyability" : 0,
		"reason" : "windDir",
		"timestamp" :1556110800
		},
	"2019-04-24T17:00:00+02:00" : {
		"windSpeed" : 1.9,
		"windDir" : 152,
		"rain" : 0,
		"cloudbase" : 9745.522,
		"flyability" : 0,
		"reason" : "windDir",
		"timestamp" :1556121600
		},
	"2019-04-24T20:00:00+02:00" : {
		"windSpeed" : 0.2,
		"windDir" : 287,
		"rain" : 0,
		"cloudbase" : 8659.3919999999,
		"flyability" : 100,
		"reason" : "",
		"timestamp" :1556132400
		},
	"2019-04-24T23:00:00+02:00" : {
		"windSpeed" : 0.7,
		"windDir" : 262,
		"rain" : 1,
		"cloudbase" : null,
		"flyability" : 0,
		"reason" : "rain",
		"timestamp" :1556143200
		},
	"2019-04-25T02:00:00+02:00" : {
		"windSpeed" : 0.6,
		"windDir" : 20,
		"rain" : 1,
		"cloudbase" : null,
		"flyability" : 0,
		"reason" : "windDir, rain",
		"timestamp" :1556154000
		},
	"2019-04-25T05:00:00+02:00" : {
		"windSpeed" : 2.2,
		"windDir" : 25,
		"rain" : 0,
		"cloudbase" : 9128.148,
		"flyability" : 0,
		"reason" : "windDir",
		"timestamp" :1556164800
		},
	"2019-04-25T08:00:00+02:00" : {
		"windSpeed" : 1.6,
		"windDir" : 24,
		"rain" : 0,
		"cloudbase" : null,
		"flyability" : 0,
		"reason" : "windDir",
		"timestamp" :1556175600
		},
	"2019-04-25T11:00:00+02:00" : {
		"windSpeed" : 0.5,
		"windDir" : 212,
		"rain" : 0,
		"cloudbase" : null,
		"flyability" : 100,
		"reason" : "",
		"timestamp" :1556186400
		},
	"2019-04-25T14:00:00+02:00" : {
		"windSpeed" : 1.2,
		"windDir" : 220,
		"rain" : 0,
		"cloudbase" : null,
		"flyability" : 100,
		"reason" : "",
		"timestamp" :1556197200
		},
	"2019-04-25T17:00:00+02:00" : {
		"windSpeed" : 1.2,
		"windDir" : 251,
		"rain" : 0,
		"cloudbase" : null,
		"flyability" : 100,
		"reason" : "",
		"timestamp" :1556208000
		},
	"2019-04-25T20:00:00+02:00" : {
		"windSpeed" : 0.5,
		"windDir" : 165,
		"rain" : 0,
		"cloudbase" : null,
		"flyability" : 0,
		"reason" : "windDir",
		"timestamp" :1556218800
		},
	"2019-04-25T23:00:00+02:00" : {
		"windSpeed" : 0.4,
		"windDir" : 347,
		"rain" : 1,
		"cloudbase" : 9167.548,
		"flyability" : 0,
		"reason" : "windDir, rain",
		"timestamp" :1556229600
		},
	"2019-04-26T02:00:00+02:00" : {
		"windSpeed" : 0.7,
		"windDir" : 16,
		"rain" : 1,
		"cloudbase" : null,
		"flyability" : 0,
		"reason" : "windDir, rain",
		"timestamp" :1556240400
		},
	"2019-04-26T05:00:00+02:00" : {
		"windSpeed" : 0.9,
		"windDir" : 21,
		"rain" : 0,
		"cloudbase" : 10643.37,
		"flyability" : 0,
		"reason" : "windDir",
		"timestamp" :1556251200
		},
	"2019-04-26T08:00:00+02:00" : {
		"windSpeed" : 1.7,
		"windDir" : 32,
		"rain" : 0,
		"cloudbase" : 10643.37,
		"flyability" : 0,
		"reason" : "windDir",
		"timestamp" :1556262000
		},
	"2019-04-26T11:00:00+02:00" : {
		"windSpeed" : 2.3,
		"windDir" : 180,
		"rain" : 0,
		"cloudbase" : null,
		"flyability" : 0,
		"reason" : "windDir",
		"timestamp" :1556272800
		},
	"2019-04-26T14:00:00+02:00" : {
		"windSpeed" : 3,
		"windDir" : 168,
		"rain" : 0,
		"cloudbase" : null,
		"flyability" : 0,
		"reason" : "windDir",
		"timestamp" :1556283600
		},
	"2019-04-26T17:00:00+02:00" : {
		"windSpeed" : 2.4,
		"windDir" : 217,
		"rain" : 0,
		"cloudbase" : null,
		"flyability" : 100,
		"reason" : "",
		"timestamp" :1556294400
		},
	"2019-04-26T20:00:00+02:00" : {
		"windSpeed" : 1.6,
		"windDir" : 267,
		"rain" : 0,
		"cloudbase" : null,
		"flyability" : 100,
		"reason" : "",
		"timestamp" :1556305200
		},
	"2019-04-26T23:00:00+02:00" : {
		"windSpeed" : 0.8,
		"windDir" : 302,
		"rain" : 1,
		"cloudbase" : null,
		"flyability" : 0,
		"reason" : "windDir, rain",
		"timestamp" :1556316000
		},
	"2019-04-27T02:00:00+02:00" : {
		"windSpeed" : 1,
		"windDir" : 325,
		"rain" : 1,
		"cloudbase" : null,
		"flyability" : 0,
		"reason" : "windDir, rain",
		"timestamp" :1556326800
		}
	}
}