{
"site" : "Zitacuaro",
"id" : 9250,
"orientations" : "00000020",
"forecasts" : { 
	"2019-04-06T22:00:00-05:00" : {
		"windSpeed" : 1.4,
		"windDir" : 194,
		"rain" : 0,
		"cloudbase" : null,
		"flyability" : 0,
		"reason" : "windDir",
		"timestamp" :1554602400
		},
	"2019-04-07T01:00:00-05:00" : {
		"windSpeed" : 1,
		"windDir" : 90,
		"rain" : 0,
		"cloudbase" : 7911.652,
		"flyability" : 0,
		"reason" : "windDir",
		"timestamp" :1554613200
		},
	"2019-04-07T04:00:00-05:00" : {
		"windSpeed" : 1.1,
		"windDir" : 71,
		"rain" : 0,
		"cloudbase" : 7177.408,
		"flyability" : 0,
		"reason" : "windDir",
		"timestamp" :1554624000
		},
	"2019-04-07T07:00:00-05:00" : {
		"windSpeed" : 1.4,
		"windDir" : 76,
		"rain" : 0,
		"cloudbase" : null,
		"flyability" : 0,
		"reason" : "windDir",
		"timestamp" :1554634800
		},
	"2019-04-07T10:00:00-05:00" : {
		"windSpeed" : 1.9,
		"windDir" : 232,
		"rain" : 0,
		"cloudbase" : null,
		"flyability" : 0,
		"reason" : "windDir",
		"timestamp" :1554645600
		},
	"2019-04-07T13:00:00-05:00" : {
		"windSpeed" : 3.6,
		"windDir" : 236,
		"rain" : 0,
		"cloudbase" : 9509.452,
		"flyability" : 0,
		"reason" : "windDir",
		"timestamp" :1554656400
		},
	"2019-04-07T16:00:00-05:00" : {
		"windSpeed" : 4,
		"windDir" : 240,
		"rain" : 0,
		"cloudbase" : 9242.552,
		"flyability" : 0,
		"reason" : "windDir",
		"timestamp" :1554667200
		},
	"2019-04-07T19:00:00-05:00" : {
		"windSpeed" : 2.4,
		"windDir" : 245,
		"rain" : 0,
		"cloudbase" : 9541.452,
		"flyability" : 0,
		"reason" : "windDir",
		"timestamp" :1554678000
		},
	"2019-04-07T22:00:00-05:00" : {
		"windSpeed" : 1.6,
		"windDir" : 161,
		"rain" : 0,
		"cloudbase" : null,
		"flyability" : 0,
		"reason" : "windDir",
		"timestamp" :1554688800
		},
	"2019-04-08T01:00:00-05:00" : {
		"windSpeed" : 0.9,
		"windDir" : 68,
		"rain" : 0,
		"cloudbase" : 9377.056,
		"flyability" : 0,
		"reason" : "windDir",
		"timestamp" :1554699600
		},
	"2019-04-08T04:00:00-05:00" : {
		"windSpeed" : 1.2,
		"windDir" : 74,
		"rain" : 0,
		"cloudbase" : null,
		"flyability" : 0,
		"reason" : "windDir",
		"timestamp" :1554710400
		},
	"2019-04-08T07:00:00-05:00" : {
		"windSpeed" : 1,
		"windDir" : 89,
		"rain" : 0,
		"cloudbase" : null,
		"flyability" : 0,
		"reason" : "windDir",
		"timestamp" :1554721200
		},
	"2019-04-08T10:00:00-05:00" : {
		"windSpeed" : 1.2,
		"windDir" : 236,
		"rain" : 0,
		"cloudbase" : null,
		"flyability" : 0,
		"reason" : "windDir",
		"timestamp" :1554732000
		},
	"2019-04-08T13:00:00-05:00" : {
		"windSpeed" : 3.1,
		"windDir" : 234,
		"rain" : 0,
		"cloudbase" : null,
		"flyability" : 0,
		"reason" : "windDir",
		"timestamp" :1554742800
		},
	"2019-04-08T16:00:00-05:00" : {
		"windSpeed" : 3.3,
		"windDir" : 233,
		"rain" : 0,
		"cloudbase" : null,
		"flyability" : 0,
		"reason" : "windDir",
		"timestamp" :1554753600
		},
	"2019-04-08T19:00:00-05:00" : {
		"windSpeed" : 2,
		"windDir" : 245,
		"rain" : 0,
		"cloudbase" : null,
		"flyability" : 0,
		"reason" : "windDir",
		"timestamp" :1554764400
		},
	"2019-04-08T22:00:00-05:00" : {
		"windSpeed" : 1,
		"windDir" : 59,
		"rain" : 0,
		"cloudbase" : null,
		"flyability" : 0,
		"reason" : "windDir",
		"timestamp" :1554775200
		},
	"2019-04-09T01:00:00-05:00" : {
		"windSpeed" : 3.2,
		"windDir" : 55,
		"rain" : 0,
		"cloudbase" : null,
		"flyability" : 0,
		"reason" : "windDir",
		"timestamp" :1554786000
		},
	"2019-04-09T04:00:00-05:00" : {
		"windSpeed" : 3.4,
		"windDir" : 61,
		"rain" : 0,
		"cloudbase" : null,
		"flyability" : 0,
		"reason" : "windDir",
		"timestamp" :1554796800
		},
	"2019-04-09T07:00:00-05:00" : {
		"windSpeed" : 2.3,
		"windDir" : 69,
		"rain" : 0,
		"cloudbase" : null,
		"flyability" : 0,
		"reason" : "windDir",
		"timestamp" :1554807600
		},
	"2019-04-09T10:00:00-05:00" : {
		"windSpeed" : 1.2,
		"windDir" : 254,
		"rain" : 0,
		"cloudbase" : null,
		"flyability" : 100,
		"reason" : "",
		"timestamp" :1554818400
		},
	"2019-04-09T13:00:00-05:00" : {
		"windSpeed" : 2.3,
		"windDir" : 273,
		"rain" : 1,
		"cloudbase" : null,
		"flyability" : 0,
		"reason" : "rain",
		"timestamp" :1554829200
		},
	"2019-04-09T16:00:00-05:00" : {
		"windSpeed" : 3.2,
		"windDir" : 6,
		"rain" : 1,
		"cloudbase" : 3887.724,
		"flyability" : 0,
		"reason" : "windDir, rain",
		"timestamp" :1554840000
		},
	"2019-04-09T19:00:00-05:00" : {
		"windSpeed" : 0.5,
		"windDir" : 226,
		"rain" : 1,
		"cloudbase" : null,
		"flyability" : 0,
		"reason" : "windDir, rain",
		"timestamp" :1554850800
		},
	"2019-04-09T22:00:00-05:00" : {
		"windSpeed" : 2,
		"windDir" : 66,
		"rain" : 0,
		"cloudbase" : null,
		"flyability" : 0,
		"reason" : "windDir",
		"timestamp" :1554861600
		},
	"2019-04-10T01:00:00-05:00" : {
		"windSpeed" : 3.1,
		"windDir" : 67,
		"rain" : 0,
		"cloudbase" : null,
		"flyability" : 0,
		"reason" : "windDir",
		"timestamp" :1554872400
		},
	"2019-04-10T04:00:00-05:00" : {
		"windSpeed" : 1.4,
		"windDir" : 109,
		"rain" : 0,
		"cloudbase" : null,
		"flyability" : 0,
		"reason" : "windDir",
		"timestamp" :1554883200
		},
	"2019-04-10T07:00:00-05:00" : {
		"windSpeed" : 1,
		"windDir" : 107,
		"rain" : 0,
		"cloudbase" : null,
		"flyability" : 0,
		"reason" : "windDir",
		"timestamp" :1554894000
		},
	"2019-04-10T10:00:00-05:00" : {
		"windSpeed" : 1.9,
		"windDir" : 255,
		"rain" : 0,
		"cloudbase" : null,
		"flyability" : 100,
		"reason" : "",
		"timestamp" :1554904800
		},
	"2019-04-10T13:00:00-05:00" : {
		"windSpeed" : 3.4,
		"windDir" : 249,
		"rain" : 0,
		"cloudbase" : null,
		"flyability" : 100,
		"reason" : "",
		"timestamp" :1554915600
		},
	"2019-04-10T16:00:00-05:00" : {
		"windSpeed" : 3.2,
		"windDir" : 235,
		"rain" : 0,
		"cloudbase" : null,
		"flyability" : 0,
		"reason" : "windDir",
		"timestamp" :1554926400
		},
	"2019-04-10T19:00:00-05:00" : {
		"windSpeed" : 1.9,
		"windDir" : 259,
		"rain" : 0,
		"cloudbase" : null,
		"flyability" : 100,
		"reason" : "",
		"timestamp" :1554937200
		},
	"2019-04-10T22:00:00-05:00" : {
		"windSpeed" : 1.2,
		"windDir" : 106,
		"rain" : 0,
		"cloudbase" : null,
		"flyability" : 0,
		"reason" : "windDir",
		"timestamp" :1554948000
		},
	"2019-04-11T01:00:00-05:00" : {
		"windSpeed" : 1.4,
		"windDir" : 76,
		"rain" : 0,
		"cloudbase" : null,
		"flyability" : 0,
		"reason" : "windDir",
		"timestamp" :1554958800
		},
	"2019-04-11T04:00:00-05:00" : {
		"windSpeed" : 0.5,
		"windDir" : 106,
		"rain" : 0,
		"cloudbase" : null,
		"flyability" : 0,
		"reason" : "windDir",
		"timestamp" :1554969600
		},
	"2019-04-11T07:00:00-05:00" : {
		"windSpeed" : 1.3,
		"windDir" : 67,
		"rain" : 0,
		"cloudbase" : null,
		"flyability" : 0,
		"reason" : "windDir",
		"timestamp" :1554980400
		},
	"2019-04-11T10:00:00-05:00" : {
		"windSpeed" : 1.2,
		"windDir" : 253,
		"rain" : 0,
		"cloudbase" : null,
		"flyability" : 100,
		"reason" : "",
		"timestamp" :1554991200
		},
	"2019-04-11T13:00:00-05:00" : {
		"windSpeed" : 3.2,
		"windDir" : 231,
		"rain" : 0,
		"cloudbase" : null,
		"flyability" : 0,
		"reason" : "windDir",
		"timestamp" :1555002000
		},
	"2019-04-11T16:00:00-05:00" : {
		"windSpeed" : 3.5,
		"windDir" : 229,
		"rain" : 0,
		"cloudbase" : null,
		"flyability" : 0,
		"reason" : "windDir",
		"timestamp" :1555012800
		},
	"2019-04-11T19:00:00-05:00" : {
		"windSpeed" : 2.4,
		"windDir" : 245,
		"rain" : 0,
		"cloudbase" : null,
		"flyability" : 0,
		"reason" : "windDir",
		"timestamp" :1555023600
		},
	"2019-04-11T22:00:00-05:00" : {
		"windSpeed" : 1.7,
		"windDir" : 143,
		"rain" : 0,
		"cloudbase" : null,
		"flyability" : 0,
		"reason" : "windDir",
		"timestamp" :1555034400
		},
	"2019-04-12T01:00:00-05:00" : {
		"windSpeed" : 1.4,
		"windDir" : 69,
		"rain" : 0,
		"cloudbase" : null,
		"flyability" : 0,
		"reason" : "windDir",
		"timestamp" :1555045200
		},
	"2019-04-12T04:00:00-05:00" : {
		"windSpeed" : 1.4,
		"windDir" : 76,
		"rain" : 0,
		"cloudbase" : null,
		"flyability" : 0,
		"reason" : "windDir",
		"timestamp" :1555056000
		},
	"2019-04-12T07:00:00-05:00" : {
		"windSpeed" : 1.7,
		"windDir" : 78,
		"rain" : 0,
		"cloudbase" : null,
		"flyability" : 0,
		"reason" : "windDir",
		"timestamp" :1555066800
		},
	"2019-04-12T10:00:00-05:00" : {
		"windSpeed" : 2.5,
		"windDir" : 217,
		"rain" : 0,
		"cloudbase" : null,
		"flyability" : 0,
		"reason" : "windDir",
		"timestamp" :1555077600
		},
	"2019-04-12T13:00:00-05:00" : {
		"windSpeed" : 4.2,
		"windDir" : 225,
		"rain" : 0,
		"cloudbase" : null,
		"flyability" : 0,
		"reason" : "windDir",
		"timestamp" :1555088400
		},
	"2019-04-12T16:00:00-05:00" : {
		"windSpeed" : 4.2,
		"windDir" : 225,
		"rain" : 0,
		"cloudbase" : 11345.5,
		"flyability" : 0,
		"reason" : "windDir",
		"timestamp" :1555099200
		},
	"2019-04-12T19:00:00-05:00" : {
		"windSpeed" : 3.2,
		"windDir" : 231,
		"rain" : 0,
		"cloudbase" : 11343.74,
		"flyability" : 0,
		"reason" : "windDir",
		"timestamp" :1555110000
		}
	}
}