{
"site" : "Kohala",
"id" : 9293,
"orientations" : "00022000",
"forecasts" : { 
	"2019-04-04T08:00:00+05:00" : {
		"windSpeed" : 1,
		"windDir" : 217,
		"rain" : 0,
		"cloudbase" : null,
		"flyability" : 0,
		"reason" : "windDir",
		"timestamp" :1554350400
		},
	"2019-04-04T11:00:00+05:00" : {
		"windSpeed" : 1.9,
		"windDir" : 306,
		"rain" : 0,
		"cloudbase" : null,
		"flyability" : 0,
		"reason" : "windDir",
		"timestamp" :1554361200
		},
	"2019-04-04T14:00:00+05:00" : {
		"windSpeed" : 2.6,
		"windDir" : 316,
		"rain" : 0,
		"cloudbase" : null,
		"flyability" : 0,
		"reason" : "windDir",
		"timestamp" :1554372000
		},
	"2019-04-04T17:00:00+05:00" : {
		"windSpeed" : 1.8,
		"windDir" : 301,
		"rain" : 0,
		"cloudbase" : 10500,
		"flyability" : 0,
		"reason" : "windDir",
		"timestamp" :1554382800
		},
	"2019-04-04T20:00:00+05:00" : {
		"windSpeed" : 1.5,
		"windDir" : 49,
		"rain" : 0,
		"cloudbase" : 9792.386,
		"flyability" : 0,
		"reason" : "windDir",
		"timestamp" :1554393600
		},
	"2019-04-04T23:00:00+05:00" : {
		"windSpeed" : 1.9,
		"windDir" : 61,
		"rain" : 0,
		"cloudbase" : 9741.9070000001,
		"flyability" : 0,
		"reason" : "windDir",
		"timestamp" :1554404400
		},
	"2019-04-05T02:00:00+05:00" : {
		"windSpeed" : 1.8,
		"windDir" : 29,
		"rain" : 0,
		"cloudbase" : null,
		"flyability" : 0,
		"reason" : "windDir",
		"timestamp" :1554415200
		},
	"2019-04-05T05:00:00+05:00" : {
		"windSpeed" : 1.5,
		"windDir" : 34,
		"rain" : 0,
		"cloudbase" : null,
		"flyability" : 0,
		"reason" : "windDir",
		"timestamp" :1554426000
		},
	"2019-04-05T08:00:00+05:00" : {
		"windSpeed" : 1.3,
		"windDir" : 349,
		"rain" : 0,
		"cloudbase" : null,
		"flyability" : 0,
		"reason" : "windDir",
		"timestamp" :1554436800
		},
	"2019-04-05T11:00:00+05:00" : {
		"windSpeed" : 2,
		"windDir" : 314,
		"rain" : 0,
		"cloudbase" : 9547,
		"flyability" : 0,
		"reason" : "windDir",
		"timestamp" :1554447600
		},
	"2019-04-05T14:00:00+05:00" : {
		"windSpeed" : 2.8,
		"windDir" : 306,
		"rain" : 0,
		"cloudbase" : 8797.4930000001,
		"flyability" : 0,
		"reason" : "windDir",
		"timestamp" :1554458400
		},
	"2019-04-05T17:00:00+05:00" : {
		"windSpeed" : 1,
		"windDir" : 106,
		"rain" : 0,
		"cloudbase" : 8900,
		"flyability" : 0,
		"reason" : "windDir",
		"timestamp" :1554469200
		},
	"2019-04-05T20:00:00+05:00" : {
		"windSpeed" : 0.9,
		"windDir" : 129,
		"rain" : 0,
		"cloudbase" : null,
		"flyability" : 100,
		"reason" : "",
		"timestamp" :1554480000
		},
	"2019-04-05T23:00:00+05:00" : {
		"windSpeed" : 0.4,
		"windDir" : 101,
		"rain" : 0,
		"cloudbase" : null,
		"flyability" : 0,
		"reason" : "windDir",
		"timestamp" :1554490800
		},
	"2019-04-06T02:00:00+05:00" : {
		"windSpeed" : 1.6,
		"windDir" : 38,
		"rain" : 0,
		"cloudbase" : null,
		"flyability" : 0,
		"reason" : "windDir",
		"timestamp" :1554501600
		},
	"2019-04-06T05:00:00+05:00" : {
		"windSpeed" : 2.4,
		"windDir" : 45,
		"rain" : 0,
		"cloudbase" : null,
		"flyability" : 0,
		"reason" : "windDir",
		"timestamp" :1554512400
		},
	"2019-04-06T08:00:00+05:00" : {
		"windSpeed" : 1.4,
		"windDir" : 350,
		"rain" : 0,
		"cloudbase" : 8424.793,
		"flyability" : 0,
		"reason" : "windDir",
		"timestamp" :1554523200
		},
	"2019-04-06T11:00:00+05:00" : {
		"windSpeed" : 2.6,
		"windDir" : 318,
		"rain" : 0,
		"cloudbase" : null,
		"flyability" : 0,
		"reason" : "windDir",
		"timestamp" :1554534000
		},
	"2019-04-06T14:00:00+05:00" : {
		"windSpeed" : 2.3,
		"windDir" : 307,
		"rain" : 0,
		"cloudbase" : null,
		"flyability" : 0,
		"reason" : "windDir",
		"timestamp" :1554544800
		},
	"2019-04-06T17:00:00+05:00" : {
		"windSpeed" : 1.3,
		"windDir" : 262,
		"rain" : 0,
		"cloudbase" : null,
		"flyability" : 0,
		"reason" : "windDir",
		"timestamp" :1554555600
		},
	"2019-04-06T20:00:00+05:00" : {
		"windSpeed" : 0.9,
		"windDir" : 111,
		"rain" : 0,
		"cloudbase" : null,
		"flyability" : 0,
		"reason" : "windDir",
		"timestamp" :1554566400
		},
	"2019-04-06T23:00:00+05:00" : {
		"windSpeed" : 1.1,
		"windDir" : 50,
		"rain" : 0,
		"cloudbase" : null,
		"flyability" : 0,
		"reason" : "windDir",
		"timestamp" :1554577200
		},
	"2019-04-07T02:00:00+05:00" : {
		"windSpeed" : 1.4,
		"windDir" : 64,
		"rain" : 0,
		"cloudbase" : null,
		"flyability" : 0,
		"reason" : "windDir",
		"timestamp" :1554588000
		},
	"2019-04-07T05:00:00+05:00" : {
		"windSpeed" : 1.4,
		"windDir" : 91,
		"rain" : 0,
		"cloudbase" : null,
		"flyability" : 0,
		"reason" : "windDir",
		"timestamp" :1554598800
		},
	"2019-04-07T08:00:00+05:00" : {
		"windSpeed" : 0.3,
		"windDir" : 170,
		"rain" : 0,
		"cloudbase" : 9494.0000000001,
		"flyability" : 100,
		"reason" : "",
		"timestamp" :1554609600
		},
	"2019-04-07T11:00:00+05:00" : {
		"windSpeed" : 0.8,
		"windDir" : 252,
		"rain" : 0,
		"cloudbase" : 7547,
		"flyability" : 0,
		"reason" : "windDir",
		"timestamp" :1554620400
		},
	"2019-04-07T14:00:00+05:00" : {
		"windSpeed" : 2.2,
		"windDir" : 235,
		"rain" : 0,
		"cloudbase" : 9608.593,
		"flyability" : 0,
		"reason" : "windDir",
		"timestamp" :1554631200
		},
	"2019-04-07T17:00:00+05:00" : {
		"windSpeed" : 3.2,
		"windDir" : 271,
		"rain" : 0,
		"cloudbase" : 7284.7,
		"flyability" : 0,
		"reason" : "windDir",
		"timestamp" :1554642000
		},
	"2019-04-07T20:00:00+05:00" : {
		"windSpeed" : 0.8,
		"windDir" : 305,
		"rain" : 0,
		"cloudbase" : 5183.8,
		"flyability" : 0,
		"reason" : "windDir",
		"timestamp" :1554652800
		},
	"2019-04-07T23:00:00+05:00" : {
		"windSpeed" : 2.2,
		"windDir" : 304,
		"rain" : 1,
		"cloudbase" : 4659.814,
		"flyability" : 0,
		"reason" : "windDir, rain",
		"timestamp" :1554663600
		},
	"2019-04-08T02:00:00+05:00" : {
		"windSpeed" : 2.2,
		"windDir" : 24,
		"rain" : 1,
		"cloudbase" : 2819.0420000001,
		"flyability" : 0,
		"reason" : "windDir, rain",
		"timestamp" :1554674400
		},
	"2019-04-08T05:00:00+05:00" : {
		"windSpeed" : 1.4,
		"windDir" : 54,
		"rain" : 1,
		"cloudbase" : 8315.365,
		"flyability" : 0,
		"reason" : "windDir, rain",
		"timestamp" :1554685200
		},
	"2019-04-08T08:00:00+05:00" : {
		"windSpeed" : 0.6,
		"windDir" : 98,
		"rain" : 0,
		"cloudbase" : null,
		"flyability" : 0,
		"reason" : "windDir",
		"timestamp" :1554696000
		},
	"2019-04-08T11:00:00+05:00" : {
		"windSpeed" : 1.9,
		"windDir" : 205,
		"rain" : 1,
		"cloudbase" : null,
		"flyability" : 0,
		"reason" : "windDir, rain",
		"timestamp" :1554706800
		},
	"2019-04-08T14:00:00+05:00" : {
		"windSpeed" : 1.3,
		"windDir" : 169,
		"rain" : 1,
		"cloudbase" : null,
		"flyability" : 0,
		"reason" : "rain",
		"timestamp" :1554717600
		},
	"2019-04-08T17:00:00+05:00" : {
		"windSpeed" : 1.8,
		"windDir" : 115,
		"rain" : 1,
		"cloudbase" : 8072.693,
		"flyability" : 0,
		"reason" : "rain",
		"timestamp" :1554728400
		},
	"2019-04-08T20:00:00+05:00" : {
		"windSpeed" : 1.4,
		"windDir" : 74,
		"rain" : 0,
		"cloudbase" : null,
		"flyability" : 0,
		"reason" : "windDir",
		"timestamp" :1554739200
		},
	"2019-04-08T23:00:00+05:00" : {
		"windSpeed" : 1.3,
		"windDir" : 69,
		"rain" : 0,
		"cloudbase" : 9794.0000000001,
		"flyability" : 0,
		"reason" : "windDir",
		"timestamp" :1554750000
		},
	"2019-04-09T02:00:00+05:00" : {
		"windSpeed" : 1.1,
		"windDir" : 81,
		"rain" : 0,
		"cloudbase" : 8694.0000000001,
		"flyability" : 0,
		"reason" : "windDir",
		"timestamp" :1554760800
		},
	"2019-04-09T05:00:00+05:00" : {
		"windSpeed" : 1.4,
		"windDir" : 190,
		"rain" : 0,
		"cloudbase" : 6752.028,
		"flyability" : 100,
		"reason" : "",
		"timestamp" :1554771600
		},
	"2019-04-09T08:00:00+05:00" : {
		"windSpeed" : 2,
		"windDir" : 173,
		"rain" : 0,
		"cloudbase" : 4820.9535,
		"flyability" : 100,
		"reason" : "",
		"timestamp" :1554782400
		},
	"2019-04-09T11:00:00+05:00" : {
		"windSpeed" : 0.3,
		"windDir" : 260,
		"rain" : 1,
		"cloudbase" : 3514.143,
		"flyability" : 0,
		"reason" : "windDir, rain",
		"timestamp" :1554793200
		},
	"2019-04-09T14:00:00+05:00" : {
		"windSpeed" : 1.2,
		"windDir" : 171,
		"rain" : 1,
		"cloudbase" : 2291.4465,
		"flyability" : 0,
		"reason" : "rain",
		"timestamp" :1554804000
		},
	"2019-04-09T17:00:00+05:00" : {
		"windSpeed" : 2.4,
		"windDir" : 115,
		"rain" : 1,
		"cloudbase" : 7080.4090000004,
		"flyability" : 0,
		"reason" : "rain",
		"timestamp" :1554814800
		},
	"2019-04-09T20:00:00+05:00" : {
		"windSpeed" : 1.7,
		"windDir" : 357,
		"rain" : 0,
		"cloudbase" : 7930.8,
		"flyability" : 0,
		"reason" : "windDir",
		"timestamp" :1554825600
		},
	"2019-04-09T23:00:00+05:00" : {
		"windSpeed" : 1.1,
		"windDir" : 12,
		"rain" : 0,
		"cloudbase" : 8720.4000000001,
		"flyability" : 0,
		"reason" : "windDir",
		"timestamp" :1554836400
		},
	"2019-04-10T02:00:00+05:00" : {
		"windSpeed" : 1.1,
		"windDir" : 65,
		"rain" : 0,
		"cloudbase" : 2687.1959999999,
		"flyability" : 0,
		"reason" : "windDir",
		"timestamp" :1554847200
		},
	"2019-04-10T05:00:00+05:00" : {
		"windSpeed" : 2.5,
		"windDir" : 31,
		"rain" : 1,
		"cloudbase" : null,
		"flyability" : 0,
		"reason" : "windDir, rain",
		"timestamp" :1554858000
		}
	}
}