{
"site" : "Heavener SW Launch",
"id" : 9316,
"orientations" : "00000220",
"forecasts" : { 
	"2019-04-18T10:00:00-05:00" : {
		"windSpeed" : 2,
		"windDir" : 249,
		"rain" : 1,
		"cloudbase" : 1434.1957699997,
		"flyability" : 0,
		"reason" : "rain",
		"timestamp" :1555596000
		},
	"2019-04-18T13:00:00-05:00" : {
		"windSpeed" : 4.1,
		"windDir" : 336,
		"rain" : 1,
		"cloudbase" : 2775.7790000001,
		"flyability" : 0,
		"reason" : "windDir, rain",
		"timestamp" :1555606800
		},
	"2019-04-18T16:00:00-05:00" : {
		"windSpeed" : 5.6,
		"windDir" : 333,
		"rain" : 1,
		"cloudbase" : 1915.5842500001,
		"flyability" : 0,
		"reason" : "windSpeed, windDir, rain",
		"timestamp" :1555617600
		},
	"2019-04-18T19:00:00-05:00" : {
		"windSpeed" : 3.1,
		"windDir" : 9,
		"rain" : 0,
		"cloudbase" : null,
		"flyability" : 0,
		"reason" : "windDir",
		"timestamp" :1555628400
		},
	"2019-04-18T22:00:00-05:00" : {
		"windSpeed" : 1.9,
		"windDir" : 359,
		"rain" : 0,
		"cloudbase" : null,
		"flyability" : 0,
		"reason" : "windDir",
		"timestamp" :1555639200
		},
	"2019-04-19T01:00:00-05:00" : {
		"windSpeed" : 2.5,
		"windDir" : 323,
		"rain" : 0,
		"cloudbase" : null,
		"flyability" : 0,
		"reason" : "windDir",
		"timestamp" :1555650000
		},
	"2019-04-19T04:00:00-05:00" : {
		"windSpeed" : 2.2,
		"windDir" : 315,
		"rain" : 0,
		"cloudbase" : null,
		"flyability" : 0,
		"reason" : "windDir",
		"timestamp" :1555660800
		},
	"2019-04-19T07:00:00-05:00" : {
		"windSpeed" : 3.3,
		"windDir" : 332,
		"rain" : 1,
		"cloudbase" : null,
		"flyability" : 0,
		"reason" : "windDir, rain",
		"timestamp" :1555671600
		},
	"2019-04-19T10:00:00-05:00" : {
		"windSpeed" : 6.1,
		"windDir" : 349,
		"rain" : 1,
		"cloudbase" : null,
		"flyability" : 0,
		"reason" : "windSpeed, windDir, rain",
		"timestamp" :1555682400
		},
	"2019-04-19T13:00:00-05:00" : {
		"windSpeed" : 6.3,
		"windDir" : 332,
		"rain" : 1,
		"cloudbase" : 1843.8521,
		"flyability" : 0,
		"reason" : "windSpeed, windDir, rain",
		"timestamp" :1555693200
		},
	"2019-04-19T16:00:00-05:00" : {
		"windSpeed" : 6,
		"windDir" : 336,
		"rain" : 0,
		"cloudbase" : 2400,
		"flyability" : 0,
		"reason" : "windSpeed, windDir",
		"timestamp" :1555704000
		},
	"2019-04-19T19:00:00-05:00" : {
		"windSpeed" : 3.7,
		"windDir" : 342,
		"rain" : 0,
		"cloudbase" : null,
		"flyability" : 0,
		"reason" : "windDir",
		"timestamp" :1555714800
		},
	"2019-04-19T22:00:00-05:00" : {
		"windSpeed" : 2.7,
		"windDir" : 317,
		"rain" : 0,
		"cloudbase" : null,
		"flyability" : 0,
		"reason" : "windDir",
		"timestamp" :1555725600
		},
	"2019-04-20T01:00:00-05:00" : {
		"windSpeed" : 1.5,
		"windDir" : 358,
		"rain" : 0,
		"cloudbase" : null,
		"flyability" : 0,
		"reason" : "windDir",
		"timestamp" :1555736400
		},
	"2019-04-20T04:00:00-05:00" : {
		"windSpeed" : 0.5,
		"windDir" : 198,
		"rain" : 0,
		"cloudbase" : null,
		"flyability" : 0,
		"reason" : "windDir",
		"timestamp" :1555747200
		},
	"2019-04-20T07:00:00-05:00" : {
		"windSpeed" : 1.1,
		"windDir" : 201,
		"rain" : 0,
		"cloudbase" : null,
		"flyability" : 0,
		"reason" : "windDir",
		"timestamp" :1555758000
		},
	"2019-04-20T10:00:00-05:00" : {
		"windSpeed" : 0.6,
		"windDir" : 239,
		"rain" : 0,
		"cloudbase" : null,
		"flyability" : 100,
		"reason" : "",
		"timestamp" :1555768800
		},
	"2019-04-20T13:00:00-05:00" : {
		"windSpeed" : 0.6,
		"windDir" : 275,
		"rain" : 0,
		"cloudbase" : null,
		"flyability" : 100,
		"reason" : "",
		"timestamp" :1555779600
		},
	"2019-04-20T16:00:00-05:00" : {
		"windSpeed" : 0.7,
		"windDir" : 271,
		"rain" : 0,
		"cloudbase" : null,
		"flyability" : 100,
		"reason" : "",
		"timestamp" :1555790400
		},
	"2019-04-20T19:00:00-05:00" : {
		"windSpeed" : 1.1,
		"windDir" : 115,
		"rain" : 0,
		"cloudbase" : null,
		"flyability" : 0,
		"reason" : "windDir",
		"timestamp" :1555801200
		},
	"2019-04-20T22:00:00-05:00" : {
		"windSpeed" : 3.1,
		"windDir" : 171,
		"rain" : 0,
		"cloudbase" : null,
		"flyability" : 0,
		"reason" : "windDir",
		"timestamp" :1555812000
		},
	"2019-04-21T01:00:00-05:00" : {
		"windSpeed" : 2.7,
		"windDir" : 170,
		"rain" : 0,
		"cloudbase" : null,
		"flyability" : 0,
		"reason" : "windDir",
		"timestamp" :1555822800
		},
	"2019-04-21T04:00:00-05:00" : {
		"windSpeed" : 2.7,
		"windDir" : 173,
		"rain" : 0,
		"cloudbase" : null,
		"flyability" : 0,
		"reason" : "windDir",
		"timestamp" :1555833600
		},
	"2019-04-21T07:00:00-05:00" : {
		"windSpeed" : 2.3,
		"windDir" : 165,
		"rain" : 0,
		"cloudbase" : 7815.7021,
		"flyability" : 0,
		"reason" : "windDir",
		"timestamp" :1555844400
		},
	"2019-04-21T10:00:00-05:00" : {
		"windSpeed" : 3.1,
		"windDir" : 181,
		"rain" : 0,
		"cloudbase" : null,
		"flyability" : 0,
		"reason" : "windDir",
		"timestamp" :1555855200
		},
	"2019-04-21T13:00:00-05:00" : {
		"windSpeed" : 4.9,
		"windDir" : 180,
		"rain" : 0,
		"cloudbase" : null,
		"flyability" : 0,
		"reason" : "windDir",
		"timestamp" :1555866000
		},
	"2019-04-21T16:00:00-05:00" : {
		"windSpeed" : 5,
		"windDir" : 180,
		"rain" : 0,
		"cloudbase" : null,
		"flyability" : 0,
		"reason" : "windDir",
		"timestamp" :1555876800
		},
	"2019-04-21T19:00:00-05:00" : {
		"windSpeed" : 4.5,
		"windDir" : 154,
		"rain" : 0,
		"cloudbase" : 7259.3041999999,
		"flyability" : 0,
		"reason" : "windDir",
		"timestamp" :1555887600
		},
	"2019-04-21T22:00:00-05:00" : {
		"windSpeed" : 4.3,
		"windDir" : 165,
		"rain" : 0,
		"cloudbase" : null,
		"flyability" : 0,
		"reason" : "windDir",
		"timestamp" :1555898400
		},
	"2019-04-22T01:00:00-05:00" : {
		"windSpeed" : 3.6,
		"windDir" : 173,
		"rain" : 0,
		"cloudbase" : null,
		"flyability" : 0,
		"reason" : "windDir",
		"timestamp" :1555909200
		},
	"2019-04-22T04:00:00-05:00" : {
		"windSpeed" : 3.7,
		"windDir" : 179,
		"rain" : 0,
		"cloudbase" : null,
		"flyability" : 0,
		"reason" : "windDir",
		"timestamp" :1555920000
		},
	"2019-04-22T07:00:00-05:00" : {
		"windSpeed" : 3.4,
		"windDir" : 154,
		"rain" : 0,
		"cloudbase" : null,
		"flyability" : 0,
		"reason" : "windDir",
		"timestamp" :1555930800
		},
	"2019-04-22T10:00:00-05:00" : {
		"windSpeed" : 3.6,
		"windDir" : 179,
		"rain" : 0,
		"cloudbase" : null,
		"flyability" : 0,
		"reason" : "windDir",
		"timestamp" :1555941600
		},
	"2019-04-22T13:00:00-05:00" : {
		"windSpeed" : 3.5,
		"windDir" : 180,
		"rain" : 0,
		"cloudbase" : null,
		"flyability" : 0,
		"reason" : "windDir",
		"timestamp" :1555952400
		},
	"2019-04-22T16:00:00-05:00" : {
		"windSpeed" : 3.1,
		"windDir" : 189,
		"rain" : 0,
		"cloudbase" : null,
		"flyability" : 0,
		"reason" : "windDir",
		"timestamp" :1555963200
		},
	"2019-04-22T19:00:00-05:00" : {
		"windSpeed" : 2.1,
		"windDir" : 166,
		"rain" : 0,
		"cloudbase" : null,
		"flyability" : 0,
		"reason" : "windDir",
		"timestamp" :1555974000
		},
	"2019-04-22T22:00:00-05:00" : {
		"windSpeed" : 2.5,
		"windDir" : 144,
		"rain" : 0,
		"cloudbase" : null,
		"flyability" : 0,
		"reason" : "windDir",
		"timestamp" :1555984800
		},
	"2019-04-23T01:00:00-05:00" : {
		"windSpeed" : 2.5,
		"windDir" : 129,
		"rain" : 0,
		"cloudbase" : 11000,
		"flyability" : 0,
		"reason" : "windDir",
		"timestamp" :1555995600
		},
	"2019-04-23T04:00:00-05:00" : {
		"windSpeed" : 1.9,
		"windDir" : 149,
		"rain" : 0,
		"cloudbase" : 11010.4895,
		"flyability" : 0,
		"reason" : "windDir",
		"timestamp" :1556006400
		},
	"2019-04-23T07:00:00-05:00" : {
		"windSpeed" : 1.8,
		"windDir" : 147,
		"rain" : 0,
		"cloudbase" : 11000,
		"flyability" : 0,
		"reason" : "windDir",
		"timestamp" :1556017200
		},
	"2019-04-23T10:00:00-05:00" : {
		"windSpeed" : 2.1,
		"windDir" : 194,
		"rain" : 0,
		"cloudbase" : null,
		"flyability" : 0,
		"reason" : "windDir",
		"timestamp" :1556028000
		},
	"2019-04-23T13:00:00-05:00" : {
		"windSpeed" : 3.1,
		"windDir" : 173,
		"rain" : 1,
		"cloudbase" : null,
		"flyability" : 0,
		"reason" : "windDir, rain",
		"timestamp" :1556038800
		},
	"2019-04-23T16:00:00-05:00" : {
		"windSpeed" : 2,
		"windDir" : 170,
		"rain" : 0,
		"cloudbase" : 1837.05,
		"flyability" : 0,
		"reason" : "windDir",
		"timestamp" :1556049600
		},
	"2019-04-23T19:00:00-05:00" : {
		"windSpeed" : 2.5,
		"windDir" : 179,
		"rain" : 0,
		"cloudbase" : null,
		"flyability" : 0,
		"reason" : "windDir",
		"timestamp" :1556060400
		},
	"2019-04-23T22:00:00-05:00" : {
		"windSpeed" : 2.4,
		"windDir" : 143,
		"rain" : 0,
		"cloudbase" : 9173.979,
		"flyability" : 0,
		"reason" : "windDir",
		"timestamp" :1556071200
		},
	"2019-04-24T01:00:00-05:00" : {
		"windSpeed" : 2.2,
		"windDir" : 137,
		"rain" : 0,
		"cloudbase" : null,
		"flyability" : 0,
		"reason" : "windDir",
		"timestamp" :1556082000
		},
	"2019-04-24T04:00:00-05:00" : {
		"windSpeed" : 1.1,
		"windDir" : 120,
		"rain" : 0,
		"cloudbase" : null,
		"flyability" : 0,
		"reason" : "windDir",
		"timestamp" :1556092800
		},
	"2019-04-24T07:00:00-05:00" : {
		"windSpeed" : 1.1,
		"windDir" : 121,
		"rain" : 1,
		"cloudbase" : 11000,
		"flyability" : 0,
		"reason" : "windDir, rain",
		"timestamp" :1556103600
		}
	}
}