{
"site" : "G\u00f3is",
"id" : 9803,
"orientations" : "00122100",
"forecasts" : { 
	"2019-04-05T04:00:00+01:00" : {
		"windSpeed" : 3.6,
		"windDir" : 254,
		"rain" : 1,
		"cloudbase" : 108.43551000004,
		"flyability" : 0,
		"reason" : "windDir, rain, cloudbase",
		"timestamp" :1554429600
		},
	"2019-04-05T07:00:00+01:00" : {
		"windSpeed" : 2.5,
		"windDir" : 259,
		"rain" : 1,
		"cloudbase" : 405.64480500003,
		"flyability" : 0,
		"reason" : "windDir, rain, cloudbase",
		"timestamp" :1554440400
		},
	"2019-04-05T10:00:00+01:00" : {
		"windSpeed" : 2.7,
		"windDir" : 253,
		"rain" : 1,
		"cloudbase" : 320,
		"flyability" : 0,
		"reason" : "windDir, rain, cloudbase",
		"timestamp" :1554451200
		},
	"2019-04-05T13:00:00+01:00" : {
		"windSpeed" : 3.1,
		"windDir" : 257,
		"rain" : 1,
		"cloudbase" : 300,
		"flyability" : 0,
		"reason" : "windDir, rain, cloudbase",
		"timestamp" :1554462000
		},
	"2019-04-05T16:00:00+01:00" : {
		"windSpeed" : 2.7,
		"windDir" : 250,
		"rain" : 1,
		"cloudbase" : 397.29650250006,
		"flyability" : 0,
		"reason" : "windDir, rain, cloudbase",
		"timestamp" :1554472800
		},
	"2019-04-05T19:00:00+01:00" : {
		"windSpeed" : 2.7,
		"windDir" : 292,
		"rain" : 1,
		"cloudbase" : 140.99064000003,
		"flyability" : 0,
		"reason" : "windDir, rain, cloudbase",
		"timestamp" :1554483600
		},
	"2019-04-05T22:00:00+01:00" : {
		"windSpeed" : 5.1,
		"windDir" : 278,
		"rain" : 1,
		"cloudbase" : 1667.6354175001,
		"flyability" : 0,
		"reason" : "windSpeed, windDir, rain",
		"timestamp" :1554494400
		},
	"2019-04-06T01:00:00+01:00" : {
		"windSpeed" : 3.5,
		"windDir" : 263,
		"rain" : 1,
		"cloudbase" : 169.15092749999,
		"flyability" : 0,
		"reason" : "windDir, rain, cloudbase",
		"timestamp" :1554505200
		},
	"2019-04-06T04:00:00+01:00" : {
		"windSpeed" : 4.4,
		"windDir" : 246,
		"rain" : 1,
		"cloudbase" : 150.17987000003,
		"flyability" : 0,
		"reason" : "rain, cloudbase",
		"timestamp" :1554516000
		},
	"2019-04-06T07:00:00+01:00" : {
		"windSpeed" : 4.4,
		"windDir" : 262,
		"rain" : 1,
		"cloudbase" : 61.636215000034,
		"flyability" : 0,
		"reason" : "windDir, rain, cloudbase",
		"timestamp" :1554526800
		},
	"2019-04-06T10:00:00+01:00" : {
		"windSpeed" : 4.9,
		"windDir" : 265,
		"rain" : 1,
		"cloudbase" : 68.258807500073,
		"flyability" : 0,
		"reason" : "windDir, rain, cloudbase",
		"timestamp" :1554537600
		},
	"2019-04-06T13:00:00+01:00" : {
		"windSpeed" : 4.3,
		"windDir" : 287,
		"rain" : 1,
		"cloudbase" : 297.23551000005,
		"flyability" : 0,
		"reason" : "windDir, rain, cloudbase",
		"timestamp" :1554548400
		},
	"2019-04-06T16:00:00+01:00" : {
		"windSpeed" : 5.4,
		"windDir" : 297,
		"rain" : 1,
		"cloudbase" : 170,
		"flyability" : 0,
		"reason" : "windSpeed, windDir, rain, cloudbase",
		"timestamp" :1554559200
		},
	"2019-04-06T19:00:00+01:00" : {
		"windSpeed" : 3.1,
		"windDir" : 283,
		"rain" : 1,
		"cloudbase" : 123.89634500001,
		"flyability" : 0,
		"reason" : "windDir, rain, cloudbase",
		"timestamp" :1554570000
		},
	"2019-04-06T22:00:00+01:00" : {
		"windSpeed" : 3.6,
		"windDir" : 273,
		"rain" : 1,
		"cloudbase" : 30.188557500002,
		"flyability" : 0,
		"reason" : "windDir, rain, cloudbase",
		"timestamp" :1554580800
		},
	"2019-04-07T01:00:00+01:00" : {
		"windSpeed" : 3.1,
		"windDir" : 261,
		"rain" : 1,
		"cloudbase" : 30.817082500011,
		"flyability" : 0,
		"reason" : "windDir, rain, cloudbase",
		"timestamp" :1554591600
		},
	"2019-04-07T04:00:00+01:00" : {
		"windSpeed" : 2.9,
		"windDir" : 241,
		"rain" : 0,
		"cloudbase" : 65.432050000015,
		"flyability" : 0,
		"reason" : "cloudbase",
		"timestamp" :1554602400
		},
	"2019-04-07T07:00:00+01:00" : {
		"windSpeed" : 2,
		"windDir" : 197,
		"rain" : 0,
		"cloudbase" : 893.04699499998,
		"flyability" : 0,
		"reason" : "cloudbase",
		"timestamp" :1554613200
		},
	"2019-04-07T10:00:00+01:00" : {
		"windSpeed" : 2.8,
		"windDir" : 180,
		"rain" : 1,
		"cloudbase" : 1078.92859,
		"flyability" : 0,
		"reason" : "rain",
		"timestamp" :1554624000
		},
	"2019-04-07T13:00:00+01:00" : {
		"windSpeed" : 4.8,
		"windDir" : 158,
		"rain" : 1,
		"cloudbase" : 510.18070500003,
		"flyability" : 0,
		"reason" : "rain, cloudbase",
		"timestamp" :1554634800
		},
	"2019-04-07T16:00:00+01:00" : {
		"windSpeed" : 3.3,
		"windDir" : 207,
		"rain" : 1,
		"cloudbase" : 2033.7338049997,
		"flyability" : 0,
		"reason" : "rain",
		"timestamp" :1554645600
		},
	"2019-04-07T19:00:00+01:00" : {
		"windSpeed" : 4.8,
		"windDir" : 240,
		"rain" : 0,
		"cloudbase" : 182.00785750013,
		"flyability" : 0,
		"reason" : "cloudbase",
		"timestamp" :1554656400
		},
	"2019-04-07T22:00:00+01:00" : {
		"windSpeed" : 3.9,
		"windDir" : 214,
		"rain" : 1,
		"cloudbase" : 208.92570500002,
		"flyability" : 0,
		"reason" : "rain, cloudbase",
		"timestamp" :1554667200
		},
	"2019-04-08T01:00:00+01:00" : {
		"windSpeed" : 4.5,
		"windDir" : 272,
		"rain" : 1,
		"cloudbase" : 170,
		"flyability" : 0,
		"reason" : "windDir, rain, cloudbase",
		"timestamp" :1554678000
		},
	"2019-04-08T04:00:00+01:00" : {
		"windSpeed" : 3.6,
		"windDir" : 265,
		"rain" : 0,
		"cloudbase" : 540,
		"flyability" : 0,
		"reason" : "windDir, cloudbase",
		"timestamp" :1554688800
		},
	"2019-04-08T07:00:00+01:00" : {
		"windSpeed" : 3.2,
		"windDir" : 254,
		"rain" : 0,
		"cloudbase" : null,
		"flyability" : 0,
		"reason" : "windDir",
		"timestamp" :1554699600
		},
	"2019-04-08T10:00:00+01:00" : {
		"windSpeed" : 3.8,
		"windDir" : 248,
		"rain" : 0,
		"cloudbase" : 320,
		"flyability" : 0,
		"reason" : "windDir, cloudbase",
		"timestamp" :1554710400
		},
	"2019-04-08T13:00:00+01:00" : {
		"windSpeed" : 4,
		"windDir" : 259,
		"rain" : 0,
		"cloudbase" : 410.97634500001,
		"flyability" : 0,
		"reason" : "windDir, cloudbase",
		"timestamp" :1554721200
		},
	"2019-04-08T16:00:00+01:00" : {
		"windSpeed" : 4.3,
		"windDir" : 240,
		"rain" : 1,
		"cloudbase" : 474.28487000002,
		"flyability" : 0,
		"reason" : "rain, cloudbase",
		"timestamp" :1554732000
		},
	"2019-04-08T19:00:00+01:00" : {
		"windSpeed" : 4.6,
		"windDir" : 231,
		"rain" : 1,
		"cloudbase" : null,
		"flyability" : 0,
		"reason" : "rain",
		"timestamp" :1554742800
		},
	"2019-04-08T22:00:00+01:00" : {
		"windSpeed" : 3.3,
		"windDir" : 230,
		"rain" : 1,
		"cloudbase" : 225.79535250002,
		"flyability" : 0,
		"reason" : "rain, cloudbase",
		"timestamp" :1554753600
		},
	"2019-04-09T01:00:00+01:00" : {
		"windSpeed" : 3.9,
		"windDir" : 230,
		"rain" : 1,
		"cloudbase" : 120,
		"flyability" : 0,
		"reason" : "rain, cloudbase",
		"timestamp" :1554764400
		},
	"2019-04-09T04:00:00+01:00" : {
		"windSpeed" : 4.3,
		"windDir" : 249,
		"rain" : 1,
		"cloudbase" : 58.510705000003,
		"flyability" : 0,
		"reason" : "windDir, rain, cloudbase",
		"timestamp" :1554775200
		},
	"2019-04-09T07:00:00+01:00" : {
		"windSpeed" : 6.3,
		"windDir" : 248,
		"rain" : 1,
		"cloudbase" : 150,
		"flyability" : 0,
		"reason" : "windSpeed, windDir, rain, cloudbase",
		"timestamp" :1554786000
		},
	"2019-04-09T10:00:00+01:00" : {
		"windSpeed" : 6.3,
		"windDir" : 265,
		"rain" : 1,
		"cloudbase" : 254.30323750002,
		"flyability" : 0,
		"reason" : "windSpeed, windDir, rain, cloudbase",
		"timestamp" :1554796800
		},
	"2019-04-09T13:00:00+01:00" : {
		"windSpeed" : 5.6,
		"windDir" : 286,
		"rain" : 1,
		"cloudbase" : null,
		"flyability" : 0,
		"reason" : "windSpeed, windDir, rain",
		"timestamp" :1554807600
		},
	"2019-04-09T16:00:00+01:00" : {
		"windSpeed" : 5.1,
		"windDir" : 285,
		"rain" : 1,
		"cloudbase" : 74.501442499992,
		"flyability" : 0,
		"reason" : "windSpeed, windDir, rain, cloudbase",
		"timestamp" :1554818400
		},
	"2019-04-09T19:00:00+01:00" : {
		"windSpeed" : 5.2,
		"windDir" : 288,
		"rain" : 1,
		"cloudbase" : 200,
		"flyability" : 0,
		"reason" : "windSpeed, windDir, rain, cloudbase",
		"timestamp" :1554829200
		},
	"2019-04-09T22:00:00+01:00" : {
		"windSpeed" : 4.3,
		"windDir" : 286,
		"rain" : 1,
		"cloudbase" : null,
		"flyability" : 0,
		"reason" : "windDir, rain",
		"timestamp" :1554840000
		},
	"2019-04-10T01:00:00+01:00" : {
		"windSpeed" : 3.7,
		"windDir" : 290,
		"rain" : 0,
		"cloudbase" : 129.40128000004,
		"flyability" : 0,
		"reason" : "windDir, cloudbase",
		"timestamp" :1554850800
		},
	"2019-04-10T04:00:00+01:00" : {
		"windSpeed" : 3,
		"windDir" : 300,
		"rain" : 0,
		"cloudbase" : 30.125705000002,
		"flyability" : 0,
		"reason" : "windDir, cloudbase",
		"timestamp" :1554861600
		},
	"2019-04-10T07:00:00+01:00" : {
		"windSpeed" : 4.5,
		"windDir" : 298,
		"rain" : 1,
		"cloudbase" : 31.244615000004,
		"flyability" : 0,
		"reason" : "windDir, rain, cloudbase",
		"timestamp" :1554872400
		},
	"2019-04-10T10:00:00+01:00" : {
		"windSpeed" : 4,
		"windDir" : 302,
		"rain" : 1,
		"cloudbase" : 500,
		"flyability" : 0,
		"reason" : "windDir, rain, cloudbase",
		"timestamp" :1554883200
		},
	"2019-04-10T13:00:00+01:00" : {
		"windSpeed" : 4,
		"windDir" : 274,
		"rain" : 1,
		"cloudbase" : null,
		"flyability" : 0,
		"reason" : "windDir, rain",
		"timestamp" :1554894000
		},
	"2019-04-10T16:00:00+01:00" : {
		"windSpeed" : 4.8,
		"windDir" : 302,
		"rain" : 1,
		"cloudbase" : 1217.2242150001,
		"flyability" : 0,
		"reason" : "windDir, rain",
		"timestamp" :1554904800
		},
	"2019-04-10T19:00:00+01:00" : {
		"windSpeed" : 4.3,
		"windDir" : 305,
		"rain" : 0,
		"cloudbase" : null,
		"flyability" : 0,
		"reason" : "windDir",
		"timestamp" :1554915600
		},
	"2019-04-10T22:00:00+01:00" : {
		"windSpeed" : 1.9,
		"windDir" : 304,
		"rain" : 0,
		"cloudbase" : 120,
		"flyability" : 0,
		"reason" : "windDir, cloudbase",
		"timestamp" :1554926400
		},
	"2019-04-11T01:00:00+01:00" : {
		"windSpeed" : 1.1,
		"windDir" : 275,
		"rain" : 0,
		"cloudbase" : 141.87523000034,
		"flyability" : 0,
		"reason" : "windDir, cloudbase",
		"timestamp" :1554937200
		}
	}
}