{
"site" : "Larouco",
"id" : 9805,
"orientations" : "00000000",
"forecasts" : { 
	"2019-04-09T04:00:00+01:00" : {
		"windSpeed" : 4.5,
		"windDir" : 216,
		"rain" : 1,
		"cloudbase" : 392.48975199997,
		"flyability" : -0,
		"reason" : "orientationsUnknown, rain, cloudbase",
		"timestamp" :1554775200
		},
	"2019-04-09T07:00:00+01:00" : {
		"windSpeed" : 3.4,
		"windDir" : 251,
		"rain" : 1,
		"cloudbase" : 360.860616,
		"flyability" : -0,
		"reason" : "orientationsUnknown, rain, cloudbase",
		"timestamp" :1554786000
		},
	"2019-04-09T10:00:00+01:00" : {
		"windSpeed" : 5.1,
		"windDir" : 287,
		"rain" : 1,
		"cloudbase" : null,
		"flyability" : -0,
		"reason" : "windSpeed, orientationsUnknown, rain",
		"timestamp" :1554796800
		},
	"2019-04-09T13:00:00+01:00" : {
		"windSpeed" : 5.9,
		"windDir" : 263,
		"rain" : 1,
		"cloudbase" : null,
		"flyability" : -0,
		"reason" : "windSpeed, orientationsUnknown, rain",
		"timestamp" :1554807600
		},
	"2019-04-09T16:00:00+01:00" : {
		"windSpeed" : 5.7,
		"windDir" : 258,
		"rain" : 1,
		"cloudbase" : 73.998083999997,
		"flyability" : -0,
		"reason" : "windSpeed, orientationsUnknown, rain, cloudbase",
		"timestamp" :1554818400
		},
	"2019-04-09T19:00:00+01:00" : {
		"windSpeed" : 5.1,
		"windDir" : 279,
		"rain" : 1,
		"cloudbase" : null,
		"flyability" : -0,
		"reason" : "windSpeed, orientationsUnknown, rain",
		"timestamp" :1554829200
		},
	"2019-04-09T22:00:00+01:00" : {
		"windSpeed" : 4.5,
		"windDir" : 275,
		"rain" : 1,
		"cloudbase" : 266.084448,
		"flyability" : -0,
		"reason" : "orientationsUnknown, rain, cloudbase",
		"timestamp" :1554840000
		},
	"2019-04-10T01:00:00+01:00" : {
		"windSpeed" : 5,
		"windDir" : 286,
		"rain" : 1,
		"cloudbase" : 289.65989599999,
		"flyability" : -0,
		"reason" : "orientationsUnknown, rain, cloudbase",
		"timestamp" :1554850800
		},
	"2019-04-10T04:00:00+01:00" : {
		"windSpeed" : 4.7,
		"windDir" : 293,
		"rain" : 1,
		"cloudbase" : null,
		"flyability" : -0,
		"reason" : "orientationsUnknown, rain",
		"timestamp" :1554861600
		},
	"2019-04-10T07:00:00+01:00" : {
		"windSpeed" : 5.2,
		"windDir" : 303,
		"rain" : 1,
		"cloudbase" : 120,
		"flyability" : -0,
		"reason" : "windSpeed, orientationsUnknown, rain, cloudbase",
		"timestamp" :1554872400
		},
	"2019-04-10T10:00:00+01:00" : {
		"windSpeed" : 7,
		"windDir" : 319,
		"rain" : 0,
		"cloudbase" : 476.58771999999,
		"flyability" : -0,
		"reason" : "windSpeed, orientationsUnknown, cloudbase",
		"timestamp" :1554883200
		},
	"2019-04-10T13:00:00+01:00" : {
		"windSpeed" : 6.3,
		"windDir" : 331,
		"rain" : 0,
		"cloudbase" : 740,
		"flyability" : -0,
		"reason" : "windSpeed, orientationsUnknown, cloudbase",
		"timestamp" :1554894000
		},
	"2019-04-10T16:00:00+01:00" : {
		"windSpeed" : 6,
		"windDir" : 332,
		"rain" : 1,
		"cloudbase" : null,
		"flyability" : -0,
		"reason" : "windSpeed, orientationsUnknown, rain",
		"timestamp" :1554904800
		},
	"2019-04-10T19:00:00+01:00" : {
		"windSpeed" : 5.4,
		"windDir" : 333,
		"rain" : 1,
		"cloudbase" : 1000,
		"flyability" : -0,
		"reason" : "windSpeed, orientationsUnknown, rain, cloudbase",
		"timestamp" :1554915600
		},
	"2019-04-10T22:00:00+01:00" : {
		"windSpeed" : 3.6,
		"windDir" : 339,
		"rain" : 0,
		"cloudbase" : null,
		"flyability" : -50,
		"reason" : "orientationsUnknown",
		"timestamp" :1554926400
		},
	"2019-04-11T01:00:00+01:00" : {
		"windSpeed" : 2.2,
		"windDir" : 328,
		"rain" : 0,
		"cloudbase" : null,
		"flyability" : -50,
		"reason" : "orientationsUnknown",
		"timestamp" :1554937200
		},
	"2019-04-11T04:00:00+01:00" : {
		"windSpeed" : 2.2,
		"windDir" : 314,
		"rain" : 0,
		"cloudbase" : null,
		"flyability" : -50,
		"reason" : "orientationsUnknown",
		"timestamp" :1554948000
		},
	"2019-04-11T07:00:00+01:00" : {
		"windSpeed" : 1.2,
		"windDir" : 329,
		"rain" : 0,
		"cloudbase" : null,
		"flyability" : -50,
		"reason" : "orientationsUnknown",
		"timestamp" :1554958800
		},
	"2019-04-11T10:00:00+01:00" : {
		"windSpeed" : 1,
		"windDir" : 115,
		"rain" : 0,
		"cloudbase" : null,
		"flyability" : -50,
		"reason" : "orientationsUnknown",
		"timestamp" :1554969600
		},
	"2019-04-11T13:00:00+01:00" : {
		"windSpeed" : 1.4,
		"windDir" : 63,
		"rain" : 1,
		"cloudbase" : 1250,
		"flyability" : -0,
		"reason" : "orientationsUnknown, rain, cloudbase",
		"timestamp" :1554980400
		},
	"2019-04-11T16:00:00+01:00" : {
		"windSpeed" : 2.8,
		"windDir" : 347,
		"rain" : 0,
		"cloudbase" : 1650,
		"flyability" : -50,
		"reason" : "orientationsUnknown",
		"timestamp" :1554991200
		},
	"2019-04-11T19:00:00+01:00" : {
		"windSpeed" : 3.4,
		"windDir" : 345,
		"rain" : 0,
		"cloudbase" : 7947.21272,
		"flyability" : -50,
		"reason" : "orientationsUnknown",
		"timestamp" :1555002000
		},
	"2019-04-11T22:00:00+01:00" : {
		"windSpeed" : 2.4,
		"windDir" : 332,
		"rain" : 0,
		"cloudbase" : 7618.59544,
		"flyability" : -50,
		"reason" : "orientationsUnknown",
		"timestamp" :1555012800
		},
	"2019-04-12T01:00:00+01:00" : {
		"windSpeed" : 2.1,
		"windDir" : 322,
		"rain" : 0,
		"cloudbase" : 7762.07272,
		"flyability" : -50,
		"reason" : "orientationsUnknown",
		"timestamp" :1555023600
		},
	"2019-04-12T04:00:00+01:00" : {
		"windSpeed" : 1.7,
		"windDir" : 329,
		"rain" : 0,
		"cloudbase" : 7700,
		"flyability" : -50,
		"reason" : "orientationsUnknown",
		"timestamp" :1555034400
		},
	"2019-04-12T07:00:00+01:00" : {
		"windSpeed" : 0.8,
		"windDir" : 159,
		"rain" : 0,
		"cloudbase" : null,
		"flyability" : -50,
		"reason" : "orientationsUnknown",
		"timestamp" :1555045200
		},
	"2019-04-12T10:00:00+01:00" : {
		"windSpeed" : 1,
		"windDir" : 155,
		"rain" : 0,
		"cloudbase" : null,
		"flyability" : -50,
		"reason" : "orientationsUnknown",
		"timestamp" :1555056000
		},
	"2019-04-12T13:00:00+01:00" : {
		"windSpeed" : 2.4,
		"windDir" : 356,
		"rain" : 0,
		"cloudbase" : null,
		"flyability" : -50,
		"reason" : "orientationsUnknown",
		"timestamp" :1555066800
		},
	"2019-04-12T16:00:00+01:00" : {
		"windSpeed" : 3.1,
		"windDir" : 342,
		"rain" : 0,
		"cloudbase" : null,
		"flyability" : -50,
		"reason" : "orientationsUnknown",
		"timestamp" :1555077600
		},
	"2019-04-12T19:00:00+01:00" : {
		"windSpeed" : 3.2,
		"windDir" : 338,
		"rain" : 0,
		"cloudbase" : null,
		"flyability" : -50,
		"reason" : "orientationsUnknown",
		"timestamp" :1555088400
		},
	"2019-04-12T22:00:00+01:00" : {
		"windSpeed" : 2.6,
		"windDir" : 312,
		"rain" : 0,
		"cloudbase" : 7756.10728,
		"flyability" : -50,
		"reason" : "orientationsUnknown",
		"timestamp" :1555099200
		},
	"2019-04-13T01:00:00+01:00" : {
		"windSpeed" : 1.6,
		"windDir" : 316,
		"rain" : 0,
		"cloudbase" : 7513.95272,
		"flyability" : -50,
		"reason" : "orientationsUnknown",
		"timestamp" :1555110000
		},
	"2019-04-13T04:00:00+01:00" : {
		"windSpeed" : 1.6,
		"windDir" : 282,
		"rain" : 0,
		"cloudbase" : null,
		"flyability" : -50,
		"reason" : "orientationsUnknown",
		"timestamp" :1555120800
		},
	"2019-04-13T07:00:00+01:00" : {
		"windSpeed" : 1.4,
		"windDir" : 304,
		"rain" : 0,
		"cloudbase" : null,
		"flyability" : -50,
		"reason" : "orientationsUnknown",
		"timestamp" :1555131600
		},
	"2019-04-13T10:00:00+01:00" : {
		"windSpeed" : 0.3,
		"windDir" : 351,
		"rain" : 0,
		"cloudbase" : null,
		"flyability" : -50,
		"reason" : "orientationsUnknown",
		"timestamp" :1555142400
		},
	"2019-04-13T13:00:00+01:00" : {
		"windSpeed" : 1.1,
		"windDir" : 309,
		"rain" : 0,
		"cloudbase" : 1520.07864,
		"flyability" : -50,
		"reason" : "orientationsUnknown",
		"timestamp" :1555153200
		},
	"2019-04-13T16:00:00+01:00" : {
		"windSpeed" : 2.8,
		"windDir" : 299,
		"rain" : 1,
		"cloudbase" : 1702.49724,
		"flyability" : -0,
		"reason" : "orientationsUnknown, rain",
		"timestamp" :1555164000
		},
	"2019-04-13T19:00:00+01:00" : {
		"windSpeed" : 2.2,
		"windDir" : 299,
		"rain" : 0,
		"cloudbase" : 2491.65044,
		"flyability" : -50,
		"reason" : "orientationsUnknown",
		"timestamp" :1555174800
		},
	"2019-04-13T22:00:00+01:00" : {
		"windSpeed" : 1.6,
		"windDir" : 287,
		"rain" : 0,
		"cloudbase" : null,
		"flyability" : -50,
		"reason" : "orientationsUnknown",
		"timestamp" :1555185600
		},
	"2019-04-14T01:00:00+01:00" : {
		"windSpeed" : 1.1,
		"windDir" : 265,
		"rain" : 0,
		"cloudbase" : 9602.19272,
		"flyability" : -50,
		"reason" : "orientationsUnknown",
		"timestamp" :1555196400
		},
	"2019-04-14T04:00:00+01:00" : {
		"windSpeed" : 1,
		"windDir" : 264,
		"rain" : 0,
		"cloudbase" : 7547.21272,
		"flyability" : -50,
		"reason" : "orientationsUnknown",
		"timestamp" :1555207200
		},
	"2019-04-14T07:00:00+01:00" : {
		"windSpeed" : 1,
		"windDir" : 203,
		"rain" : 0,
		"cloudbase" : 6233.67544,
		"flyability" : -50,
		"reason" : "orientationsUnknown",
		"timestamp" :1555218000
		},
	"2019-04-14T10:00:00+01:00" : {
		"windSpeed" : 1.1,
		"windDir" : 170,
		"rain" : 0,
		"cloudbase" : 10500,
		"flyability" : -50,
		"reason" : "orientationsUnknown",
		"timestamp" :1555228800
		},
	"2019-04-14T13:00:00+01:00" : {
		"windSpeed" : 3,
		"windDir" : 239,
		"rain" : 0,
		"cloudbase" : 2648.00028,
		"flyability" : -50,
		"reason" : "orientationsUnknown",
		"timestamp" :1555239600
		},
	"2019-04-14T16:00:00+01:00" : {
		"windSpeed" : 3.6,
		"windDir" : 242,
		"rain" : 0,
		"cloudbase" : 2350.305584,
		"flyability" : -50,
		"reason" : "orientationsUnknown",
		"timestamp" :1555250400
		},
	"2019-04-14T19:00:00+01:00" : {
		"windSpeed" : 3.8,
		"windDir" : 231,
		"rain" : 1,
		"cloudbase" : null,
		"flyability" : -0,
		"reason" : "orientationsUnknown, rain",
		"timestamp" :1555261200
		},
	"2019-04-14T22:00:00+01:00" : {
		"windSpeed" : 2.4,
		"windDir" : 208,
		"rain" : 1,
		"cloudbase" : 227.15728,
		"flyability" : -0,
		"reason" : "orientationsUnknown, rain, cloudbase",
		"timestamp" :1555272000
		},
	"2019-04-15T01:00:00+01:00" : {
		"windSpeed" : 2.2,
		"windDir" : 188,
		"rain" : 1,
		"cloudbase" : 89.092272000003,
		"flyability" : -0,
		"reason" : "orientationsUnknown, rain, cloudbase",
		"timestamp" :1555282800
		}
	}
}