{
"site" : "Diki Danda",
"id" : 9854,
"orientations" : "00012100",
"forecasts" : { 
	"2019-04-06T20:45:00+05:45" : {
		"windSpeed" : 0.1,
		"windDir" : 345,
		"rain" : 1,
		"cloudbase" : 7427.00095,
		"flyability" : 0,
		"reason" : "windDir, rain",
		"timestamp" :1554566400
		},
	"2019-04-06T23:45:00+05:45" : {
		"windSpeed" : 1,
		"windDir" : 92,
		"rain" : 0,
		"cloudbase" : 717.97912000025,
		"flyability" : 0,
		"reason" : "windDir, cloudbase",
		"timestamp" :1554577200
		},
	"2019-04-07T02:45:00+05:45" : {
		"windSpeed" : 0.1,
		"windDir" : 6,
		"rain" : 1,
		"cloudbase" : 2203.8194450002,
		"flyability" : 0,
		"reason" : "windDir, rain",
		"timestamp" :1554588000
		},
	"2019-04-07T05:45:00+05:45" : {
		"windSpeed" : 0.5,
		"windDir" : 78,
		"rain" : 1,
		"cloudbase" : 2800,
		"flyability" : 0,
		"reason" : "windDir, rain",
		"timestamp" :1554598800
		},
	"2019-04-07T08:45:00+05:45" : {
		"windSpeed" : 0.2,
		"windDir" : 43,
		"rain" : 1,
		"cloudbase" : null,
		"flyability" : 0,
		"reason" : "windDir, rain",
		"timestamp" :1554609600
		},
	"2019-04-07T11:45:00+05:45" : {
		"windSpeed" : 0.7,
		"windDir" : 81,
		"rain" : 1,
		"cloudbase" : 8300.4851,
		"flyability" : 0,
		"reason" : "windDir, rain",
		"timestamp" :1554620400
		},
	"2019-04-07T14:45:00+05:45" : {
		"windSpeed" : 1.6,
		"windDir" : 90,
		"rain" : 1,
		"cloudbase" : 2700,
		"flyability" : 0,
		"reason" : "windDir, rain",
		"timestamp" :1554631200
		},
	"2019-04-07T17:45:00+05:45" : {
		"windSpeed" : 0.1,
		"windDir" : 18,
		"rain" : 1,
		"cloudbase" : 9600,
		"flyability" : 0,
		"reason" : "windDir, rain",
		"timestamp" :1554642000
		},
	"2019-04-07T20:45:00+05:45" : {
		"windSpeed" : 0.8,
		"windDir" : 1,
		"rain" : 0,
		"cloudbase" : 2150,
		"flyability" : 0,
		"reason" : "windDir",
		"timestamp" :1554652800
		},
	"2019-04-07T23:45:00+05:45" : {
		"windSpeed" : 0.7,
		"windDir" : 305,
		"rain" : 1,
		"cloudbase" : 9552.6766000001,
		"flyability" : 0,
		"reason" : "windDir, rain",
		"timestamp" :1554663600
		},
	"2019-04-08T02:45:00+05:45" : {
		"windSpeed" : 0.7,
		"windDir" : 299,
		"rain" : 0,
		"cloudbase" : 10000,
		"flyability" : 0,
		"reason" : "windDir",
		"timestamp" :1554674400
		},
	"2019-04-08T05:45:00+05:45" : {
		"windSpeed" : 0.5,
		"windDir" : 359,
		"rain" : 0,
		"cloudbase" : 9773.6617,
		"flyability" : 0,
		"reason" : "windDir",
		"timestamp" :1554685200
		},
	"2019-04-08T08:45:00+05:45" : {
		"windSpeed" : 0.2,
		"windDir" : 113,
		"rain" : 1,
		"cloudbase" : null,
		"flyability" : 0,
		"reason" : "rain",
		"timestamp" :1554696000
		},
	"2019-04-08T11:45:00+05:45" : {
		"windSpeed" : 0.9,
		"windDir" : 128,
		"rain" : 0,
		"cloudbase" : 7566.4957999989,
		"flyability" : 100,
		"reason" : "",
		"timestamp" :1554706800
		},
	"2019-04-08T14:45:00+05:45" : {
		"windSpeed" : 0.1,
		"windDir" : 135,
		"rain" : 1,
		"cloudbase" : null,
		"flyability" : 0,
		"reason" : "rain",
		"timestamp" :1554717600
		},
	"2019-04-08T17:45:00+05:45" : {
		"windSpeed" : 0.6,
		"windDir" : 53,
		"rain" : 0,
		"cloudbase" : null,
		"flyability" : 0,
		"reason" : "windDir",
		"timestamp" :1554728400
		},
	"2019-04-08T20:45:00+05:45" : {
		"windSpeed" : 0.5,
		"windDir" : 338,
		"rain" : 0,
		"cloudbase" : 8134.8638000003,
		"flyability" : 0,
		"reason" : "windDir",
		"timestamp" :1554739200
		},
	"2019-04-08T23:45:00+05:45" : {
		"windSpeed" : 1.4,
		"windDir" : 311,
		"rain" : 0,
		"cloudbase" : null,
		"flyability" : 0,
		"reason" : "windDir",
		"timestamp" :1554750000
		},
	"2019-04-09T02:45:00+05:45" : {
		"windSpeed" : 0.8,
		"windDir" : 311,
		"rain" : 0,
		"cloudbase" : null,
		"flyability" : 0,
		"reason" : "windDir",
		"timestamp" :1554760800
		},
	"2019-04-09T05:45:00+05:45" : {
		"windSpeed" : 0.7,
		"windDir" : 312,
		"rain" : 0,
		"cloudbase" : null,
		"flyability" : 0,
		"reason" : "windDir",
		"timestamp" :1554771600
		},
	"2019-04-09T08:45:00+05:45" : {
		"windSpeed" : 0.5,
		"windDir" : 90,
		"rain" : 1,
		"cloudbase" : null,
		"flyability" : 0,
		"reason" : "windDir, rain",
		"timestamp" :1554782400
		},
	"2019-04-09T11:45:00+05:45" : {
		"windSpeed" : 0.2,
		"windDir" : 115,
		"rain" : 1,
		"cloudbase" : null,
		"flyability" : 0,
		"reason" : "rain",
		"timestamp" :1554793200
		},
	"2019-04-09T14:45:00+05:45" : {
		"windSpeed" : 0.5,
		"windDir" : 11,
		"rain" : 1,
		"cloudbase" : null,
		"flyability" : 0,
		"reason" : "windDir, rain",
		"timestamp" :1554804000
		},
	"2019-04-09T17:45:00+05:45" : {
		"windSpeed" : 0.6,
		"windDir" : 90,
		"rain" : 1,
		"cloudbase" : 1200,
		"flyability" : 0,
		"reason" : "windDir, rain, cloudbase",
		"timestamp" :1554814800
		},
	"2019-04-09T20:45:00+05:45" : {
		"windSpeed" : 0.6,
		"windDir" : 347,
		"rain" : 0,
		"cloudbase" : null,
		"flyability" : 0,
		"reason" : "windDir",
		"timestamp" :1554825600
		},
	"2019-04-09T23:45:00+05:45" : {
		"windSpeed" : 0.8,
		"windDir" : 313,
		"rain" : 1,
		"cloudbase" : null,
		"flyability" : 0,
		"reason" : "windDir, rain",
		"timestamp" :1554836400
		},
	"2019-04-10T02:45:00+05:45" : {
		"windSpeed" : 0.8,
		"windDir" : 310,
		"rain" : 1,
		"cloudbase" : null,
		"flyability" : 0,
		"reason" : "windDir, rain",
		"timestamp" :1554847200
		},
	"2019-04-10T05:45:00+05:45" : {
		"windSpeed" : 1.2,
		"windDir" : 293,
		"rain" : 0,
		"cloudbase" : 780,
		"flyability" : 0,
		"reason" : "windDir, cloudbase",
		"timestamp" :1554858000
		},
	"2019-04-10T08:45:00+05:45" : {
		"windSpeed" : 1.5,
		"windDir" : 160,
		"rain" : 1,
		"cloudbase" : 1050,
		"flyability" : 0,
		"reason" : "rain, cloudbase",
		"timestamp" :1554868800
		},
	"2019-04-10T11:45:00+05:45" : {
		"windSpeed" : 1.5,
		"windDir" : 136,
		"rain" : 1,
		"cloudbase" : 1200,
		"flyability" : 0,
		"reason" : "rain, cloudbase",
		"timestamp" :1554879600
		},
	"2019-04-10T14:45:00+05:45" : {
		"windSpeed" : 1.6,
		"windDir" : 97,
		"rain" : 0,
		"cloudbase" : 1600,
		"flyability" : 0,
		"reason" : "windDir",
		"timestamp" :1554890400
		},
	"2019-04-10T17:45:00+05:45" : {
		"windSpeed" : 0.6,
		"windDir" : 11,
		"rain" : 0,
		"cloudbase" : 9400,
		"flyability" : 0,
		"reason" : "windDir",
		"timestamp" :1554901200
		},
	"2019-04-10T20:45:00+05:45" : {
		"windSpeed" : 0.5,
		"windDir" : 350,
		"rain" : 0,
		"cloudbase" : 1100,
		"flyability" : 0,
		"reason" : "windDir, cloudbase",
		"timestamp" :1554912000
		},
	"2019-04-10T23:45:00+05:45" : {
		"windSpeed" : 0.7,
		"windDir" : 317,
		"rain" : 1,
		"cloudbase" : 1400,
		"flyability" : 0,
		"reason" : "windDir, rain, cloudbase",
		"timestamp" :1554922800
		},
	"2019-04-11T02:45:00+05:45" : {
		"windSpeed" : 0.8,
		"windDir" : 303,
		"rain" : 0,
		"cloudbase" : null,
		"flyability" : 0,
		"reason" : "windDir",
		"timestamp" :1554933600
		},
	"2019-04-11T05:45:00+05:45" : {
		"windSpeed" : 0.9,
		"windDir" : 357,
		"rain" : 0,
		"cloudbase" : null,
		"flyability" : 0,
		"reason" : "windDir",
		"timestamp" :1554944400
		},
	"2019-04-11T08:45:00+05:45" : {
		"windSpeed" : 1,
		"windDir" : 151,
		"rain" : 0,
		"cloudbase" : 660,
		"flyability" : 0,
		"reason" : "cloudbase",
		"timestamp" :1554955200
		},
	"2019-04-11T11:45:00+05:45" : {
		"windSpeed" : 2,
		"windDir" : 145,
		"rain" : 1,
		"cloudbase" : 755.87872000004,
		"flyability" : 0,
		"reason" : "rain, cloudbase",
		"timestamp" :1554966000
		},
	"2019-04-11T14:45:00+05:45" : {
		"windSpeed" : 0.6,
		"windDir" : 101,
		"rain" : 1,
		"cloudbase" : 980,
		"flyability" : 0,
		"reason" : "windDir, rain, cloudbase",
		"timestamp" :1554976800
		},
	"2019-04-11T17:45:00+05:45" : {
		"windSpeed" : 0.4,
		"windDir" : 15,
		"rain" : 0,
		"cloudbase" : 9486.8724999986,
		"flyability" : 0,
		"reason" : "windDir",
		"timestamp" :1554987600
		},
	"2019-04-11T20:45:00+05:45" : {
		"windSpeed" : 0.6,
		"windDir" : 342,
		"rain" : 0,
		"cloudbase" : 9302.1234,
		"flyability" : 0,
		"reason" : "windDir",
		"timestamp" :1554998400
		},
	"2019-04-11T23:45:00+05:45" : {
		"windSpeed" : 1.1,
		"windDir" : 326,
		"rain" : 0,
		"cloudbase" : 9281.0084999999,
		"flyability" : 0,
		"reason" : "windDir",
		"timestamp" :1555009200
		},
	"2019-04-12T02:45:00+05:45" : {
		"windSpeed" : 1.1,
		"windDir" : 299,
		"rain" : 0,
		"cloudbase" : 10500,
		"flyability" : 0,
		"reason" : "windDir",
		"timestamp" :1555020000
		},
	"2019-04-12T05:45:00+05:45" : {
		"windSpeed" : 0.7,
		"windDir" : 312,
		"rain" : 0,
		"cloudbase" : null,
		"flyability" : 0,
		"reason" : "windDir",
		"timestamp" :1555030800
		},
	"2019-04-12T08:45:00+05:45" : {
		"windSpeed" : 0.4,
		"windDir" : 360,
		"rain" : 0,
		"cloudbase" : null,
		"flyability" : 0,
		"reason" : "windDir",
		"timestamp" :1555041600
		},
	"2019-04-12T11:45:00+05:45" : {
		"windSpeed" : 1.4,
		"windDir" : 135,
		"rain" : 1,
		"cloudbase" : null,
		"flyability" : 0,
		"reason" : "rain",
		"timestamp" :1555052400
		},
	"2019-04-12T14:45:00+05:45" : {
		"windSpeed" : 1.4,
		"windDir" : 4,
		"rain" : 0,
		"cloudbase" : 8435.1383,
		"flyability" : 0,
		"reason" : "windDir",
		"timestamp" :1555063200
		},
	"2019-04-12T17:45:00+05:45" : {
		"windSpeed" : 0.7,
		"windDir" : 313,
		"rain" : 0,
		"cloudbase" : 7333.3596999989,
		"flyability" : 0,
		"reason" : "windDir",
		"timestamp" :1555074000
		}
	}
}