{
"site" : "Odaev",
"id" : 9968,
"orientations" : "00000000",
"forecasts" : { 
	"2019-04-17T06:00:00+03:00" : {
		"windSpeed" : 3.2,
		"windDir" : 327,
		"rain" : 1,
		"cloudbase" : 236.77,
		"flyability" : -0,
		"reason" : "orientationsUnknown, rain, cloudbase",
		"timestamp" :1555470000
		},
	"2019-04-17T09:00:00+03:00" : {
		"windSpeed" : 3.8,
		"windDir" : 23,
		"rain" : 1,
		"cloudbase" : 370.1,
		"flyability" : -0,
		"reason" : "orientationsUnknown, rain",
		"timestamp" :1555480800
		},
	"2019-04-17T12:00:00+03:00" : {
		"windSpeed" : 4.7,
		"windDir" : 36,
		"rain" : 1,
		"cloudbase" : 494.67455,
		"flyability" : -0,
		"reason" : "orientationsUnknown, rain",
		"timestamp" :1555491600
		},
	"2019-04-17T15:00:00+03:00" : {
		"windSpeed" : 4,
		"windDir" : 48,
		"rain" : 1,
		"cloudbase" : 499.14382,
		"flyability" : -0,
		"reason" : "orientationsUnknown, rain",
		"timestamp" :1555502400
		},
	"2019-04-17T18:00:00+03:00" : {
		"windSpeed" : 4.3,
		"windDir" : 51,
		"rain" : 1,
		"cloudbase" : 718.92146,
		"flyability" : -0,
		"reason" : "orientationsUnknown, rain",
		"timestamp" :1555513200
		},
	"2019-04-17T21:00:00+03:00" : {
		"windSpeed" : 2.6,
		"windDir" : 63,
		"rain" : 1,
		"cloudbase" : 780,
		"flyability" : -0,
		"reason" : "orientationsUnknown, rain",
		"timestamp" :1555524000
		},
	"2019-04-18T00:00:00+03:00" : {
		"windSpeed" : 2.6,
		"windDir" : 54,
		"rain" : 0,
		"cloudbase" : null,
		"flyability" : -50,
		"reason" : "orientationsUnknown",
		"timestamp" :1555534800
		},
	"2019-04-18T03:00:00+03:00" : {
		"windSpeed" : 2.5,
		"windDir" : 57,
		"rain" : 0,
		"cloudbase" : 808.93854,
		"flyability" : -50,
		"reason" : "orientationsUnknown",
		"timestamp" :1555545600
		},
	"2019-04-18T06:00:00+03:00" : {
		"windSpeed" : 2.3,
		"windDir" : 65,
		"rain" : 1,
		"cloudbase" : 1639.05,
		"flyability" : -0,
		"reason" : "orientationsUnknown, rain",
		"timestamp" :1555556400
		},
	"2019-04-18T09:00:00+03:00" : {
		"windSpeed" : 1.8,
		"windDir" : 50,
		"rain" : 0,
		"cloudbase" : null,
		"flyability" : -50,
		"reason" : "orientationsUnknown",
		"timestamp" :1555567200
		},
	"2019-04-18T12:00:00+03:00" : {
		"windSpeed" : 3.5,
		"windDir" : 44,
		"rain" : 1,
		"cloudbase" : 2000,
		"flyability" : -0,
		"reason" : "orientationsUnknown, rain",
		"timestamp" :1555578000
		},
	"2019-04-18T15:00:00+03:00" : {
		"windSpeed" : 3,
		"windDir" : 33,
		"rain" : 0,
		"cloudbase" : 2115.9809,
		"flyability" : -50,
		"reason" : "orientationsUnknown",
		"timestamp" :1555588800
		},
	"2019-04-18T18:00:00+03:00" : {
		"windSpeed" : 3.1,
		"windDir" : 13,
		"rain" : 0,
		"cloudbase" : 6513.8180000001,
		"flyability" : -50,
		"reason" : "orientationsUnknown",
		"timestamp" :1555599600
		},
	"2019-04-18T21:00:00+03:00" : {
		"windSpeed" : 3,
		"windDir" : 356,
		"rain" : 0,
		"cloudbase" : null,
		"flyability" : -50,
		"reason" : "orientationsUnknown",
		"timestamp" :1555610400
		},
	"2019-04-19T00:00:00+03:00" : {
		"windSpeed" : 2.2,
		"windDir" : 355,
		"rain" : 0,
		"cloudbase" : null,
		"flyability" : -50,
		"reason" : "orientationsUnknown",
		"timestamp" :1555621200
		},
	"2019-04-19T03:00:00+03:00" : {
		"windSpeed" : 2.5,
		"windDir" : 317,
		"rain" : 0,
		"cloudbase" : null,
		"flyability" : -50,
		"reason" : "orientationsUnknown",
		"timestamp" :1555632000
		},
	"2019-04-19T06:00:00+03:00" : {
		"windSpeed" : 3.4,
		"windDir" : 316,
		"rain" : 1,
		"cloudbase" : null,
		"flyability" : -0,
		"reason" : "orientationsUnknown, rain",
		"timestamp" :1555642800
		},
	"2019-04-19T09:00:00+03:00" : {
		"windSpeed" : 3.9,
		"windDir" : 3,
		"rain" : 1,
		"cloudbase" : null,
		"flyability" : -0,
		"reason" : "orientationsUnknown, rain",
		"timestamp" :1555653600
		},
	"2019-04-19T12:00:00+03:00" : {
		"windSpeed" : 4.9,
		"windDir" : 24,
		"rain" : 0,
		"cloudbase" : null,
		"flyability" : -50,
		"reason" : "orientationsUnknown",
		"timestamp" :1555664400
		},
	"2019-04-19T15:00:00+03:00" : {
		"windSpeed" : 5,
		"windDir" : 17,
		"rain" : 0,
		"cloudbase" : 2180.35,
		"flyability" : -50,
		"reason" : "orientationsUnknown",
		"timestamp" :1555675200
		},
	"2019-04-19T18:00:00+03:00" : {
		"windSpeed" : 5.3,
		"windDir" : 18,
		"rain" : 0,
		"cloudbase" : 1961.78455,
		"flyability" : -0,
		"reason" : "windSpeed, orientationsUnknown",
		"timestamp" :1555686000
		},
	"2019-04-19T21:00:00+03:00" : {
		"windSpeed" : 3,
		"windDir" : 44,
		"rain" : 0,
		"cloudbase" : 2000,
		"flyability" : -50,
		"reason" : "orientationsUnknown",
		"timestamp" :1555696800
		},
	"2019-04-20T00:00:00+03:00" : {
		"windSpeed" : 2.3,
		"windDir" : 48,
		"rain" : 0,
		"cloudbase" : null,
		"flyability" : -50,
		"reason" : "orientationsUnknown",
		"timestamp" :1555707600
		},
	"2019-04-20T03:00:00+03:00" : {
		"windSpeed" : 2,
		"windDir" : 18,
		"rain" : 0,
		"cloudbase" : 2200,
		"flyability" : -50,
		"reason" : "orientationsUnknown",
		"timestamp" :1555718400
		},
	"2019-04-20T06:00:00+03:00" : {
		"windSpeed" : 2,
		"windDir" : 35,
		"rain" : 0,
		"cloudbase" : 2000,
		"flyability" : -50,
		"reason" : "orientationsUnknown",
		"timestamp" :1555729200
		},
	"2019-04-20T09:00:00+03:00" : {
		"windSpeed" : 1.3,
		"windDir" : 314,
		"rain" : 1,
		"cloudbase" : null,
		"flyability" : -0,
		"reason" : "orientationsUnknown, rain",
		"timestamp" :1555740000
		},
	"2019-04-20T12:00:00+03:00" : {
		"windSpeed" : 1.9,
		"windDir" : 360,
		"rain" : 1,
		"cloudbase" : 1639.4382,
		"flyability" : -0,
		"reason" : "orientationsUnknown, rain",
		"timestamp" :1555750800
		},
	"2019-04-20T15:00:00+03:00" : {
		"windSpeed" : 1.7,
		"windDir" : 17,
		"rain" : 0,
		"cloudbase" : 1810.7,
		"flyability" : -50,
		"reason" : "orientationsUnknown",
		"timestamp" :1555761600
		},
	"2019-04-20T18:00:00+03:00" : {
		"windSpeed" : 2.5,
		"windDir" : 11,
		"rain" : 0,
		"cloudbase" : 2163.5073,
		"flyability" : -50,
		"reason" : "orientationsUnknown",
		"timestamp" :1555772400
		},
	"2019-04-20T21:00:00+03:00" : {
		"windSpeed" : 1.8,
		"windDir" : 74,
		"rain" : 0,
		"cloudbase" : 2833.6474500001,
		"flyability" : -50,
		"reason" : "orientationsUnknown",
		"timestamp" :1555783200
		},
	"2019-04-21T00:00:00+03:00" : {
		"windSpeed" : 2.1,
		"windDir" : 137,
		"rain" : 0,
		"cloudbase" : null,
		"flyability" : -50,
		"reason" : "orientationsUnknown",
		"timestamp" :1555794000
		},
	"2019-04-21T03:00:00+03:00" : {
		"windSpeed" : 1.5,
		"windDir" : 232,
		"rain" : 0,
		"cloudbase" : null,
		"flyability" : -50,
		"reason" : "orientationsUnknown",
		"timestamp" :1555804800
		},
	"2019-04-21T06:00:00+03:00" : {
		"windSpeed" : 2,
		"windDir" : 289,
		"rain" : 0,
		"cloudbase" : null,
		"flyability" : -50,
		"reason" : "orientationsUnknown",
		"timestamp" :1555815600
		},
	"2019-04-21T09:00:00+03:00" : {
		"windSpeed" : 0.6,
		"windDir" : 239,
		"rain" : 0,
		"cloudbase" : 1912.3691,
		"flyability" : -50,
		"reason" : "orientationsUnknown",
		"timestamp" :1555826400
		},
	"2019-04-21T12:00:00+03:00" : {
		"windSpeed" : 1.7,
		"windDir" : 277,
		"rain" : 0,
		"cloudbase" : 2147.35535,
		"flyability" : -50,
		"reason" : "orientationsUnknown",
		"timestamp" :1555837200
		},
	"2019-04-21T15:00:00+03:00" : {
		"windSpeed" : 2.4,
		"windDir" : 338,
		"rain" : 1,
		"cloudbase" : 3142.30365,
		"flyability" : -0,
		"reason" : "orientationsUnknown, rain",
		"timestamp" :1555848000
		},
	"2019-04-21T18:00:00+03:00" : {
		"windSpeed" : 2.2,
		"windDir" : 158,
		"rain" : 1,
		"cloudbase" : 5961.5854,
		"flyability" : -0,
		"reason" : "orientationsUnknown, rain",
		"timestamp" :1555858800
		},
	"2019-04-21T21:00:00+03:00" : {
		"windSpeed" : 2,
		"windDir" : 118,
		"rain" : 0,
		"cloudbase" : 4344.09355,
		"flyability" : -50,
		"reason" : "orientationsUnknown",
		"timestamp" :1555869600
		},
	"2019-04-22T00:00:00+03:00" : {
		"windSpeed" : 1.3,
		"windDir" : 252,
		"rain" : 1,
		"cloudbase" : 5981.5545,
		"flyability" : -0,
		"reason" : "orientationsUnknown, rain",
		"timestamp" :1555880400
		},
	"2019-04-22T03:00:00+03:00" : {
		"windSpeed" : 2.7,
		"windDir" : 111,
		"rain" : 1,
		"cloudbase" : 4540.0002499999,
		"flyability" : -0,
		"reason" : "orientationsUnknown, rain",
		"timestamp" :1555891200
		},
	"2019-04-22T06:00:00+03:00" : {
		"windSpeed" : 3.9,
		"windDir" : 125,
		"rain" : 0,
		"cloudbase" : 2000,
		"flyability" : -50,
		"reason" : "orientationsUnknown",
		"timestamp" :1555902000
		},
	"2019-04-22T09:00:00+03:00" : {
		"windSpeed" : 4.3,
		"windDir" : 118,
		"rain" : 0,
		"cloudbase" : null,
		"flyability" : -50,
		"reason" : "orientationsUnknown",
		"timestamp" :1555912800
		},
	"2019-04-22T12:00:00+03:00" : {
		"windSpeed" : 5.6,
		"windDir" : 129,
		"rain" : 0,
		"cloudbase" : 1741.3,
		"flyability" : -0,
		"reason" : "windSpeed, orientationsUnknown",
		"timestamp" :1555923600
		},
	"2019-04-22T15:00:00+03:00" : {
		"windSpeed" : 4.9,
		"windDir" : 121,
		"rain" : 0,
		"cloudbase" : 1896.3309,
		"flyability" : -50,
		"reason" : "orientationsUnknown",
		"timestamp" :1555934400
		},
	"2019-04-22T18:00:00+03:00" : {
		"windSpeed" : 4.8,
		"windDir" : 138,
		"rain" : 0,
		"cloudbase" : 1833.7691,
		"flyability" : -50,
		"reason" : "orientationsUnknown",
		"timestamp" :1555945200
		},
	"2019-04-22T21:00:00+03:00" : {
		"windSpeed" : 3.5,
		"windDir" : 118,
		"rain" : 0,
		"cloudbase" : 2000,
		"flyability" : -50,
		"reason" : "orientationsUnknown",
		"timestamp" :1555956000
		},
	"2019-04-23T00:00:00+03:00" : {
		"windSpeed" : 3.9,
		"windDir" : 116,
		"rain" : 0,
		"cloudbase" : null,
		"flyability" : -50,
		"reason" : "orientationsUnknown",
		"timestamp" :1555966800
		},
	"2019-04-23T03:00:00+03:00" : {
		"windSpeed" : 3.4,
		"windDir" : 119,
		"rain" : 0,
		"cloudbase" : null,
		"flyability" : -50,
		"reason" : "orientationsUnknown",
		"timestamp" :1555977600
		}
	}
}