{
"site" : "Rybachye",
"id" : 9978,
"orientations" : "11111111",
"forecasts" : { 
	"2019-04-13T18:00:00+03:00" : {
		"windSpeed" : 1,
		"windDir" : 41,
		"rain" : 1,
		"cloudbase" : 4083.3999999999,
		"flyability" : 0,
		"reason" : "rain",
		"timestamp" :1555167600
		},
	"2019-04-13T21:00:00+03:00" : {
		"windSpeed" : 0.8,
		"windDir" : 10,
		"rain" : 0,
		"cloudbase" : 884.50000000008,
		"flyability" : 100,
		"reason" : "",
		"timestamp" :1555178400
		},
	"2019-04-14T00:00:00+03:00" : {
		"windSpeed" : 0.8,
		"windDir" : 10,
		"rain" : 0,
		"cloudbase" : 8700,
		"flyability" : 100,
		"reason" : "",
		"timestamp" :1555189200
		},
	"2019-04-14T03:00:00+03:00" : {
		"windSpeed" : 1.5,
		"windDir" : 351,
		"rain" : 0,
		"cloudbase" : 6658.3999999996,
		"flyability" : 100,
		"reason" : "",
		"timestamp" :1555200000
		},
	"2019-04-14T06:00:00+03:00" : {
		"windSpeed" : 1.4,
		"windDir" : 64,
		"rain" : 0,
		"cloudbase" : 1450,
		"flyability" : 100,
		"reason" : "",
		"timestamp" :1555210800
		},
	"2019-04-14T09:00:00+03:00" : {
		"windSpeed" : 1.7,
		"windDir" : 72,
		"rain" : 1,
		"cloudbase" : 2136.8000000006,
		"flyability" : 0,
		"reason" : "rain",
		"timestamp" :1555221600
		},
	"2019-04-14T12:00:00+03:00" : {
		"windSpeed" : 2,
		"windDir" : 79,
		"rain" : 1,
		"cloudbase" : 903.17999999991,
		"flyability" : 0,
		"reason" : "rain",
		"timestamp" :1555232400
		},
	"2019-04-14T15:00:00+03:00" : {
		"windSpeed" : 1.6,
		"windDir" : 76,
		"rain" : 1,
		"cloudbase" : 926.61999999989,
		"flyability" : 0,
		"reason" : "rain",
		"timestamp" :1555243200
		},
	"2019-04-14T18:00:00+03:00" : {
		"windSpeed" : 0.7,
		"windDir" : 98,
		"rain" : 1,
		"cloudbase" : 1291.8999999999,
		"flyability" : 0,
		"reason" : "rain",
		"timestamp" :1555254000
		},
	"2019-04-14T21:00:00+03:00" : {
		"windSpeed" : 1.6,
		"windDir" : 332,
		"rain" : 1,
		"cloudbase" : 2302.4000000004,
		"flyability" : 0,
		"reason" : "rain",
		"timestamp" :1555264800
		},
	"2019-04-15T00:00:00+03:00" : {
		"windSpeed" : 1.8,
		"windDir" : 315,
		"rain" : 0,
		"cloudbase" : 1540.5,
		"flyability" : 100,
		"reason" : "",
		"timestamp" :1555275600
		},
	"2019-04-15T03:00:00+03:00" : {
		"windSpeed" : 1.6,
		"windDir" : 332,
		"rain" : 1,
		"cloudbase" : 1996,
		"flyability" : 0,
		"reason" : "rain",
		"timestamp" :1555286400
		},
	"2019-04-15T06:00:00+03:00" : {
		"windSpeed" : 2,
		"windDir" : 307,
		"rain" : 1,
		"cloudbase" : 1826.3,
		"flyability" : 0,
		"reason" : "rain",
		"timestamp" :1555297200
		},
	"2019-04-15T09:00:00+03:00" : {
		"windSpeed" : 1.7,
		"windDir" : 233,
		"rain" : 1,
		"cloudbase" : 2235.8999999999,
		"flyability" : 0,
		"reason" : "rain",
		"timestamp" :1555308000
		},
	"2019-04-15T12:00:00+03:00" : {
		"windSpeed" : 1.9,
		"windDir" : 221,
		"rain" : 1,
		"cloudbase" : 667.29999999998,
		"flyability" : 0,
		"reason" : "rain",
		"timestamp" :1555318800
		},
	"2019-04-15T15:00:00+03:00" : {
		"windSpeed" : 1.2,
		"windDir" : 179,
		"rain" : 1,
		"cloudbase" : 858.17999999994,
		"flyability" : 0,
		"reason" : "rain",
		"timestamp" :1555329600
		},
	"2019-04-15T18:00:00+03:00" : {
		"windSpeed" : 0.9,
		"windDir" : 187,
		"rain" : 1,
		"cloudbase" : 1347.8399999998,
		"flyability" : 0,
		"reason" : "rain",
		"timestamp" :1555340400
		},
	"2019-04-15T21:00:00+03:00" : {
		"windSpeed" : 0.7,
		"windDir" : 360,
		"rain" : 0,
		"cloudbase" : 2647.1199999996,
		"flyability" : 100,
		"reason" : "",
		"timestamp" :1555351200
		},
	"2019-04-16T00:00:00+03:00" : {
		"windSpeed" : 0.5,
		"windDir" : 316,
		"rain" : 0,
		"cloudbase" : 1244.02,
		"flyability" : 100,
		"reason" : "",
		"timestamp" :1555362000
		},
	"2019-04-16T03:00:00+03:00" : {
		"windSpeed" : 0.5,
		"windDir" : 294,
		"rain" : 1,
		"cloudbase" : 720,
		"flyability" : 0,
		"reason" : "rain",
		"timestamp" :1555372800
		},
	"2019-04-16T06:00:00+03:00" : {
		"windSpeed" : 0.7,
		"windDir" : 289,
		"rain" : 0,
		"cloudbase" : 426.59999999997,
		"flyability" : 100,
		"reason" : "",
		"timestamp" :1555383600
		},
	"2019-04-16T09:00:00+03:00" : {
		"windSpeed" : 1.2,
		"windDir" : 163,
		"rain" : 0,
		"cloudbase" : 539.99999999997,
		"flyability" : 100,
		"reason" : "",
		"timestamp" :1555394400
		},
	"2019-04-16T12:00:00+03:00" : {
		"windSpeed" : 3.3,
		"windDir" : 124,
		"rain" : 1,
		"cloudbase" : null,
		"flyability" : 0,
		"reason" : "rain",
		"timestamp" :1555405200
		},
	"2019-04-16T15:00:00+03:00" : {
		"windSpeed" : 3,
		"windDir" : 107,
		"rain" : 0,
		"cloudbase" : 340,
		"flyability" : 100,
		"reason" : "",
		"timestamp" :1555416000
		},
	"2019-04-16T18:00:00+03:00" : {
		"windSpeed" : 1.4,
		"windDir" : 110,
		"rain" : 1,
		"cloudbase" : null,
		"flyability" : 0,
		"reason" : "rain",
		"timestamp" :1555426800
		},
	"2019-04-16T21:00:00+03:00" : {
		"windSpeed" : 1,
		"windDir" : 28,
		"rain" : 0,
		"cloudbase" : null,
		"flyability" : 100,
		"reason" : "",
		"timestamp" :1555437600
		},
	"2019-04-17T00:00:00+03:00" : {
		"windSpeed" : 1.6,
		"windDir" : 338,
		"rain" : 1,
		"cloudbase" : 8677.6,
		"flyability" : 0,
		"reason" : "rain",
		"timestamp" :1555448400
		},
	"2019-04-17T03:00:00+03:00" : {
		"windSpeed" : 1.7,
		"windDir" : 330,
		"rain" : 0,
		"cloudbase" : 1000.8399999999,
		"flyability" : 100,
		"reason" : "",
		"timestamp" :1555459200
		},
	"2019-04-17T06:00:00+03:00" : {
		"windSpeed" : 1.7,
		"windDir" : 289,
		"rain" : 0,
		"cloudbase" : 814.91999999998,
		"flyability" : 100,
		"reason" : "",
		"timestamp" :1555470000
		},
	"2019-04-17T09:00:00+03:00" : {
		"windSpeed" : 1.9,
		"windDir" : 337,
		"rain" : 1,
		"cloudbase" : 1256.3999999999,
		"flyability" : 0,
		"reason" : "rain",
		"timestamp" :1555480800
		},
	"2019-04-17T12:00:00+03:00" : {
		"windSpeed" : 4,
		"windDir" : 28,
		"rain" : 1,
		"cloudbase" : 982.31999999999,
		"flyability" : 0,
		"reason" : "rain",
		"timestamp" :1555491600
		},
	"2019-04-17T15:00:00+03:00" : {
		"windSpeed" : 4.5,
		"windDir" : 21,
		"rain" : 1,
		"cloudbase" : 3031.3999999997,
		"flyability" : 0,
		"reason" : "rain",
		"timestamp" :1555502400
		},
	"2019-04-17T18:00:00+03:00" : {
		"windSpeed" : 5.3,
		"windDir" : 16,
		"rain" : 1,
		"cloudbase" : 5214.2999999999,
		"flyability" : 0,
		"reason" : "windSpeed, rain",
		"timestamp" :1555513200
		},
	"2019-04-17T21:00:00+03:00" : {
		"windSpeed" : 5.2,
		"windDir" : 16,
		"rain" : 1,
		"cloudbase" : 1456.3999999999,
		"flyability" : 0,
		"reason" : "windSpeed, rain",
		"timestamp" :1555524000
		},
	"2019-04-18T00:00:00+03:00" : {
		"windSpeed" : 4.7,
		"windDir" : 24,
		"rain" : 0,
		"cloudbase" : 1999.7999999999,
		"flyability" : 100,
		"reason" : "",
		"timestamp" :1555534800
		},
	"2019-04-18T03:00:00+03:00" : {
		"windSpeed" : 5.1,
		"windDir" : 14,
		"rain" : 0,
		"cloudbase" : 8716.6,
		"flyability" : 0,
		"reason" : "windSpeed",
		"timestamp" :1555545600
		},
	"2019-04-18T06:00:00+03:00" : {
		"windSpeed" : 5.5,
		"windDir" : 9,
		"rain" : 0,
		"cloudbase" : 9244.6,
		"flyability" : 0,
		"reason" : "windSpeed",
		"timestamp" :1555556400
		},
	"2019-04-18T09:00:00+03:00" : {
		"windSpeed" : 6.3,
		"windDir" : 31,
		"rain" : 0,
		"cloudbase" : null,
		"flyability" : 0,
		"reason" : "windSpeed",
		"timestamp" :1555567200
		},
	"2019-04-18T12:00:00+03:00" : {
		"windSpeed" : 5.7,
		"windDir" : 45,
		"rain" : 0,
		"cloudbase" : 1139.78,
		"flyability" : 0,
		"reason" : "windSpeed",
		"timestamp" :1555578000
		},
	"2019-04-18T15:00:00+03:00" : {
		"windSpeed" : 5.8,
		"windDir" : 38,
		"rain" : 0,
		"cloudbase" : 1209.6,
		"flyability" : 0,
		"reason" : "windSpeed",
		"timestamp" :1555588800
		},
	"2019-04-18T18:00:00+03:00" : {
		"windSpeed" : 5.4,
		"windDir" : 26,
		"rain" : 0,
		"cloudbase" : null,
		"flyability" : 0,
		"reason" : "windSpeed",
		"timestamp" :1555599600
		},
	"2019-04-18T21:00:00+03:00" : {
		"windSpeed" : 5.5,
		"windDir" : 1,
		"rain" : 0,
		"cloudbase" : 1650,
		"flyability" : 0,
		"reason" : "windSpeed",
		"timestamp" :1555610400
		},
	"2019-04-19T00:00:00+03:00" : {
		"windSpeed" : 5.1,
		"windDir" : 356,
		"rain" : 0,
		"cloudbase" : null,
		"flyability" : 0,
		"reason" : "windSpeed",
		"timestamp" :1555621200
		},
	"2019-04-19T03:00:00+03:00" : {
		"windSpeed" : 4,
		"windDir" : 357,
		"rain" : 0,
		"cloudbase" : null,
		"flyability" : 100,
		"reason" : "",
		"timestamp" :1555632000
		},
	"2019-04-19T06:00:00+03:00" : {
		"windSpeed" : 3.5,
		"windDir" : 4,
		"rain" : 0,
		"cloudbase" : null,
		"flyability" : 100,
		"reason" : "",
		"timestamp" :1555642800
		},
	"2019-04-19T09:00:00+03:00" : {
		"windSpeed" : 4.8,
		"windDir" : 28,
		"rain" : 0,
		"cloudbase" : 8051,
		"flyability" : 100,
		"reason" : "",
		"timestamp" :1555653600
		},
	"2019-04-19T12:00:00+03:00" : {
		"windSpeed" : 4.9,
		"windDir" : 36,
		"rain" : 0,
		"cloudbase" : null,
		"flyability" : 100,
		"reason" : "",
		"timestamp" :1555664400
		},
	"2019-04-19T15:00:00+03:00" : {
		"windSpeed" : 6,
		"windDir" : 35,
		"rain" : 0,
		"cloudbase" : 2034.8000000003,
		"flyability" : 0,
		"reason" : "windSpeed",
		"timestamp" :1555675200
		}
	}
}